%!PS-Adobe-3.0 EPSF-3.0
%%Title: chsounder_xcorre_rx0_tx0_m_rx0_tx0.eps
%%Creator: matplotlib version 1.5.1, http://matplotlib.org/
%%CreationDate: Thu Jan 12 22:49:10 2017
%%Orientation: portrait
%%BoundingBox: 18 180 594 612
%%EndComments
%%BeginProlog
/mpldict 8 dict def
mpldict begin
/m { moveto } bind def
/l { lineto } bind def
/r { rlineto } bind def
/c { curveto } bind def
/cl { closepath } bind def
/box {
m
1 index 0 r
0 exch r
neg 0 r
cl
} bind def
/clipbox {
box
clip
newpath
} bind def
%!PS-Adobe-3.0 Resource-Font
%%Title: Bitstream Vera Sans
%%Copyright: Copyright (c) 2003 by Bitstream, Inc. All Rights Reserved.
%%Creator: Converted from TrueType to type 3 by PPR
25 dict begin
/_d{bind def}bind def
/_m{moveto}_d
/_l{lineto}_d
/_cl{closepath eofill}_d
/_c{curveto}_d
/_sc{7 -1 roll{setcachedevice}{pop pop pop pop pop pop}ifelse}_d
/_e{exec}_d
/FontName /BitstreamVeraSans-Roman def
/PaintType 0 def
/FontMatrix[.001 0 0 .001 0 0]def
/FontBBox[-183 -236 1287 928]def
/FontType 3 def
/Encoding [ /zero /one /two /three /four /five /six /minus ] def
/FontInfo 10 dict dup begin
/FamilyName (Bitstream Vera Sans) def
/FullName (Bitstream Vera Sans) def
/Notice (Copyright (c) 2003 by Bitstream, Inc. All Rights Reserved. Bitstream Vera is a trademark of Bitstream, Inc.) def
/Weight (Roman) def
/Version (Release 1.10) def
/ItalicAngle 0.0 def
/isFixedPitch false def
/UnderlinePosition -213 def
/UnderlineThickness 143 def
end readonly def
/CharStrings 8 dict dup begin
/zero{636 0 66 -13 570 742 _sc
318 664 _m
267 664 229 639 203 589 _c
177 539 165 464 165 364 _c
165 264 177 189 203 139 _c
229 89 267 64 318 64 _c
369 64 407 89 433 139 _c
458 189 471 264 471 364 _c
471 464 458 539 433 589 _c
407 639 369 664 318 664 _c
318 742 _m
399 742 461 709 505 645 _c
548 580 570 486 570 364 _c
570 241 548 147 505 83 _c
461 19 399 -13 318 -13 _c
236 -13 173 19 130 83 _c
87 147 66 241 66 364 _c
66 486 87 580 130 645 _c
173 709 236 742 318 742 _c
_cl}_d
/one{636 0 110 0 544 729 _sc
124 83 _m
285 83 _l
285 639 _l
110 604 _l
110 694 _l
284 729 _l
383 729 _l
383 83 _l
544 83 _l
544 0 _l
124 0 _l
124 83 _l
_cl}_d
/two{{636 0 73 0 536 742 _sc
192 83 _m
536 83 _l
536 0 _l
73 0 _l
73 83 _l
110 121 161 173 226 239 _c
290 304 331 346 348 365 _c
380 400 402 430 414 455 _c
426 479 433 504 433 528 _c
433 566 419 598 392 622 _c
365 646 330 659 286 659 _c
255 659 222 653 188 643 _c
154 632 117 616 78 594 _c
78 694 _l
118 710 155 722 189 730 _c
223 738 255 742 284 742 _c
}_e{359 742 419 723 464 685 _c
509 647 532 597 532 534 _c
532 504 526 475 515 449 _c
504 422 484 390 454 354 _c
446 344 420 317 376 272 _c
332 227 271 164 192 83 _c
_cl}_e}_d
/three{{636 0 76 -13 556 742 _sc
406 393 _m
453 383 490 362 516 330 _c
542 298 556 258 556 212 _c
556 140 531 84 482 45 _c
432 6 362 -13 271 -13 _c
240 -13 208 -10 176 -4 _c
144 1 110 10 76 22 _c
76 117 _l
103 101 133 89 166 81 _c
198 73 232 69 268 69 _c
330 69 377 81 409 105 _c
441 129 458 165 458 212 _c
458 254 443 288 413 312 _c
383 336 341 349 287 349 _c
}_e{202 349 _l
202 430 _l
291 430 _l
339 430 376 439 402 459 _c
428 478 441 506 441 543 _c
441 580 427 609 401 629 _c
374 649 336 659 287 659 _c
260 659 231 656 200 650 _c
169 644 135 635 98 623 _c
98 711 _l
135 721 170 729 203 734 _c
235 739 266 742 296 742 _c
370 742 429 725 473 691 _c
517 657 539 611 539 553 _c
539 513 527 479 504 451 _c
481 423 448 403 406 393 _c
_cl}_e}_d
/four{636 0 49 0 580 729 _sc
378 643 _m
129 254 _l
378 254 _l
378 643 _l
352 729 _m
476 729 _l
476 254 _l
580 254 _l
580 172 _l
476 172 _l
476 0 _l
378 0 _l
378 172 _l
49 172 _l
49 267 _l
352 729 _l
_cl}_d
/five{{636 0 77 -13 549 729 _sc
108 729 _m
495 729 _l
495 646 _l
198 646 _l
198 467 _l
212 472 227 476 241 478 _c
255 480 270 482 284 482 _c
365 482 429 459 477 415 _c
525 370 549 310 549 234 _c
549 155 524 94 475 51 _c
426 8 357 -13 269 -13 _c
238 -13 207 -10 175 -6 _c
143 -1 111 6 77 17 _c
77 116 _l
106 100 136 88 168 80 _c
199 72 232 69 267 69 _c
}_e{323 69 368 83 401 113 _c
433 143 450 183 450 234 _c
450 284 433 324 401 354 _c
368 384 323 399 267 399 _c
241 399 214 396 188 390 _c
162 384 135 375 108 363 _c
108 729 _l
_cl}_e}_d
/six{{636 0 70 -13 573 742 _sc
330 404 _m
286 404 251 388 225 358 _c
199 328 186 286 186 234 _c
186 181 199 139 225 109 _c
251 79 286 64 330 64 _c
374 64 409 79 435 109 _c
461 139 474 181 474 234 _c
474 286 461 328 435 358 _c
409 388 374 404 330 404 _c
526 713 _m
526 623 _l
501 635 476 644 451 650 _c
425 656 400 659 376 659 _c
310 659 260 637 226 593 _c
}_e{192 549 172 482 168 394 _c
187 422 211 444 240 459 _c
269 474 301 482 336 482 _c
409 482 467 459 509 415 _c
551 371 573 310 573 234 _c
573 159 550 99 506 54 _c
462 9 403 -13 330 -13 _c
246 -13 181 19 137 83 _c
92 147 70 241 70 364 _c
70 479 97 571 152 639 _c
206 707 280 742 372 742 _c
396 742 421 739 447 735 _c
472 730 498 723 526 713 _c
_cl}_e}_d
/minus{838 0 106 272 732 355 _sc
106 355 _m
732 355 _l
732 272 _l
106 272 _l
106 355 _l
_cl}_d
end readonly def

/BuildGlyph
 {exch begin
 CharStrings exch
 2 copy known not{pop /.notdef}if
 true 3 1 roll get exec
 end}_d

/BuildChar {
 1 index /Encoding get exch get
 1 index /BuildGlyph get exec
}_d

FontName currentdict end definefont pop
end
%%EndProlog
mpldict begin
18 180 translate
576 432 0 0 clipbox
100000 setmiterlimit
gsave
0 0 m
576 0 l
576 432 l
0 432 l
cl
1.000 setgray
fill
grestore
gsave
72 231.709091 m
518.4 231.709091 l
518.4 388.8 l
72 388.8 l
cl
1.000 setgray
fill
grestore
1.000 setlinewidth
1 setlinejoin
2 setlinecap
[] 0 setdash
1.000 0.000 0.000 setrgbcolor
gsave
446.4 157.1 72 231.7 clipbox
72 247.202047 m
73.488 250.090096 l
74.232 251.927782 l
74.976 252.078926 l
75.72 253.279084 l
76.464 252.201771 l
77.208 252.519947 l
77.952 252.655056 l
78.696 251.811076 l
79.44 251.336801 l
80.184 252.519947 l
80.928 252.519947 l
81.672 251.336801 l
82.416 250.999321 l
83.16 251.980241 l
83.904 250.475901 l
84.648 249.321177 l
85.392 250.84909 l
86.136 250.903517 l
86.88 250.671008 l
87.624 249.648126 l
88.368 251.500069 l
89.112 250.288721 l
89.856 251.227893 l
90.6 250.24941 l
91.344 249.947896 l
92.088 251.227893 l
92.832 251.7843 l
93.576 250.671008 l
94.32 251.233665 l
95.064 249.669429 l
95.808 251.588665 l
96.552 250.891456 l
97.296 250.35379 l
98.04 252.201771 l
98.784 251.681678 l
99.528 253.888212 l
100.272 253.572835 l
101.016 252.731194 l
102.504 254.206597 l
103.992 254.187085 l
104.736 254.85968 l
105.48 255.226124 l
106.224 255.226124 l
106.968 255.853556 l
107.712 254.877538 l
108.456 254.175353 l
109.2 254.2687 l
109.944 253.969071 l
110.688 253.538861 l
111.432 251.416059 l
112.92 249.697741 l
113.664 242.217774 l
114.408 244.206604 l
115.152 244.350997 l
115.896 246.240156 l
116.64 248.48197 l
117.384 247.023209 l
118.128 248.373378 l
118.872 247.023209 l
119.616 247.640785 l
120.36 247.958383 l
121.104 247.886953 l
122.592 247.133 l
123.336 247.21186 l
124.08 247.668535 l
124.824 246.67344 l
125.568 247.742043 l
127.056 245.792431 l
127.8 244.995069 l
128.544 246.809088 l
129.288 246.86062 l
130.032 246.588742 l
130.776 245.303991 l
131.52 246.161717 l
132.264 245.637114 l
133.008 244.889232 l
133.752 245.03438 l
135.24 246.161717 l
135.984 247.172532 l
136.728 247.778531 l
138.216 246.86062 l
138.96 247.886953 l
139.704 247.993847 l
140.448 247.913819 l
141.192 249.321177 l
141.936 247.659296 l
142.68 248.373378 l
143.424 249.718905 l
144.168 248.605365 l
144.912 249.920505 l
145.656 249.605339 l
146.4 248.280262 l
147.144 249.947896 l
147.888 249.648126 l
149.376 251.627103 l
150.12 250.558333 l
151.608 249.718905 l
152.352 247.958383 l
153.096 247.547544 l
153.84 246.715437 l
154.584 244.118629 l
155.328 243.227628 l
156.816 247.133 l
157.56 247.659296 l
158.304 247.778531 l
159.048 248.406957 l
159.792 248.406957 l
160.536 249.239064 l
161.28 249.669429 l
162.768 249.669429 l
163.512 247.566284 l
164.256 248.228985 l
165 248.702655 l
165.744 247.778531 l
166.488 247.778531 l
167.232 247.405496 l
167.976 248.932743 l
168.72 247.318971 l
170.208 247.472116 l
170.952 247.659296 l
171.696 247.133 l
172.44 245.600815 l
173.184 248.134067 l
173.928 245.354276 l
174.672 246.438204 l
175.416 247.21186 l
176.16 249.261547 l
176.904 245.898124 l
177.648 246.240156 l
178.392 248.766828 l
179.136 247.886953 l
179.88 248.348096 l
180.624 248.548031 l
181.368 249.163636 l
182.112 248.662269 l
182.856 250.242839 l
183.6 249.981996 l
184.344 250.321325 l
185.088 248.869965 l
185.832 250.269091 l
186.576 250.726724 l
187.32 250.708197 l
188.064 251.181565 l
188.808 250.321325 l
190.296 251.995909 l
191.04 252.347601 l
191.784 252.078926 l
192.528 250.708197 l
193.272 251.594168 l
194.016 250.424725 l
194.76 248.662269 l
195.504 247.260735 l
196.248 245.600815 l
196.992 247.133 l
197.736 249.439047 l
198.48 250.05648 l
199.224 251.034938 l
199.968 252.7878 l
200.712 252.456389 l
201.456 253.023767 l
202.2 253.736312 l
202.944 252.843986 l
203.688 252.768978 l
204.432 253.673853 l
205.92 251.954057 l
206.664 251.954057 l
207.408 252.387341 l
208.152 251.741259 l
208.896 250.726724 l
209.64 252.843986 l
210.384 251.681678 l
211.128 251.632578 l
211.872 251.890843 l
212.616 250.775907 l
213.36 250.475901 l
214.104 251.296859 l
215.592 250.903517 l
216.336 250.50136 l
217.08 251.594168 l
217.824 252.322657 l
218.568 251.725056 l
219.312 250.443957 l
220.8 252.955124 l
222.288 252.302643 l
223.032 253.114335 l
223.776 252.362528 l
224.52 253.62772 l
225.264 253.652918 l
226.008 253.920659 l
226.752 253.384066 l
227.496 253.384066 l
228.984 255.126673 l
230.472 255.092075 l
231.216 255.962539 l
231.96 257.61687 l
232.704 255.815827 l
233.448 256.109498 l
234.192 255.663004 l
234.936 255.018902 l
235.68 255.112853 l
236.424 253.62772 l
237.168 250.366736 l
237.912 247.886953 l
238.656 240.620422 l
239.4 242.974643 l
240.144 244.464563 l
240.888 245.008195 l
241.632 246.524591 l
242.376 246.161717 l
243.864 248.348096 l
244.608 247.668535 l
245.352 246.67344 l
246.096 248.125379 l
246.84 246.161717 l
247.584 244.795398 l
248.328 247.659296 l
249.072 246.195433 l
249.816 245.416666 l
250.56 246.524591 l
251.304 246.172973 l
252.048 245.189615 l
252.792 245.303991 l
253.536 243.909295 l
254.28 244.562557 l
255.024 246.206639 l
255.768 244.336681 l
256.512 244.995069 l
257.256 245.441479 l
258 244.686716 l
258.744 245.189615 l
259.488 245.416666 l
260.232 245.099448 l
260.976 246.427336 l
261.72 245.93303 l
263.952 245.967776 l
264.696 246.777999 l
265.44 247.093259 l
266.184 247.850985 l
266.928 248.228985 l
267.672 247.21186 l
269.904 249.29887 l
270.648 248.36496 l
271.392 249.941058 l
272.136 250.558333 l
272.88 249.163636 l
273.624 249.816899 l
274.368 248.893568 l
275.112 248.932743 l
275.856 249.261547 l
276.6 248.979488 l
277.344 248.48197 l
278.832 246.427336 l
279.576 243.615623 l
279.576 243.615623 l
stroke
grestore
0.502 0.000 0.000 setrgbcolor
gsave
446.4 157.1 72 231.7 clipbox
72 242.871037 m
72.744 244.835755 l
74.976 248.702655 l
75.72 249.049069 l
76.464 248.134067 l
77.208 247.931676 l
77.952 248.798712 l
78.696 249.239064 l
79.44 249.049069 l
80.184 248.597201 l
80.928 249.163636 l
81.672 248.280262 l
82.416 248.766828 l
83.16 248.07304 l
83.904 248.932743 l
85.392 248.869965 l
86.136 248.987251 l
86.88 248.662269 l
87.624 248.548031 l
88.368 248.228985 l
89.112 248.134067 l
89.856 248.806663 l
91.344 247.958383 l
92.088 248.932743 l
92.832 248.280262 l
93.576 248.48197 l
94.32 249.049069 l
95.808 249.920505 l
96.552 249.920505 l
97.296 249.697741 l
98.04 249.920505 l
99.528 250.708197 l
100.272 250.726724 l
101.016 251.181565 l
101.76 251.811076 l
102.504 251.811076 l
103.248 251.588665 l
103.992 252.922877 l
104.736 252.058257 l
105.48 252.558796 l
106.968 252.558796 l
107.712 252.913638 l
108.456 252.302643 l
109.2 251.980241 l
109.944 251.890843 l
110.688 251.336801 l
112.176 248.498539 l
112.92 246.240156 l
113.664 254.116423 l
114.408 255.752525 l
115.152 258.056227 l
115.896 259.223413 l
116.64 259.853951 l
117.384 259.628607 l
118.872 261.212242 l
119.616 260.412019 l
120.36 261.791226 l
121.848 261.927558 l
122.592 261.132947 l
124.08 261.256964 l
126.312 260.640591 l
127.056 260.384466 l
127.8 260.007799 l
128.544 259.460938 l
129.288 259.441426 l
130.032 260.264485 l
130.776 259.781447 l
131.52 260.909301 l
132.264 260.758094 l
133.008 261.639251 l
135.24 261.4122 l
135.984 261.525834 l
136.728 261.400139 l
137.472 261.55102 l
139.704 261.674258 l
140.448 261.91629 l
141.192 261.449768 l
141.936 262.262073 l
143.424 263.424632 l
144.168 264.347964 l
144.912 264.522861 l
145.656 264.86673 l
147.888 265.096257 l
148.632 264.912435 l
149.376 264.87532 l
150.12 264.507855 l
150.864 263.649979 l
152.352 263.067479 l
153.096 261.534733 l
153.84 260.367195 l
154.584 257.813138 l
155.328 232.834176 l
156.072 234.577795 l
156.816 235.68675 l
157.56 237.405135 l
158.304 238.153586 l
159.048 237.989856 l
160.536 237.889893 l
161.28 238.864287 l
162.024 237.856277 l
163.512 237.889893 l
164.256 238.864287 l
165 238.864287 l
165.744 237.889893 l
167.232 237.989856 l
167.976 238.377025 l
168.72 238.377025 l
169.464 238.654953 l
170.208 237.720302 l
171.696 238.501808 l
172.44 238.501808 l
173.184 238.121122 l
174.672 238.121122 l
175.416 238.470804 l
176.16 238.408414 l
176.904 239.096655 l
177.648 237.856277 l
178.392 239.210222 l
179.136 238.121122 l
179.88 238.952262 l
180.624 238.952262 l
181.368 240.162324 l
182.112 239.832137 l
182.856 239.832137 l
183.6 240.643782 l
184.344 241.183862 l
185.088 240.382772 l
185.832 240.985814 l
186.576 241.947706 l
187.32 242.515084 l
188.064 241.183862 l
188.808 242.677334 l
189.552 241.947706 l
190.296 242.160707 l
191.04 243.093754 l
191.784 242.677334 l
192.528 241.986881 l
193.272 241.626794 l
194.76 239.780038 l
195.504 237.03886 l
196.248 235.36608 l
196.992 246.240156 l
197.736 248.398576 l
198.48 249.872332 l
199.224 251.681678 l
199.968 252.078926 l
200.712 252.825304 l
201.456 253.141295 l
202.944 254.175353 l
203.688 253.521817 l
204.432 253.046511 l
205.176 253.388409 l
207.408 252.922877 l
208.896 253.023767 l
209.64 252.655056 l
210.384 252.519947 l
211.128 252.801885 l
212.616 252.768978 l
214.848 252.955124 l
215.592 252.362528 l
216.336 253.37972 l
217.08 252.7878 l
217.824 253.331757 l
218.568 253.16816 l
219.312 253.623512 l
220.056 253.327381 l
220.8 254.187085 l
221.544 254.147909 l
222.288 254.360911 l
223.032 254.187085 l
223.776 255.092075 l
224.52 254.780605 l
225.264 254.976769 l
226.008 255.397916 l
226.752 255.130125 l
227.496 255.454325 l
228.24 256.030249 l
228.984 256.441714 l
229.728 256.409723 l
230.472 256.695702 l
231.216 256.695702 l
231.96 257.299652 l
232.704 257.065418 l
233.448 257.456113 l
234.192 256.88692 l
234.936 255.752525 l
235.68 255.523433 l
236.424 254.241592 l
237.912 250.558333 l
238.656 251.181565 l
239.4 253.826997 l
240.888 256.77388 l
242.376 258.325792 l
243.12 258.480385 l
243.864 258.850446 l
244.608 258.984431 l
245.352 258.741955 l
246.096 258.170291 l
246.84 258.287214 l
247.584 257.435776 l
248.328 257.435776 l
249.072 257.641683 l
249.816 256.979398 l
250.56 257.754789 l
252.048 258.179527 l
252.792 258.875749 l
253.536 258.379922 l
254.28 258.209466 l
255.024 258.325792 l
255.768 259.156767 l
256.512 259.132386 l
257.256 257.95232 l
258 258.042142 l
258.744 257.5745 l
259.488 257.61687 l
260.232 258.098328 l
260.976 258.056227 l
261.72 258.759076 l
262.464 258.54003 l
263.208 259.093622 l
263.952 259.372736 l
264.696 259.809415 l
265.44 260.512763 l
266.184 260.40342 l
267.672 261.010044 l
269.16 260.558423 l
269.904 261.132947 l
270.648 260.839763 l
271.392 261.260039 l
272.136 261.391081 l
272.88 261.88097 l
273.624 261.958458 l
274.368 262.202586 l
275.112 262.193079 l
275.856 262.488925 l
276.6 262.072535 l
277.344 261.170366 l
278.088 259.114049 l
278.832 258.759076 l
279.576 255.7398 l
279.576 255.7398 l
stroke
grestore
0 setlinecap
[6 6] 0 setdash
0.000 setgray
gsave
446.4 157.1 72 231.7 clipbox
72 306.141848 m
72.744 318.882703 l
73.488 326.368438 l
74.232 332.347314 l
74.976 336.951955 l
75.72 340.799747 l
76.464 343.769751 l
77.952 348.443382 l
79.44 351.784215 l
80.928 354.507427 l
82.416 356.612547 l
83.904 358.418221 l
86.136 360.45501 l
88.368 362.130489 l
91.344 363.82134 l
93.576 364.906076 l
98.04 367.124862 l
101.016 368.810584 l
103.992 370.657958 l
109.2 374.02146 l
110.688 374.827329 l
112.176 375.358169 l
112.92 375.502673 l
114.408 374.960449 l
118.128 373.210735 l
119.616 372.894596 l
121.104 372.884285 l
122.592 373.070636 l
125.568 373.772819 l
129.288 374.552693 l
132.264 374.953727 l
133.752 375.067388 l
136.728 374.926921 l
143.424 374.202233 l
145.656 374.194497 l
147.144 374.454517 l
148.632 375.036566 l
150.12 375.923962 l
153.096 377.991618 l
154.584 378.688085 l
156.072 378.705735 l
158.304 378.484253 l
162.024 377.773329 l
164.256 377.134867 l
167.232 376.078644 l
171.696 374.576584 l
178.392 372.684765 l
179.88 372.275792 l
184.344 371.042906 l
186.576 370.156388 l
188.808 368.986758 l
190.296 368.011271 l
192.528 366.457247 l
194.016 365.598685 l
195.504 364.909148 l
196.248 364.609892 l
196.992 364.124647 l
198.48 362.836131 l
199.968 361.226215 l
201.456 360.053863 l
202.2 359.73589 l
202.944 359.668652 l
203.688 359.782846 l
208.896 361.666589 l
209.64 362.107249 l
211.128 362.579286 l
213.36 363.004955 l
215.592 363.100243 l
217.08 362.997065 l
218.568 362.761216 l
219.312 362.476885 l
222.288 361.920676 l
224.52 361.336079 l
226.752 360.458237 l
231.216 358.248779 l
234.936 356.969989 l
236.424 356.440504 l
237.912 355.708399 l
238.656 354.11118 l
239.4 352.042576 l
240.144 349.387142 l
241.632 342.947064 l
242.376 341.589822 l
243.12 343.239416 l
244.608 349.9478 l
246.096 355.204439 l
246.84 357.013716 l
248.328 359.697358 l
249.072 360.695908 l
251.304 362.910397 l
252.792 363.968976 l
254.28 364.581928 l
256.512 365.042691 l
258 365.151035 l
259.488 364.990991 l
260.232 364.884095 l
260.976 364.618535 l
265.44 363.777474 l
269.904 362.247405 l
272.88 361.325648 l
273.624 361.290182 l
277.344 360.169882 l
278.832 359.50561 l
279.576 359.034283 l
280.32 357.231536 l
281.808 352.442426 l
283.296 347.013627 l
284.04 344.658656 l
284.784 343.456469 l
285.528 343.944636 l
286.272 345.496966 l
287.76 349.818659 l
289.248 352.886985 l
289.992 354.287694 l
291.48 356.319245 l
293.712 358.711131 l
294.456 359.320998 l
298.176 361.250242 l
301.152 362.934 l
304.128 364.843549 l
307.104 367.227197 l
315.288 375.324901 l
316.776 376.354158 l
318.264 377.0793 l
319.752 377.468491 l
321.24 377.398683 l
321.984 376.887099 l
323.472 375.393345 l
327.192 370.894255 l
327.936 370.333019 l
328.68 370.001435 l
329.424 369.839022 l
330.168 369.899127 l
331.656 370.522459 l
333.888 371.850652 l
336.864 373.692028 l
339.84 375.083453 l
342.072 375.771835 l
344.304 376.055154 l
348.768 376.753709 l
351 377.3556 l
353.232 378.22353 l
354.72 379.021625 l
356.208 380.00127 l
360.672 383.416972 l
361.416 383.828188 l
362.904 384.274627 l
363.648 383.943897 l
365.136 382.943666 l
368.856 379.957358 l
370.344 379.098171 l
371.088 378.746004 l
372.576 378.337581 l
374.808 378.024082 l
379.272 377.944609 l
382.248 377.803653 l
383.736 377.643034 l
385.968 377.08302 l
394.152 374.588125 l
395.64 374.430945 l
397.128 374.669711 l
398.616 375.351077 l
400.104 376.326393 l
403.08 378.428169 l
403.824 378.735955 l
404.568 378.91454 l
406.056 378.364407 l
407.544 377.549685 l
410.52 375.740539 l
412.752 374.582057 l
415.728 373.323917 l
418.704 372.358884 l
426.144 370.249416 l
429.12 368.717666 l
431.352 367.332702 l
432.84 366.123616 l
434.328 364.622735 l
435.816 362.808398 l
437.304 360.619945 l
439.536 357.016881 l
440.28 356.058739 l
441.024 355.475315 l
441.768 355.390117 l
442.512 355.782423 l
443.256 356.533245 l
444.744 358.349297 l
445.488 359.079787 l
446.232 359.578036 l
447.72 359.06819 l
449.208 358.267545 l
453.672 355.197794 l
457.392 352.801751 l
461.112 350.79477 l
467.064 348.107971 l
470.04 346.403655 l
472.272 344.881363 l
473.76 343.60739 l
475.248 342.061632 l
476.736 340.326485 l
478.224 338.09564 l
479.712 335.249184 l
481.2 331.555669 l
482.688 327.040584 l
483.432 324.195676 l
484.176 320.531394 l
484.92 315.994776 l
485.664 310.303126 l
486.408 302.585941 l
487.152 289.68666 l
487.152 289.68666 l
stroke
grestore
0 setlinejoin
2 setlinecap
[] 0 setdash
gsave
72 388.8 m
518.4 388.8 l
stroke
grestore
gsave
72 231.709091 m
72 388.8 l
stroke
grestore
gsave
518.4 231.709091 m
518.4 388.8 l
stroke
grestore
gsave
72 231.709091 m
518.4 231.709091 l
stroke
grestore
0.500 setlinewidth
1 setlinejoin
0 setlinecap
gsave
/o {
gsave
newpath
translate
0.5 setlinewidth
1 setlinejoin
0 setlinecap
0 0 m
0 4 l

gsave
0.000 setgray
fill
grestore
stroke
grestore
} bind def
72 231.709 o
grestore
gsave
/o {
gsave
newpath
translate
0.5 setlinewidth
1 setlinejoin
0 setlinecap
0 0 m
0 -4 l

gsave
0.000 setgray
fill
grestore
stroke
grestore
} bind def
72 388.8 o
grestore
/BitstreamVeraSans-Roman findfont
12.000 scalefont
setfont
gsave
68.179688 218.584091 translate
0.000000 rotate
0.000000 0.000000 m /zero glyphshow
grestore
gsave
/o {
gsave
newpath
translate
0.5 setlinewidth
1 setlinejoin
0 setlinecap
0 0 m
0 4 l

gsave
0.000 setgray
fill
grestore
stroke
grestore
} bind def
146.4 231.709 o
grestore
gsave
/o {
gsave
newpath
translate
0.5 setlinewidth
1 setlinejoin
0 setlinecap
0 0 m
0 -4 l

gsave
0.000 setgray
fill
grestore
stroke
grestore
} bind def
146.4 388.8 o
grestore
gsave
134.939063 218.584091 translate
0.000000 rotate
0.000000 0.000000 m /one glyphshow
7.634766 0.000000 m /zero glyphshow
15.269531 0.000000 m /zero glyphshow
grestore
gsave
/o {
gsave
newpath
translate
0.5 setlinewidth
1 setlinejoin
0 setlinecap
0 0 m
0 4 l

gsave
0.000 setgray
fill
grestore
stroke
grestore
} bind def
220.8 231.709 o
grestore
gsave
/o {
gsave
newpath
translate
0.5 setlinewidth
1 setlinejoin
0 setlinecap
0 0 m
0 -4 l

gsave
0.000 setgray
fill
grestore
stroke
grestore
} bind def
220.8 388.8 o
grestore
gsave
209.339063 218.584091 translate
0.000000 rotate
0.000000 0.000000 m /two glyphshow
7.634766 0.000000 m /zero glyphshow
15.269531 0.000000 m /zero glyphshow
grestore
gsave
/o {
gsave
newpath
translate
0.5 setlinewidth
1 setlinejoin
0 setlinecap
0 0 m
0 4 l

gsave
0.000 setgray
fill
grestore
stroke
grestore
} bind def
295.2 231.709 o
grestore
gsave
/o {
gsave
newpath
translate
0.5 setlinewidth
1 setlinejoin
0 setlinecap
0 0 m
0 -4 l

gsave
0.000 setgray
fill
grestore
stroke
grestore
} bind def
295.2 388.8 o
grestore
gsave
283.739062 218.584091 translate
0.000000 rotate
0.000000 0.000000 m /three glyphshow
7.634766 0.000000 m /zero glyphshow
15.269531 0.000000 m /zero glyphshow
grestore
gsave
/o {
gsave
newpath
translate
0.5 setlinewidth
1 setlinejoin
0 setlinecap
0 0 m
0 4 l

gsave
0.000 setgray
fill
grestore
stroke
grestore
} bind def
369.6 231.709 o
grestore
gsave
/o {
gsave
newpath
translate
0.5 setlinewidth
1 setlinejoin
0 setlinecap
0 0 m
0 -4 l

gsave
0.000 setgray
fill
grestore
stroke
grestore
} bind def
369.6 388.8 o
grestore
gsave
358.139063 218.584091 translate
0.000000 rotate
0.000000 0.000000 m /four glyphshow
7.634766 0.000000 m /zero glyphshow
15.269531 0.000000 m /zero glyphshow
grestore
gsave
/o {
gsave
newpath
translate
0.5 setlinewidth
1 setlinejoin
0 setlinecap
0 0 m
0 4 l

gsave
0.000 setgray
fill
grestore
stroke
grestore
} bind def
444 231.709 o
grestore
gsave
/o {
gsave
newpath
translate
0.5 setlinewidth
1 setlinejoin
0 setlinecap
0 0 m
0 -4 l

gsave
0.000 setgray
fill
grestore
stroke
grestore
} bind def
444 388.8 o
grestore
gsave
432.539062 218.584091 translate
0.000000 rotate
0.000000 0.000000 m /five glyphshow
7.634766 0.000000 m /zero glyphshow
15.269531 0.000000 m /zero glyphshow
grestore
gsave
/o {
gsave
newpath
translate
0.5 setlinewidth
1 setlinejoin
0 setlinecap
0 0 m
0 4 l

gsave
0.000 setgray
fill
grestore
stroke
grestore
} bind def
518.4 231.709 o
grestore
gsave
/o {
gsave
newpath
translate
0.5 setlinewidth
1 setlinejoin
0 setlinecap
0 0 m
0 -4 l

gsave
0.000 setgray
fill
grestore
stroke
grestore
} bind def
518.4 388.8 o
grestore
gsave
506.939062 218.584091 translate
0.000000 rotate
0.000000 0.000000 m /six glyphshow
7.634766 0.000000 m /zero glyphshow
15.269531 0.000000 m /zero glyphshow
grestore
gsave
/o {
gsave
newpath
translate
0.5 setlinewidth
1 setlinejoin
0 setlinecap
0 0 m
4 0 l

gsave
0.000 setgray
fill
grestore
stroke
grestore
} bind def
72 231.709 o
grestore
gsave
/o {
gsave
newpath
translate
0.5 setlinewidth
1 setlinejoin
0 setlinecap
0 0 m
-4 0 l

gsave
0.000 setgray
fill
grestore
stroke
grestore
} bind def
518.4 231.709 o
grestore
gsave
52.718750 228.396591 translate
0.000000 rotate
0.000000 0.000000 m /one glyphshow
7.634766 0.000000 m /zero glyphshow
grestore
gsave
/o {
gsave
newpath
translate
0.5 setlinewidth
1 setlinejoin
0 setlinecap
0 0 m
4 0 l

gsave
0.000 setgray
fill
grestore
stroke
grestore
} bind def
72 249.164 o
grestore
gsave
/o {
gsave
newpath
translate
0.5 setlinewidth
1 setlinejoin
0 setlinecap
0 0 m
-4 0 l

gsave
0.000 setgray
fill
grestore
stroke
grestore
} bind def
518.4 249.164 o
grestore
gsave
52.718750 245.851136 translate
0.000000 rotate
0.000000 0.000000 m /one glyphshow
7.634766 0.000000 m /five glyphshow
grestore
gsave
/o {
gsave
newpath
translate
0.5 setlinewidth
1 setlinejoin
0 setlinecap
0 0 m
4 0 l

gsave
0.000 setgray
fill
grestore
stroke
grestore
} bind def
72 266.618 o
grestore
gsave
/o {
gsave
newpath
translate
0.5 setlinewidth
1 setlinejoin
0 setlinecap
0 0 m
-4 0 l

gsave
0.000 setgray
fill
grestore
stroke
grestore
} bind def
518.4 266.618 o
grestore
gsave
52.718750 263.305682 translate
0.000000 rotate
0.000000 0.000000 m /two glyphshow
7.634766 0.000000 m /zero glyphshow
grestore
gsave
/o {
gsave
newpath
translate
0.5 setlinewidth
1 setlinejoin
0 setlinecap
0 0 m
4 0 l

gsave
0.000 setgray
fill
grestore
stroke
grestore
} bind def
72 284.073 o
grestore
gsave
/o {
gsave
newpath
translate
0.5 setlinewidth
1 setlinejoin
0 setlinecap
0 0 m
-4 0 l

gsave
0.000 setgray
fill
grestore
stroke
grestore
} bind def
518.4 284.073 o
grestore
gsave
52.718750 280.760227 translate
0.000000 rotate
0.000000 0.000000 m /two glyphshow
7.634766 0.000000 m /five glyphshow
grestore
gsave
/o {
gsave
newpath
translate
0.5 setlinewidth
1 setlinejoin
0 setlinecap
0 0 m
4 0 l

gsave
0.000 setgray
fill
grestore
stroke
grestore
} bind def
72 301.527 o
grestore
gsave
/o {
gsave
newpath
translate
0.5 setlinewidth
1 setlinejoin
0 setlinecap
0 0 m
-4 0 l

gsave
0.000 setgray
fill
grestore
stroke
grestore
} bind def
518.4 301.527 o
grestore
gsave
52.718750 298.214773 translate
0.000000 rotate
0.000000 0.000000 m /three glyphshow
7.634766 0.000000 m /zero glyphshow
grestore
gsave
/o {
gsave
newpath
translate
0.5 setlinewidth
1 setlinejoin
0 setlinecap
0 0 m
4 0 l

gsave
0.000 setgray
fill
grestore
stroke
grestore
} bind def
72 318.982 o
grestore
gsave
/o {
gsave
newpath
translate
0.5 setlinewidth
1 setlinejoin
0 setlinecap
0 0 m
-4 0 l

gsave
0.000 setgray
fill
grestore
stroke
grestore
} bind def
518.4 318.982 o
grestore
gsave
52.718750 315.669318 translate
0.000000 rotate
0.000000 0.000000 m /three glyphshow
7.634766 0.000000 m /five glyphshow
grestore
gsave
/o {
gsave
newpath
translate
0.5 setlinewidth
1 setlinejoin
0 setlinecap
0 0 m
4 0 l

gsave
0.000 setgray
fill
grestore
stroke
grestore
} bind def
72 336.436 o
grestore
gsave
/o {
gsave
newpath
translate
0.5 setlinewidth
1 setlinejoin
0 setlinecap
0 0 m
-4 0 l

gsave
0.000 setgray
fill
grestore
stroke
grestore
} bind def
518.4 336.436 o
grestore
gsave
52.718750 333.123864 translate
0.000000 rotate
0.000000 0.000000 m /four glyphshow
7.634766 0.000000 m /zero glyphshow
grestore
gsave
/o {
gsave
newpath
translate
0.5 setlinewidth
1 setlinejoin
0 setlinecap
0 0 m
4 0 l

gsave
0.000 setgray
fill
grestore
stroke
grestore
} bind def
72 353.891 o
grestore
gsave
/o {
gsave
newpath
translate
0.5 setlinewidth
1 setlinejoin
0 setlinecap
0 0 m
-4 0 l

gsave
0.000 setgray
fill
grestore
stroke
grestore
} bind def
518.4 353.891 o
grestore
gsave
52.718750 350.578409 translate
0.000000 rotate
0.000000 0.000000 m /four glyphshow
7.634766 0.000000 m /five glyphshow
grestore
gsave
/o {
gsave
newpath
translate
0.5 setlinewidth
1 setlinejoin
0 setlinecap
0 0 m
4 0 l

gsave
0.000 setgray
fill
grestore
stroke
grestore
} bind def
72 371.345 o
grestore
gsave
/o {
gsave
newpath
translate
0.5 setlinewidth
1 setlinejoin
0 setlinecap
0 0 m
-4 0 l

gsave
0.000 setgray
fill
grestore
stroke
grestore
} bind def
518.4 371.345 o
grestore
gsave
52.718750 368.032955 translate
0.000000 rotate
0.000000 0.000000 m /five glyphshow
7.634766 0.000000 m /zero glyphshow
grestore
gsave
/o {
gsave
newpath
translate
0.5 setlinewidth
1 setlinejoin
0 setlinecap
0 0 m
4 0 l

gsave
0.000 setgray
fill
grestore
stroke
grestore
} bind def
72 388.8 o
grestore
gsave
/o {
gsave
newpath
translate
0.5 setlinewidth
1 setlinejoin
0 setlinecap
0 0 m
-4 0 l

gsave
0.000 setgray
fill
grestore
stroke
grestore
} bind def
518.4 388.8 o
grestore
gsave
52.718750 385.487500 translate
0.000000 rotate
0.000000 0.000000 m /five glyphshow
7.634766 0.000000 m /five glyphshow
grestore
gsave
72 43.2 m
518.4 43.2 l
518.4 200.290909 l
72 200.290909 l
cl
1.000 setgray
fill
grestore
1.000 setlinewidth
2 setlinecap
1.000 0.000 0.000 setrgbcolor
gsave
446.4 157.1 72 43.2 clipbox
72 162.959644 m
72.744 163.42268 l
73.488 160.387379 l
74.232 158.908193 l
74.976 157.77347 l
75.72 157.859919 l
76.464 156.167306 l
77.208 155.58766 l
77.952 156.563043 l
78.696 156.261775 l
79.44 155.833102 l
80.184 155.58766 l
80.928 155.58766 l
81.672 155.833102 l
82.416 156.466313 l
83.16 157.275602 l
84.648 159.49128 l
85.392 161.197519 l
86.136 159.959137 l
86.88 160.688424 l
87.624 161.96351 l
88.368 163.841154 l
89.112 166.379955 l
89.856 166.093545 l
90.6 168.830255 l
91.344 169.264233 l
92.088 169.931547 l
92.832 173.629556 l
93.576 175.336669 l
94.32 175.057498 l
95.064 175.405447 l
95.808 178.62442 l
96.552 177.8179 l
97.296 178.206688 l
98.04 179.857787 l
99.528 181.613513 l
100.272 181.108198 l
101.016 182.944103 l
101.76 182.967466 l
102.504 182.098136 l
103.248 61.392773 l
103.992 60.947947 l
104.736 60.909216 l
105.48 61.723161 l
106.968 61.655421 l
107.712 61.33482 l
108.456 182.988706 l
109.2 181.213036 l
109.944 178.405029 l
110.688 178.737272 l
111.432 177.455424 l
112.176 173.311403 l
112.92 172.720229 l
113.664 72.692021 l
114.408 73.036483 l
115.152 71.838803 l
115.896 71.1845 l
116.64 71.782377 l
117.384 71.403891 l
118.128 70.331282 l
119.616 72.554706 l
120.36 73.095451 l
121.104 74.044112 l
122.592 76.985884 l
123.336 77.982187 l
124.08 80.876592 l
124.824 81.796374 l
125.568 83.935598 l
127.056 87.785314 l
128.544 92.352621 l
129.288 93.073632 l
130.032 95.354231 l
130.776 94.933945 l
131.52 100.343604 l
132.264 100.70608 l
133.008 102.21864 l
133.752 105.16934 l
134.496 109.109433 l
135.24 112.302577 l
135.984 112.95779 l
137.472 120.345235 l
138.216 119.572549 l
138.96 123.097546 l
139.704 124.436936 l
140.448 127.210248 l
141.936 130.236371 l
142.68 132.020738 l
143.424 134.620932 l
144.168 135.800056 l
144.912 136.750087 l
145.656 138.021036 l
146.4 139.032325 l
147.144 138.419505 l
147.888 138.871044 l
148.632 141.201037 l
149.376 140.165296 l
150.12 141.201037 l
150.864 140.882999 l
151.608 139.714705 l
152.352 139.55073 l
153.096 139.124948 l
153.84 138.200359 l
154.584 138.393497 l
155.328 118.049469 l
156.072 119.303575 l
156.816 117.451592 l
157.56 117.600349 l
158.304 116.934964 l
159.048 114.394904 l
159.792 114.394904 l
160.536 113.470314 l
161.28 113.715992 l
162.024 112.372127 l
162.768 113.715992 l
163.512 115.427444 l
164.256 115.009712 l
165 115.225014 l
165.744 116.934964 l
166.488 116.934964 l
167.232 119.649554 l
167.976 119.85106 l
168.72 121.745455 l
170.952 125.89056 l
171.696 126.039317 l
172.44 127.318139 l
173.184 129.95786 l
174.672 131.847408 l
176.16 137.60411 l
176.904 138.257607 l
177.648 141.461681 l
178.392 140.336639 l
179.136 143.485829 l
179.88 143.778888 l
180.624 146.681203 l
181.368 146.272172 l
182.112 148.714051 l
182.856 147.91995 l
183.6 149.637434 l
185.088 151.956971 l
185.832 152.012809 l
186.576 153.711041 l
187.32 153.151069 l
188.064 154.222774 l
188.808 154.318327 l
190.296 154.137213 l
191.04 153.093569 l
191.784 155.159157 l
192.528 152.029296 l
193.272 151.00152 l
194.016 149.723033 l
195.504 147.608946 l
196.248 147.017498 l
196.992 73.970842 l
197.736 72.448103 l
198.48 69.160352 l
199.224 69.160352 l
199.968 66.528624 l
200.712 65.108901 l
201.456 63.93213 l
202.2 63.751985 l
202.944 62.497879 l
203.688 61.525974 l
204.432 63.298918 l
205.176 60.546806 l
205.92 182.918283 l
206.664 60.572626 l
207.408 61.56352 l
208.152 63.212794 l
208.896 61.176858 l
209.64 62.497879 l
210.384 62.693583 l
211.128 62.170636 l
211.872 64.237334 l
212.616 65.137318 l
213.36 65.833696 l
214.104 65.520792 l
214.848 66.718472 l
215.592 67.424953 l
216.336 67.633331 l
217.08 69.396923 l
217.824 70.062538 l
218.568 71.747684 l
219.312 72.235443 l
220.056 73.631342 l
220.8 73.078894 l
221.544 75.478363 l
222.288 75.835348 l
223.032 74.801515 l
223.776 77.258593 l
224.52 76.132666 l
225.264 76.785519 l
226.008 77.084311 l
226.752 76.475963 l
227.496 76.475963 l
228.24 77.372757 l
228.984 77.258593 l
229.728 75.478363 l
230.472 76.666991 l
231.216 74.917476 l
231.96 74.472251 l
233.448 72.692021 l
234.936 69.726628 l
235.68 66.904593 l
236.424 65.203079 l
237.168 62.355589 l
237.912 61.40809 l
238.656 121.745455 l
239.4 120.811095 l
240.144 119.198568 l
240.888 115.944071 l
241.632 114.96 l
242.376 112.302577 l
243.12 112.95779 l
243.864 112.93416 l
244.608 111.72132 l
245.352 112.641101 l
246.096 112.046242 l
246.84 112.302577 l
247.584 112.270648 l
248.328 113.254538 l
249.072 113.993193 l
250.56 114.96 l
251.304 116.384556 l
252.048 118.502535 l
252.792 117.712236 l
253.536 118.213786 l
254.28 118.364253 l
255.024 120.990582 l
256.512 122.563163 l
257.256 126.555945 l
258 125.948828 l
258.744 124.988374 l
259.488 129.069577 l
260.232 131.939596 l
260.976 130.184423 l
261.72 132.225543 l
262.464 134.994913 l
263.208 133.924899 l
263.952 134.994913 l
264.696 135.108417 l
265.44 137.671205 l
266.184 137.646659 l
266.928 138.102178 l
267.672 139.671643 l
268.416 139.55073 l
269.16 141.757685 l
269.904 141.556086 l
270.648 139.954161 l
271.392 141.371192 l
272.136 141.201037 l
272.88 140.699487 l
273.624 140.54902 l
274.368 141.219269 l
275.112 138.059767 l
276.6 135.387588 l
277.344 133.471833 l
278.088 131.16147 l
278.832 130.184423 l
279.576 130.048768 l
279.576 130.048768 l
stroke
grestore
0.502 0.000 0.000 setrgbcolor
gsave
446.4 157.1 72 43.2 clipbox
72 116.022303 m
72.744 116.7346 l
74.232 116.089093 l
74.976 115.225014 l
75.72 114.041321 l
76.464 113.53305 l
77.208 114.148622 l
77.952 113.210112 l
78.696 113.470314 l
79.44 114.041321 l
80.184 113.794852 l
81.672 117.094606 l
82.416 117.244173 l
83.16 118.392836 l
84.648 121.112243 l
85.392 122.378666 l
86.136 124.265256 l
86.88 125.621586 l
87.624 127.654434 l
88.368 128.481197 l
89.112 129.95786 l
89.856 131.703025 l
90.6 134.381476 l
91.344 134.784906 l
92.088 136.27587 l
92.832 139.032325 l
93.576 140.863804 l
94.32 142.08561 l
96.552 147.206531 l
97.296 148.36134 l
98.04 150.221572 l
98.784 151.436432 l
99.528 153.151069 l
101.016 154.222774 l
101.76 156.261775 l
102.504 156.261775 l
103.248 157.400673 l
103.992 157.988412 l
104.736 159.394946 l
105.48 159.693229 l
106.968 159.693229 l
107.712 159.52163 l
108.456 158.748552 l
109.2 157.275602 l
109.944 156.771517 l
110.688 155.833102 l
112.176 155.193013 l
112.92 154.097703 l
113.664 75.478363 l
114.408 74.625145 l
115.152 73.521233 l
115.896 72.755982 l
116.64 69.983772 l
117.384 69.438863 l
118.128 67.967717 l
118.872 67.52776 l
119.616 66.37401 l
120.36 66.37401 l
121.848 66.881734 l
122.592 67.265958 l
124.824 69.793563 l
125.568 70.179507 l
126.312 71.117482 l
127.056 71.684392 l
127.8 73.5426 l
128.544 74.141589 l
129.288 74.586415 l
130.032 75.267227 l
130.776 74.606209 l
131.52 76.085479 l
132.264 76.296072 l
133.752 79.582813 l
134.496 82.043359 l
135.24 83.531772 l
135.984 84.756484 l
136.728 85.283717 l
138.216 88.153115 l
138.96 88.424815 l
139.704 89.539276 l
140.448 89.023527 l
141.192 89.795621 l
141.936 90.377214 l
142.68 90.648992 l
143.424 90.658315 l
144.168 91.813388 l
145.656 91.782666 l
146.4 92.879699 l
147.888 92.857857 l
148.632 92.661062 l
149.376 92.002735 l
150.12 91.126422 l
150.864 89.466476 l
151.608 86.976819 l
153.84 82.326957 l
154.584 81.011338 l
155.328 129.217216 l
156.072 130.122867 l
156.816 129.497717 l
157.56 127.210248 l
158.304 125.621586 l
159.048 124.348285 l
159.792 124.348285 l
160.536 123.052611 l
161.28 122.971133 l
162.024 121.745455 l
162.768 121.745455 l
163.512 120.438298 l
164.256 122.971133 l
165.744 123.052611 l
166.488 124.348285 l
167.232 124.348285 l
167.976 126.862738 l
168.72 126.862738 l
169.464 128.063465 l
170.208 128.481197 l
171.696 130.849808 l
172.44 130.849808 l
173.184 132.577952 l
174.672 132.577952 l
175.416 135.387588 l
176.16 137.167818 l
176.904 138.021036 l
177.648 139.954161 l
178.392 139.714705 l
179.136 141.757685 l
179.88 142.396041 l
180.624 142.396041 l
181.368 144.491941 l
182.112 145.545231 l
182.856 145.545231 l
183.6 145.927709 l
184.344 147.269772 l
185.088 146.973172 l
185.832 148.296319 l
186.576 147.53728 l
187.32 148.714051 l
188.064 147.269772 l
188.808 147.779692 l
189.552 147.53728 l
190.296 146.583834 l
191.04 145.979113 l
191.784 144.764651 l
192.528 144.377777 l
193.272 143.029252 l
194.76 138.80041 l
195.504 139.124948 l
196.248 137.167818 l
196.992 92.408247 l
197.736 92.207883 l
198.48 89.120496 l
199.224 88.263142 l
199.968 85.717439 l
200.712 85.971947 l
201.456 84.582716 l
202.2 83.855775 l
203.688 83.255962 l
205.92 84.133107 l
206.664 84.582716 l
207.408 85.502497 l
208.152 87.024596 l
209.64 86.927866 l
211.128 88.943597 l
211.872 91.881728 l
212.616 92.370702 l
213.36 93.342607 l
214.848 94.302642 l
216.336 96.623878 l
217.08 97.373351 l
219.312 102.703629 l
220.056 102.970472 l
220.8 104.428696 l
221.544 105.057982 l
223.032 108.217485 l
223.776 107.511719 l
224.52 109.366663 l
225.264 109.024794 l
226.008 110.427541 l
226.752 110.199222 l
227.496 111.907373 l
228.24 111.40441 l
228.984 111.265366 l
229.728 112.124474 l
230.472 111.457584 l
231.216 111.457584 l
231.96 110.199222 l
233.448 109.900214 l
235.68 105.745717 l
236.424 103.803289 l
237.168 103.138095 l
237.912 102.289872 l
238.656 154.222774 l
239.4 152.133605 l
240.144 150.92302 l
240.888 150.707857 l
241.632 149.347263 l
242.376 149.179912 l
243.12 148.187027 l
244.608 146.991507 l
245.352 146.898651 l
246.096 147.031211 l
246.84 147.779692 l
248.328 147.866964 l
249.072 148.296319 l
250.56 149.405187 l
251.304 149.80384 l
252.048 150.530781 l
252.792 152.26294 l
254.28 154.989651 l
255.024 156.000453 l
255.768 157.790232 l
256.512 158.806451 l
257.256 160.449454 l
258.744 162.651648 l
259.488 163.445974 l
260.232 165.570666 l
261.72 166.612327 l
263.208 168.925208 l
263.952 170.4822 l
264.696 171.291233 l
265.44 171.562793 l
266.184 172.873776 l
267.672 175.857578 l
269.16 177.487353 l
269.904 176.224951 l
270.648 177.298712 l
271.392 176.586316 l
272.136 176.941579 l
272.88 176.012987 l
273.624 175.764808 l
275.112 174.448139 l
275.856 173.176807 l
276.6 172.550327 l
277.344 170.405089 l
278.088 169.380309 l
278.832 169.412766 l
279.576 168.297111 l
279.576 168.297111 l
stroke
grestore
0 setlinecap
[6 6] 0 setdash
0.000 setgray
gsave
446.4 157.1 72 43.2 clipbox
72 116.407987 m
72.744 116.040263 l
74.232 113.777969 l
74.976 112.440781 l
77.952 108.45238 l
79.44 107.033635 l
80.928 105.927617 l
82.416 105.175416 l
83.904 104.812822 l
84.648 104.793912 l
86.88 105.397843 l
87.624 105.703012 l
89.112 106.630329 l
91.344 108.407288 l
92.832 109.894265 l
95.808 113.399851 l
100.272 119.192382 l
103.248 122.892298 l
106.224 126.175756 l
107.712 127.584457 l
109.2 128.634617 l
110.688 129.335114 l
112.176 129.77695 l
112.92 129.910997 l
114.408 130.749002 l
115.152 131.337875 l
115.896 132.126525 l
117.384 134.170185 l
119.616 137.803019 l
123.336 143.898766 l
127.056 149.319149 l
130.776 154.542281 l
137.472 164.03352 l
140.448 168.922827 l
144.168 176.026842 l
147.144 182.370364 l
147.888 60.617451 l
149.376 63.784658 l
150.864 66.408321 l
152.352 68.413372 l
153.84 69.842313 l
158.304 73.256203 l
161.28 75.91921 l
163.512 78.041405 l
168.72 83.478806 l
174.672 90.002335 l
176.904 92.19684 l
178.392 93.598066 l
182.856 97.241914 l
185.088 98.799041 l
189.552 101.723251 l
191.04 102.945705 l
192.528 104.51204 l
197.736 111.123013 l
199.224 113.659967 l
200.712 117.314611 l
202.944 123.994293 l
204.432 128.278873 l
205.176 130.121041 l
207.408 134.667101 l
209.64 138.48758 l
214.104 144.929925 l
215.592 146.77048 l
218.568 149.932401 l
220.8 152.285138 l
223.776 155.758085 l
227.496 159.366361 l
231.216 162.505358 l
232.704 163.46339 l
233.448 164.119758 l
234.192 164.607383 l
234.936 165.297059 l
237.912 167.06107 l
238.656 167.336892 l
239.4 168.100837 l
240.144 169.644892 l
240.888 172.332114 l
241.632 177.557878 l
242.376 61.846227 l
243.12 70.011134 l
243.864 75.557959 l
244.608 78.588332 l
245.352 80.399836 l
246.096 81.745443 l
246.84 82.562504 l
248.328 83.603346 l
252.792 86.133931 l
255.024 87.910757 l
256.512 89.204474 l
259.488 92.147024 l
262.464 95.107413 l
263.952 96.876514 l
265.44 98.488483 l
267.672 100.883145 l
270.648 103.092053 l
271.392 103.413198 l
272.136 103.604861 l
272.88 103.588541 l
273.624 103.300655 l
274.368 102.890221 l
275.112 102.247222 l
276.6 100.319366 l
277.344 98.979041 l
278.832 95.539732 l
280.32 91.478174 l
281.064 88.814806 l
281.808 85.499749 l
282.552 81.380091 l
284.04 69.792016 l
284.784 62.249239 l
285.528 178.081894 l
286.272 171.859317 l
287.016 167.163066 l
287.76 163.793506 l
288.504 161.449008 l
289.992 158.153938 l
290.736 157.153438 l
291.48 156.42367 l
292.224 155.860025 l
293.712 155.399337 l
294.456 155.279974 l
295.944 155.674472 l
297.432 156.269005 l
299.664 158.012189 l
300.408 158.726174 l
303.384 162.706351 l
308.592 170.076475 l
309.336 170.974125 l
311.568 173.037041 l
313.056 174.014892 l
314.544 174.677594 l
316.032 175.026079 l
316.776 175.120086 l
319.008 174.938004 l
321.24 174.534384 l
322.728 174.946761 l
323.472 175.403148 l
324.216 176.02503 l
324.96 176.913554 l
325.704 178.147057 l
326.448 179.67 l
327.192 181.51673 l
327.936 60.152145 l
330.912 68.403285 l
332.4 71.85749 l
333.888 74.615076 l
335.376 77.028579 l
337.608 80.104399 l
344.304 88.67297 l
347.28 93.112314 l
349.512 96.755742 l
355.464 106.846067 l
356.952 108.95247 l
358.44 110.585491 l
359.928 111.630418 l
361.416 112.118912 l
363.648 112.440376 l
364.392 112.676087 l
365.136 113.048581 l
365.88 113.555926 l
366.624 114.23686 l
368.112 116.09265 l
369.6 118.487595 l
376.296 130.167475 l
378.528 133.47074 l
382.992 139.386141 l
385.968 143.272301 l
389.688 148.490756 l
391.176 150.847157 l
394.152 156.141577 l
399.36 166.503756 l
400.848 168.503587 l
401.592 169.275996 l
402.336 169.80464 l
403.824 170.439089 l
406.056 171.154117 l
407.544 171.998458 l
409.032 173.261472 l
410.52 174.911182 l
412.752 177.820174 l
416.472 183.124753 l
417.216 60.83436 l
420.936 65.962768 l
423.912 69.839782 l
426.888 73.332943 l
429.864 76.550338 l
432.84 79.706894 l
435.072 82.317977 l
436.56 84.486482 l
437.304 85.808669 l
438.048 87.463666 l
439.536 91.790289 l
441.024 97.427458 l
442.512 103.176832 l
443.256 105.560109 l
444 107.353336 l
444.744 108.649787 l
445.488 109.551246 l
446.232 110.243959 l
447.72 111.131159 l
449.208 112.26739 l
450.696 113.731741 l
452.184 115.505264 l
454.416 118.596939 l
456.648 122.057445 l
464.832 135.137937 l
467.808 138.948049 l
470.784 141.829673 l
473.016 143.503641 l
474.504 144.194273 l
475.248 144.436934 l
475.992 144.534947 l
476.736 144.512906 l
478.224 144.092013 l
478.968 143.8129 l
480.456 142.606635 l
481.2 141.854244 l
482.688 139.768773 l
484.92 136.627701 l
485.664 135.820279 l
486.408 135.49544 l
487.152 135.77192 l
487.152 135.77192 l
stroke
grestore
0 setlinejoin
2 setlinecap
[] 0 setdash
gsave
72 200.290909 m
518.4 200.290909 l
stroke
grestore
gsave
72 43.2 m
72 200.290909 l
stroke
grestore
gsave
518.4 43.2 m
518.4 200.290909 l
stroke
grestore
gsave
72 43.2 m
518.4 43.2 l
stroke
grestore
0.500 setlinewidth
1 setlinejoin
0 setlinecap
gsave
/o {
gsave
newpath
translate
0.5 setlinewidth
1 setlinejoin
0 setlinecap
0 0 m
0 4 l

gsave
0.000 setgray
fill
grestore
stroke
grestore
} bind def
72 43.2 o
grestore
gsave
/o {
gsave
newpath
translate
0.5 setlinewidth
1 setlinejoin
0 setlinecap
0 0 m
0 -4 l

gsave
0.000 setgray
fill
grestore
stroke
grestore
} bind def
72 200.291 o
grestore
gsave
68.179688 30.075000 translate
0.000000 rotate
0.000000 0.000000 m /zero glyphshow
grestore
gsave
/o {
gsave
newpath
translate
0.5 setlinewidth
1 setlinejoin
0 setlinecap
0 0 m
0 4 l

gsave
0.000 setgray
fill
grestore
stroke
grestore
} bind def
146.4 43.2 o
grestore
gsave
/o {
gsave
newpath
translate
0.5 setlinewidth
1 setlinejoin
0 setlinecap
0 0 m
0 -4 l

gsave
0.000 setgray
fill
grestore
stroke
grestore
} bind def
146.4 200.291 o
grestore
gsave
134.939063 30.075000 translate
0.000000 rotate
0.000000 0.000000 m /one glyphshow
7.634766 0.000000 m /zero glyphshow
15.269531 0.000000 m /zero glyphshow
grestore
gsave
/o {
gsave
newpath
translate
0.5 setlinewidth
1 setlinejoin
0 setlinecap
0 0 m
0 4 l

gsave
0.000 setgray
fill
grestore
stroke
grestore
} bind def
220.8 43.2 o
grestore
gsave
/o {
gsave
newpath
translate
0.5 setlinewidth
1 setlinejoin
0 setlinecap
0 0 m
0 -4 l

gsave
0.000 setgray
fill
grestore
stroke
grestore
} bind def
220.8 200.291 o
grestore
gsave
209.339063 30.075000 translate
0.000000 rotate
0.000000 0.000000 m /two glyphshow
7.634766 0.000000 m /zero glyphshow
15.269531 0.000000 m /zero glyphshow
grestore
gsave
/o {
gsave
newpath
translate
0.5 setlinewidth
1 setlinejoin
0 setlinecap
0 0 m
0 4 l

gsave
0.000 setgray
fill
grestore
stroke
grestore
} bind def
295.2 43.2 o
grestore
gsave
/o {
gsave
newpath
translate
0.5 setlinewidth
1 setlinejoin
0 setlinecap
0 0 m
0 -4 l

gsave
0.000 setgray
fill
grestore
stroke
grestore
} bind def
295.2 200.291 o
grestore
gsave
283.739062 30.075000 translate
0.000000 rotate
0.000000 0.000000 m /three glyphshow
7.634766 0.000000 m /zero glyphshow
15.269531 0.000000 m /zero glyphshow
grestore
gsave
/o {
gsave
newpath
translate
0.5 setlinewidth
1 setlinejoin
0 setlinecap
0 0 m
0 4 l

gsave
0.000 setgray
fill
grestore
stroke
grestore
} bind def
369.6 43.2 o
grestore
gsave
/o {
gsave
newpath
translate
0.5 setlinewidth
1 setlinejoin
0 setlinecap
0 0 m
0 -4 l

gsave
0.000 setgray
fill
grestore
stroke
grestore
} bind def
369.6 200.291 o
grestore
gsave
358.139063 30.075000 translate
0.000000 rotate
0.000000 0.000000 m /four glyphshow
7.634766 0.000000 m /zero glyphshow
15.269531 0.000000 m /zero glyphshow
grestore
gsave
/o {
gsave
newpath
translate
0.5 setlinewidth
1 setlinejoin
0 setlinecap
0 0 m
0 4 l

gsave
0.000 setgray
fill
grestore
stroke
grestore
} bind def
444 43.2 o
grestore
gsave
/o {
gsave
newpath
translate
0.5 setlinewidth
1 setlinejoin
0 setlinecap
0 0 m
0 -4 l

gsave
0.000 setgray
fill
grestore
stroke
grestore
} bind def
444 200.291 o
grestore
gsave
432.539062 30.075000 translate
0.000000 rotate
0.000000 0.000000 m /five glyphshow
7.634766 0.000000 m /zero glyphshow
15.269531 0.000000 m /zero glyphshow
grestore
gsave
/o {
gsave
newpath
translate
0.5 setlinewidth
1 setlinejoin
0 setlinecap
0 0 m
0 4 l

gsave
0.000 setgray
fill
grestore
stroke
grestore
} bind def
518.4 43.2 o
grestore
gsave
/o {
gsave
newpath
translate
0.5 setlinewidth
1 setlinejoin
0 setlinecap
0 0 m
0 -4 l

gsave
0.000 setgray
fill
grestore
stroke
grestore
} bind def
518.4 200.291 o
grestore
gsave
506.939062 30.075000 translate
0.000000 rotate
0.000000 0.000000 m /six glyphshow
7.634766 0.000000 m /zero glyphshow
15.269531 0.000000 m /zero glyphshow
grestore
gsave
/o {
gsave
newpath
translate
0.5 setlinewidth
1 setlinejoin
0 setlinecap
0 0 m
4 0 l

gsave
0.000 setgray
fill
grestore
stroke
grestore
} bind def
72 43.2 o
grestore
gsave
/o {
gsave
newpath
translate
0.5 setlinewidth
1 setlinejoin
0 setlinecap
0 0 m
-4 0 l

gsave
0.000 setgray
fill
grestore
stroke
grestore
} bind def
518.4 43.2 o
grestore
gsave
50.296875 39.887500 translate
0.000000 rotate
0.000000 0.000000 m /minus glyphshow
10.054688 0.000000 m /four glyphshow
grestore
gsave
/o {
gsave
newpath
translate
0.5 setlinewidth
1 setlinejoin
0 setlinecap
0 0 m
4 0 l

gsave
0.000 setgray
fill
grestore
stroke
grestore
} bind def
72 62.8364 o
grestore
gsave
/o {
gsave
newpath
translate
0.5 setlinewidth
1 setlinejoin
0 setlinecap
0 0 m
-4 0 l

gsave
0.000 setgray
fill
grestore
stroke
grestore
} bind def
518.4 62.8364 o
grestore
gsave
50.296875 59.523864 translate
0.000000 rotate
0.000000 0.000000 m /minus glyphshow
10.054688 0.000000 m /three glyphshow
grestore
gsave
/o {
gsave
newpath
translate
0.5 setlinewidth
1 setlinejoin
0 setlinecap
0 0 m
4 0 l

gsave
0.000 setgray
fill
grestore
stroke
grestore
} bind def
72 82.4727 o
grestore
gsave
/o {
gsave
newpath
translate
0.5 setlinewidth
1 setlinejoin
0 setlinecap
0 0 m
-4 0 l

gsave
0.000 setgray
fill
grestore
stroke
grestore
} bind def
518.4 82.4727 o
grestore
gsave
50.296875 79.160227 translate
0.000000 rotate
0.000000 0.000000 m /minus glyphshow
10.054688 0.000000 m /two glyphshow
grestore
gsave
/o {
gsave
newpath
translate
0.5 setlinewidth
1 setlinejoin
0 setlinecap
0 0 m
4 0 l

gsave
0.000 setgray
fill
grestore
stroke
grestore
} bind def
72 102.109 o
grestore
gsave
/o {
gsave
newpath
translate
0.5 setlinewidth
1 setlinejoin
0 setlinecap
0 0 m
-4 0 l

gsave
0.000 setgray
fill
grestore
stroke
grestore
} bind def
518.4 102.109 o
grestore
gsave
50.296875 98.796591 translate
0.000000 rotate
0.000000 0.000000 m /minus glyphshow
10.054688 0.000000 m /one glyphshow
grestore
gsave
/o {
gsave
newpath
translate
0.5 setlinewidth
1 setlinejoin
0 setlinecap
0 0 m
4 0 l

gsave
0.000 setgray
fill
grestore
stroke
grestore
} bind def
72 121.745 o
grestore
gsave
/o {
gsave
newpath
translate
0.5 setlinewidth
1 setlinejoin
0 setlinecap
0 0 m
-4 0 l

gsave
0.000 setgray
fill
grestore
stroke
grestore
} bind def
518.4 121.745 o
grestore
gsave
60.359375 118.432955 translate
0.000000 rotate
0.000000 0.000000 m /zero glyphshow
grestore
gsave
/o {
gsave
newpath
translate
0.5 setlinewidth
1 setlinejoin
0 setlinecap
0 0 m
4 0 l

gsave
0.000 setgray
fill
grestore
stroke
grestore
} bind def
72 141.382 o
grestore
gsave
/o {
gsave
newpath
translate
0.5 setlinewidth
1 setlinejoin
0 setlinecap
0 0 m
-4 0 l

gsave
0.000 setgray
fill
grestore
stroke
grestore
} bind def
518.4 141.382 o
grestore
gsave
60.359375 138.069318 translate
0.000000 rotate
0.000000 0.000000 m /one glyphshow
grestore
gsave
/o {
gsave
newpath
translate
0.5 setlinewidth
1 setlinejoin
0 setlinecap
0 0 m
4 0 l

gsave
0.000 setgray
fill
grestore
stroke
grestore
} bind def
72 161.018 o
grestore
gsave
/o {
gsave
newpath
translate
0.5 setlinewidth
1 setlinejoin
0 setlinecap
0 0 m
-4 0 l

gsave
0.000 setgray
fill
grestore
stroke
grestore
} bind def
518.4 161.018 o
grestore
gsave
60.359375 157.705682 translate
0.000000 rotate
0.000000 0.000000 m /two glyphshow
grestore
gsave
/o {
gsave
newpath
translate
0.5 setlinewidth
1 setlinejoin
0 setlinecap
0 0 m
4 0 l

gsave
0.000 setgray
fill
grestore
stroke
grestore
} bind def
72 180.655 o
grestore
gsave
/o {
gsave
newpath
translate
0.5 setlinewidth
1 setlinejoin
0 setlinecap
0 0 m
-4 0 l

gsave
0.000 setgray
fill
grestore
stroke
grestore
} bind def
518.4 180.655 o
grestore
gsave
60.359375 177.342045 translate
0.000000 rotate
0.000000 0.000000 m /three glyphshow
grestore
gsave
/o {
gsave
newpath
translate
0.5 setlinewidth
1 setlinejoin
0 setlinecap
0 0 m
4 0 l

gsave
0.000 setgray
fill
grestore
stroke
grestore
} bind def
72 200.291 o
grestore
gsave
/o {
gsave
newpath
translate
0.5 setlinewidth
1 setlinejoin
0 setlinecap
0 0 m
-4 0 l

gsave
0.000 setgray
fill
grestore
stroke
grestore
} bind def
518.4 200.291 o
grestore
gsave
60.359375 196.978409 translate
0.000000 rotate
0.000000 0.000000 m /four glyphshow
grestore

end
showpage
