%!PS-Adobe-3.0 EPSF-3.0
%%Title: e_rx0_tx0_m_rx0_tx0.eps
%%Creator: matplotlib version 1.5.1, http://matplotlib.org/
%%CreationDate: Wed Jan 11 16:14:55 2017
%%Orientation: portrait
%%BoundingBox: 18 180 594 612
%%EndComments
%%BeginProlog
/mpldict 8 dict def
mpldict begin
/m { moveto } bind def
/l { lineto } bind def
/r { rlineto } bind def
/c { curveto } bind def
/cl { closepath } bind def
/box {
m
1 index 0 r
0 exch r
neg 0 r
cl
} bind def
/clipbox {
box
clip
newpath
} bind def
%!PS-Adobe-3.0 Resource-Font
%%Title: Bitstream Vera Sans
%%Copyright: Copyright (c) 2003 by Bitstream, Inc. All Rights Reserved.
%%Creator: Converted from TrueType to type 3 by PPR
25 dict begin
/_d{bind def}bind def
/_m{moveto}_d
/_l{lineto}_d
/_cl{closepath eofill}_d
/_c{curveto}_d
/_sc{7 -1 roll{setcachedevice}{pop pop pop pop pop pop}ifelse}_d
/_e{exec}_d
/FontName /BitstreamVeraSans-Roman def
/PaintType 0 def
/FontMatrix[.001 0 0 .001 0 0]def
/FontBBox[-183 -236 1287 928]def
/FontType 3 def
/Encoding [ /space /parenleft /parenright /comma /zero /one /two /three /four /five /six /seven /eight /nine /B /I /M /P /bracketleft /bracketright /a /c /d /e /g /h /i /k /m /n /p /r /s /t /u /x /minus ] def
/FontInfo 10 dict dup begin
/FamilyName (Bitstream Vera Sans) def
/FullName (Bitstream Vera Sans) def
/Notice (Copyright (c) 2003 by Bitstream, Inc. All Rights Reserved. Bitstream Vera is a trademark of Bitstream, Inc.) def
/Weight (Roman) def
/Version (Release 1.10) def
/ItalicAngle 0.0 def
/isFixedPitch false def
/UnderlinePosition -213 def
/UnderlineThickness 143 def
end readonly def
/CharStrings 37 dict dup begin
/space{318 0 0 0 0 0 _sc
}_d
/parenleft{390 0 86 -131 310 759 _sc
310 759 _m
266 683 234 609 213 536 _c
191 463 181 389 181 314 _c
181 238 191 164 213 91 _c
234 17 266 -56 310 -131 _c
232 -131 _l
183 -54 146 20 122 94 _c
98 168 86 241 86 314 _c
86 386 98 459 122 533 _c
146 607 182 682 232 759 _c
310 759 _l
_cl}_d
/parenright{390 0 80 -131 304 759 _sc
80 759 _m
158 759 _l
206 682 243 607 267 533 _c
291 459 304 386 304 314 _c
304 241 291 168 267 94 _c
243 20 206 -54 158 -131 _c
80 -131 _l
123 -56 155 17 177 91 _c
198 164 209 238 209 314 _c
209 389 198 463 177 536 _c
155 609 123 683 80 759 _c
_cl}_d
/comma{318 0 77 -115 220 124 _sc
117 124 _m
220 124 _l
220 40 _l
140 -115 _l
77 -115 _l
117 40 _l
117 124 _l
_cl}_d
/zero{636 0 66 -13 570 742 _sc
318 664 _m
267 664 229 639 203 589 _c
177 539 165 464 165 364 _c
165 264 177 189 203 139 _c
229 89 267 64 318 64 _c
369 64 407 89 433 139 _c
458 189 471 264 471 364 _c
471 464 458 539 433 589 _c
407 639 369 664 318 664 _c
318 742 _m
399 742 461 709 505 645 _c
548 580 570 486 570 364 _c
570 241 548 147 505 83 _c
461 19 399 -13 318 -13 _c
236 -13 173 19 130 83 _c
87 147 66 241 66 364 _c
66 486 87 580 130 645 _c
173 709 236 742 318 742 _c
_cl}_d
/one{636 0 110 0 544 729 _sc
124 83 _m
285 83 _l
285 639 _l
110 604 _l
110 694 _l
284 729 _l
383 729 _l
383 83 _l
544 83 _l
544 0 _l
124 0 _l
124 83 _l
_cl}_d
/two{{636 0 73 0 536 742 _sc
192 83 _m
536 83 _l
536 0 _l
73 0 _l
73 83 _l
110 121 161 173 226 239 _c
290 304 331 346 348 365 _c
380 400 402 430 414 455 _c
426 479 433 504 433 528 _c
433 566 419 598 392 622 _c
365 646 330 659 286 659 _c
255 659 222 653 188 643 _c
154 632 117 616 78 594 _c
78 694 _l
118 710 155 722 189 730 _c
223 738 255 742 284 742 _c
}_e{359 742 419 723 464 685 _c
509 647 532 597 532 534 _c
532 504 526 475 515 449 _c
504 422 484 390 454 354 _c
446 344 420 317 376 272 _c
332 227 271 164 192 83 _c
_cl}_e}_d
/three{{636 0 76 -13 556 742 _sc
406 393 _m
453 383 490 362 516 330 _c
542 298 556 258 556 212 _c
556 140 531 84 482 45 _c
432 6 362 -13 271 -13 _c
240 -13 208 -10 176 -4 _c
144 1 110 10 76 22 _c
76 117 _l
103 101 133 89 166 81 _c
198 73 232 69 268 69 _c
330 69 377 81 409 105 _c
441 129 458 165 458 212 _c
458 254 443 288 413 312 _c
383 336 341 349 287 349 _c
}_e{202 349 _l
202 430 _l
291 430 _l
339 430 376 439 402 459 _c
428 478 441 506 441 543 _c
441 580 427 609 401 629 _c
374 649 336 659 287 659 _c
260 659 231 656 200 650 _c
169 644 135 635 98 623 _c
98 711 _l
135 721 170 729 203 734 _c
235 739 266 742 296 742 _c
370 742 429 725 473 691 _c
517 657 539 611 539 553 _c
539 513 527 479 504 451 _c
481 423 448 403 406 393 _c
_cl}_e}_d
/four{636 0 49 0 580 729 _sc
378 643 _m
129 254 _l
378 254 _l
378 643 _l
352 729 _m
476 729 _l
476 254 _l
580 254 _l
580 172 _l
476 172 _l
476 0 _l
378 0 _l
378 172 _l
49 172 _l
49 267 _l
352 729 _l
_cl}_d
/five{{636 0 77 -13 549 729 _sc
108 729 _m
495 729 _l
495 646 _l
198 646 _l
198 467 _l
212 472 227 476 241 478 _c
255 480 270 482 284 482 _c
365 482 429 459 477 415 _c
525 370 549 310 549 234 _c
549 155 524 94 475 51 _c
426 8 357 -13 269 -13 _c
238 -13 207 -10 175 -6 _c
143 -1 111 6 77 17 _c
77 116 _l
106 100 136 88 168 80 _c
199 72 232 69 267 69 _c
}_e{323 69 368 83 401 113 _c
433 143 450 183 450 234 _c
450 284 433 324 401 354 _c
368 384 323 399 267 399 _c
241 399 214 396 188 390 _c
162 384 135 375 108 363 _c
108 729 _l
_cl}_e}_d
/six{{636 0 70 -13 573 742 _sc
330 404 _m
286 404 251 388 225 358 _c
199 328 186 286 186 234 _c
186 181 199 139 225 109 _c
251 79 286 64 330 64 _c
374 64 409 79 435 109 _c
461 139 474 181 474 234 _c
474 286 461 328 435 358 _c
409 388 374 404 330 404 _c
526 713 _m
526 623 _l
501 635 476 644 451 650 _c
425 656 400 659 376 659 _c
310 659 260 637 226 593 _c
}_e{192 549 172 482 168 394 _c
187 422 211 444 240 459 _c
269 474 301 482 336 482 _c
409 482 467 459 509 415 _c
551 371 573 310 573 234 _c
573 159 550 99 506 54 _c
462 9 403 -13 330 -13 _c
246 -13 181 19 137 83 _c
92 147 70 241 70 364 _c
70 479 97 571 152 639 _c
206 707 280 742 372 742 _c
396 742 421 739 447 735 _c
472 730 498 723 526 713 _c
_cl}_e}_d
/seven{636 0 82 0 551 729 _sc
82 729 _m
551 729 _l
551 687 _l
286 0 _l
183 0 _l
432 646 _l
82 646 _l
82 729 _l
_cl}_d
/eight{{636 0 68 -13 568 742 _sc
318 346 _m
271 346 234 333 207 308 _c
180 283 167 249 167 205 _c
167 161 180 126 207 101 _c
234 76 271 64 318 64 _c
364 64 401 76 428 102 _c
455 127 469 161 469 205 _c
469 249 455 283 429 308 _c
402 333 365 346 318 346 _c
219 388 _m
177 398 144 418 120 447 _c
96 476 85 511 85 553 _c
85 611 105 657 147 691 _c
188 725 245 742 318 742 _c
}_e{390 742 447 725 489 691 _c
530 657 551 611 551 553 _c
551 511 539 476 515 447 _c
491 418 459 398 417 388 _c
464 377 501 355 528 323 _c
554 291 568 251 568 205 _c
568 134 546 80 503 43 _c
459 5 398 -13 318 -13 _c
237 -13 175 5 132 43 _c
89 80 68 134 68 205 _c
68 251 81 291 108 323 _c
134 355 171 377 219 388 _c
183 544 _m
183 506 194 476 218 455 _c
}_e{242 434 275 424 318 424 _c
360 424 393 434 417 455 _c
441 476 453 506 453 544 _c
453 582 441 611 417 632 _c
393 653 360 664 318 664 _c
275 664 242 653 218 632 _c
194 611 183 582 183 544 _c
_cl}_e}_d
/nine{{636 0 63 -13 566 742 _sc
110 15 _m
110 105 _l
134 93 159 84 185 78 _c
210 72 235 69 260 69 _c
324 69 374 90 408 134 _c
442 178 462 244 468 334 _c
448 306 424 284 396 269 _c
367 254 335 247 300 247 _c
226 247 168 269 126 313 _c
84 357 63 417 63 494 _c
63 568 85 628 129 674 _c
173 719 232 742 306 742 _c
390 742 455 709 499 645 _c
543 580 566 486 566 364 _c
}_e{566 248 538 157 484 89 _c
429 21 356 -13 264 -13 _c
239 -13 214 -10 189 -6 _c
163 -2 137 5 110 15 _c
306 324 _m
350 324 385 339 411 369 _c
437 399 450 441 450 494 _c
450 546 437 588 411 618 _c
385 648 350 664 306 664 _c
262 664 227 648 201 618 _c
175 588 162 546 162 494 _c
162 441 175 399 201 369 _c
227 339 262 324 306 324 _c
_cl}_e}_d
/B{{686 0 98 0 615 729 _sc
197 348 _m
197 81 _l
355 81 _l
408 81 447 92 473 114 _c
498 136 511 169 511 215 _c
511 260 498 293 473 315 _c
447 337 408 348 355 348 _c
197 348 _l
197 648 _m
197 428 _l
343 428 _l
391 428 426 437 450 455 _c
474 473 486 500 486 538 _c
486 574 474 602 450 620 _c
426 638 391 648 343 648 _c
197 648 _l
98 729 _m
350 729 _l
}_e{425 729 483 713 524 682 _c
564 650 585 606 585 549 _c
585 504 574 468 553 442 _c
532 416 502 399 462 393 _c
510 382 548 360 575 327 _c
601 294 615 253 615 204 _c
615 138 592 88 548 53 _c
504 17 441 0 360 0 _c
98 0 _l
98 729 _l
_cl}_e}_d
/I{295 0 98 0 197 729 _sc
98 729 _m
197 729 _l
197 0 _l
98 0 _l
98 729 _l
_cl}_d
/M{863 0 98 0 765 729 _sc
98 729 _m
245 729 _l
431 233 _l
618 729 _l
765 729 _l
765 0 _l
669 0 _l
669 640 _l
481 140 _l
382 140 _l
194 640 _l
194 0 _l
98 0 _l
98 729 _l
_cl}_d
/P{603 0 98 0 569 729 _sc
197 648 _m
197 374 _l
321 374 _l
367 374 402 385 427 409 _c
452 433 465 467 465 511 _c
465 555 452 588 427 612 _c
402 636 367 648 321 648 _c
197 648 _l
98 729 _m
321 729 _l
402 729 464 710 506 673 _c
548 636 569 582 569 511 _c
569 439 548 384 506 348 _c
464 311 402 293 321 293 _c
197 293 _l
197 0 _l
98 0 _l
98 729 _l
_cl}_d
/bracketleft{390 0 86 -131 293 760 _sc
86 760 _m
293 760 _l
293 690 _l
176 690 _l
176 -61 _l
293 -61 _l
293 -131 _l
86 -131 _l
86 760 _l
_cl}_d
/bracketright{390 0 97 -131 304 760 _sc
304 760 _m
304 -131 _l
97 -131 _l
97 -61 _l
214 -61 _l
214 690 _l
97 690 _l
97 760 _l
304 760 _l
_cl}_d
/a{{613 0 60 -13 522 560 _sc
343 275 _m
270 275 220 266 192 250 _c
164 233 150 205 150 165 _c
150 133 160 107 181 89 _c
202 70 231 61 267 61 _c
317 61 357 78 387 114 _c
417 149 432 196 432 255 _c
432 275 _l
343 275 _l
522 312 _m
522 0 _l
432 0 _l
432 83 _l
411 49 385 25 355 10 _c
325 -5 287 -13 243 -13 _c
187 -13 142 2 109 33 _c
76 64 60 106 60 159 _c
}_e{60 220 80 266 122 298 _c
163 329 224 345 306 345 _c
432 345 _l
432 354 _l
432 395 418 427 391 450 _c
364 472 326 484 277 484 _c
245 484 215 480 185 472 _c
155 464 127 453 100 439 _c
100 522 _l
132 534 164 544 195 550 _c
226 556 256 560 286 560 _c
365 560 424 539 463 498 _c
502 457 522 395 522 312 _c
_cl}_e}_d
/c{{550 0 55 -13 488 560 _sc
488 526 _m
488 442 _l
462 456 437 466 411 473 _c
385 480 360 484 334 484 _c
276 484 230 465 198 428 _c
166 391 150 339 150 273 _c
150 206 166 154 198 117 _c
230 80 276 62 334 62 _c
360 62 385 65 411 72 _c
437 79 462 90 488 104 _c
488 21 _l
462 9 436 0 410 -5 _c
383 -10 354 -13 324 -13 _c
242 -13 176 12 128 64 _c
}_e{79 115 55 185 55 273 _c
55 362 79 432 128 483 _c
177 534 244 560 330 560 _c
358 560 385 557 411 551 _c
437 545 463 537 488 526 _c
_cl}_e}_d
/d{{635 0 55 -13 544 760 _sc
454 464 _m
454 760 _l
544 760 _l
544 0 _l
454 0 _l
454 82 _l
435 49 411 25 382 10 _c
353 -5 319 -13 279 -13 _c
213 -13 159 13 117 65 _c
75 117 55 187 55 273 _c
55 359 75 428 117 481 _c
159 533 213 560 279 560 _c
319 560 353 552 382 536 _c
411 520 435 496 454 464 _c
148 273 _m
148 207 161 155 188 117 _c
215 79 253 61 301 61 _c
}_e{348 61 385 79 413 117 _c
440 155 454 207 454 273 _c
454 339 440 390 413 428 _c
385 466 348 485 301 485 _c
253 485 215 466 188 428 _c
161 390 148 339 148 273 _c
_cl}_e}_d
/e{{615 0 55 -13 562 560 _sc
562 296 _m
562 252 _l
149 252 _l
153 190 171 142 205 110 _c
238 78 284 62 344 62 _c
378 62 412 66 444 74 _c
476 82 509 95 541 113 _c
541 28 _l
509 14 476 3 442 -3 _c
408 -9 373 -13 339 -13 _c
251 -13 182 12 131 62 _c
80 112 55 181 55 268 _c
55 357 79 428 127 481 _c
175 533 241 560 323 560 _c
397 560 455 536 498 489 _c
}_e{540 441 562 377 562 296 _c
472 322 _m
471 371 457 410 431 440 _c
404 469 368 484 324 484 _c
274 484 234 469 204 441 _c
174 413 156 373 152 322 _c
472 322 _l
_cl}_e}_d
/g{{635 0 55 -207 544 560 _sc
454 280 _m
454 344 440 395 414 431 _c
387 467 349 485 301 485 _c
253 485 215 467 188 431 _c
161 395 148 344 148 280 _c
148 215 161 165 188 129 _c
215 93 253 75 301 75 _c
349 75 387 93 414 129 _c
440 165 454 215 454 280 _c
544 68 _m
544 -24 523 -93 482 -139 _c
440 -184 377 -207 292 -207 _c
260 -207 231 -204 203 -200 _c
175 -195 147 -188 121 -178 _c
}_e{121 -91 _l
147 -105 173 -115 199 -122 _c
225 -129 251 -133 278 -133 _c
336 -133 380 -117 410 -87 _c
439 -56 454 -10 454 52 _c
454 96 _l
435 64 411 40 382 24 _c
353 8 319 0 279 0 _c
211 0 157 25 116 76 _c
75 127 55 195 55 280 _c
55 364 75 432 116 483 _c
157 534 211 560 279 560 _c
319 560 353 552 382 536 _c
411 520 435 496 454 464 _c
454 547 _l
544 547 _l
}_e{544 68 _l
_cl}_e}_d
/h{634 0 91 0 549 760 _sc
549 330 _m
549 0 _l
459 0 _l
459 327 _l
459 379 448 417 428 443 _c
408 469 378 482 338 482 _c
289 482 251 466 223 435 _c
195 404 181 362 181 309 _c
181 0 _l
91 0 _l
91 760 _l
181 760 _l
181 462 _l
202 494 227 519 257 535 _c
286 551 320 560 358 560 _c
420 560 468 540 500 501 _c
532 462 549 405 549 330 _c
_cl}_d
/i{278 0 94 0 184 760 _sc
94 547 _m
184 547 _l
184 0 _l
94 0 _l
94 547 _l
94 760 _m
184 760 _l
184 646 _l
94 646 _l
94 760 _l
_cl}_d
/k{579 0 91 0 576 760 _sc
91 760 _m
181 760 _l
181 311 _l
449 547 _l
564 547 _l
274 291 _l
576 0 _l
459 0 _l
181 267 _l
181 0 _l
91 0 _l
91 760 _l
_cl}_d
/m{{974 0 91 0 889 560 _sc
520 442 _m
542 482 569 511 600 531 _c
631 550 668 560 711 560 _c
767 560 811 540 842 500 _c
873 460 889 403 889 330 _c
889 0 _l
799 0 _l
799 327 _l
799 379 789 418 771 444 _c
752 469 724 482 686 482 _c
639 482 602 466 575 435 _c
548 404 535 362 535 309 _c
535 0 _l
445 0 _l
445 327 _l
445 379 435 418 417 444 _c
398 469 369 482 331 482 _c
}_e{285 482 248 466 221 435 _c
194 404 181 362 181 309 _c
181 0 _l
91 0 _l
91 547 _l
181 547 _l
181 462 _l
201 495 226 520 255 536 _c
283 552 317 560 357 560 _c
397 560 430 550 458 530 _c
486 510 506 480 520 442 _c
_cl}_e}_d
/n{634 0 91 0 549 560 _sc
549 330 _m
549 0 _l
459 0 _l
459 327 _l
459 379 448 417 428 443 _c
408 469 378 482 338 482 _c
289 482 251 466 223 435 _c
195 404 181 362 181 309 _c
181 0 _l
91 0 _l
91 547 _l
181 547 _l
181 462 _l
202 494 227 519 257 535 _c
286 551 320 560 358 560 _c
420 560 468 540 500 501 _c
532 462 549 405 549 330 _c
_cl}_d
/p{{635 0 91 -207 580 560 _sc
181 82 _m
181 -207 _l
91 -207 _l
91 547 _l
181 547 _l
181 464 _l
199 496 223 520 252 536 _c
281 552 316 560 356 560 _c
422 560 476 533 518 481 _c
559 428 580 359 580 273 _c
580 187 559 117 518 65 _c
476 13 422 -13 356 -13 _c
316 -13 281 -5 252 10 _c
223 25 199 49 181 82 _c
487 273 _m
487 339 473 390 446 428 _c
418 466 381 485 334 485 _c
}_e{286 485 249 466 222 428 _c
194 390 181 339 181 273 _c
181 207 194 155 222 117 _c
249 79 286 61 334 61 _c
381 61 418 79 446 117 _c
473 155 487 207 487 273 _c
_cl}_e}_d
/r{411 0 91 0 411 560 _sc
411 463 _m
401 469 390 473 378 476 _c
366 478 353 480 339 480 _c
288 480 249 463 222 430 _c
194 397 181 350 181 288 _c
181 0 _l
91 0 _l
91 547 _l
181 547 _l
181 462 _l
199 495 224 520 254 536 _c
284 552 321 560 365 560 _c
371 560 378 559 386 559 _c
393 558 401 557 411 555 _c
411 463 _l
_cl}_d
/s{{521 0 54 -13 472 560 _sc
443 531 _m
443 446 _l
417 458 391 468 364 475 _c
336 481 308 485 279 485 _c
234 485 200 478 178 464 _c
156 450 145 430 145 403 _c
145 382 153 366 169 354 _c
185 342 217 330 265 320 _c
296 313 _l
360 299 405 279 432 255 _c
458 230 472 195 472 151 _c
472 100 452 60 412 31 _c
372 1 316 -13 246 -13 _c
216 -13 186 -10 154 -5 _c
}_e{122 0 89 8 54 20 _c
54 113 _l
87 95 120 82 152 74 _c
184 65 216 61 248 61 _c
290 61 323 68 346 82 _c
368 96 380 117 380 144 _c
380 168 371 187 355 200 _c
339 213 303 226 247 238 _c
216 245 _l
160 257 119 275 95 299 _c
70 323 58 356 58 399 _c
58 450 76 490 112 518 _c
148 546 200 560 268 560 _c
301 560 332 557 362 552 _c
391 547 418 540 443 531 _c
}_e{_cl}_e}_d
/t{392 0 27 0 368 702 _sc
183 702 _m
183 547 _l
368 547 _l
368 477 _l
183 477 _l
183 180 _l
183 135 189 106 201 94 _c
213 81 238 75 276 75 _c
368 75 _l
368 0 _l
276 0 _l
206 0 158 13 132 39 _c
106 65 93 112 93 180 _c
93 477 _l
27 477 _l
27 547 _l
93 547 _l
93 702 _l
183 702 _l
_cl}_d
/u{634 0 85 -13 543 547 _sc
85 216 _m
85 547 _l
175 547 _l
175 219 _l
175 167 185 129 205 103 _c
225 77 255 64 296 64 _c
344 64 383 79 411 110 _c
439 141 453 183 453 237 _c
453 547 _l
543 547 _l
543 0 _l
453 0 _l
453 84 _l
431 50 405 26 377 10 _c
348 -5 315 -13 277 -13 _c
214 -13 166 6 134 45 _c
101 83 85 140 85 216 _c
_cl}_d
/x{592 0 29 0 559 547 _sc
549 547 _m
351 281 _l
559 0 _l
453 0 _l
294 215 _l
135 0 _l
29 0 _l
241 286 _l
47 547 _l
153 547 _l
298 352 _l
443 547 _l
549 547 _l
_cl}_d
/minus{838 0 106 272 732 355 _sc
106 355 _m
732 355 _l
732 272 _l
106 272 _l
106 355 _l
_cl}_d
end readonly def

/BuildGlyph
 {exch begin
 CharStrings exch
 2 copy known not{pop /.notdef}if
 true 3 1 roll get exec
 end}_d

/BuildChar {
 1 index /Encoding get exch get
 1 index /BuildGlyph get exec
}_d

FontName currentdict end definefont pop
end
%%EndProlog
mpldict begin
18 180 translate
576 432 0 0 clipbox
100000 setmiterlimit
gsave
0 0 m
576 0 l
576 432 l
0 432 l
cl
1.000 setgray
fill
grestore
gsave
72 231.709091 m
518.4 231.709091 l
518.4 388.8 l
72 388.8 l
cl
1.000 setgray
fill
grestore
1.000 setlinewidth
1 setlinejoin
2 setlinecap
[] 0 setdash
1.000 0.000 0.000 setrgbcolor
gsave
446.4 157.1 72 231.7 clipbox
72 253.215847 m
75.72 267.160377 l
79.44 273.681516 l
83.16 286.744748 l
86.88 284.339674 l
90.6 293.123784 l
94.32 298.822108 l
98.04 296.914731 l
101.76 298.822108 l
105.48 290.699068 l
109.2 294.824008 l
112.92 286.36883 l
116.64 286.444246 l
120.36 288.630089 l
124.08 291.248416 l
127.8 287.561699 l
131.52 285.042729 l
135.24 290.422054 l
138.96 287.757702 l
142.68 282.167524 l
146.4 285.146027 l
150.12 285.042729 l
153.84 288.413452 l
157.56 285.454617 l
161.28 287.659799 l
165 282.794214 l
168.72 282.794214 l
172.44 283.010317 l
176.16 292.038608 l
179.88 291.769126 l
183.6 287.192054 l
187.32 292.395615 l
191.04 287.192054 l
194.76 287.928561 l
198.48 294.163885 l
202.2 299.113505 l
205.92 296.914731 l
209.64 296.853906 l
213.36 297.338396 l
217.08 298.115561 l
220.8 294.929646 l
224.52 294.163885 l
228.24 300.713893 l
231.96 307.328693 l
235.68 305.579478 l
239.4 308.731939 l
243.12 307.768523 l
246.84 306.5202 l
250.56 304.273025 l
254.28 298.822108 l
258 301.917194 l
261.72 302.912667 l
265.44 296.914731 l
269.16 286.343666 l
272.88 281.920087 l
276.6 261.383338 l
stroke
grestore
0.000 0.000 1.000 setrgbcolor
gsave
446.4 157.1 72 231.7 clipbox
72 330.35716 m
75.72 343.477974 l
79.44 355.612135 l
83.16 362.952805 l
86.88 363.436403 l
90.6 368.363339 l
94.32 367.713642 l
98.04 376.208201 l
101.76 371.465979 l
105.48 374.868149 l
109.2 376.782098 l
112.92 370.045636 l
116.64 372.649476 l
120.36 372.07649 l
124.08 369.4593 l
127.8 369.62364 l
131.52 366.006308 l
135.24 367.727859 l
138.96 365.532802 l
142.68 368.456783 l
146.4 368.269715 l
150.12 365.413703 l
153.84 367.442741 l
157.56 369.463873 l
161.28 364.06361 l
165 364.979514 l
168.72 366.006308 l
172.44 368.293138 l
176.16 368.363339 l
179.88 366.523847 l
183.6 366.523847 l
187.32 368.368015 l
191.04 367.902853 l
194.76 367.827257 l
198.48 369.128949 l
202.2 368.269715 l
205.92 372.041809 l
209.64 376.880366 l
213.36 377.310408 l
217.08 379.784297 l
220.8 380.56601 l
224.52 380.112455 l
228.24 382.928876 l
231.96 381.827439 l
235.68 384.009359 l
239.4 384.733312 l
243.12 385.581524 l
246.84 386.508774 l
250.56 384.29686 l
254.28 381.688882 l
258 384.303604 l
261.72 377.659459 l
265.44 375.019329 l
269.16 365.224533 l
272.88 352.267817 l
276.6 342.278764 l
stroke
grestore
1.000 0.000 0.000 setrgbcolor
gsave
446.4 157.1 72 231.7 clipbox
72 253.215847 m
75.72 267.160377 l
79.44 273.681516 l
83.16 286.744748 l
86.88 284.339674 l
90.6 293.123784 l
94.32 298.822108 l
98.04 296.914731 l
101.76 298.822108 l
105.48 290.699068 l
109.2 294.824008 l
112.92 286.36883 l
116.64 286.444246 l
120.36 288.630089 l
124.08 291.248416 l
127.8 287.561699 l
131.52 285.042729 l
135.24 290.422054 l
138.96 287.757702 l
142.68 282.167524 l
146.4 285.146027 l
150.12 285.042729 l
153.84 288.413452 l
157.56 285.454617 l
161.28 287.659799 l
165 282.794214 l
168.72 282.794214 l
172.44 283.010317 l
176.16 292.038608 l
179.88 291.769126 l
183.6 287.192054 l
187.32 292.395615 l
191.04 287.192054 l
194.76 287.928561 l
198.48 294.163885 l
202.2 299.113505 l
205.92 296.914731 l
209.64 296.853906 l
213.36 297.338396 l
217.08 298.115561 l
220.8 294.929646 l
224.52 294.163885 l
228.24 300.713893 l
231.96 307.328693 l
235.68 305.579478 l
239.4 308.731939 l
243.12 307.768523 l
246.84 306.5202 l
250.56 304.273025 l
254.28 298.822108 l
258 301.917194 l
261.72 302.912667 l
265.44 296.914731 l
269.16 286.343666 l
272.88 281.920087 l
276.6 261.383338 l
280.32 238.814409 l
284.04 255.02001 l
287.76 257.584177 l
291.48 267.457973 l
295.2 275.570187 l
298.92 274.329978 l
302.64 283.466379 l
306.36 280.6071 l
310.08 279.461104 l
313.8 274.714954 l
317.52 283.144896 l
321.24 276.132117 l
324.96 276.132117 l
328.68 278.5245 l
332.4 277.115378 l
336.12 275.318346 l
339.84 275.128607 l
343.56 275.976674 l
347.28 272.257397 l
351 269.881473 l
354.72 270.96327 l
358.44 270.022416 l
362.16 272.257397 l
365.88 266.256526 l
369.6 269.134755 l
373.32 271.135526 l
377.04 270.859623 l
380.76 270.859623 l
384.48 273.123456 l
388.2 267.864223 l
391.92 272.257397 l
395.64 278.760344 l
399.36 277.81004 l
403.08 275.570187 l
406.8 275.128607 l
410.52 282.685801 l
414.24 276.595492 l
417.96 281.754429 l
421.68 280.861277 l
425.4 278.965775 l
429.12 285.377652 l
432.84 280.493706 l
436.56 286.444246 l
440.28 288.917449 l
444 293.55986 l
447.72 291.498145 l
451.44 288.917449 l
455.16 293.320501 l
458.88 291.248416 l
462.6 293.385897 l
466.32 284.835472 l
470.04 287.659799 l
473.76 277.81004 l
477.48 267.420873 l
481.2 258.350194 l
484.92 243.761483 l
stroke
grestore
0.000 0.000 1.000 setrgbcolor
gsave
446.4 157.1 72 231.7 clipbox
72 330.35716 m
75.72 343.477974 l
79.44 355.612135 l
83.16 362.952805 l
86.88 363.436403 l
90.6 368.363339 l
94.32 367.713642 l
98.04 376.208201 l
101.76 371.465979 l
105.48 374.868149 l
109.2 376.782098 l
112.92 370.045636 l
116.64 372.649476 l
120.36 372.07649 l
124.08 369.4593 l
127.8 369.62364 l
131.52 366.006308 l
135.24 367.727859 l
138.96 365.532802 l
142.68 368.456783 l
146.4 368.269715 l
150.12 365.413703 l
153.84 367.442741 l
157.56 369.463873 l
161.28 364.06361 l
165 364.979514 l
168.72 366.006308 l
172.44 368.293138 l
176.16 368.363339 l
179.88 366.523847 l
183.6 366.523847 l
187.32 368.368015 l
191.04 367.902853 l
194.76 367.827257 l
198.48 369.128949 l
202.2 368.269715 l
205.92 372.041809 l
209.64 376.880366 l
213.36 377.310408 l
217.08 379.784297 l
220.8 380.56601 l
224.52 380.112455 l
228.24 382.928876 l
231.96 381.827439 l
235.68 384.009359 l
239.4 384.733312 l
243.12 385.581524 l
246.84 386.508774 l
250.56 384.29686 l
254.28 381.688882 l
258 384.303604 l
261.72 377.659459 l
265.44 375.019329 l
269.16 365.224533 l
272.88 352.267817 l
276.6 342.278764 l
280.32 241.096556 l
284.04 248.142176 l
287.76 261.046096 l
291.48 269.491762 l
295.2 274.874467 l
298.92 281.058058 l
302.64 277.659867 l
306.36 287.928561 l
310.08 287.192054 l
313.8 288.050237 l
317.52 288.050237 l
321.24 284.287191 l
324.96 280.861277 l
328.68 282.92939 l
332.4 281.947643 l
336.12 277.659867 l
339.84 277.81004 l
343.56 272.758923 l
347.28 274.16867 l
351 271.135526 l
354.72 276.317996 l
358.44 272.792175 l
362.16 272.52552 l
365.88 276.132117 l
369.6 269.491762 l
373.32 278.995052 l
377.04 282.249725 l
380.76 278.760344 l
384.48 277.448843 l
388.2 280.493706 l
391.92 280.008814 l
395.64 278.5245 l
399.36 280.493706 l
403.08 284.757522 l
406.8 282.249725 l
410.52 281.837328 l
414.24 281.809711 l
417.96 282.057707 l
421.68 282.057707 l
425.4 286.968914 l
429.12 286.968914 l
432.84 292.128105 l
436.56 287.561699 l
440.28 292.440057 l
444 290.882873 l
447.72 294.420478 l
451.44 295.849525 l
455.16 295.370846 l
458.88 294.163885 l
462.6 289.69906 l
466.32 291.043135 l
470.04 288.557984 l
473.76 281.920087 l
477.48 275.72693 l
481.2 259.890361 l
484.92 253.215847 l
stroke
grestore
0 setlinejoin
0.000 setgray
gsave
72 231.709091 m
518.4 231.709091 l
stroke
grestore
gsave
72 231.709091 m
72 388.8 l
stroke
grestore
gsave
72 388.8 m
518.4 388.8 l
stroke
grestore
gsave
518.4 231.709091 m
518.4 388.8 l
stroke
grestore
0.500 setlinewidth
1 setlinejoin
0 setlinecap
gsave
/o {
gsave
newpath
translate
0.5 setlinewidth
1 setlinejoin
0 setlinecap
0 0 m
0 4 l

gsave
0.000 setgray
fill
grestore
stroke
grestore
} bind def
72 231.709 o
grestore
gsave
/o {
gsave
newpath
translate
0.5 setlinewidth
1 setlinejoin
0 setlinecap
0 0 m
0 -4 l

gsave
0.000 setgray
fill
grestore
stroke
grestore
} bind def
72 388.8 o
grestore
/BitstreamVeraSans-Roman findfont
12.000 scalefont
setfont
gsave
68.179688 218.584091 translate
0.000000 rotate
0.000000 0.000000 m /zero glyphshow
grestore
gsave
/o {
gsave
newpath
translate
0.5 setlinewidth
1 setlinejoin
0 setlinecap
0 0 m
0 4 l

gsave
0.000 setgray
fill
grestore
stroke
grestore
} bind def
146.4 231.709 o
grestore
gsave
/o {
gsave
newpath
translate
0.5 setlinewidth
1 setlinejoin
0 setlinecap
0 0 m
0 -4 l

gsave
0.000 setgray
fill
grestore
stroke
grestore
} bind def
146.4 388.8 o
grestore
gsave
138.759375 218.584091 translate
0.000000 rotate
0.000000 0.000000 m /two glyphshow
7.634766 0.000000 m /zero glyphshow
grestore
gsave
/o {
gsave
newpath
translate
0.5 setlinewidth
1 setlinejoin
0 setlinecap
0 0 m
0 4 l

gsave
0.000 setgray
fill
grestore
stroke
grestore
} bind def
220.8 231.709 o
grestore
gsave
/o {
gsave
newpath
translate
0.5 setlinewidth
1 setlinejoin
0 setlinecap
0 0 m
0 -4 l

gsave
0.000 setgray
fill
grestore
stroke
grestore
} bind def
220.8 388.8 o
grestore
gsave
213.159375 218.584091 translate
0.000000 rotate
0.000000 0.000000 m /four glyphshow
7.634766 0.000000 m /zero glyphshow
grestore
gsave
/o {
gsave
newpath
translate
0.5 setlinewidth
1 setlinejoin
0 setlinecap
0 0 m
0 4 l

gsave
0.000 setgray
fill
grestore
stroke
grestore
} bind def
295.2 231.709 o
grestore
gsave
/o {
gsave
newpath
translate
0.5 setlinewidth
1 setlinejoin
0 setlinecap
0 0 m
0 -4 l

gsave
0.000 setgray
fill
grestore
stroke
grestore
} bind def
295.2 388.8 o
grestore
gsave
287.559375 218.584091 translate
0.000000 rotate
0.000000 0.000000 m /six glyphshow
7.634766 0.000000 m /zero glyphshow
grestore
gsave
/o {
gsave
newpath
translate
0.5 setlinewidth
1 setlinejoin
0 setlinecap
0 0 m
0 4 l

gsave
0.000 setgray
fill
grestore
stroke
grestore
} bind def
369.6 231.709 o
grestore
gsave
/o {
gsave
newpath
translate
0.5 setlinewidth
1 setlinejoin
0 setlinecap
0 0 m
0 -4 l

gsave
0.000 setgray
fill
grestore
stroke
grestore
} bind def
369.6 388.8 o
grestore
gsave
361.959375 218.584091 translate
0.000000 rotate
0.000000 0.000000 m /eight glyphshow
7.634766 0.000000 m /zero glyphshow
grestore
gsave
/o {
gsave
newpath
translate
0.5 setlinewidth
1 setlinejoin
0 setlinecap
0 0 m
0 4 l

gsave
0.000 setgray
fill
grestore
stroke
grestore
} bind def
444 231.709 o
grestore
gsave
/o {
gsave
newpath
translate
0.5 setlinewidth
1 setlinejoin
0 setlinecap
0 0 m
0 -4 l

gsave
0.000 setgray
fill
grestore
stroke
grestore
} bind def
444 388.8 o
grestore
gsave
432.539062 218.584091 translate
0.000000 rotate
0.000000 0.000000 m /one glyphshow
7.634766 0.000000 m /zero glyphshow
15.269531 0.000000 m /zero glyphshow
grestore
gsave
/o {
gsave
newpath
translate
0.5 setlinewidth
1 setlinejoin
0 setlinecap
0 0 m
0 4 l

gsave
0.000 setgray
fill
grestore
stroke
grestore
} bind def
518.4 231.709 o
grestore
gsave
/o {
gsave
newpath
translate
0.5 setlinewidth
1 setlinejoin
0 setlinecap
0 0 m
0 -4 l

gsave
0.000 setgray
fill
grestore
stroke
grestore
} bind def
518.4 388.8 o
grestore
gsave
506.939062 218.584091 translate
0.000000 rotate
0.000000 0.000000 m /one glyphshow
7.634766 0.000000 m /two glyphshow
15.269531 0.000000 m /zero glyphshow
grestore
gsave
244.707812 201.959091 translate
0.000000 rotate
0.000000 0.000000 m /I glyphshow
3.539062 0.000000 m /n glyphshow
11.144531 0.000000 m /d glyphshow
18.761719 0.000000 m /e glyphshow
26.144531 0.000000 m /x glyphshow
33.246094 0.000000 m /space glyphshow
37.060547 0.000000 m /parenleft glyphshow
41.742188 0.000000 m /two glyphshow
49.376953 0.000000 m /p glyphshow
56.994141 0.000000 m /a glyphshow
64.347656 0.000000 m /c glyphshow
70.945312 0.000000 m /k glyphshow
77.894531 0.000000 m /e glyphshow
85.277344 0.000000 m /t glyphshow
89.982422 0.000000 m /s glyphshow
96.234375 0.000000 m /parenright glyphshow
grestore
gsave
/o {
gsave
newpath
translate
0.5 setlinewidth
1 setlinejoin
0 setlinecap
0 0 m
4 0 l

gsave
0.000 setgray
fill
grestore
stroke
grestore
} bind def
72 231.709 o
grestore
gsave
/o {
gsave
newpath
translate
0.5 setlinewidth
1 setlinejoin
0 setlinecap
0 0 m
-4 0 l

gsave
0.000 setgray
fill
grestore
stroke
grestore
} bind def
518.4 231.709 o
grestore
gsave
52.718750 228.396591 translate
0.000000 rotate
0.000000 0.000000 m /one glyphshow
7.634766 0.000000 m /four glyphshow
grestore
gsave
/o {
gsave
newpath
translate
0.5 setlinewidth
1 setlinejoin
0 setlinecap
0 0 m
4 0 l

gsave
0.000 setgray
fill
grestore
stroke
grestore
} bind def
72 254.151 o
grestore
gsave
/o {
gsave
newpath
translate
0.5 setlinewidth
1 setlinejoin
0 setlinecap
0 0 m
-4 0 l

gsave
0.000 setgray
fill
grestore
stroke
grestore
} bind def
518.4 254.151 o
grestore
gsave
52.718750 250.838149 translate
0.000000 rotate
0.000000 0.000000 m /one glyphshow
7.634766 0.000000 m /five glyphshow
grestore
gsave
/o {
gsave
newpath
translate
0.5 setlinewidth
1 setlinejoin
0 setlinecap
0 0 m
4 0 l

gsave
0.000 setgray
fill
grestore
stroke
grestore
} bind def
72 276.592 o
grestore
gsave
/o {
gsave
newpath
translate
0.5 setlinewidth
1 setlinejoin
0 setlinecap
0 0 m
-4 0 l

gsave
0.000 setgray
fill
grestore
stroke
grestore
} bind def
518.4 276.592 o
grestore
gsave
52.718750 273.279708 translate
0.000000 rotate
0.000000 0.000000 m /one glyphshow
7.634766 0.000000 m /six glyphshow
grestore
gsave
/o {
gsave
newpath
translate
0.5 setlinewidth
1 setlinejoin
0 setlinecap
0 0 m
4 0 l

gsave
0.000 setgray
fill
grestore
stroke
grestore
} bind def
72 299.034 o
grestore
gsave
/o {
gsave
newpath
translate
0.5 setlinewidth
1 setlinejoin
0 setlinecap
0 0 m
-4 0 l

gsave
0.000 setgray
fill
grestore
stroke
grestore
} bind def
518.4 299.034 o
grestore
gsave
52.718750 295.721266 translate
0.000000 rotate
0.000000 0.000000 m /one glyphshow
7.634766 0.000000 m /seven glyphshow
grestore
gsave
/o {
gsave
newpath
translate
0.5 setlinewidth
1 setlinejoin
0 setlinecap
0 0 m
4 0 l

gsave
0.000 setgray
fill
grestore
stroke
grestore
} bind def
72 321.475 o
grestore
gsave
/o {
gsave
newpath
translate
0.5 setlinewidth
1 setlinejoin
0 setlinecap
0 0 m
-4 0 l

gsave
0.000 setgray
fill
grestore
stroke
grestore
} bind def
518.4 321.475 o
grestore
gsave
52.718750 318.162825 translate
0.000000 rotate
0.000000 0.000000 m /one glyphshow
7.634766 0.000000 m /eight glyphshow
grestore
gsave
/o {
gsave
newpath
translate
0.5 setlinewidth
1 setlinejoin
0 setlinecap
0 0 m
4 0 l

gsave
0.000 setgray
fill
grestore
stroke
grestore
} bind def
72 343.917 o
grestore
gsave
/o {
gsave
newpath
translate
0.5 setlinewidth
1 setlinejoin
0 setlinecap
0 0 m
-4 0 l

gsave
0.000 setgray
fill
grestore
stroke
grestore
} bind def
518.4 343.917 o
grestore
gsave
52.718750 340.604383 translate
0.000000 rotate
0.000000 0.000000 m /one glyphshow
7.634766 0.000000 m /nine glyphshow
grestore
gsave
/o {
gsave
newpath
translate
0.5 setlinewidth
1 setlinejoin
0 setlinecap
0 0 m
4 0 l

gsave
0.000 setgray
fill
grestore
stroke
grestore
} bind def
72 366.358 o
grestore
gsave
/o {
gsave
newpath
translate
0.5 setlinewidth
1 setlinejoin
0 setlinecap
0 0 m
-4 0 l

gsave
0.000 setgray
fill
grestore
stroke
grestore
} bind def
518.4 366.358 o
grestore
gsave
52.718750 363.045942 translate
0.000000 rotate
0.000000 0.000000 m /two glyphshow
7.634766 0.000000 m /zero glyphshow
grestore
gsave
/o {
gsave
newpath
translate
0.5 setlinewidth
1 setlinejoin
0 setlinecap
0 0 m
4 0 l

gsave
0.000 setgray
fill
grestore
stroke
grestore
} bind def
72 388.8 o
grestore
gsave
/o {
gsave
newpath
translate
0.5 setlinewidth
1 setlinejoin
0 setlinecap
0 0 m
-4 0 l

gsave
0.000 setgray
fill
grestore
stroke
grestore
} bind def
518.4 388.8 o
grestore
gsave
52.718750 385.487500 translate
0.000000 rotate
0.000000 0.000000 m /two glyphshow
7.634766 0.000000 m /one glyphshow
grestore
gsave
45.218750 263.926420 translate
90.000000 rotate
0.000000 0.000000 m /M glyphshow
10.353516 0.000000 m /a glyphshow
17.707031 0.000000 m /g glyphshow
25.324219 0.000000 m /n glyphshow
32.929688 0.000000 m /i glyphshow
36.263672 0.000000 m /t glyphshow
40.968750 0.000000 m /u glyphshow
48.574219 0.000000 m /d glyphshow
56.191406 0.000000 m /e glyphshow
63.574219 0.000000 m /space glyphshow
67.388672 0.000000 m /bracketleft glyphshow
72.070312 0.000000 m /d glyphshow
79.687500 0.000000 m /B glyphshow
87.919922 0.000000 m /bracketright glyphshow
grestore
1.000 setlinewidth
0 setlinejoin
gsave
339.000625 335.78625 m
511.2 335.78625 l
511.2 381.6 l
339.000625 381.6 l
cl
gsave
1.000 setgray
fill
grestore
stroke
grestore
1 setlinejoin
2 setlinecap
1.000 0.000 0.000 setrgbcolor
gsave
349.080625 370.239375 m
369.240625 370.239375 l
stroke
grestore
0.000 setgray
/BitstreamVeraSans-Roman findfont
14.400 scalefont
setfont
gsave
385.080625 365.199375 translate
0.000000 rotate
0.000000 0.000000 m /e glyphshow
8.843994 0.000000 m /r glyphshow
14.754028 0.000000 m /i glyphshow
18.747864 0.000000 m /c glyphshow
26.651306 0.000000 m /h glyphshow
35.762024 0.000000 m /space glyphshow
40.331421 0.000000 m /t glyphshow
45.967712 0.000000 m /x glyphshow
54.474792 0.000000 m /zero glyphshow
63.620605 0.000000 m /comma glyphshow
68.190002 0.000000 m /space glyphshow
72.759399 0.000000 m /r glyphshow
78.669434 0.000000 m /x glyphshow
87.176514 0.000000 m /zero glyphshow
grestore
0.000 0.000 1.000 setrgbcolor
gsave
349.080625 349.4925 m
369.240625 349.4925 l
stroke
grestore
0.000 setgray
gsave
385.080625 344.452500 translate
0.000000 rotate
0.000000 0.000000 m /m glyphshow
14.002991 0.000000 m /i glyphshow
17.996826 0.000000 m /r glyphshow
23.906860 0.000000 m /a glyphshow
32.715759 0.000000 m /n glyphshow
41.826477 0.000000 m /d glyphshow
50.951233 0.000000 m /a glyphshow
59.760132 0.000000 m /space glyphshow
64.329529 0.000000 m /t glyphshow
69.965820 0.000000 m /x glyphshow
78.472900 0.000000 m /zero glyphshow
87.618713 0.000000 m /comma glyphshow
92.188110 0.000000 m /space glyphshow
96.757507 0.000000 m /r glyphshow
102.667542 0.000000 m /x glyphshow
111.174622 0.000000 m /zero glyphshow
grestore
gsave
72 43.2 m
518.4 43.2 l
518.4 200.290909 l
72 200.290909 l
cl
1.000 setgray
fill
grestore
1.000 0.000 0.000 setrgbcolor
gsave
446.4 157.1 72 43.2 clipbox
72 117.06542 m
75.72 116.172991 l
79.44 114.612816 l
83.16 112.559224 l
86.88 112.087833 l
90.6 112.430004 l
94.32 110.973447 l
98.04 111.440149 l
101.76 110.973447 l
105.48 111.012458 l
109.2 110.524675 l
112.92 110.014728 l
116.64 109.505306 l
120.36 111.521422 l
124.08 112.954436 l
127.8 114.065252 l
131.52 116.273112 l
135.24 116.971719 l
138.96 116.632053 l
142.68 119.261549 l
146.4 119.543279 l
150.12 121.854551 l
153.84 123.16637 l
157.56 124.862901 l
161.28 127.082395 l
165 128.150234 l
168.72 128.150234 l
172.44 129.644127 l
176.16 133.647937 l
179.88 135.802333 l
183.6 136.954958 l
187.32 137.948828 l
191.04 140.15546 l
194.76 141.7396 l
198.48 141.992215 l
202.2 143.984284 l
205.92 144.860319 l
209.64 145.317865 l
213.36 148.057849 l
217.08 149.407677 l
220.8 150.480438 l
224.52 149.559371 l
228.24 150.205657 l
231.96 151.173756 l
235.68 151.273496 l
239.4 152.355364 l
243.12 151.571375 l
246.84 152.078229 l
250.56 151.78812 l
254.28 150.293663 l
258 149.267583 l
261.72 147.498674 l
265.44 146.691267 l
269.16 145.775793 l
272.88 144.707954 l
276.6 144.457221 l
stroke
grestore
0.000 0.000 1.000 setrgbcolor
gsave
446.4 157.1 72 43.2 clipbox
72 179.727405 m
75.72 177.320717 l
79.44 174.678174 l
83.16 172.703532 l
86.88 170.725352 l
90.6 167.465353 l
94.32 166.541479 l
98.04 165.124233 l
101.76 162.949569 l
105.48 161.946151 l
109.2 161.831578 l
112.92 160.951778 l
116.64 161.016603 l
120.36 160.85193 l
124.08 160.782229 l
127.8 160.477393 l
131.52 160.847682 l
135.24 161.678471 l
138.96 162.12037 l
142.68 161.535533 l
146.4 162.155879 l
150.12 162.760339 l
153.84 163.558283 l
157.56 163.401352 l
161.28 164.376457 l
165 165.173609 l
168.72 165.955022 l
172.44 166.365734 l
176.16 167.465353 l
179.88 168.514819 l
183.6 168.514819 l
187.32 169.540068 l
191.04 169.732648 l
194.76 170.720796 l
198.48 170.134152 l
202.2 171.015607 l
205.92 170.243211 l
209.64 171.252657 l
213.36 171.51912 l
217.08 172.197265 l
220.8 172.27163 l
224.52 172.017274 l
228.24 171.045311 l
231.96 171.135775 l
235.68 170.538199 l
239.4 170.621936 l
243.12 169.467874 l
246.84 168.742561 l
250.56 166.847113 l
254.28 165.165829 l
258 163.665358 l
261.72 161.13651 l
265.44 158.572822 l
269.16 155.87615 l
272.88 154.555729 l
276.6 153.087233 l
stroke
grestore
1.000 0.000 0.000 setrgbcolor
gsave
446.4 157.1 72 43.2 clipbox
72 117.06542 m
75.72 116.172991 l
79.44 114.612816 l
83.16 112.559224 l
86.88 112.087833 l
90.6 112.430004 l
94.32 110.973447 l
98.04 111.440149 l
101.76 110.973447 l
105.48 111.012458 l
109.2 110.524675 l
112.92 110.014728 l
116.64 109.505306 l
120.36 111.521422 l
124.08 112.954436 l
127.8 114.065252 l
131.52 116.273112 l
135.24 116.971719 l
138.96 116.632053 l
142.68 119.261549 l
146.4 119.543279 l
150.12 121.854551 l
153.84 123.16637 l
157.56 124.862901 l
161.28 127.082395 l
165 128.150234 l
168.72 128.150234 l
172.44 129.644127 l
176.16 133.647937 l
179.88 135.802333 l
183.6 136.954958 l
187.32 137.948828 l
191.04 140.15546 l
194.76 141.7396 l
198.48 141.992215 l
202.2 143.984284 l
205.92 144.860319 l
209.64 145.317865 l
213.36 148.057849 l
217.08 149.407677 l
220.8 150.480438 l
224.52 149.559371 l
228.24 150.205657 l
231.96 151.173756 l
235.68 151.273496 l
239.4 152.355364 l
243.12 151.571375 l
246.84 152.078229 l
250.56 151.78812 l
254.28 150.293663 l
258 149.267583 l
261.72 147.498674 l
265.44 146.691267 l
269.16 145.775793 l
272.88 144.707954 l
276.6 144.457221 l
280.32 90.545515 l
284.04 87.883953 l
287.76 87.518908 l
291.48 84.847744 l
295.2 84.659163 l
298.92 82.311694 l
302.64 81.663353 l
306.36 81.296114 l
310.08 80.240199 l
313.8 80.492498 l
317.52 78.979751 l
321.24 79.259093 l
324.96 79.259093 l
328.68 79.161461 l
332.4 80.363277 l
336.12 81.048303 l
339.84 82.856071 l
343.56 83.391326 l
347.28 84.35996 l
351 84.597848 l
354.72 85.144311 l
358.44 87.297997 l
362.16 86.997105 l
365.88 89.338645 l
369.6 91.176236 l
373.32 90.788236 l
377.04 91.630194 l
380.76 91.630194 l
384.48 95.382437 l
388.2 95.960204 l
391.92 98.801128 l
395.64 99.626559 l
399.36 101.365173 l
403.08 101.13907 l
406.8 102.942162 l
410.52 102.969168 l
414.24 105.984263 l
417.96 105.675392 l
421.68 106.72978 l
425.4 106.094811 l
429.12 106.903166 l
432.84 107.263692 l
436.56 109.505306 l
440.28 108.535099 l
444 107.675208 l
447.72 107.613948 l
451.44 108.535099 l
455.16 108.146221 l
458.88 108.094915 l
462.6 105.257134 l
466.32 103.140287 l
470.04 102.826684 l
473.76 101.365173 l
477.48 99.5657 l
481.2 96.763347 l
484.92 95.135836 l
stroke
grestore
0.000 0.000 1.000 setrgbcolor
gsave
446.4 157.1 72 43.2 clipbox
72 179.727405 m
75.72 177.320717 l
79.44 174.678174 l
83.16 172.703532 l
86.88 170.725352 l
90.6 167.465353 l
94.32 166.541479 l
98.04 165.124233 l
101.76 162.949569 l
105.48 161.946151 l
109.2 161.831578 l
112.92 160.951778 l
116.64 161.016603 l
120.36 160.85193 l
124.08 160.782229 l
127.8 160.477393 l
131.52 160.847682 l
135.24 161.678471 l
138.96 162.12037 l
142.68 161.535533 l
146.4 162.155879 l
150.12 162.760339 l
153.84 163.558283 l
157.56 163.401352 l
161.28 164.376457 l
165 165.173609 l
168.72 165.955022 l
172.44 166.365734 l
176.16 167.465353 l
179.88 168.514819 l
183.6 168.514819 l
187.32 169.540068 l
191.04 169.732648 l
194.76 170.720796 l
198.48 170.134152 l
202.2 171.015607 l
205.92 170.243211 l
209.64 171.252657 l
213.36 171.51912 l
217.08 172.197265 l
220.8 172.27163 l
224.52 172.017274 l
228.24 171.045311 l
231.96 171.135775 l
235.68 170.538199 l
239.4 170.621936 l
243.12 169.467874 l
246.84 168.742561 l
250.56 166.847113 l
254.28 165.165829 l
258 163.665358 l
261.72 161.13651 l
265.44 158.572822 l
269.16 155.87615 l
272.88 154.555729 l
276.6 153.087233 l
280.32 59.37088 l
284.04 58.715838 l
287.76 57.647999 l
291.48 55.069989 l
295.2 52.740727 l
298.92 51.873254 l
302.64 50.427415 l
306.36 50.427415 l
310.08 48.843275 l
313.8 49.306271 l
317.52 49.306271 l
321.24 48.561596 l
324.96 50.668713 l
328.68 50.427415 l
332.4 51.143392 l
336.12 50.427415 l
339.84 51.672888 l
343.56 53.055518 l
347.28 53.538707 l
351 55.537118 l
354.72 56.047748 l
358.44 55.988692 l
362.16 57.647999 l
365.88 58.449143 l
369.6 60.226009 l
373.32 61.162389 l
377.04 62.963254 l
380.76 64.375441 l
384.48 67.876272 l
388.2 67.539135 l
391.92 69.775855 l
395.64 71.385655 l
399.36 72.012575 l
403.08 72.675741 l
406.8 73.142693 l
410.52 74.739336 l
414.24 75.273558 l
417.96 76.873808 l
421.68 76.873808 l
425.4 77.812842 l
429.12 77.812842 l
432.84 79.137788 l
436.56 78.814134 l
440.28 81.584847 l
444 80.18083 l
447.72 81.454549 l
451.44 80.883468 l
455.16 80.432971 l
458.88 79.057136 l
462.6 78.736712 l
466.32 77.220101 l
470.04 75.772177 l
473.76 74.205719 l
477.48 71.847869 l
481.2 71.237365 l
484.92 68.732813 l
stroke
grestore
0 setlinejoin
0.000 setgray
gsave
72 43.2 m
518.4 43.2 l
stroke
grestore
gsave
72 43.2 m
72 200.290909 l
stroke
grestore
gsave
72 200.290909 m
518.4 200.290909 l
stroke
grestore
gsave
518.4 43.2 m
518.4 200.290909 l
stroke
grestore
0.500 setlinewidth
1 setlinejoin
0 setlinecap
gsave
/o {
gsave
newpath
translate
0.5 setlinewidth
1 setlinejoin
0 setlinecap
0 0 m
0 4 l

gsave
0.000 setgray
fill
grestore
stroke
grestore
} bind def
72 43.2 o
grestore
gsave
/o {
gsave
newpath
translate
0.5 setlinewidth
1 setlinejoin
0 setlinecap
0 0 m
0 -4 l

gsave
0.000 setgray
fill
grestore
stroke
grestore
} bind def
72 200.291 o
grestore
/BitstreamVeraSans-Roman findfont
12.000 scalefont
setfont
gsave
68.179688 30.075000 translate
0.000000 rotate
0.000000 0.000000 m /zero glyphshow
grestore
gsave
/o {
gsave
newpath
translate
0.5 setlinewidth
1 setlinejoin
0 setlinecap
0 0 m
0 4 l

gsave
0.000 setgray
fill
grestore
stroke
grestore
} bind def
146.4 43.2 o
grestore
gsave
/o {
gsave
newpath
translate
0.5 setlinewidth
1 setlinejoin
0 setlinecap
0 0 m
0 -4 l

gsave
0.000 setgray
fill
grestore
stroke
grestore
} bind def
146.4 200.291 o
grestore
gsave
138.759375 30.075000 translate
0.000000 rotate
0.000000 0.000000 m /two glyphshow
7.634766 0.000000 m /zero glyphshow
grestore
gsave
/o {
gsave
newpath
translate
0.5 setlinewidth
1 setlinejoin
0 setlinecap
0 0 m
0 4 l

gsave
0.000 setgray
fill
grestore
stroke
grestore
} bind def
220.8 43.2 o
grestore
gsave
/o {
gsave
newpath
translate
0.5 setlinewidth
1 setlinejoin
0 setlinecap
0 0 m
0 -4 l

gsave
0.000 setgray
fill
grestore
stroke
grestore
} bind def
220.8 200.291 o
grestore
gsave
213.159375 30.075000 translate
0.000000 rotate
0.000000 0.000000 m /four glyphshow
7.634766 0.000000 m /zero glyphshow
grestore
gsave
/o {
gsave
newpath
translate
0.5 setlinewidth
1 setlinejoin
0 setlinecap
0 0 m
0 4 l

gsave
0.000 setgray
fill
grestore
stroke
grestore
} bind def
295.2 43.2 o
grestore
gsave
/o {
gsave
newpath
translate
0.5 setlinewidth
1 setlinejoin
0 setlinecap
0 0 m
0 -4 l

gsave
0.000 setgray
fill
grestore
stroke
grestore
} bind def
295.2 200.291 o
grestore
gsave
287.559375 30.075000 translate
0.000000 rotate
0.000000 0.000000 m /six glyphshow
7.634766 0.000000 m /zero glyphshow
grestore
gsave
/o {
gsave
newpath
translate
0.5 setlinewidth
1 setlinejoin
0 setlinecap
0 0 m
0 4 l

gsave
0.000 setgray
fill
grestore
stroke
grestore
} bind def
369.6 43.2 o
grestore
gsave
/o {
gsave
newpath
translate
0.5 setlinewidth
1 setlinejoin
0 setlinecap
0 0 m
0 -4 l

gsave
0.000 setgray
fill
grestore
stroke
grestore
} bind def
369.6 200.291 o
grestore
gsave
361.959375 30.075000 translate
0.000000 rotate
0.000000 0.000000 m /eight glyphshow
7.634766 0.000000 m /zero glyphshow
grestore
gsave
/o {
gsave
newpath
translate
0.5 setlinewidth
1 setlinejoin
0 setlinecap
0 0 m
0 4 l

gsave
0.000 setgray
fill
grestore
stroke
grestore
} bind def
444 43.2 o
grestore
gsave
/o {
gsave
newpath
translate
0.5 setlinewidth
1 setlinejoin
0 setlinecap
0 0 m
0 -4 l

gsave
0.000 setgray
fill
grestore
stroke
grestore
} bind def
444 200.291 o
grestore
gsave
432.539062 30.075000 translate
0.000000 rotate
0.000000 0.000000 m /one glyphshow
7.634766 0.000000 m /zero glyphshow
15.269531 0.000000 m /zero glyphshow
grestore
gsave
/o {
gsave
newpath
translate
0.5 setlinewidth
1 setlinejoin
0 setlinecap
0 0 m
0 4 l

gsave
0.000 setgray
fill
grestore
stroke
grestore
} bind def
518.4 43.2 o
grestore
gsave
/o {
gsave
newpath
translate
0.5 setlinewidth
1 setlinejoin
0 setlinecap
0 0 m
0 -4 l

gsave
0.000 setgray
fill
grestore
stroke
grestore
} bind def
518.4 200.291 o
grestore
gsave
506.939062 30.075000 translate
0.000000 rotate
0.000000 0.000000 m /one glyphshow
7.634766 0.000000 m /two glyphshow
15.269531 0.000000 m /zero glyphshow
grestore
gsave
244.707812 13.450000 translate
0.000000 rotate
0.000000 0.000000 m /I glyphshow
3.539062 0.000000 m /n glyphshow
11.144531 0.000000 m /d glyphshow
18.761719 0.000000 m /e glyphshow
26.144531 0.000000 m /x glyphshow
33.246094 0.000000 m /space glyphshow
37.060547 0.000000 m /parenleft glyphshow
41.742188 0.000000 m /two glyphshow
49.376953 0.000000 m /p glyphshow
56.994141 0.000000 m /a glyphshow
64.347656 0.000000 m /c glyphshow
70.945312 0.000000 m /k glyphshow
77.894531 0.000000 m /e glyphshow
85.277344 0.000000 m /t glyphshow
89.982422 0.000000 m /s glyphshow
96.234375 0.000000 m /parenright glyphshow
grestore
gsave
/o {
gsave
newpath
translate
0.5 setlinewidth
1 setlinejoin
0 setlinecap
0 0 m
4 0 l

gsave
0.000 setgray
fill
grestore
stroke
grestore
} bind def
72 43.2 o
grestore
gsave
/o {
gsave
newpath
translate
0.5 setlinewidth
1 setlinejoin
0 setlinecap
0 0 m
-4 0 l

gsave
0.000 setgray
fill
grestore
stroke
grestore
} bind def
518.4 43.2 o
grestore
gsave
50.296875 39.887500 translate
0.000000 rotate
0.000000 0.000000 m /minus glyphshow
10.054688 0.000000 m /three glyphshow
grestore
gsave
/o {
gsave
newpath
translate
0.5 setlinewidth
1 setlinejoin
0 setlinecap
0 0 m
4 0 l

gsave
0.000 setgray
fill
grestore
stroke
grestore
} bind def
72 65.6416 o
grestore
gsave
/o {
gsave
newpath
translate
0.5 setlinewidth
1 setlinejoin
0 setlinecap
0 0 m
-4 0 l

gsave
0.000 setgray
fill
grestore
stroke
grestore
} bind def
518.4 65.6416 o
grestore
gsave
50.296875 62.329058 translate
0.000000 rotate
0.000000 0.000000 m /minus glyphshow
10.054688 0.000000 m /two glyphshow
grestore
gsave
/o {
gsave
newpath
translate
0.5 setlinewidth
1 setlinejoin
0 setlinecap
0 0 m
4 0 l

gsave
0.000 setgray
fill
grestore
stroke
grestore
} bind def
72 88.0831 o
grestore
gsave
/o {
gsave
newpath
translate
0.5 setlinewidth
1 setlinejoin
0 setlinecap
0 0 m
-4 0 l

gsave
0.000 setgray
fill
grestore
stroke
grestore
} bind def
518.4 88.0831 o
grestore
gsave
50.296875 84.770617 translate
0.000000 rotate
0.000000 0.000000 m /minus glyphshow
10.054688 0.000000 m /one glyphshow
grestore
gsave
/o {
gsave
newpath
translate
0.5 setlinewidth
1 setlinejoin
0 setlinecap
0 0 m
4 0 l

gsave
0.000 setgray
fill
grestore
stroke
grestore
} bind def
72 110.525 o
grestore
gsave
/o {
gsave
newpath
translate
0.5 setlinewidth
1 setlinejoin
0 setlinecap
0 0 m
-4 0 l

gsave
0.000 setgray
fill
grestore
stroke
grestore
} bind def
518.4 110.525 o
grestore
gsave
60.359375 107.212175 translate
0.000000 rotate
0.000000 0.000000 m /zero glyphshow
grestore
gsave
/o {
gsave
newpath
translate
0.5 setlinewidth
1 setlinejoin
0 setlinecap
0 0 m
4 0 l

gsave
0.000 setgray
fill
grestore
stroke
grestore
} bind def
72 132.966 o
grestore
gsave
/o {
gsave
newpath
translate
0.5 setlinewidth
1 setlinejoin
0 setlinecap
0 0 m
-4 0 l

gsave
0.000 setgray
fill
grestore
stroke
grestore
} bind def
518.4 132.966 o
grestore
gsave
60.359375 129.653734 translate
0.000000 rotate
0.000000 0.000000 m /one glyphshow
grestore
gsave
/o {
gsave
newpath
translate
0.5 setlinewidth
1 setlinejoin
0 setlinecap
0 0 m
4 0 l

gsave
0.000 setgray
fill
grestore
stroke
grestore
} bind def
72 155.408 o
grestore
gsave
/o {
gsave
newpath
translate
0.5 setlinewidth
1 setlinejoin
0 setlinecap
0 0 m
-4 0 l

gsave
0.000 setgray
fill
grestore
stroke
grestore
} bind def
518.4 155.408 o
grestore
gsave
60.359375 152.095292 translate
0.000000 rotate
0.000000 0.000000 m /two glyphshow
grestore
gsave
/o {
gsave
newpath
translate
0.5 setlinewidth
1 setlinejoin
0 setlinecap
0 0 m
4 0 l

gsave
0.000 setgray
fill
grestore
stroke
grestore
} bind def
72 177.849 o
grestore
gsave
/o {
gsave
newpath
translate
0.5 setlinewidth
1 setlinejoin
0 setlinecap
0 0 m
-4 0 l

gsave
0.000 setgray
fill
grestore
stroke
grestore
} bind def
518.4 177.849 o
grestore
gsave
60.359375 174.536851 translate
0.000000 rotate
0.000000 0.000000 m /three glyphshow
grestore
gsave
/o {
gsave
newpath
translate
0.5 setlinewidth
1 setlinejoin
0 setlinecap
0 0 m
4 0 l

gsave
0.000 setgray
fill
grestore
stroke
grestore
} bind def
72 200.291 o
grestore
gsave
/o {
gsave
newpath
translate
0.5 setlinewidth
1 setlinejoin
0 setlinecap
0 0 m
-4 0 l

gsave
0.000 setgray
fill
grestore
stroke
grestore
} bind def
518.4 200.291 o
grestore
gsave
60.359375 196.978409 translate
0.000000 rotate
0.000000 0.000000 m /four glyphshow
grestore
gsave
42.796875 87.268892 translate
90.000000 rotate
0.000000 0.000000 m /P glyphshow
7.236328 0.000000 m /h glyphshow
14.841797 0.000000 m /a glyphshow
22.195312 0.000000 m /s glyphshow
28.447266 0.000000 m /e glyphshow
35.830078 0.000000 m /space glyphshow
39.644531 0.000000 m /bracketleft glyphshow
44.326172 0.000000 m /r glyphshow
49.259766 0.000000 m /a glyphshow
56.613281 0.000000 m /d glyphshow
64.230469 0.000000 m /bracketright glyphshow
grestore
1.000 setlinewidth
0 setlinejoin
gsave
339.000625 147.277159 m
511.2 147.277159 l
511.2 193.090909 l
339.000625 193.090909 l
cl
gsave
1.000 setgray
fill
grestore
stroke
grestore
1 setlinejoin
2 setlinecap
1.000 0.000 0.000 setrgbcolor
gsave
349.080625 181.730284 m
369.240625 181.730284 l
stroke
grestore
0.000 setgray
/BitstreamVeraSans-Roman findfont
14.400 scalefont
setfont
gsave
385.080625 176.690284 translate
0.000000 rotate
0.000000 0.000000 m /e glyphshow
8.843994 0.000000 m /r glyphshow
14.754028 0.000000 m /i glyphshow
18.747864 0.000000 m /c glyphshow
26.651306 0.000000 m /h glyphshow
35.762024 0.000000 m /space glyphshow
40.331421 0.000000 m /t glyphshow
45.967712 0.000000 m /x glyphshow
54.474792 0.000000 m /zero glyphshow
63.620605 0.000000 m /comma glyphshow
68.190002 0.000000 m /space glyphshow
72.759399 0.000000 m /r glyphshow
78.669434 0.000000 m /x glyphshow
87.176514 0.000000 m /zero glyphshow
grestore
0.000 0.000 1.000 setrgbcolor
gsave
349.080625 160.983409 m
369.240625 160.983409 l
stroke
grestore
0.000 setgray
gsave
385.080625 155.943409 translate
0.000000 rotate
0.000000 0.000000 m /m glyphshow
14.002991 0.000000 m /i glyphshow
17.996826 0.000000 m /r glyphshow
23.906860 0.000000 m /a glyphshow
32.715759 0.000000 m /n glyphshow
41.826477 0.000000 m /d glyphshow
50.951233 0.000000 m /a glyphshow
59.760132 0.000000 m /space glyphshow
64.329529 0.000000 m /t glyphshow
69.965820 0.000000 m /x glyphshow
78.472900 0.000000 m /zero glyphshow
87.618713 0.000000 m /comma glyphshow
92.188110 0.000000 m /space glyphshow
96.757507 0.000000 m /r glyphshow
102.667542 0.000000 m /x glyphshow
111.174622 0.000000 m /zero glyphshow
grestore

end
showpage
