%!PS-Adobe-3.0 EPSF-3.0
%%Title: e_rx0_tx0_m_rx0_tx0_100pkts.eps
%%Creator: matplotlib version 1.5.1, http://matplotlib.org/
%%CreationDate: Fri Jan 13 20:51:53 2017
%%Orientation: portrait
%%BoundingBox: 18 180 594 612
%%EndComments
%%BeginProlog
/mpldict 8 dict def
mpldict begin
/m { moveto } bind def
/l { lineto } bind def
/r { rlineto } bind def
/c { curveto } bind def
/cl { closepath } bind def
/box {
m
1 index 0 r
0 exch r
neg 0 r
cl
} bind def
/clipbox {
box
clip
newpath
} bind def
%!PS-Adobe-3.0 Resource-Font
%%Title: Bitstream Vera Sans
%%Copyright: Copyright (c) 2003 by Bitstream, Inc. All Rights Reserved.
%%Creator: Converted from TrueType to type 3 by PPR
25 dict begin
/_d{bind def}bind def
/_m{moveto}_d
/_l{lineto}_d
/_cl{closepath eofill}_d
/_c{curveto}_d
/_sc{7 -1 roll{setcachedevice}{pop pop pop pop pop pop}ifelse}_d
/_e{exec}_d
/FontName /BitstreamVeraSans-Roman def
/PaintType 0 def
/FontMatrix[.001 0 0 .001 0 0]def
/FontBBox[-183 -236 1287 928]def
/FontType 3 def
/Encoding [ /space /parenleft /parenright /comma /zero /one /two /three /four /five /six /eight /B /I /M /P /bracketleft /bracketright /a /c /d /e /g /h /i /k /n /p /r /s /t /u /x /minus ] def
/FontInfo 10 dict dup begin
/FamilyName (Bitstream Vera Sans) def
/FullName (Bitstream Vera Sans) def
/Notice (Copyright (c) 2003 by Bitstream, Inc. All Rights Reserved. Bitstream Vera is a trademark of Bitstream, Inc.) def
/Weight (Roman) def
/Version (Release 1.10) def
/ItalicAngle 0.0 def
/isFixedPitch false def
/UnderlinePosition -213 def
/UnderlineThickness 143 def
end readonly def
/CharStrings 34 dict dup begin
/space{318 0 0 0 0 0 _sc
}_d
/parenleft{390 0 86 -131 310 759 _sc
310 759 _m
266 683 234 609 213 536 _c
191 463 181 389 181 314 _c
181 238 191 164 213 91 _c
234 17 266 -56 310 -131 _c
232 -131 _l
183 -54 146 20 122 94 _c
98 168 86 241 86 314 _c
86 386 98 459 122 533 _c
146 607 182 682 232 759 _c
310 759 _l
_cl}_d
/parenright{390 0 80 -131 304 759 _sc
80 759 _m
158 759 _l
206 682 243 607 267 533 _c
291 459 304 386 304 314 _c
304 241 291 168 267 94 _c
243 20 206 -54 158 -131 _c
80 -131 _l
123 -56 155 17 177 91 _c
198 164 209 238 209 314 _c
209 389 198 463 177 536 _c
155 609 123 683 80 759 _c
_cl}_d
/comma{318 0 77 -115 220 124 _sc
117 124 _m
220 124 _l
220 40 _l
140 -115 _l
77 -115 _l
117 40 _l
117 124 _l
_cl}_d
/zero{636 0 66 -13 570 742 _sc
318 664 _m
267 664 229 639 203 589 _c
177 539 165 464 165 364 _c
165 264 177 189 203 139 _c
229 89 267 64 318 64 _c
369 64 407 89 433 139 _c
458 189 471 264 471 364 _c
471 464 458 539 433 589 _c
407 639 369 664 318 664 _c
318 742 _m
399 742 461 709 505 645 _c
548 580 570 486 570 364 _c
570 241 548 147 505 83 _c
461 19 399 -13 318 -13 _c
236 -13 173 19 130 83 _c
87 147 66 241 66 364 _c
66 486 87 580 130 645 _c
173 709 236 742 318 742 _c
_cl}_d
/one{636 0 110 0 544 729 _sc
124 83 _m
285 83 _l
285 639 _l
110 604 _l
110 694 _l
284 729 _l
383 729 _l
383 83 _l
544 83 _l
544 0 _l
124 0 _l
124 83 _l
_cl}_d
/two{{636 0 73 0 536 742 _sc
192 83 _m
536 83 _l
536 0 _l
73 0 _l
73 83 _l
110 121 161 173 226 239 _c
290 304 331 346 348 365 _c
380 400 402 430 414 455 _c
426 479 433 504 433 528 _c
433 566 419 598 392 622 _c
365 646 330 659 286 659 _c
255 659 222 653 188 643 _c
154 632 117 616 78 594 _c
78 694 _l
118 710 155 722 189 730 _c
223 738 255 742 284 742 _c
}_e{359 742 419 723 464 685 _c
509 647 532 597 532 534 _c
532 504 526 475 515 449 _c
504 422 484 390 454 354 _c
446 344 420 317 376 272 _c
332 227 271 164 192 83 _c
_cl}_e}_d
/three{{636 0 76 -13 556 742 _sc
406 393 _m
453 383 490 362 516 330 _c
542 298 556 258 556 212 _c
556 140 531 84 482 45 _c
432 6 362 -13 271 -13 _c
240 -13 208 -10 176 -4 _c
144 1 110 10 76 22 _c
76 117 _l
103 101 133 89 166 81 _c
198 73 232 69 268 69 _c
330 69 377 81 409 105 _c
441 129 458 165 458 212 _c
458 254 443 288 413 312 _c
383 336 341 349 287 349 _c
}_e{202 349 _l
202 430 _l
291 430 _l
339 430 376 439 402 459 _c
428 478 441 506 441 543 _c
441 580 427 609 401 629 _c
374 649 336 659 287 659 _c
260 659 231 656 200 650 _c
169 644 135 635 98 623 _c
98 711 _l
135 721 170 729 203 734 _c
235 739 266 742 296 742 _c
370 742 429 725 473 691 _c
517 657 539 611 539 553 _c
539 513 527 479 504 451 _c
481 423 448 403 406 393 _c
_cl}_e}_d
/four{636 0 49 0 580 729 _sc
378 643 _m
129 254 _l
378 254 _l
378 643 _l
352 729 _m
476 729 _l
476 254 _l
580 254 _l
580 172 _l
476 172 _l
476 0 _l
378 0 _l
378 172 _l
49 172 _l
49 267 _l
352 729 _l
_cl}_d
/five{{636 0 77 -13 549 729 _sc
108 729 _m
495 729 _l
495 646 _l
198 646 _l
198 467 _l
212 472 227 476 241 478 _c
255 480 270 482 284 482 _c
365 482 429 459 477 415 _c
525 370 549 310 549 234 _c
549 155 524 94 475 51 _c
426 8 357 -13 269 -13 _c
238 -13 207 -10 175 -6 _c
143 -1 111 6 77 17 _c
77 116 _l
106 100 136 88 168 80 _c
199 72 232 69 267 69 _c
}_e{323 69 368 83 401 113 _c
433 143 450 183 450 234 _c
450 284 433 324 401 354 _c
368 384 323 399 267 399 _c
241 399 214 396 188 390 _c
162 384 135 375 108 363 _c
108 729 _l
_cl}_e}_d
/six{{636 0 70 -13 573 742 _sc
330 404 _m
286 404 251 388 225 358 _c
199 328 186 286 186 234 _c
186 181 199 139 225 109 _c
251 79 286 64 330 64 _c
374 64 409 79 435 109 _c
461 139 474 181 474 234 _c
474 286 461 328 435 358 _c
409 388 374 404 330 404 _c
526 713 _m
526 623 _l
501 635 476 644 451 650 _c
425 656 400 659 376 659 _c
310 659 260 637 226 593 _c
}_e{192 549 172 482 168 394 _c
187 422 211 444 240 459 _c
269 474 301 482 336 482 _c
409 482 467 459 509 415 _c
551 371 573 310 573 234 _c
573 159 550 99 506 54 _c
462 9 403 -13 330 -13 _c
246 -13 181 19 137 83 _c
92 147 70 241 70 364 _c
70 479 97 571 152 639 _c
206 707 280 742 372 742 _c
396 742 421 739 447 735 _c
472 730 498 723 526 713 _c
_cl}_e}_d
/eight{{636 0 68 -13 568 742 _sc
318 346 _m
271 346 234 333 207 308 _c
180 283 167 249 167 205 _c
167 161 180 126 207 101 _c
234 76 271 64 318 64 _c
364 64 401 76 428 102 _c
455 127 469 161 469 205 _c
469 249 455 283 429 308 _c
402 333 365 346 318 346 _c
219 388 _m
177 398 144 418 120 447 _c
96 476 85 511 85 553 _c
85 611 105 657 147 691 _c
188 725 245 742 318 742 _c
}_e{390 742 447 725 489 691 _c
530 657 551 611 551 553 _c
551 511 539 476 515 447 _c
491 418 459 398 417 388 _c
464 377 501 355 528 323 _c
554 291 568 251 568 205 _c
568 134 546 80 503 43 _c
459 5 398 -13 318 -13 _c
237 -13 175 5 132 43 _c
89 80 68 134 68 205 _c
68 251 81 291 108 323 _c
134 355 171 377 219 388 _c
183 544 _m
183 506 194 476 218 455 _c
}_e{242 434 275 424 318 424 _c
360 424 393 434 417 455 _c
441 476 453 506 453 544 _c
453 582 441 611 417 632 _c
393 653 360 664 318 664 _c
275 664 242 653 218 632 _c
194 611 183 582 183 544 _c
_cl}_e}_d
/B{{686 0 98 0 615 729 _sc
197 348 _m
197 81 _l
355 81 _l
408 81 447 92 473 114 _c
498 136 511 169 511 215 _c
511 260 498 293 473 315 _c
447 337 408 348 355 348 _c
197 348 _l
197 648 _m
197 428 _l
343 428 _l
391 428 426 437 450 455 _c
474 473 486 500 486 538 _c
486 574 474 602 450 620 _c
426 638 391 648 343 648 _c
197 648 _l
98 729 _m
350 729 _l
}_e{425 729 483 713 524 682 _c
564 650 585 606 585 549 _c
585 504 574 468 553 442 _c
532 416 502 399 462 393 _c
510 382 548 360 575 327 _c
601 294 615 253 615 204 _c
615 138 592 88 548 53 _c
504 17 441 0 360 0 _c
98 0 _l
98 729 _l
_cl}_e}_d
/I{295 0 98 0 197 729 _sc
98 729 _m
197 729 _l
197 0 _l
98 0 _l
98 729 _l
_cl}_d
/M{863 0 98 0 765 729 _sc
98 729 _m
245 729 _l
431 233 _l
618 729 _l
765 729 _l
765 0 _l
669 0 _l
669 640 _l
481 140 _l
382 140 _l
194 640 _l
194 0 _l
98 0 _l
98 729 _l
_cl}_d
/P{603 0 98 0 569 729 _sc
197 648 _m
197 374 _l
321 374 _l
367 374 402 385 427 409 _c
452 433 465 467 465 511 _c
465 555 452 588 427 612 _c
402 636 367 648 321 648 _c
197 648 _l
98 729 _m
321 729 _l
402 729 464 710 506 673 _c
548 636 569 582 569 511 _c
569 439 548 384 506 348 _c
464 311 402 293 321 293 _c
197 293 _l
197 0 _l
98 0 _l
98 729 _l
_cl}_d
/bracketleft{390 0 86 -131 293 760 _sc
86 760 _m
293 760 _l
293 690 _l
176 690 _l
176 -61 _l
293 -61 _l
293 -131 _l
86 -131 _l
86 760 _l
_cl}_d
/bracketright{390 0 97 -131 304 760 _sc
304 760 _m
304 -131 _l
97 -131 _l
97 -61 _l
214 -61 _l
214 690 _l
97 690 _l
97 760 _l
304 760 _l
_cl}_d
/a{{613 0 60 -13 522 560 _sc
343 275 _m
270 275 220 266 192 250 _c
164 233 150 205 150 165 _c
150 133 160 107 181 89 _c
202 70 231 61 267 61 _c
317 61 357 78 387 114 _c
417 149 432 196 432 255 _c
432 275 _l
343 275 _l
522 312 _m
522 0 _l
432 0 _l
432 83 _l
411 49 385 25 355 10 _c
325 -5 287 -13 243 -13 _c
187 -13 142 2 109 33 _c
76 64 60 106 60 159 _c
}_e{60 220 80 266 122 298 _c
163 329 224 345 306 345 _c
432 345 _l
432 354 _l
432 395 418 427 391 450 _c
364 472 326 484 277 484 _c
245 484 215 480 185 472 _c
155 464 127 453 100 439 _c
100 522 _l
132 534 164 544 195 550 _c
226 556 256 560 286 560 _c
365 560 424 539 463 498 _c
502 457 522 395 522 312 _c
_cl}_e}_d
/c{{550 0 55 -13 488 560 _sc
488 526 _m
488 442 _l
462 456 437 466 411 473 _c
385 480 360 484 334 484 _c
276 484 230 465 198 428 _c
166 391 150 339 150 273 _c
150 206 166 154 198 117 _c
230 80 276 62 334 62 _c
360 62 385 65 411 72 _c
437 79 462 90 488 104 _c
488 21 _l
462 9 436 0 410 -5 _c
383 -10 354 -13 324 -13 _c
242 -13 176 12 128 64 _c
}_e{79 115 55 185 55 273 _c
55 362 79 432 128 483 _c
177 534 244 560 330 560 _c
358 560 385 557 411 551 _c
437 545 463 537 488 526 _c
_cl}_e}_d
/d{{635 0 55 -13 544 760 _sc
454 464 _m
454 760 _l
544 760 _l
544 0 _l
454 0 _l
454 82 _l
435 49 411 25 382 10 _c
353 -5 319 -13 279 -13 _c
213 -13 159 13 117 65 _c
75 117 55 187 55 273 _c
55 359 75 428 117 481 _c
159 533 213 560 279 560 _c
319 560 353 552 382 536 _c
411 520 435 496 454 464 _c
148 273 _m
148 207 161 155 188 117 _c
215 79 253 61 301 61 _c
}_e{348 61 385 79 413 117 _c
440 155 454 207 454 273 _c
454 339 440 390 413 428 _c
385 466 348 485 301 485 _c
253 485 215 466 188 428 _c
161 390 148 339 148 273 _c
_cl}_e}_d
/e{{615 0 55 -13 562 560 _sc
562 296 _m
562 252 _l
149 252 _l
153 190 171 142 205 110 _c
238 78 284 62 344 62 _c
378 62 412 66 444 74 _c
476 82 509 95 541 113 _c
541 28 _l
509 14 476 3 442 -3 _c
408 -9 373 -13 339 -13 _c
251 -13 182 12 131 62 _c
80 112 55 181 55 268 _c
55 357 79 428 127 481 _c
175 533 241 560 323 560 _c
397 560 455 536 498 489 _c
}_e{540 441 562 377 562 296 _c
472 322 _m
471 371 457 410 431 440 _c
404 469 368 484 324 484 _c
274 484 234 469 204 441 _c
174 413 156 373 152 322 _c
472 322 _l
_cl}_e}_d
/g{{635 0 55 -207 544 560 _sc
454 280 _m
454 344 440 395 414 431 _c
387 467 349 485 301 485 _c
253 485 215 467 188 431 _c
161 395 148 344 148 280 _c
148 215 161 165 188 129 _c
215 93 253 75 301 75 _c
349 75 387 93 414 129 _c
440 165 454 215 454 280 _c
544 68 _m
544 -24 523 -93 482 -139 _c
440 -184 377 -207 292 -207 _c
260 -207 231 -204 203 -200 _c
175 -195 147 -188 121 -178 _c
}_e{121 -91 _l
147 -105 173 -115 199 -122 _c
225 -129 251 -133 278 -133 _c
336 -133 380 -117 410 -87 _c
439 -56 454 -10 454 52 _c
454 96 _l
435 64 411 40 382 24 _c
353 8 319 0 279 0 _c
211 0 157 25 116 76 _c
75 127 55 195 55 280 _c
55 364 75 432 116 483 _c
157 534 211 560 279 560 _c
319 560 353 552 382 536 _c
411 520 435 496 454 464 _c
454 547 _l
544 547 _l
}_e{544 68 _l
_cl}_e}_d
/h{634 0 91 0 549 760 _sc
549 330 _m
549 0 _l
459 0 _l
459 327 _l
459 379 448 417 428 443 _c
408 469 378 482 338 482 _c
289 482 251 466 223 435 _c
195 404 181 362 181 309 _c
181 0 _l
91 0 _l
91 760 _l
181 760 _l
181 462 _l
202 494 227 519 257 535 _c
286 551 320 560 358 560 _c
420 560 468 540 500 501 _c
532 462 549 405 549 330 _c
_cl}_d
/i{278 0 94 0 184 760 _sc
94 547 _m
184 547 _l
184 0 _l
94 0 _l
94 547 _l
94 760 _m
184 760 _l
184 646 _l
94 646 _l
94 760 _l
_cl}_d
/k{579 0 91 0 576 760 _sc
91 760 _m
181 760 _l
181 311 _l
449 547 _l
564 547 _l
274 291 _l
576 0 _l
459 0 _l
181 267 _l
181 0 _l
91 0 _l
91 760 _l
_cl}_d
/n{634 0 91 0 549 560 _sc
549 330 _m
549 0 _l
459 0 _l
459 327 _l
459 379 448 417 428 443 _c
408 469 378 482 338 482 _c
289 482 251 466 223 435 _c
195 404 181 362 181 309 _c
181 0 _l
91 0 _l
91 547 _l
181 547 _l
181 462 _l
202 494 227 519 257 535 _c
286 551 320 560 358 560 _c
420 560 468 540 500 501 _c
532 462 549 405 549 330 _c
_cl}_d
/p{{635 0 91 -207 580 560 _sc
181 82 _m
181 -207 _l
91 -207 _l
91 547 _l
181 547 _l
181 464 _l
199 496 223 520 252 536 _c
281 552 316 560 356 560 _c
422 560 476 533 518 481 _c
559 428 580 359 580 273 _c
580 187 559 117 518 65 _c
476 13 422 -13 356 -13 _c
316 -13 281 -5 252 10 _c
223 25 199 49 181 82 _c
487 273 _m
487 339 473 390 446 428 _c
418 466 381 485 334 485 _c
}_e{286 485 249 466 222 428 _c
194 390 181 339 181 273 _c
181 207 194 155 222 117 _c
249 79 286 61 334 61 _c
381 61 418 79 446 117 _c
473 155 487 207 487 273 _c
_cl}_e}_d
/r{411 0 91 0 411 560 _sc
411 463 _m
401 469 390 473 378 476 _c
366 478 353 480 339 480 _c
288 480 249 463 222 430 _c
194 397 181 350 181 288 _c
181 0 _l
91 0 _l
91 547 _l
181 547 _l
181 462 _l
199 495 224 520 254 536 _c
284 552 321 560 365 560 _c
371 560 378 559 386 559 _c
393 558 401 557 411 555 _c
411 463 _l
_cl}_d
/s{{521 0 54 -13 472 560 _sc
443 531 _m
443 446 _l
417 458 391 468 364 475 _c
336 481 308 485 279 485 _c
234 485 200 478 178 464 _c
156 450 145 430 145 403 _c
145 382 153 366 169 354 _c
185 342 217 330 265 320 _c
296 313 _l
360 299 405 279 432 255 _c
458 230 472 195 472 151 _c
472 100 452 60 412 31 _c
372 1 316 -13 246 -13 _c
216 -13 186 -10 154 -5 _c
}_e{122 0 89 8 54 20 _c
54 113 _l
87 95 120 82 152 74 _c
184 65 216 61 248 61 _c
290 61 323 68 346 82 _c
368 96 380 117 380 144 _c
380 168 371 187 355 200 _c
339 213 303 226 247 238 _c
216 245 _l
160 257 119 275 95 299 _c
70 323 58 356 58 399 _c
58 450 76 490 112 518 _c
148 546 200 560 268 560 _c
301 560 332 557 362 552 _c
391 547 418 540 443 531 _c
}_e{_cl}_e}_d
/t{392 0 27 0 368 702 _sc
183 702 _m
183 547 _l
368 547 _l
368 477 _l
183 477 _l
183 180 _l
183 135 189 106 201 94 _c
213 81 238 75 276 75 _c
368 75 _l
368 0 _l
276 0 _l
206 0 158 13 132 39 _c
106 65 93 112 93 180 _c
93 477 _l
27 477 _l
27 547 _l
93 547 _l
93 702 _l
183 702 _l
_cl}_d
/u{634 0 85 -13 543 547 _sc
85 216 _m
85 547 _l
175 547 _l
175 219 _l
175 167 185 129 205 103 _c
225 77 255 64 296 64 _c
344 64 383 79 411 110 _c
439 141 453 183 453 237 _c
453 547 _l
543 547 _l
543 0 _l
453 0 _l
453 84 _l
431 50 405 26 377 10 _c
348 -5 315 -13 277 -13 _c
214 -13 166 6 134 45 _c
101 83 85 140 85 216 _c
_cl}_d
/x{592 0 29 0 559 547 _sc
549 547 _m
351 281 _l
559 0 _l
453 0 _l
294 215 _l
135 0 _l
29 0 _l
241 286 _l
47 547 _l
153 547 _l
298 352 _l
443 547 _l
549 547 _l
_cl}_d
/minus{838 0 106 272 732 355 _sc
106 355 _m
732 355 _l
732 272 _l
106 272 _l
106 355 _l
_cl}_d
end readonly def

/BuildGlyph
 {exch begin
 CharStrings exch
 2 copy known not{pop /.notdef}if
 true 3 1 roll get exec
 end}_d

/BuildChar {
 1 index /Encoding get exch get
 1 index /BuildGlyph get exec
}_d

FontName currentdict end definefont pop
end
%%EndProlog
mpldict begin
18 180 translate
576 432 0 0 clipbox
100000 setmiterlimit
gsave
0 0 m
576 0 l
576 432 l
0 432 l
cl
1.000 setgray
fill
grestore
gsave
72 231.709091 m
518.4 231.709091 l
518.4 388.8 l
72 388.8 l
cl
1.000 setgray
fill
grestore
1.000 setlinewidth
1 setlinejoin
2 setlinecap
[] 0 setdash
1.000 0.000 0.000 setrgbcolor
gsave
446.4 157.1 72 231.7 clipbox
72 310.71684 m
73.7856 317.631025 l
75.5712 322.133048 l
77.3568 326.515778 l
79.1424 328.36018 l
80.928 330.28881 l
82.7136 331.393024 l
84.4992 331.680563 l
86.2848 330.327144 l
88.0704 331.245922 l
89.856 330.811734 l
91.6416 330.327144 l
93.4272 328.030376 l
95.2128 328.470661 l
96.9984 329.425414 l
98.784 328.975218 l
100.5696 329.082951 l
102.3552 326.738703 l
104.1408 326.119417 l
105.9264 325.29635 l
107.712 324.937948 l
109.4976 325.808893 l
111.2832 325.107265 l
113.0688 325.890726 l
114.8544 324.449922 l
116.64 325.608267 l
118.4256 326.280746 l
120.2112 325.170456 l
121.9968 325.458006 l
123.7824 325.962104 l
125.568 327.226911 l
127.3536 324.487812 l
129.1392 326.778122 l
130.9248 327.130049 l
132.7104 326.817477 l
134.496 326.600234 l
136.2816 326.954721 l
138.0672 327.548621 l
139.8528 328.212088 l
141.6384 330.395145 l
143.424 330.314373 l
145.2096 331.425593 l
146.9952 329.69334 l
148.7808 331.696662 l
150.5664 332.828687 l
152.352 333.080866 l
154.1376 333.345507 l
155.9232 334.419444 l
157.7088 334.209862 l
159.4944 334.623672 l
161.28 333.439329 l
163.0656 330.644272 l
164.8512 327.130049 l
166.6368 323.068054 l
168.4224 320.627951 l
170.208 313.922778 l
stroke
grestore
0.000 0.000 1.000 setrgbcolor
gsave
446.4 157.1 72 231.7 clipbox
72 281.696518 m
73.7856 286.331262 l
75.5712 290.682843 l
77.3568 295.089095 l
79.1424 299.537496 l
80.928 298.095139 l
82.7136 298.772662 l
84.4992 297.13375 l
86.2848 298.286118 l
88.0704 296.782196 l
89.856 297.529411 l
91.6416 293.865926 l
93.4272 296.046122 l
95.2128 291.63848 l
96.9984 293.463496 l
98.784 293.073949 l
100.5696 292.295939 l
102.3552 289.912759 l
104.1408 291.63848 l
105.9264 289.597779 l
107.712 287.221081 l
109.4976 288.127699 l
111.2832 285.913406 l
113.0688 285.913406 l
114.8544 286.018544 l
116.64 284.973569 l
118.4256 288.698237 l
120.2112 282.918107 l
121.9968 281.50788 l
123.7824 281.50788 l
125.568 283.709363 l
127.3536 284.47573 l
129.1392 282.284415 l
130.9248 283.243579 l
132.7104 284.279345 l
134.496 281.696518 l
136.2816 272.481319 l
138.0672 276.361061 l
139.8528 274.456211 l
141.6384 277.316697 l
143.424 277.316697 l
145.2096 280.933042 l
146.9952 276.709423 l
148.7808 277.316697 l
150.5664 263.587421 l
152.352 265.729448 l
154.1376 271.879668 l
155.9232 273.422886 l
157.7088 271.879668 l
159.4944 268.732961 l
161.28 266.442639 l
163.0656 266.088653 l
164.8512 263.784184 l
166.6368 257.567256 l
168.4224 254.990713 l
170.208 247.729969 l
stroke
grestore
1.000 0.000 0.000 setrgbcolor
gsave
446.4 157.1 72 231.7 clipbox
72 310.71684 m
73.7856 317.631025 l
75.5712 322.133048 l
77.3568 326.515778 l
79.1424 328.36018 l
80.928 330.28881 l
82.7136 331.393024 l
84.4992 331.680563 l
86.2848 330.327144 l
88.0704 331.245922 l
89.856 330.811734 l
91.6416 330.327144 l
93.4272 328.030376 l
95.2128 328.470661 l
96.9984 329.425414 l
98.784 328.975218 l
100.5696 329.082951 l
102.3552 326.738703 l
104.1408 326.119417 l
105.9264 325.29635 l
107.712 324.937948 l
109.4976 325.808893 l
111.2832 325.107265 l
113.0688 325.890726 l
114.8544 324.449922 l
116.64 325.608267 l
118.4256 326.280746 l
120.2112 325.170456 l
121.9968 325.458006 l
123.7824 325.962104 l
125.568 327.226911 l
127.3536 324.487812 l
129.1392 326.778122 l
130.9248 327.130049 l
132.7104 326.817477 l
134.496 326.600234 l
136.2816 326.954721 l
138.0672 327.548621 l
139.8528 328.212088 l
141.6384 330.395145 l
143.424 330.314373 l
145.2096 331.425593 l
146.9952 329.69334 l
148.7808 331.696662 l
150.5664 332.828687 l
152.352 333.080866 l
154.1376 333.345507 l
155.9232 334.419444 l
157.7088 334.209862 l
159.4944 334.623672 l
161.28 333.439329 l
163.0656 330.644272 l
164.8512 327.130049 l
166.6368 323.068054 l
168.4224 320.627951 l
170.208 313.922778 l
171.9936 306.36187 l
173.7792 311.253404 l
175.5648 318.211692 l
177.3504 322.174714 l
179.136 322.31703 l
180.9216 324.665644 l
182.7072 327.027928 l
184.4928 326.446005 l
186.2784 326.446005 l
188.064 326.560526 l
189.8496 327.027928 l
191.6352 325.379919 l
193.4208 323.205261 l
195.2064 322.976152 l
196.992 324.406548 l
198.7776 322.31703 l
200.5632 323.290625 l
202.3488 321.247369 l
204.1344 321.833344 l
205.92 321.352168 l
207.7056 320.500881 l
209.4912 320.044354 l
211.2768 320.551788 l
213.0624 320.315444 l
214.848 320.500881 l
216.6336 318.531473 l
218.4192 320.321862 l
220.2048 320.147982 l
221.9904 320.147982 l
223.776 320.089745 l
225.5616 321.651736 l
227.3472 321.352168 l
229.1328 321.079993 l
230.9184 321.79109 l
232.704 321.499355 l
234.4896 321.407467 l
236.2752 322.222245 l
238.0608 323.131037 l
239.8464 324.460754 l
241.632 324.724634 l
243.4176 325.343393 l
245.2032 326.694281 l
246.9888 326.28577 l
248.7744 326.71897 l
250.56 327.917876 l
252.3456 327.917876 l
254.1312 328.22601 l
255.9168 328.22601 l
257.7024 327.913177 l
259.488 327.629578 l
261.2736 327.304124 l
263.0592 325.793519 l
264.8448 323.968503 l
266.6304 319.158715 l
268.416 315.700435 l
270.2016 310.352451 l
stroke
grestore
0.000 0.000 1.000 setrgbcolor
gsave
446.4 157.1 72 231.7 clipbox
72 281.696518 m
73.7856 286.331262 l
75.5712 290.682843 l
77.3568 295.089095 l
79.1424 299.537496 l
80.928 298.095139 l
82.7136 298.772662 l
84.4992 297.13375 l
86.2848 298.286118 l
88.0704 296.782196 l
89.856 297.529411 l
91.6416 293.865926 l
93.4272 296.046122 l
95.2128 291.63848 l
96.9984 293.463496 l
98.784 293.073949 l
100.5696 292.295939 l
102.3552 289.912759 l
104.1408 291.63848 l
105.9264 289.597779 l
107.712 287.221081 l
109.4976 288.127699 l
111.2832 285.913406 l
113.0688 285.913406 l
114.8544 286.018544 l
116.64 284.973569 l
118.4256 288.698237 l
120.2112 282.918107 l
121.9968 281.50788 l
123.7824 281.50788 l
125.568 283.709363 l
127.3536 284.47573 l
129.1392 282.284415 l
130.9248 283.243579 l
132.7104 284.279345 l
134.496 281.696518 l
136.2816 272.481319 l
138.0672 276.361061 l
139.8528 274.456211 l
141.6384 277.316697 l
143.424 277.316697 l
145.2096 280.933042 l
146.9952 276.709423 l
148.7808 277.316697 l
150.5664 263.587421 l
152.352 265.729448 l
154.1376 271.879668 l
155.9232 273.422886 l
157.7088 271.879668 l
159.4944 268.732961 l
161.28 266.442639 l
163.0656 266.088653 l
164.8512 263.784184 l
166.6368 257.567256 l
168.4224 254.990713 l
170.208 247.729969 l
171.9936 284.307497 l
173.7792 285.353865 l
175.5648 294.14936 l
177.3504 295.74887 l
179.136 298.286118 l
180.9216 298.803721 l
182.7072 299.295351 l
184.4928 301.364686 l
186.2784 300.235188 l
188.064 301.364686 l
189.8496 298.396835 l
191.6352 298.095139 l
193.4208 295.30504 l
195.2064 292.356676 l
196.992 291.866488 l
198.7776 293.250016 l
200.5632 291.680095 l
202.3488 291.53413 l
204.1344 291.53413 l
205.92 288.485847 l
207.7056 288.485847 l
209.4912 287.469458 l
211.2768 289.232745 l
213.0624 289.529751 l
214.848 287.345586 l
216.6336 287.444734 l
218.4192 288.055433 l
220.2048 288.031297 l
221.9904 287.221081 l
223.776 284.279345 l
225.5616 281.28594 l
227.3472 283.593749 l
229.1328 283.593749 l
230.9184 280.144867 l
232.704 281.914765 l
234.4896 282.406396 l
236.2752 280.933042 l
238.0608 280.640456 l
239.8464 278.163962 l
241.632 278.272334 l
243.4176 278.20014 l
245.2032 278.20014 l
246.9888 277.725588 l
248.7744 276.97697 l
250.56 275.039348 l
252.3456 277.316697 l
254.1312 276.709423 l
255.9168 274.749524 l
257.7024 274.749524 l
259.488 272.481319 l
261.2736 270.580502 l
263.0592 267.919795 l
264.8448 261.020248 l
266.6304 256.883264 l
268.416 253.141735 l
270.2016 244.494423 l
stroke
grestore
1.000 0.000 0.000 setrgbcolor
gsave
446.4 157.1 72 231.7 clipbox
72 310.71684 m
73.7856 317.631025 l
77.3568 326.515778 l
80.928 330.28881 l
82.7136 331.393024 l
84.4992 331.680563 l
86.2848 330.327144 l
88.0704 331.245922 l
91.6416 330.327144 l
93.4272 328.030376 l
95.2128 328.470661 l
96.9984 329.425414 l
98.784 328.975218 l
100.5696 329.082951 l
102.3552 326.738703 l
104.1408 326.119417 l
105.9264 325.29635 l
107.712 324.937948 l
109.4976 325.808893 l
111.2832 325.107265 l
113.0688 325.890726 l
114.8544 324.449922 l
116.64 325.608267 l
118.4256 326.280746 l
120.2112 325.170456 l
121.9968 325.458006 l
123.7824 325.962104 l
125.568 327.226911 l
127.3536 324.487812 l
129.1392 326.778122 l
130.9248 327.130049 l
134.496 326.600234 l
136.2816 326.954721 l
139.8528 328.212088 l
141.6384 330.395145 l
143.424 330.314373 l
145.2096 331.425593 l
146.9952 329.69334 l
148.7808 331.696662 l
150.5664 332.828687 l
154.1376 333.345507 l
155.9232 334.419444 l
157.7088 334.209862 l
159.4944 334.623672 l
161.28 333.439329 l
163.0656 330.644272 l
164.8512 327.130049 l
166.6368 323.068054 l
168.4224 320.627951 l
170.208 313.922778 l
171.9936 306.36187 l
173.7792 311.253404 l
175.5648 318.211692 l
177.3504 322.174714 l
179.136 322.31703 l
182.7072 327.027928 l
184.4928 326.446005 l
186.2784 326.446005 l
188.064 326.560526 l
189.8496 327.027928 l
191.6352 325.379919 l
193.4208 323.205261 l
195.2064 322.976152 l
196.992 324.406548 l
198.7776 322.31703 l
200.5632 323.290625 l
202.3488 321.247369 l
204.1344 321.833344 l
205.92 321.352168 l
207.7056 320.500881 l
209.4912 320.044354 l
211.2768 320.551788 l
213.0624 320.315444 l
214.848 320.500881 l
216.6336 318.531473 l
218.4192 320.321862 l
220.2048 320.147982 l
223.776 320.089745 l
225.5616 321.651736 l
229.1328 321.079993 l
230.9184 321.79109 l
232.704 321.499355 l
234.4896 321.407467 l
238.0608 323.131037 l
239.8464 324.460754 l
241.632 324.724634 l
243.4176 325.343393 l
245.2032 326.694281 l
246.9888 326.28577 l
248.7744 326.71897 l
250.56 327.917876 l
252.3456 327.917876 l
254.1312 328.22601 l
255.9168 328.22601 l
261.2736 327.304124 l
263.0592 325.793519 l
264.8448 323.968503 l
266.6304 319.158715 l
268.416 315.700435 l
270.2016 310.352451 l
271.9872 346.329822 l
273.7728 352.815169 l
275.5584 356.990298 l
277.344 359.690328 l
279.1296 363.537775 l
280.9152 365.524813 l
282.7008 365.953644 l
284.4864 365.755589 l
288.0576 364.092284 l
289.8432 363.06825 l
291.6288 364.823208 l
293.4144 363.041589 l
295.2 362.709226 l
296.9856 361.996961 l
300.5568 360.90796 l
302.3424 360.591701 l
304.128 359.984427 l
305.9136 361.024148 l
307.6992 360.463545 l
309.4848 359.475121 l
311.2704 359.294318 l
313.056 360.258828 l
314.8416 358.481111 l
316.6272 359.070337 l
318.4128 358.928638 l
320.1984 359.858095 l
321.984 358.858798 l
323.7696 359.831482 l
325.5552 360.294933 l
327.3408 360.335954 l
329.1264 360.654302 l
330.912 361.233338 l
332.6976 361.53197 l
334.4832 362.079194 l
336.2688 361.632277 l
338.0544 363.238631 l
339.84 362.482831 l
341.6256 363.91814 l
343.4112 364.051797 l
345.1968 363.350829 l
346.9824 365.060692 l
348.768 364.905716 l
350.5536 367.394513 l
352.3392 365.185189 l
354.1248 366.55758 l
355.9104 367.312568 l
357.696 367.158174 l
359.4816 368.675661 l
361.2672 368.133407 l
364.8384 362.359697 l
366.624 358.933901 l
370.1952 348.050714 l
370.1952 348.050714 l
stroke
grestore
0.000 0.000 1.000 setrgbcolor
gsave
446.4 157.1 72 231.7 clipbox
72 281.696518 m
73.7856 286.331262 l
75.5712 290.682843 l
79.1424 299.537496 l
80.928 298.095139 l
82.7136 298.772662 l
84.4992 297.13375 l
86.2848 298.286118 l
88.0704 296.782196 l
89.856 297.529411 l
91.6416 293.865926 l
93.4272 296.046122 l
95.2128 291.63848 l
96.9984 293.463496 l
98.784 293.073949 l
100.5696 292.295939 l
102.3552 289.912759 l
104.1408 291.63848 l
105.9264 289.597779 l
107.712 287.221081 l
109.4976 288.127699 l
111.2832 285.913406 l
114.8544 286.018544 l
116.64 284.973569 l
118.4256 288.698237 l
120.2112 282.918107 l
121.9968 281.50788 l
123.7824 281.50788 l
125.568 283.709363 l
127.3536 284.47573 l
129.1392 282.284415 l
132.7104 284.279345 l
134.496 281.696518 l
136.2816 272.481319 l
138.0672 276.361061 l
139.8528 274.456211 l
141.6384 277.316697 l
143.424 277.316697 l
145.2096 280.933042 l
146.9952 276.709423 l
148.7808 277.316697 l
150.5664 263.587421 l
152.352 265.729448 l
154.1376 271.879668 l
155.9232 273.422886 l
157.7088 271.879668 l
159.4944 268.732961 l
161.28 266.442639 l
163.0656 266.088653 l
164.8512 263.784184 l
166.6368 257.567256 l
168.4224 254.990713 l
170.208 247.729969 l
171.9936 284.307497 l
173.7792 285.353865 l
175.5648 294.14936 l
177.3504 295.74887 l
179.136 298.286118 l
182.7072 299.295351 l
184.4928 301.364686 l
186.2784 300.235188 l
188.064 301.364686 l
189.8496 298.396835 l
191.6352 298.095139 l
195.2064 292.356676 l
196.992 291.866488 l
198.7776 293.250016 l
200.5632 291.680095 l
202.3488 291.53413 l
204.1344 291.53413 l
205.92 288.485847 l
207.7056 288.485847 l
209.4912 287.469458 l
211.2768 289.232745 l
213.0624 289.529751 l
214.848 287.345586 l
216.6336 287.444734 l
218.4192 288.055433 l
220.2048 288.031297 l
221.9904 287.221081 l
225.5616 281.28594 l
227.3472 283.593749 l
229.1328 283.593749 l
230.9184 280.144867 l
232.704 281.914765 l
234.4896 282.406396 l
236.2752 280.933042 l
238.0608 280.640456 l
239.8464 278.163962 l
241.632 278.272334 l
245.2032 278.20014 l
246.9888 277.725588 l
248.7744 276.97697 l
250.56 275.039348 l
252.3456 277.316697 l
254.1312 276.709423 l
255.9168 274.749524 l
257.7024 274.749524 l
259.488 272.481319 l
261.2736 270.580502 l
263.0592 267.919795 l
264.8448 261.020248 l
266.6304 256.883264 l
268.416 253.141735 l
270.2016 244.494423 l
271.9872 321.700298 l
273.7728 329.082951 l
275.5584 332.939815 l
277.344 335.865257 l
279.1296 338.040379 l
280.9152 339.683155 l
282.7008 341.81097 l
284.4864 340.627082 l
286.272 338.339347 l
288.0576 336.544027 l
289.8432 336.822719 l
291.6288 337.586513 l
293.4144 334.840351 l
295.2 335.044602 l
296.9856 335.044602 l
298.7712 333.884714 l
300.5568 330.85342 l
302.3424 333.239995 l
304.128 329.658369 l
305.9136 329.270346 l
307.6992 331.4906 l
309.4848 330.619053 l
311.2704 328.94821 l
313.056 327.983564 l
314.8416 328.580643 l
316.6272 327.347449 l
318.4128 326.778122 l
320.1984 325.233484 l
321.984 326.684399 l
323.7696 327.115486 l
325.5552 327.071746 l
327.3408 326.699221 l
329.1264 322.546535 l
330.912 324.487812 l
332.6976 323.085247 l
334.4832 320.627951 l
336.2688 318.545282 l
338.0544 320.848741 l
339.84 318.545282 l
341.6256 319.138514 l
343.4112 319.272871 l
345.1968 315.450929 l
346.9824 314.229581 l
348.768 310.726356 l
350.5536 319.399828 l
352.3392 312.354707 l
354.1248 312.416921 l
355.9104 314.393826 l
357.696 308.909689 l
359.4816 308.485749 l
361.2672 309.805326 l
363.0528 309.032387 l
364.8384 303.426489 l
366.624 296.425496 l
368.4096 296.510899 l
370.1952 285.245814 l
370.1952 285.245814 l
stroke
grestore
1.000 0.000 0.000 setrgbcolor
gsave
446.4 157.1 72 231.7 clipbox
72 310.71684 m
73.7856 317.631025 l
77.3568 326.515778 l
80.928 330.28881 l
82.7136 331.393024 l
84.4992 331.680563 l
86.2848 330.327144 l
88.0704 331.245922 l
91.6416 330.327144 l
93.4272 328.030376 l
95.2128 328.470661 l
96.9984 329.425414 l
98.784 328.975218 l
100.5696 329.082951 l
102.3552 326.738703 l
104.1408 326.119417 l
105.9264 325.29635 l
107.712 324.937948 l
109.4976 325.808893 l
111.2832 325.107265 l
113.0688 325.890726 l
114.8544 324.449922 l
116.64 325.608267 l
118.4256 326.280746 l
120.2112 325.170456 l
121.9968 325.458006 l
123.7824 325.962104 l
125.568 327.226911 l
127.3536 324.487812 l
129.1392 326.778122 l
130.9248 327.130049 l
134.496 326.600234 l
136.2816 326.954721 l
139.8528 328.212088 l
141.6384 330.395145 l
143.424 330.314373 l
145.2096 331.425593 l
146.9952 329.69334 l
148.7808 331.696662 l
150.5664 332.828687 l
154.1376 333.345507 l
155.9232 334.419444 l
157.7088 334.209862 l
159.4944 334.623672 l
161.28 333.439329 l
163.0656 330.644272 l
164.8512 327.130049 l
166.6368 323.068054 l
168.4224 320.627951 l
170.208 313.922778 l
171.9936 306.36187 l
173.7792 311.253404 l
175.5648 318.211692 l
177.3504 322.174714 l
179.136 322.31703 l
182.7072 327.027928 l
184.4928 326.446005 l
186.2784 326.446005 l
188.064 326.560526 l
189.8496 327.027928 l
191.6352 325.379919 l
193.4208 323.205261 l
195.2064 322.976152 l
196.992 324.406548 l
198.7776 322.31703 l
200.5632 323.290625 l
202.3488 321.247369 l
204.1344 321.833344 l
205.92 321.352168 l
207.7056 320.500881 l
209.4912 320.044354 l
211.2768 320.551788 l
213.0624 320.315444 l
214.848 320.500881 l
216.6336 318.531473 l
218.4192 320.321862 l
220.2048 320.147982 l
223.776 320.089745 l
225.5616 321.651736 l
229.1328 321.079993 l
230.9184 321.79109 l
232.704 321.499355 l
234.4896 321.407467 l
238.0608 323.131037 l
239.8464 324.460754 l
241.632 324.724634 l
243.4176 325.343393 l
245.2032 326.694281 l
246.9888 326.28577 l
248.7744 326.71897 l
250.56 327.917876 l
252.3456 327.917876 l
254.1312 328.22601 l
255.9168 328.22601 l
261.2736 327.304124 l
263.0592 325.793519 l
264.8448 323.968503 l
266.6304 319.158715 l
268.416 315.700435 l
270.2016 310.352451 l
271.9872 346.329822 l
273.7728 352.815169 l
275.5584 356.990298 l
277.344 359.690328 l
279.1296 363.537775 l
280.9152 365.524813 l
282.7008 365.953644 l
284.4864 365.755589 l
288.0576 364.092284 l
289.8432 363.06825 l
291.6288 364.823208 l
293.4144 363.041589 l
295.2 362.709226 l
296.9856 361.996961 l
300.5568 360.90796 l
302.3424 360.591701 l
304.128 359.984427 l
305.9136 361.024148 l
307.6992 360.463545 l
309.4848 359.475121 l
311.2704 359.294318 l
313.056 360.258828 l
314.8416 358.481111 l
316.6272 359.070337 l
318.4128 358.928638 l
320.1984 359.858095 l
321.984 358.858798 l
323.7696 359.831482 l
325.5552 360.294933 l
327.3408 360.335954 l
329.1264 360.654302 l
330.912 361.233338 l
332.6976 361.53197 l
334.4832 362.079194 l
336.2688 361.632277 l
338.0544 363.238631 l
339.84 362.482831 l
341.6256 363.91814 l
343.4112 364.051797 l
345.1968 363.350829 l
346.9824 365.060692 l
348.768 364.905716 l
350.5536 367.394513 l
352.3392 365.185189 l
354.1248 366.55758 l
355.9104 367.312568 l
357.696 367.158174 l
359.4816 368.675661 l
361.2672 368.133407 l
364.8384 362.359697 l
366.624 358.933901 l
370.1952 348.050714 l
371.9808 292.295939 l
373.7664 297.38179 l
375.552 303.871709 l
377.3376 306.990985 l
379.1232 308.662425 l
380.9088 313.013159 l
382.6944 312.131209 l
384.48 312.620227 l
386.2656 311.851194 l
388.0512 311.5035 l
389.8368 311.732803 l
391.6224 311.337055 l
393.408 309.795443 l
395.1936 310.119472 l
396.9792 311.02892 l
398.7648 311.02892 l
400.5504 310.71684 l
402.336 307.905211 l
404.1216 306.588423 l
405.9072 307.905211 l
407.6928 306.25923 l
409.4784 307.947901 l
411.264 305.657579 l
413.0496 307.200797 l
414.8352 305.136623 l
416.6208 306.990985 l
418.4064 306.990985 l
420.192 306.801715 l
421.9776 305.587192 l
423.7632 307.397913 l
425.5488 306.36187 l
427.3344 305.196387 l
429.12 307.222777 l
430.9056 308.191931 l
432.6912 308.160239 l
434.4768 307.123708 l
436.2624 308.160239 l
438.048 308.149666 l
439.8336 309.164615 l
443.4048 312.98716 l
445.1904 312.98716 l
446.976 311.103978 l
448.7616 312.98716 l
450.5472 313.922778 l
452.3328 313.194381 l
454.1184 314.295412 l
455.904 314.880019 l
457.6896 314.621924 l
459.4752 315.103632 l
461.2608 315.262108 l
466.6176 305.374803 l
468.4032 301.378653 l
470.1888 295.731272 l
470.1888 295.731272 l
stroke
grestore
0.000 0.000 1.000 setrgbcolor
gsave
446.4 157.1 72 231.7 clipbox
72 281.696518 m
73.7856 286.331262 l
75.5712 290.682843 l
79.1424 299.537496 l
80.928 298.095139 l
82.7136 298.772662 l
84.4992 297.13375 l
86.2848 298.286118 l
88.0704 296.782196 l
89.856 297.529411 l
91.6416 293.865926 l
93.4272 296.046122 l
95.2128 291.63848 l
96.9984 293.463496 l
98.784 293.073949 l
100.5696 292.295939 l
102.3552 289.912759 l
104.1408 291.63848 l
105.9264 289.597779 l
107.712 287.221081 l
109.4976 288.127699 l
111.2832 285.913406 l
114.8544 286.018544 l
116.64 284.973569 l
118.4256 288.698237 l
120.2112 282.918107 l
121.9968 281.50788 l
123.7824 281.50788 l
125.568 283.709363 l
127.3536 284.47573 l
129.1392 282.284415 l
132.7104 284.279345 l
134.496 281.696518 l
136.2816 272.481319 l
138.0672 276.361061 l
139.8528 274.456211 l
141.6384 277.316697 l
143.424 277.316697 l
145.2096 280.933042 l
146.9952 276.709423 l
148.7808 277.316697 l
150.5664 263.587421 l
152.352 265.729448 l
154.1376 271.879668 l
155.9232 273.422886 l
157.7088 271.879668 l
159.4944 268.732961 l
161.28 266.442639 l
163.0656 266.088653 l
164.8512 263.784184 l
166.6368 257.567256 l
168.4224 254.990713 l
170.208 247.729969 l
171.9936 284.307497 l
173.7792 285.353865 l
175.5648 294.14936 l
177.3504 295.74887 l
179.136 298.286118 l
182.7072 299.295351 l
184.4928 301.364686 l
186.2784 300.235188 l
188.064 301.364686 l
189.8496 298.396835 l
191.6352 298.095139 l
195.2064 292.356676 l
196.992 291.866488 l
198.7776 293.250016 l
200.5632 291.680095 l
202.3488 291.53413 l
204.1344 291.53413 l
205.92 288.485847 l
207.7056 288.485847 l
209.4912 287.469458 l
211.2768 289.232745 l
213.0624 289.529751 l
214.848 287.345586 l
216.6336 287.444734 l
218.4192 288.055433 l
220.2048 288.031297 l
221.9904 287.221081 l
225.5616 281.28594 l
227.3472 283.593749 l
229.1328 283.593749 l
230.9184 280.144867 l
232.704 281.914765 l
234.4896 282.406396 l
236.2752 280.933042 l
238.0608 280.640456 l
239.8464 278.163962 l
241.632 278.272334 l
245.2032 278.20014 l
246.9888 277.725588 l
248.7744 276.97697 l
250.56 275.039348 l
252.3456 277.316697 l
254.1312 276.709423 l
255.9168 274.749524 l
257.7024 274.749524 l
259.488 272.481319 l
261.2736 270.580502 l
263.0592 267.919795 l
264.8448 261.020248 l
266.6304 256.883264 l
268.416 253.141735 l
270.2016 244.494423 l
271.9872 321.700298 l
273.7728 329.082951 l
275.5584 332.939815 l
277.344 335.865257 l
279.1296 338.040379 l
280.9152 339.683155 l
282.7008 341.81097 l
284.4864 340.627082 l
286.272 338.339347 l
288.0576 336.544027 l
289.8432 336.822719 l
291.6288 337.586513 l
293.4144 334.840351 l
295.2 335.044602 l
296.9856 335.044602 l
298.7712 333.884714 l
300.5568 330.85342 l
302.3424 333.239995 l
304.128 329.658369 l
305.9136 329.270346 l
307.6992 331.4906 l
309.4848 330.619053 l
311.2704 328.94821 l
313.056 327.983564 l
314.8416 328.580643 l
316.6272 327.347449 l
318.4128 326.778122 l
320.1984 325.233484 l
321.984 326.684399 l
323.7696 327.115486 l
325.5552 327.071746 l
327.3408 326.699221 l
329.1264 322.546535 l
330.912 324.487812 l
332.6976 323.085247 l
334.4832 320.627951 l
336.2688 318.545282 l
338.0544 320.848741 l
339.84 318.545282 l
341.6256 319.138514 l
343.4112 319.272871 l
345.1968 315.450929 l
346.9824 314.229581 l
348.768 310.726356 l
350.5536 319.399828 l
352.3392 312.354707 l
354.1248 312.416921 l
355.9104 314.393826 l
357.696 308.909689 l
359.4816 308.485749 l
361.2672 309.805326 l
363.0528 309.032387 l
364.8384 303.426489 l
366.624 296.425496 l
368.4096 296.510899 l
370.1952 285.245814 l
371.9808 270.030691 l
373.7664 280.673139 l
375.552 284.80875 l
377.3376 284.615042 l
379.1232 287.469458 l
380.9088 288.485847 l
382.6944 290.090936 l
384.48 291.281852 l
386.2656 289.868011 l
388.0512 287.812987 l
389.8368 288.862158 l
391.6224 288.055433 l
393.408 285.272871 l
395.1936 283.709363 l
396.9792 284.725921 l
398.7648 282.918107 l
400.5504 281.50788 l
402.336 281.539421 l
404.1216 279.433659 l
405.9072 278.416084 l
407.6928 275.203427 l
409.4784 277.540579 l
411.264 277.909204 l
413.0496 279.017735 l
414.8352 274.791139 l
416.6208 279.433659 l
418.4064 277.909204 l
420.192 280.476377 l
421.9776 274.073831 l
423.7632 274.073831 l
425.5488 278.416084 l
427.3344 278.416084 l
429.12 274.749524 l
430.9056 274.749524 l
432.6912 272.979055 l
434.4768 272.979055 l
436.2624 271.166477 l
438.048 266.088653 l
439.8336 267.418542 l
441.6192 269.312495 l
443.4048 267.418542 l
445.1904 266.088653 l
446.976 262.647584 l
448.7616 263.521479 l
450.5472 267.418542 l
452.3328 268.46491 l
454.1184 263.255911 l
455.904 261.527129 l
457.6896 259.511059 l
459.4752 263.255911 l
461.2608 261.95336 l
463.0464 257.567256 l
464.832 247.855889 l
466.6176 246.698466 l
468.4032 249.199697 l
470.1888 245.064405 l
470.1888 245.064405 l
stroke
grestore
0 setlinejoin
0.000 setgray
gsave
518.4 231.709091 m
518.4 388.8 l
stroke
grestore
gsave
72 388.8 m
518.4 388.8 l
stroke
grestore
gsave
72 231.709091 m
72 388.8 l
stroke
grestore
gsave
72 231.709091 m
518.4 231.709091 l
stroke
grestore
0.500 setlinewidth
1 setlinejoin
0 setlinecap
gsave
/o {
gsave
newpath
translate
0.5 setlinewidth
1 setlinejoin
0 setlinecap
0 0 m
0 4 l

gsave
0.000 setgray
fill
grestore
stroke
grestore
} bind def
72 231.709 o
grestore
gsave
/o {
gsave
newpath
translate
0.5 setlinewidth
1 setlinejoin
0 setlinecap
0 0 m
0 -4 l

gsave
0.000 setgray
fill
grestore
stroke
grestore
} bind def
72 388.8 o
grestore
/BitstreamVeraSans-Roman findfont
12.000 scalefont
setfont
gsave
68.179688 218.584091 translate
0.000000 rotate
0.000000 0.000000 m /zero glyphshow
grestore
gsave
/o {
gsave
newpath
translate
0.5 setlinewidth
1 setlinejoin
0 setlinecap
0 0 m
0 4 l

gsave
0.000 setgray
fill
grestore
stroke
grestore
} bind def
161.28 231.709 o
grestore
gsave
/o {
gsave
newpath
translate
0.5 setlinewidth
1 setlinejoin
0 setlinecap
0 0 m
0 -4 l

gsave
0.000 setgray
fill
grestore
stroke
grestore
} bind def
161.28 388.8 o
grestore
gsave
153.639375 218.584091 translate
0.000000 rotate
0.000000 0.000000 m /five glyphshow
7.634766 0.000000 m /zero glyphshow
grestore
gsave
/o {
gsave
newpath
translate
0.5 setlinewidth
1 setlinejoin
0 setlinecap
0 0 m
0 4 l

gsave
0.000 setgray
fill
grestore
stroke
grestore
} bind def
250.56 231.709 o
grestore
gsave
/o {
gsave
newpath
translate
0.5 setlinewidth
1 setlinejoin
0 setlinecap
0 0 m
0 -4 l

gsave
0.000 setgray
fill
grestore
stroke
grestore
} bind def
250.56 388.8 o
grestore
gsave
239.099062 218.584091 translate
0.000000 rotate
0.000000 0.000000 m /one glyphshow
7.634766 0.000000 m /zero glyphshow
15.269531 0.000000 m /zero glyphshow
grestore
gsave
/o {
gsave
newpath
translate
0.5 setlinewidth
1 setlinejoin
0 setlinecap
0 0 m
0 4 l

gsave
0.000 setgray
fill
grestore
stroke
grestore
} bind def
339.84 231.709 o
grestore
gsave
/o {
gsave
newpath
translate
0.5 setlinewidth
1 setlinejoin
0 setlinecap
0 0 m
0 -4 l

gsave
0.000 setgray
fill
grestore
stroke
grestore
} bind def
339.84 388.8 o
grestore
gsave
328.379062 218.584091 translate
0.000000 rotate
0.000000 0.000000 m /one glyphshow
7.634766 0.000000 m /five glyphshow
15.269531 0.000000 m /zero glyphshow
grestore
gsave
/o {
gsave
newpath
translate
0.5 setlinewidth
1 setlinejoin
0 setlinecap
0 0 m
0 4 l

gsave
0.000 setgray
fill
grestore
stroke
grestore
} bind def
429.12 231.709 o
grestore
gsave
/o {
gsave
newpath
translate
0.5 setlinewidth
1 setlinejoin
0 setlinecap
0 0 m
0 -4 l

gsave
0.000 setgray
fill
grestore
stroke
grestore
} bind def
429.12 388.8 o
grestore
gsave
417.659062 218.584091 translate
0.000000 rotate
0.000000 0.000000 m /two glyphshow
7.634766 0.000000 m /zero glyphshow
15.269531 0.000000 m /zero glyphshow
grestore
gsave
/o {
gsave
newpath
translate
0.5 setlinewidth
1 setlinejoin
0 setlinecap
0 0 m
0 4 l

gsave
0.000 setgray
fill
grestore
stroke
grestore
} bind def
518.4 231.709 o
grestore
gsave
/o {
gsave
newpath
translate
0.5 setlinewidth
1 setlinejoin
0 setlinecap
0 0 m
0 -4 l

gsave
0.000 setgray
fill
grestore
stroke
grestore
} bind def
518.4 388.8 o
grestore
gsave
506.939062 218.584091 translate
0.000000 rotate
0.000000 0.000000 m /two glyphshow
7.634766 0.000000 m /five glyphshow
15.269531 0.000000 m /zero glyphshow
grestore
gsave
237.067187 201.959091 translate
0.000000 rotate
0.000000 0.000000 m /I glyphshow
3.539062 0.000000 m /n glyphshow
11.144531 0.000000 m /d glyphshow
18.761719 0.000000 m /e glyphshow
26.144531 0.000000 m /x glyphshow
33.246094 0.000000 m /space glyphshow
37.060547 0.000000 m /parenleft glyphshow
41.742188 0.000000 m /one glyphshow
49.376953 0.000000 m /zero glyphshow
57.011719 0.000000 m /zero glyphshow
64.646484 0.000000 m /p glyphshow
72.263672 0.000000 m /a glyphshow
79.617188 0.000000 m /c glyphshow
86.214844 0.000000 m /k glyphshow
93.164062 0.000000 m /e glyphshow
100.546875 0.000000 m /t glyphshow
105.251953 0.000000 m /s glyphshow
111.503906 0.000000 m /parenright glyphshow
grestore
gsave
/o {
gsave
newpath
translate
0.5 setlinewidth
1 setlinejoin
0 setlinecap
0 0 m
4 0 l

gsave
0.000 setgray
fill
grestore
stroke
grestore
} bind def
72 231.709 o
grestore
gsave
/o {
gsave
newpath
translate
0.5 setlinewidth
1 setlinejoin
0 setlinecap
0 0 m
-4 0 l

gsave
0.000 setgray
fill
grestore
stroke
grestore
} bind def
518.4 231.709 o
grestore
gsave
52.718750 228.396591 translate
0.000000 rotate
0.000000 0.000000 m /one glyphshow
7.634766 0.000000 m /zero glyphshow
grestore
gsave
/o {
gsave
newpath
translate
0.5 setlinewidth
1 setlinejoin
0 setlinecap
0 0 m
4 0 l

gsave
0.000 setgray
fill
grestore
stroke
grestore
} bind def
72 254.151 o
grestore
gsave
/o {
gsave
newpath
translate
0.5 setlinewidth
1 setlinejoin
0 setlinecap
0 0 m
-4 0 l

gsave
0.000 setgray
fill
grestore
stroke
grestore
} bind def
518.4 254.151 o
grestore
gsave
52.718750 250.838149 translate
0.000000 rotate
0.000000 0.000000 m /one glyphshow
7.634766 0.000000 m /two glyphshow
grestore
gsave
/o {
gsave
newpath
translate
0.5 setlinewidth
1 setlinejoin
0 setlinecap
0 0 m
4 0 l

gsave
0.000 setgray
fill
grestore
stroke
grestore
} bind def
72 276.592 o
grestore
gsave
/o {
gsave
newpath
translate
0.5 setlinewidth
1 setlinejoin
0 setlinecap
0 0 m
-4 0 l

gsave
0.000 setgray
fill
grestore
stroke
grestore
} bind def
518.4 276.592 o
grestore
gsave
52.718750 273.279708 translate
0.000000 rotate
0.000000 0.000000 m /one glyphshow
7.634766 0.000000 m /four glyphshow
grestore
gsave
/o {
gsave
newpath
translate
0.5 setlinewidth
1 setlinejoin
0 setlinecap
0 0 m
4 0 l

gsave
0.000 setgray
fill
grestore
stroke
grestore
} bind def
72 299.034 o
grestore
gsave
/o {
gsave
newpath
translate
0.5 setlinewidth
1 setlinejoin
0 setlinecap
0 0 m
-4 0 l

gsave
0.000 setgray
fill
grestore
stroke
grestore
} bind def
518.4 299.034 o
grestore
gsave
52.718750 295.721266 translate
0.000000 rotate
0.000000 0.000000 m /one glyphshow
7.634766 0.000000 m /six glyphshow
grestore
gsave
/o {
gsave
newpath
translate
0.5 setlinewidth
1 setlinejoin
0 setlinecap
0 0 m
4 0 l

gsave
0.000 setgray
fill
grestore
stroke
grestore
} bind def
72 321.475 o
grestore
gsave
/o {
gsave
newpath
translate
0.5 setlinewidth
1 setlinejoin
0 setlinecap
0 0 m
-4 0 l

gsave
0.000 setgray
fill
grestore
stroke
grestore
} bind def
518.4 321.475 o
grestore
gsave
52.718750 318.162825 translate
0.000000 rotate
0.000000 0.000000 m /one glyphshow
7.634766 0.000000 m /eight glyphshow
grestore
gsave
/o {
gsave
newpath
translate
0.5 setlinewidth
1 setlinejoin
0 setlinecap
0 0 m
4 0 l

gsave
0.000 setgray
fill
grestore
stroke
grestore
} bind def
72 343.917 o
grestore
gsave
/o {
gsave
newpath
translate
0.5 setlinewidth
1 setlinejoin
0 setlinecap
0 0 m
-4 0 l

gsave
0.000 setgray
fill
grestore
stroke
grestore
} bind def
518.4 343.917 o
grestore
gsave
52.718750 340.604383 translate
0.000000 rotate
0.000000 0.000000 m /two glyphshow
7.634766 0.000000 m /zero glyphshow
grestore
gsave
/o {
gsave
newpath
translate
0.5 setlinewidth
1 setlinejoin
0 setlinecap
0 0 m
4 0 l

gsave
0.000 setgray
fill
grestore
stroke
grestore
} bind def
72 366.358 o
grestore
gsave
/o {
gsave
newpath
translate
0.5 setlinewidth
1 setlinejoin
0 setlinecap
0 0 m
-4 0 l

gsave
0.000 setgray
fill
grestore
stroke
grestore
} bind def
518.4 366.358 o
grestore
gsave
52.718750 363.045942 translate
0.000000 rotate
0.000000 0.000000 m /two glyphshow
7.634766 0.000000 m /two glyphshow
grestore
gsave
/o {
gsave
newpath
translate
0.5 setlinewidth
1 setlinejoin
0 setlinecap
0 0 m
4 0 l

gsave
0.000 setgray
fill
grestore
stroke
grestore
} bind def
72 388.8 o
grestore
gsave
/o {
gsave
newpath
translate
0.5 setlinewidth
1 setlinejoin
0 setlinecap
0 0 m
-4 0 l

gsave
0.000 setgray
fill
grestore
stroke
grestore
} bind def
518.4 388.8 o
grestore
gsave
52.718750 385.487500 translate
0.000000 rotate
0.000000 0.000000 m /two glyphshow
7.634766 0.000000 m /four glyphshow
grestore
gsave
45.218750 263.926420 translate
90.000000 rotate
0.000000 0.000000 m /M glyphshow
10.353516 0.000000 m /a glyphshow
17.707031 0.000000 m /g glyphshow
25.324219 0.000000 m /n glyphshow
32.929688 0.000000 m /i glyphshow
36.263672 0.000000 m /t glyphshow
40.968750 0.000000 m /u glyphshow
48.574219 0.000000 m /d glyphshow
56.191406 0.000000 m /e glyphshow
63.574219 0.000000 m /space glyphshow
67.388672 0.000000 m /bracketleft glyphshow
72.070312 0.000000 m /d glyphshow
79.687500 0.000000 m /B glyphshow
87.919922 0.000000 m /bracketright glyphshow
grestore
1.000 setlinewidth
0 setlinejoin
gsave
363.000625 335.78625 m
511.2 335.78625 l
511.2 381.6 l
363.000625 381.6 l
cl
gsave
1.000 setgray
fill
grestore
stroke
grestore
1 setlinejoin
2 setlinecap
1.000 0.000 0.000 setrgbcolor
gsave
373.080625 370.239375 m
393.240625 370.239375 l
stroke
grestore
0.000 setgray
/BitstreamVeraSans-Roman findfont
14.400 scalefont
setfont
gsave
409.080625 365.199375 translate
0.000000 rotate
0.000000 0.000000 m /e glyphshow
8.843994 0.000000 m /r glyphshow
14.754028 0.000000 m /i glyphshow
18.747864 0.000000 m /c glyphshow
26.651306 0.000000 m /h glyphshow
35.762024 0.000000 m /space glyphshow
40.331421 0.000000 m /t glyphshow
45.967712 0.000000 m /x glyphshow
54.474792 0.000000 m /one glyphshow
63.620605 0.000000 m /comma glyphshow
68.190002 0.000000 m /space glyphshow
72.759399 0.000000 m /r glyphshow
78.669434 0.000000 m /x glyphshow
87.176514 0.000000 m /zero glyphshow
grestore
0.000 0.000 1.000 setrgbcolor
gsave
373.080625 349.4925 m
393.240625 349.4925 l
stroke
grestore
0.000 setgray
gsave
409.080625 344.452500 translate
0.000000 rotate
0.000000 0.000000 m /e glyphshow
8.843994 0.000000 m /r glyphshow
14.754028 0.000000 m /i glyphshow
18.747864 0.000000 m /c glyphshow
26.651306 0.000000 m /h glyphshow
35.762024 0.000000 m /space glyphshow
40.331421 0.000000 m /t glyphshow
45.967712 0.000000 m /x glyphshow
54.474792 0.000000 m /zero glyphshow
63.620605 0.000000 m /comma glyphshow
68.190002 0.000000 m /space glyphshow
72.759399 0.000000 m /r glyphshow
78.669434 0.000000 m /x glyphshow
87.176514 0.000000 m /one glyphshow
grestore
gsave
72 43.2 m
518.4 43.2 l
518.4 200.290909 l
72 200.290909 l
cl
1.000 setgray
fill
grestore
1.000 0.000 0.000 setrgbcolor
gsave
446.4 157.1 72 43.2 clipbox
72 84.582716 m
73.7856 83.303894 l
75.5712 81.659059 l
77.3568 80.288853 l
79.1424 79.12966 l
80.928 78.05692 l
82.7136 77.096044 l
84.4992 75.835348 l
86.2848 75.294851 l
88.0704 74.938049 l
89.856 74.751422 l
91.6416 75.661875 l
93.4272 74.708704 l
95.2128 75.669001 l
96.9984 76.039249 l
98.784 76.233235 l
100.5696 76.985884 l
102.3552 77.258593 l
104.1408 78.491051 l
105.9264 78.955436 l
107.712 80.239141 l
109.4976 80.777219 l
111.2832 81.925558 l
113.0688 83.323394 l
114.8544 84.027118 l
116.64 85.396661 l
118.4256 86.63745 l
120.2112 87.420665 l
121.9968 88.601137 l
123.7824 89.480285 l
125.568 90.900727 l
127.3536 92.071657 l
129.1392 92.857857 l
130.9248 93.961411 l
132.7104 94.831555 l
134.496 95.711217 l
136.2816 96.250912 l
138.0672 97.044969 l
139.8528 97.818789 l
141.6384 98.613118 l
143.424 99.192204 l
145.2096 99.551141 l
146.9952 99.887498 l
148.7808 99.779384 l
150.5664 100.666729 l
152.352 100.33415 l
154.1376 100.00508 l
155.9232 99.791649 l
157.7088 99.040134 l
159.4944 98.195986 l
161.28 96.83376 l
163.0656 95.586146 l
164.8512 93.961411 l
166.6368 92.408247 l
168.4224 91.217415 l
170.208 90.173786 l
stroke
grestore
0.000 0.000 1.000 setrgbcolor
gsave
446.4 157.1 72 43.2 clipbox
72 85.91949 m
73.7856 84.380286 l
75.5712 81.796374 l
77.3568 80.839261 l
79.1424 78.948282 l
80.928 77.258593 l
82.7136 75.478363 l
84.4992 74.026469 l
86.2848 72.992554 l
88.0704 72.175393 l
89.856 72.590279 l
91.6416 72.36295 l
93.4272 71.747684 l
95.2128 73.036483 l
96.9984 71.142089 l
98.784 71.91144 l
100.5696 71.445144 l
102.3552 72.097161 l
104.1408 73.036483 l
105.9264 72.931477 l
107.712 73.698132 l
109.4976 75.042071 l
111.2832 75.021785 l
113.0688 75.021785 l
114.8544 76.846125 l
116.64 77.342869 l
118.4256 78.508622 l
120.2112 78.40202 l
121.9968 80.531265 l
123.7824 80.531265 l
125.568 81.796374 l
127.3536 81.201514 l
129.1392 83.041456 l
130.9248 83.935598 l
132.7104 84.793851 l
134.496 85.91949 l
136.2816 84.85169 l
138.0672 85.328042 l
139.8528 85.099343 l
141.6384 87.024596 l
143.424 87.024596 l
145.2096 87.305096 l
146.9952 88.555577 l
148.7808 87.024596 l
150.5664 87.825635 l
152.352 88.943597 l
154.1376 85.672505 l
155.9232 86.697353 l
157.7088 85.672505 l
159.4944 87.204741 l
161.28 87.024596 l
163.0656 83.969279 l
164.8512 83.61777 l
166.6368 81.279746 l
168.4224 80.706585 l
170.208 80.531265 l
stroke
grestore
1.000 0.000 0.000 setrgbcolor
gsave
446.4 157.1 72 43.2 clipbox
72 84.582716 m
73.7856 83.303894 l
75.5712 81.659059 l
77.3568 80.288853 l
79.1424 79.12966 l
80.928 78.05692 l
82.7136 77.096044 l
84.4992 75.835348 l
86.2848 75.294851 l
88.0704 74.938049 l
89.856 74.751422 l
91.6416 75.661875 l
93.4272 74.708704 l
95.2128 75.669001 l
96.9984 76.039249 l
98.784 76.233235 l
100.5696 76.985884 l
102.3552 77.258593 l
104.1408 78.491051 l
105.9264 78.955436 l
107.712 80.239141 l
109.4976 80.777219 l
111.2832 81.925558 l
113.0688 83.323394 l
114.8544 84.027118 l
116.64 85.396661 l
118.4256 86.63745 l
120.2112 87.420665 l
121.9968 88.601137 l
123.7824 89.480285 l
125.568 90.900727 l
127.3536 92.071657 l
129.1392 92.857857 l
130.9248 93.961411 l
132.7104 94.831555 l
134.496 95.711217 l
136.2816 96.250912 l
138.0672 97.044969 l
139.8528 97.818789 l
141.6384 98.613118 l
143.424 99.192204 l
145.2096 99.551141 l
146.9952 99.887498 l
148.7808 99.779384 l
150.5664 100.666729 l
152.352 100.33415 l
154.1376 100.00508 l
155.9232 99.791649 l
157.7088 99.040134 l
159.4944 98.195986 l
161.28 96.83376 l
163.0656 95.586146 l
164.8512 93.961411 l
166.6368 92.408247 l
168.4224 91.217415 l
170.208 90.173786 l
171.9936 62.182039 l
173.7792 61.592959 l
175.5648 60.388787 l
177.3504 183.128117 l
179.136 181.903929 l
180.9216 181.390766 l
182.7072 180.648568 l
184.4928 180.330598 l
186.2784 180.330598 l
188.064 180.053709 l
189.8496 180.648568 l
191.6352 181.420615 l
193.4208 181.328344 l
195.2064 182.529259 l
196.992 60.349057 l
198.7776 61.58698 l
200.5632 62.460689 l
202.3488 63.196111 l
204.1344 64.41688 l
205.92 66.078007 l
207.7056 67.88153 l
209.4912 69.017023 l
211.2768 70.722267 l
213.0624 72.309542 l
214.848 73.454215 l
216.6336 75.478363 l
218.4192 76.605649 l
220.2048 78.200743 l
221.9904 80.508244 l
223.776 82.655811 l
225.5616 83.601715 l
227.3472 84.878719 l
229.1328 86.470739 l
230.9184 88.420495 l
232.704 89.655645 l
234.4896 91.212389 l
236.2752 91.820508 l
238.0608 92.708192 l
239.8464 94.432395 l
241.632 96.205553 l
243.4176 97.036925 l
245.2032 97.749321 l
246.9888 98.110686 l
248.7744 99.25501 l
250.56 99.639227 l
252.3456 99.639227 l
254.1312 100.48983 l
255.9168 100.48983 l
257.7024 100.248997 l
259.488 100.618516 l
261.2736 99.758094 l
263.0592 99.113132 l
264.8448 97.218738 l
266.6304 96.186197 l
268.416 96.221138 l
270.2016 95.237001 l
stroke
grestore
0.000 0.000 1.000 setrgbcolor
gsave
446.4 157.1 72 43.2 clipbox
72 85.91949 m
73.7856 84.380286 l
75.5712 81.796374 l
77.3568 80.839261 l
79.1424 78.948282 l
80.928 77.258593 l
82.7136 75.478363 l
84.4992 74.026469 l
86.2848 72.992554 l
88.0704 72.175393 l
89.856 72.590279 l
91.6416 72.36295 l
93.4272 71.747684 l
95.2128 73.036483 l
96.9984 71.142089 l
98.784 71.91144 l
100.5696 71.445144 l
102.3552 72.097161 l
104.1408 73.036483 l
105.9264 72.931477 l
107.712 73.698132 l
109.4976 75.042071 l
111.2832 75.021785 l
113.0688 75.021785 l
114.8544 76.846125 l
116.64 77.342869 l
118.4256 78.508622 l
120.2112 78.40202 l
121.9968 80.531265 l
123.7824 80.531265 l
125.568 81.796374 l
127.3536 81.201514 l
129.1392 83.041456 l
130.9248 83.935598 l
132.7104 84.793851 l
134.496 85.91949 l
136.2816 84.85169 l
138.0672 85.328042 l
139.8528 85.099343 l
141.6384 87.024596 l
143.424 87.024596 l
145.2096 87.305096 l
146.9952 88.555577 l
148.7808 87.024596 l
150.5664 87.825635 l
152.352 88.943597 l
154.1376 85.672505 l
155.9232 86.697353 l
157.7088 85.672505 l
159.4944 87.204741 l
161.28 87.024596 l
163.0656 83.969279 l
164.8512 83.61777 l
166.6368 81.279746 l
168.4224 80.706585 l
170.208 80.531265 l
171.9936 63.408618 l
173.7792 61.363155 l
175.5648 60.601313 l
177.3504 181.320273 l
179.136 181.427942 l
180.9216 179.947567 l
182.7072 178.981406 l
184.4928 177.711759 l
186.2784 177.573477 l
188.064 177.711759 l
189.8496 178.382008 l
191.6352 178.868338 l
193.4208 179.141047 l
195.2064 179.447841 l
196.992 180.567761 l
198.7776 180.648568 l
200.5632 181.13532 l
202.3488 181.706765 l
204.1344 181.706765 l
205.92 61.281677 l
207.7056 61.281677 l
209.4912 63.196111 l
211.2768 63.695559 l
213.0624 64.284841 l
214.848 65.77915 l
216.6336 67.760133 l
218.4192 68.33114 l
220.2048 69.713343 l
221.9904 73.698132 l
223.776 72.15783 l
225.5616 73.970842 l
227.3472 74.999522 l
229.1328 75.957203 l
230.9184 77.537764 l
232.704 78.965706 l
234.4896 79.931867 l
236.2752 79.552834 l
238.0608 81.152789 l
239.8464 81.457849 l
241.632 83.148465 l
243.4176 85.539829 l
245.2032 85.539829 l
246.9888 86.27548 l
248.7744 87.785314 l
250.56 87.657807 l
252.3456 87.024596 l
254.1312 88.555577 l
255.9168 88.458847 l
257.7024 88.458847 l
259.488 89.197501 l
261.2736 88.239455 l
263.0592 89.966368 l
264.8448 87.657807 l
266.6304 84.953169 l
268.416 85.783443 l
270.2016 83.148465 l
stroke
grestore
1.000 0.000 0.000 setrgbcolor
gsave
446.4 157.1 72 43.2 clipbox
72 84.582716 m
73.7856 83.303894 l
75.5712 81.659059 l
77.3568 80.288853 l
80.928 78.05692 l
82.7136 77.096044 l
84.4992 75.835348 l
86.2848 75.294851 l
88.0704 74.938049 l
89.856 74.751422 l
91.6416 75.661875 l
93.4272 74.708704 l
95.2128 75.669001 l
96.9984 76.039249 l
98.784 76.233235 l
100.5696 76.985884 l
102.3552 77.258593 l
104.1408 78.491051 l
105.9264 78.955436 l
107.712 80.239141 l
109.4976 80.777219 l
111.2832 81.925558 l
113.0688 83.323394 l
114.8544 84.027118 l
118.4256 86.63745 l
120.2112 87.420665 l
121.9968 88.601137 l
123.7824 89.480285 l
125.568 90.900727 l
127.3536 92.071657 l
129.1392 92.857857 l
130.9248 93.961411 l
134.496 95.711217 l
136.2816 96.250912 l
141.6384 98.613118 l
143.424 99.192204 l
146.9952 99.887498 l
148.7808 99.779384 l
150.5664 100.666729 l
154.1376 100.00508 l
155.9232 99.791649 l
159.4944 98.195986 l
163.0656 95.586146 l
166.6368 92.408247 l
168.4224 91.217415 l
170.208 90.173786 l
171.9936 62.182039 l
173.7792 61.592959 l
175.5648 60.388787 l
177.3504 183.128117 l
179.136 181.903929 l
180.9216 181.390766 l
182.7072 180.648568 l
184.4928 180.330598 l
186.2784 180.330598 l
188.064 180.053709 l
189.8496 180.648568 l
191.6352 181.420615 l
193.4208 181.328344 l
195.2064 182.529259 l
196.992 60.349057 l
198.7776 61.58698 l
200.5632 62.460689 l
202.3488 63.196111 l
204.1344 64.41688 l
207.7056 67.88153 l
209.4912 69.017023 l
213.0624 72.309542 l
214.848 73.454215 l
216.6336 75.478363 l
218.4192 76.605649 l
220.2048 78.200743 l
223.776 82.655811 l
225.5616 83.601715 l
227.3472 84.878719 l
229.1328 86.470739 l
230.9184 88.420495 l
232.704 89.655645 l
234.4896 91.212389 l
236.2752 91.820508 l
238.0608 92.708192 l
241.632 96.205553 l
245.2032 97.749321 l
246.9888 98.110686 l
248.7744 99.25501 l
250.56 99.639227 l
252.3456 99.639227 l
254.1312 100.48983 l
255.9168 100.48983 l
257.7024 100.248997 l
259.488 100.618516 l
261.2736 99.758094 l
263.0592 99.113132 l
264.8448 97.218738 l
266.6304 96.186197 l
268.416 96.221138 l
270.2016 95.237001 l
271.9872 88.087956 l
273.7728 87.281266 l
275.5584 85.580316 l
277.344 84.987069 l
279.1296 84.62423 l
280.9152 83.545986 l
284.4864 82.076874 l
286.272 82.195896 l
288.0576 82.609249 l
289.8432 82.567194 l
291.6288 83.571427 l
293.4144 83.995478 l
295.2 84.793851 l
296.9856 85.268423 l
300.5568 87.840042 l
302.3424 88.804826 l
304.128 90.335807 l
305.9136 91.453717 l
307.6992 92.440421 l
309.4848 93.909053 l
311.2704 95.085845 l
314.8416 98.04795 l
316.6272 99.361495 l
318.4128 100.844281 l
320.1984 102.800376 l
321.984 105.505382 l
323.7696 106.723777 l
325.5552 108.211113 l
327.3408 110.315872 l
329.1264 110.894707 l
330.912 112.456439 l
332.6976 114.172083 l
334.4832 115.128002 l
338.0544 118.024753 l
339.84 119.053973 l
341.6256 119.788325 l
346.9824 123.018755 l
348.768 123.791494 l
350.5536 123.811205 l
352.3392 124.675387 l
355.9104 125.28799 l
357.696 124.928263 l
359.4816 124.114065 l
363.0528 122.125466 l
364.8384 121.879948 l
366.624 121.023854 l
368.4096 118.661961 l
370.1952 118.116976 l
370.1952 118.116976 l
stroke
grestore
0.000 0.000 1.000 setrgbcolor
gsave
446.4 157.1 72 43.2 clipbox
72 85.91949 m
73.7856 84.380286 l
75.5712 81.796374 l
77.3568 80.839261 l
79.1424 78.948282 l
84.4992 74.026469 l
86.2848 72.992554 l
88.0704 72.175393 l
89.856 72.590279 l
91.6416 72.36295 l
93.4272 71.747684 l
95.2128 73.036483 l
96.9984 71.142089 l
98.784 71.91144 l
100.5696 71.445144 l
102.3552 72.097161 l
104.1408 73.036483 l
105.9264 72.931477 l
107.712 73.698132 l
109.4976 75.042071 l
113.0688 75.021785 l
114.8544 76.846125 l
116.64 77.342869 l
118.4256 78.508622 l
120.2112 78.40202 l
121.9968 80.531265 l
123.7824 80.531265 l
125.568 81.796374 l
127.3536 81.201514 l
129.1392 83.041456 l
132.7104 84.793851 l
134.496 85.91949 l
136.2816 84.85169 l
138.0672 85.328042 l
139.8528 85.099343 l
141.6384 87.024596 l
143.424 87.024596 l
145.2096 87.305096 l
146.9952 88.555577 l
148.7808 87.024596 l
150.5664 87.825635 l
152.352 88.943597 l
154.1376 85.672505 l
155.9232 86.697353 l
157.7088 85.672505 l
159.4944 87.204741 l
161.28 87.024596 l
163.0656 83.969279 l
164.8512 83.61777 l
166.6368 81.279746 l
168.4224 80.706585 l
170.208 80.531265 l
171.9936 63.408618 l
173.7792 61.363155 l
175.5648 60.601313 l
177.3504 181.320273 l
179.136 181.427942 l
180.9216 179.947567 l
182.7072 178.981406 l
184.4928 177.711759 l
186.2784 177.573477 l
188.064 177.711759 l
189.8496 178.382008 l
191.6352 178.868338 l
195.2064 179.447841 l
196.992 180.567761 l
198.7776 180.648568 l
202.3488 181.706765 l
204.1344 181.706765 l
205.92 61.281677 l
207.7056 61.281677 l
209.4912 63.196111 l
213.0624 64.284841 l
214.848 65.77915 l
216.6336 67.760133 l
218.4192 68.33114 l
220.2048 69.713343 l
221.9904 73.698132 l
223.776 72.15783 l
225.5616 73.970842 l
229.1328 75.957203 l
230.9184 77.537764 l
232.704 78.965706 l
234.4896 79.931867 l
236.2752 79.552834 l
238.0608 81.152789 l
239.8464 81.457849 l
241.632 83.148465 l
243.4176 85.539829 l
245.2032 85.539829 l
246.9888 86.27548 l
248.7744 87.785314 l
250.56 87.657807 l
252.3456 87.024596 l
254.1312 88.555577 l
257.7024 88.458847 l
259.488 89.197501 l
261.2736 88.239455 l
263.0592 89.966368 l
264.8448 87.657807 l
266.6304 84.953169 l
268.416 85.783443 l
270.2016 83.148465 l
271.9872 88.727821 l
273.7728 86.606864 l
275.5584 86.686903 l
277.344 85.022262 l
279.1296 82.688322 l
280.9152 81.796374 l
282.7008 81.062646 l
284.4864 81.984276 l
286.272 80.515416 l
288.0576 80.876592 l
289.8432 80.678412 l
291.6288 80.595646 l
293.4144 80.207711 l
295.2 80.531265 l
296.9856 80.531265 l
298.7712 81.904265 l
300.5568 82.140836 l
302.3424 84.428102 l
304.128 84.749122 l
305.9136 85.253783 l
307.6992 84.983402 l
309.4848 87.530576 l
311.2704 88.49196 l
313.056 89.810938 l
314.8416 90.900727 l
316.6272 92.28129 l
318.4128 92.857857 l
320.1984 95.850975 l
321.984 96.864967 l
323.7696 97.394058 l
327.3408 100.505261 l
329.1264 101.094869 l
330.912 102.365818 l
334.4832 103.853437 l
336.2688 105.855646 l
338.0544 105.431143 l
339.84 106.790535 l
341.6256 107.015851 l
343.4112 107.936562 l
345.1968 110.589943 l
346.9824 110.700041 l
348.768 111.599441 l
350.5536 110.019077 l
352.3392 112.80893 l
354.1248 113.647213 l
355.9104 112.802052 l
357.696 113.001361 l
359.4816 113.368042 l
361.2672 113.171685 l
363.0528 111.20248 l
364.8384 110.824372 l
366.624 110.776595 l
368.4096 108.901648 l
370.1952 109.109433 l
370.1952 109.109433 l
stroke
grestore
1.000 0.000 0.000 setrgbcolor
gsave
446.4 157.1 72 43.2 clipbox
72 84.582716 m
73.7856 83.303894 l
75.5712 81.659059 l
77.3568 80.288853 l
80.928 78.05692 l
82.7136 77.096044 l
84.4992 75.835348 l
86.2848 75.294851 l
88.0704 74.938049 l
89.856 74.751422 l
91.6416 75.661875 l
93.4272 74.708704 l
95.2128 75.669001 l
96.9984 76.039249 l
98.784 76.233235 l
100.5696 76.985884 l
102.3552 77.258593 l
104.1408 78.491051 l
105.9264 78.955436 l
107.712 80.239141 l
109.4976 80.777219 l
111.2832 81.925558 l
113.0688 83.323394 l
114.8544 84.027118 l
118.4256 86.63745 l
120.2112 87.420665 l
121.9968 88.601137 l
123.7824 89.480285 l
125.568 90.900727 l
127.3536 92.071657 l
129.1392 92.857857 l
130.9248 93.961411 l
134.496 95.711217 l
136.2816 96.250912 l
141.6384 98.613118 l
143.424 99.192204 l
146.9952 99.887498 l
148.7808 99.779384 l
150.5664 100.666729 l
154.1376 100.00508 l
155.9232 99.791649 l
159.4944 98.195986 l
163.0656 95.586146 l
166.6368 92.408247 l
168.4224 91.217415 l
170.208 90.173786 l
171.9936 62.182039 l
173.7792 61.592959 l
175.5648 60.388787 l
177.3504 183.128117 l
179.136 181.903929 l
180.9216 181.390766 l
182.7072 180.648568 l
184.4928 180.330598 l
186.2784 180.330598 l
188.064 180.053709 l
189.8496 180.648568 l
191.6352 181.420615 l
193.4208 181.328344 l
195.2064 182.529259 l
196.992 60.349057 l
198.7776 61.58698 l
200.5632 62.460689 l
202.3488 63.196111 l
204.1344 64.41688 l
207.7056 67.88153 l
209.4912 69.017023 l
213.0624 72.309542 l
214.848 73.454215 l
216.6336 75.478363 l
218.4192 76.605649 l
220.2048 78.200743 l
223.776 82.655811 l
225.5616 83.601715 l
227.3472 84.878719 l
229.1328 86.470739 l
230.9184 88.420495 l
232.704 89.655645 l
234.4896 91.212389 l
236.2752 91.820508 l
238.0608 92.708192 l
241.632 96.205553 l
245.2032 97.749321 l
246.9888 98.110686 l
248.7744 99.25501 l
250.56 99.639227 l
252.3456 99.639227 l
254.1312 100.48983 l
255.9168 100.48983 l
257.7024 100.248997 l
259.488 100.618516 l
261.2736 99.758094 l
263.0592 99.113132 l
264.8448 97.218738 l
266.6304 96.186197 l
268.416 96.221138 l
270.2016 95.237001 l
271.9872 88.087956 l
273.7728 87.281266 l
275.5584 85.580316 l
277.344 84.987069 l
279.1296 84.62423 l
280.9152 83.545986 l
284.4864 82.076874 l
286.272 82.195896 l
288.0576 82.609249 l
289.8432 82.567194 l
291.6288 83.571427 l
293.4144 83.995478 l
295.2 84.793851 l
296.9856 85.268423 l
300.5568 87.840042 l
302.3424 88.804826 l
304.128 90.335807 l
305.9136 91.453717 l
307.6992 92.440421 l
309.4848 93.909053 l
311.2704 95.085845 l
314.8416 98.04795 l
316.6272 99.361495 l
318.4128 100.844281 l
320.1984 102.800376 l
321.984 105.505382 l
323.7696 106.723777 l
325.5552 108.211113 l
327.3408 110.315872 l
329.1264 110.894707 l
330.912 112.456439 l
332.6976 114.172083 l
334.4832 115.128002 l
338.0544 118.024753 l
339.84 119.053973 l
341.6256 119.788325 l
346.9824 123.018755 l
348.768 123.791494 l
350.5536 123.811205 l
352.3392 124.675387 l
355.9104 125.28799 l
357.696 124.928263 l
359.4816 124.114065 l
363.0528 122.125466 l
364.8384 121.879948 l
366.624 121.023854 l
368.4096 118.661961 l
370.1952 118.116976 l
371.9808 102.289872 l
373.7664 99.320368 l
375.552 96.794997 l
377.3376 94.694698 l
379.1232 93.744318 l
380.9088 91.64137 l
384.48 87.903249 l
386.2656 87.4708 l
388.0512 86.27548 l
389.8368 85.905863 l
391.6224 85.067466 l
393.408 84.457645 l
395.1936 84.085699 l
396.9792 84.216863 l
398.7648 84.216863 l
400.5504 84.582716 l
402.336 84.192641 l
404.1216 84.449137 l
405.9072 84.192641 l
409.4784 85.49236 l
411.264 85.672505 l
413.0496 86.697353 l
414.8352 86.512459 l
416.6208 87.106756 l
418.4064 87.106756 l
421.9776 87.870467 l
423.7632 88.819579 l
425.5488 88.774686 l
429.12 89.64904 l
436.2624 91.309758 l
438.048 90.900727 l
439.8336 91.301413 l
443.4048 91.27118 l
445.1904 90.530273 l
446.976 90.900727 l
450.5472 90.173786 l
452.3328 89.053706 l
454.1184 88.369388 l
455.904 86.954716 l
457.6896 85.829592 l
459.4752 85.143602 l
464.832 78.345513 l
466.6176 76.704041 l
468.4032 74.480763 l
470.1888 72.480885 l
470.1888 72.480885 l
stroke
grestore
0.000 0.000 1.000 setrgbcolor
gsave
446.4 157.1 72 43.2 clipbox
72 85.91949 m
73.7856 84.380286 l
75.5712 81.796374 l
77.3568 80.839261 l
79.1424 78.948282 l
84.4992 74.026469 l
86.2848 72.992554 l
88.0704 72.175393 l
89.856 72.590279 l
91.6416 72.36295 l
93.4272 71.747684 l
95.2128 73.036483 l
96.9984 71.142089 l
98.784 71.91144 l
100.5696 71.445144 l
102.3552 72.097161 l
104.1408 73.036483 l
105.9264 72.931477 l
107.712 73.698132 l
109.4976 75.042071 l
113.0688 75.021785 l
114.8544 76.846125 l
116.64 77.342869 l
118.4256 78.508622 l
120.2112 78.40202 l
121.9968 80.531265 l
123.7824 80.531265 l
125.568 81.796374 l
127.3536 81.201514 l
129.1392 83.041456 l
132.7104 84.793851 l
134.496 85.91949 l
136.2816 84.85169 l
138.0672 85.328042 l
139.8528 85.099343 l
141.6384 87.024596 l
143.424 87.024596 l
145.2096 87.305096 l
146.9952 88.555577 l
148.7808 87.024596 l
150.5664 87.825635 l
152.352 88.943597 l
154.1376 85.672505 l
155.9232 86.697353 l
157.7088 85.672505 l
159.4944 87.204741 l
161.28 87.024596 l
163.0656 83.969279 l
164.8512 83.61777 l
166.6368 81.279746 l
168.4224 80.706585 l
170.208 80.531265 l
171.9936 63.408618 l
173.7792 61.363155 l
175.5648 60.601313 l
177.3504 181.320273 l
179.136 181.427942 l
180.9216 179.947567 l
182.7072 178.981406 l
184.4928 177.711759 l
186.2784 177.573477 l
188.064 177.711759 l
189.8496 178.382008 l
191.6352 178.868338 l
195.2064 179.447841 l
196.992 180.567761 l
198.7776 180.648568 l
202.3488 181.706765 l
204.1344 181.706765 l
205.92 61.281677 l
207.7056 61.281677 l
209.4912 63.196111 l
213.0624 64.284841 l
214.848 65.77915 l
216.6336 67.760133 l
218.4192 68.33114 l
220.2048 69.713343 l
221.9904 73.698132 l
223.776 72.15783 l
225.5616 73.970842 l
229.1328 75.957203 l
230.9184 77.537764 l
232.704 78.965706 l
234.4896 79.931867 l
236.2752 79.552834 l
238.0608 81.152789 l
239.8464 81.457849 l
241.632 83.148465 l
243.4176 85.539829 l
245.2032 85.539829 l
246.9888 86.27548 l
248.7744 87.785314 l
250.56 87.657807 l
252.3456 87.024596 l
254.1312 88.555577 l
257.7024 88.458847 l
259.488 89.197501 l
261.2736 88.239455 l
263.0592 89.966368 l
264.8448 87.657807 l
266.6304 84.953169 l
268.416 85.783443 l
270.2016 83.148465 l
271.9872 88.727821 l
273.7728 86.606864 l
275.5584 86.686903 l
277.344 85.022262 l
279.1296 82.688322 l
280.9152 81.796374 l
282.7008 81.062646 l
284.4864 81.984276 l
286.272 80.515416 l
288.0576 80.876592 l
289.8432 80.678412 l
291.6288 80.595646 l
293.4144 80.207711 l
295.2 80.531265 l
296.9856 80.531265 l
298.7712 81.904265 l
300.5568 82.140836 l
302.3424 84.428102 l
304.128 84.749122 l
305.9136 85.253783 l
307.6992 84.983402 l
309.4848 87.530576 l
311.2704 88.49196 l
313.056 89.810938 l
314.8416 90.900727 l
316.6272 92.28129 l
318.4128 92.857857 l
320.1984 95.850975 l
321.984 96.864967 l
323.7696 97.394058 l
327.3408 100.505261 l
329.1264 101.094869 l
330.912 102.365818 l
334.4832 103.853437 l
336.2688 105.855646 l
338.0544 105.431143 l
339.84 106.790535 l
341.6256 107.015851 l
343.4112 107.936562 l
345.1968 110.589943 l
346.9824 110.700041 l
348.768 111.599441 l
350.5536 110.019077 l
352.3392 112.80893 l
354.1248 113.647213 l
355.9104 112.802052 l
357.696 113.001361 l
359.4816 113.368042 l
361.2672 113.171685 l
363.0528 111.20248 l
364.8384 110.824372 l
366.624 110.776595 l
368.4096 108.901648 l
370.1952 109.109433 l
371.9808 101.205807 l
373.7664 99.040134 l
375.552 97.63647 l
377.3376 94.906898 l
379.1232 94.040839 l
380.9088 89.675048 l
382.6944 89.120496 l
384.48 86.230494 l
386.2656 86.090237 l
388.0512 84.582716 l
389.8368 83.428965 l
391.6224 82.625586 l
393.408 80.625443 l
395.1936 81.796374 l
396.9792 79.721486 l
398.7648 78.40202 l
400.5504 80.531265 l
402.336 77.982187 l
404.1216 79.149956 l
405.9072 79.772226 l
407.6928 78.90829 l
409.4784 77.651268 l
411.264 78.721282 l
413.0496 78.115947 l
414.8352 77.777953 l
416.6208 79.149956 l
418.4064 78.721282 l
420.192 78.553454 l
421.9776 79.582813 l
423.7632 79.582813 l
425.5488 79.772226 l
427.3344 79.772226 l
429.12 80.706585 l
430.9056 80.706585 l
432.6912 80.288853 l
434.4768 80.288853 l
436.2624 79.839244 l
438.048 79.623468 l
439.8336 78.830981 l
441.6192 79.354494 l
443.4048 78.830981 l
445.1904 79.623468 l
446.976 79.931867 l
448.7616 77.651268 l
450.5472 78.830981 l
452.3328 74.171206 l
454.1184 74.751422 l
455.904 73.970842 l
457.6896 74.693327 l
459.4752 74.751422 l
461.2608 72.480885 l
463.0464 69.676979 l
464.832 67.265958 l
466.6176 65.917432 l
468.4032 64.201104 l
470.1888 63.053477 l
470.1888 63.053477 l
stroke
grestore
0 setlinejoin
0.000 setgray
gsave
518.4 43.2 m
518.4 200.290909 l
stroke
grestore
gsave
72 200.290909 m
518.4 200.290909 l
stroke
grestore
gsave
72 43.2 m
72 200.290909 l
stroke
grestore
gsave
72 43.2 m
518.4 43.2 l
stroke
grestore
0.500 setlinewidth
1 setlinejoin
0 setlinecap
gsave
/o {
gsave
newpath
translate
0.5 setlinewidth
1 setlinejoin
0 setlinecap
0 0 m
0 4 l

gsave
0.000 setgray
fill
grestore
stroke
grestore
} bind def
72 43.2 o
grestore
gsave
/o {
gsave
newpath
translate
0.5 setlinewidth
1 setlinejoin
0 setlinecap
0 0 m
0 -4 l

gsave
0.000 setgray
fill
grestore
stroke
grestore
} bind def
72 200.291 o
grestore
/BitstreamVeraSans-Roman findfont
12.000 scalefont
setfont
gsave
68.179688 30.075000 translate
0.000000 rotate
0.000000 0.000000 m /zero glyphshow
grestore
gsave
/o {
gsave
newpath
translate
0.5 setlinewidth
1 setlinejoin
0 setlinecap
0 0 m
0 4 l

gsave
0.000 setgray
fill
grestore
stroke
grestore
} bind def
161.28 43.2 o
grestore
gsave
/o {
gsave
newpath
translate
0.5 setlinewidth
1 setlinejoin
0 setlinecap
0 0 m
0 -4 l

gsave
0.000 setgray
fill
grestore
stroke
grestore
} bind def
161.28 200.291 o
grestore
gsave
153.639375 30.075000 translate
0.000000 rotate
0.000000 0.000000 m /five glyphshow
7.634766 0.000000 m /zero glyphshow
grestore
gsave
/o {
gsave
newpath
translate
0.5 setlinewidth
1 setlinejoin
0 setlinecap
0 0 m
0 4 l

gsave
0.000 setgray
fill
grestore
stroke
grestore
} bind def
250.56 43.2 o
grestore
gsave
/o {
gsave
newpath
translate
0.5 setlinewidth
1 setlinejoin
0 setlinecap
0 0 m
0 -4 l

gsave
0.000 setgray
fill
grestore
stroke
grestore
} bind def
250.56 200.291 o
grestore
gsave
239.099062 30.075000 translate
0.000000 rotate
0.000000 0.000000 m /one glyphshow
7.634766 0.000000 m /zero glyphshow
15.269531 0.000000 m /zero glyphshow
grestore
gsave
/o {
gsave
newpath
translate
0.5 setlinewidth
1 setlinejoin
0 setlinecap
0 0 m
0 4 l

gsave
0.000 setgray
fill
grestore
stroke
grestore
} bind def
339.84 43.2 o
grestore
gsave
/o {
gsave
newpath
translate
0.5 setlinewidth
1 setlinejoin
0 setlinecap
0 0 m
0 -4 l

gsave
0.000 setgray
fill
grestore
stroke
grestore
} bind def
339.84 200.291 o
grestore
gsave
328.379062 30.075000 translate
0.000000 rotate
0.000000 0.000000 m /one glyphshow
7.634766 0.000000 m /five glyphshow
15.269531 0.000000 m /zero glyphshow
grestore
gsave
/o {
gsave
newpath
translate
0.5 setlinewidth
1 setlinejoin
0 setlinecap
0 0 m
0 4 l

gsave
0.000 setgray
fill
grestore
stroke
grestore
} bind def
429.12 43.2 o
grestore
gsave
/o {
gsave
newpath
translate
0.5 setlinewidth
1 setlinejoin
0 setlinecap
0 0 m
0 -4 l

gsave
0.000 setgray
fill
grestore
stroke
grestore
} bind def
429.12 200.291 o
grestore
gsave
417.659062 30.075000 translate
0.000000 rotate
0.000000 0.000000 m /two glyphshow
7.634766 0.000000 m /zero glyphshow
15.269531 0.000000 m /zero glyphshow
grestore
gsave
/o {
gsave
newpath
translate
0.5 setlinewidth
1 setlinejoin
0 setlinecap
0 0 m
0 4 l

gsave
0.000 setgray
fill
grestore
stroke
grestore
} bind def
518.4 43.2 o
grestore
gsave
/o {
gsave
newpath
translate
0.5 setlinewidth
1 setlinejoin
0 setlinecap
0 0 m
0 -4 l

gsave
0.000 setgray
fill
grestore
stroke
grestore
} bind def
518.4 200.291 o
grestore
gsave
506.939062 30.075000 translate
0.000000 rotate
0.000000 0.000000 m /two glyphshow
7.634766 0.000000 m /five glyphshow
15.269531 0.000000 m /zero glyphshow
grestore
gsave
237.067187 13.450000 translate
0.000000 rotate
0.000000 0.000000 m /I glyphshow
3.539062 0.000000 m /n glyphshow
11.144531 0.000000 m /d glyphshow
18.761719 0.000000 m /e glyphshow
26.144531 0.000000 m /x glyphshow
33.246094 0.000000 m /space glyphshow
37.060547 0.000000 m /parenleft glyphshow
41.742188 0.000000 m /one glyphshow
49.376953 0.000000 m /zero glyphshow
57.011719 0.000000 m /zero glyphshow
64.646484 0.000000 m /p glyphshow
72.263672 0.000000 m /a glyphshow
79.617188 0.000000 m /c glyphshow
86.214844 0.000000 m /k glyphshow
93.164062 0.000000 m /e glyphshow
100.546875 0.000000 m /t glyphshow
105.251953 0.000000 m /s glyphshow
111.503906 0.000000 m /parenright glyphshow
grestore
gsave
/o {
gsave
newpath
translate
0.5 setlinewidth
1 setlinejoin
0 setlinecap
0 0 m
4 0 l

gsave
0.000 setgray
fill
grestore
stroke
grestore
} bind def
72 43.2 o
grestore
gsave
/o {
gsave
newpath
translate
0.5 setlinewidth
1 setlinejoin
0 setlinecap
0 0 m
-4 0 l

gsave
0.000 setgray
fill
grestore
stroke
grestore
} bind def
518.4 43.2 o
grestore
gsave
50.296875 39.887500 translate
0.000000 rotate
0.000000 0.000000 m /minus glyphshow
10.054688 0.000000 m /four glyphshow
grestore
gsave
/o {
gsave
newpath
translate
0.5 setlinewidth
1 setlinejoin
0 setlinecap
0 0 m
4 0 l

gsave
0.000 setgray
fill
grestore
stroke
grestore
} bind def
72 62.8364 o
grestore
gsave
/o {
gsave
newpath
translate
0.5 setlinewidth
1 setlinejoin
0 setlinecap
0 0 m
-4 0 l

gsave
0.000 setgray
fill
grestore
stroke
grestore
} bind def
518.4 62.8364 o
grestore
gsave
50.296875 59.523864 translate
0.000000 rotate
0.000000 0.000000 m /minus glyphshow
10.054688 0.000000 m /three glyphshow
grestore
gsave
/o {
gsave
newpath
translate
0.5 setlinewidth
1 setlinejoin
0 setlinecap
0 0 m
4 0 l

gsave
0.000 setgray
fill
grestore
stroke
grestore
} bind def
72 82.4727 o
grestore
gsave
/o {
gsave
newpath
translate
0.5 setlinewidth
1 setlinejoin
0 setlinecap
0 0 m
-4 0 l

gsave
0.000 setgray
fill
grestore
stroke
grestore
} bind def
518.4 82.4727 o
grestore
gsave
50.296875 79.160227 translate
0.000000 rotate
0.000000 0.000000 m /minus glyphshow
10.054688 0.000000 m /two glyphshow
grestore
gsave
/o {
gsave
newpath
translate
0.5 setlinewidth
1 setlinejoin
0 setlinecap
0 0 m
4 0 l

gsave
0.000 setgray
fill
grestore
stroke
grestore
} bind def
72 102.109 o
grestore
gsave
/o {
gsave
newpath
translate
0.5 setlinewidth
1 setlinejoin
0 setlinecap
0 0 m
-4 0 l

gsave
0.000 setgray
fill
grestore
stroke
grestore
} bind def
518.4 102.109 o
grestore
gsave
50.296875 98.796591 translate
0.000000 rotate
0.000000 0.000000 m /minus glyphshow
10.054688 0.000000 m /one glyphshow
grestore
gsave
/o {
gsave
newpath
translate
0.5 setlinewidth
1 setlinejoin
0 setlinecap
0 0 m
4 0 l

gsave
0.000 setgray
fill
grestore
stroke
grestore
} bind def
72 121.745 o
grestore
gsave
/o {
gsave
newpath
translate
0.5 setlinewidth
1 setlinejoin
0 setlinecap
0 0 m
-4 0 l

gsave
0.000 setgray
fill
grestore
stroke
grestore
} bind def
518.4 121.745 o
grestore
gsave
60.359375 118.432955 translate
0.000000 rotate
0.000000 0.000000 m /zero glyphshow
grestore
gsave
/o {
gsave
newpath
translate
0.5 setlinewidth
1 setlinejoin
0 setlinecap
0 0 m
4 0 l

gsave
0.000 setgray
fill
grestore
stroke
grestore
} bind def
72 141.382 o
grestore
gsave
/o {
gsave
newpath
translate
0.5 setlinewidth
1 setlinejoin
0 setlinecap
0 0 m
-4 0 l

gsave
0.000 setgray
fill
grestore
stroke
grestore
} bind def
518.4 141.382 o
grestore
gsave
60.359375 138.069318 translate
0.000000 rotate
0.000000 0.000000 m /one glyphshow
grestore
gsave
/o {
gsave
newpath
translate
0.5 setlinewidth
1 setlinejoin
0 setlinecap
0 0 m
4 0 l

gsave
0.000 setgray
fill
grestore
stroke
grestore
} bind def
72 161.018 o
grestore
gsave
/o {
gsave
newpath
translate
0.5 setlinewidth
1 setlinejoin
0 setlinecap
0 0 m
-4 0 l

gsave
0.000 setgray
fill
grestore
stroke
grestore
} bind def
518.4 161.018 o
grestore
gsave
60.359375 157.705682 translate
0.000000 rotate
0.000000 0.000000 m /two glyphshow
grestore
gsave
/o {
gsave
newpath
translate
0.5 setlinewidth
1 setlinejoin
0 setlinecap
0 0 m
4 0 l

gsave
0.000 setgray
fill
grestore
stroke
grestore
} bind def
72 180.655 o
grestore
gsave
/o {
gsave
newpath
translate
0.5 setlinewidth
1 setlinejoin
0 setlinecap
0 0 m
-4 0 l

gsave
0.000 setgray
fill
grestore
stroke
grestore
} bind def
518.4 180.655 o
grestore
gsave
60.359375 177.342045 translate
0.000000 rotate
0.000000 0.000000 m /three glyphshow
grestore
gsave
/o {
gsave
newpath
translate
0.5 setlinewidth
1 setlinejoin
0 setlinecap
0 0 m
4 0 l

gsave
0.000 setgray
fill
grestore
stroke
grestore
} bind def
72 200.291 o
grestore
gsave
/o {
gsave
newpath
translate
0.5 setlinewidth
1 setlinejoin
0 setlinecap
0 0 m
-4 0 l

gsave
0.000 setgray
fill
grestore
stroke
grestore
} bind def
518.4 200.291 o
grestore
gsave
60.359375 196.978409 translate
0.000000 rotate
0.000000 0.000000 m /four glyphshow
grestore
gsave
42.796875 87.268892 translate
90.000000 rotate
0.000000 0.000000 m /P glyphshow
7.236328 0.000000 m /h glyphshow
14.841797 0.000000 m /a glyphshow
22.195312 0.000000 m /s glyphshow
28.447266 0.000000 m /e glyphshow
35.830078 0.000000 m /space glyphshow
39.644531 0.000000 m /bracketleft glyphshow
44.326172 0.000000 m /r glyphshow
49.259766 0.000000 m /a glyphshow
56.613281 0.000000 m /d glyphshow
64.230469 0.000000 m /bracketright glyphshow
grestore
1.000 setlinewidth
0 setlinejoin
gsave
363.000625 147.277159 m
511.2 147.277159 l
511.2 193.090909 l
363.000625 193.090909 l
cl
gsave
1.000 setgray
fill
grestore
stroke
grestore
1 setlinejoin
2 setlinecap
1.000 0.000 0.000 setrgbcolor
gsave
373.080625 181.730284 m
393.240625 181.730284 l
stroke
grestore
0.000 setgray
/BitstreamVeraSans-Roman findfont
14.400 scalefont
setfont
gsave
409.080625 176.690284 translate
0.000000 rotate
0.000000 0.000000 m /e glyphshow
8.843994 0.000000 m /r glyphshow
14.754028 0.000000 m /i glyphshow
18.747864 0.000000 m /c glyphshow
26.651306 0.000000 m /h glyphshow
35.762024 0.000000 m /space glyphshow
40.331421 0.000000 m /t glyphshow
45.967712 0.000000 m /x glyphshow
54.474792 0.000000 m /one glyphshow
63.620605 0.000000 m /comma glyphshow
68.190002 0.000000 m /space glyphshow
72.759399 0.000000 m /r glyphshow
78.669434 0.000000 m /x glyphshow
87.176514 0.000000 m /zero glyphshow
grestore
0.000 0.000 1.000 setrgbcolor
gsave
373.080625 160.983409 m
393.240625 160.983409 l
stroke
grestore
0.000 setgray
gsave
409.080625 155.943409 translate
0.000000 rotate
0.000000 0.000000 m /e glyphshow
8.843994 0.000000 m /r glyphshow
14.754028 0.000000 m /i glyphshow
18.747864 0.000000 m /c glyphshow
26.651306 0.000000 m /h glyphshow
35.762024 0.000000 m /space glyphshow
40.331421 0.000000 m /t glyphshow
45.967712 0.000000 m /x glyphshow
54.474792 0.000000 m /zero glyphshow
63.620605 0.000000 m /comma glyphshow
68.190002 0.000000 m /space glyphshow
72.759399 0.000000 m /r glyphshow
78.669434 0.000000 m /x glyphshow
87.176514 0.000000 m /one glyphshow
grestore

end
showpage
