%!PS-Adobe-3.0 EPSF-3.0
%%Title: e_rx1_tx3_m_rx1_tx3.eps
%%Creator: matplotlib version 1.5.1, http://matplotlib.org/
%%CreationDate: Tue Jan 10 12:05:15 2017
%%Orientation: portrait
%%BoundingBox: 18 180 594 612
%%EndComments
%%BeginProlog
/mpldict 8 dict def
mpldict begin
/m { moveto } bind def
/l { lineto } bind def
/r { rlineto } bind def
/c { curveto } bind def
/cl { closepath } bind def
/box {
m
1 index 0 r
0 exch r
neg 0 r
cl
} bind def
/clipbox {
box
clip
newpath
} bind def
%!PS-Adobe-3.0 Resource-Font
%%Title: Bitstream Vera Sans
%%Copyright: Copyright (c) 2003 by Bitstream, Inc. All Rights Reserved.
%%Creator: Converted from TrueType to type 3 by PPR
25 dict begin
/_d{bind def}bind def
/_m{moveto}_d
/_l{lineto}_d
/_cl{closepath eofill}_d
/_c{curveto}_d
/_sc{7 -1 roll{setcachedevice}{pop pop pop pop pop pop}ifelse}_d
/_e{exec}_d
/FontName /BitstreamVeraSans-Roman def
/PaintType 0 def
/FontMatrix[.001 0 0 .001 0 0]def
/FontBBox[-183 -236 1287 928]def
/FontType 3 def
/Encoding [ /space /comma /zero /one /two /three /four /five /six /eight /B /I /M /P /bracketleft /bracketright /a /c /d /e /g /h /i /m /n /r /s /t /u /x /minus ] def
/FontInfo 10 dict dup begin
/FamilyName (Bitstream Vera Sans) def
/FullName (Bitstream Vera Sans) def
/Notice (Copyright (c) 2003 by Bitstream, Inc. All Rights Reserved. Bitstream Vera is a trademark of Bitstream, Inc.) def
/Weight (Roman) def
/Version (Release 1.10) def
/ItalicAngle 0.0 def
/isFixedPitch false def
/UnderlinePosition -213 def
/UnderlineThickness 143 def
end readonly def
/CharStrings 31 dict dup begin
/space{318 0 0 0 0 0 _sc
}_d
/comma{318 0 77 -115 220 124 _sc
117 124 _m
220 124 _l
220 40 _l
140 -115 _l
77 -115 _l
117 40 _l
117 124 _l
_cl}_d
/zero{636 0 66 -13 570 742 _sc
318 664 _m
267 664 229 639 203 589 _c
177 539 165 464 165 364 _c
165 264 177 189 203 139 _c
229 89 267 64 318 64 _c
369 64 407 89 433 139 _c
458 189 471 264 471 364 _c
471 464 458 539 433 589 _c
407 639 369 664 318 664 _c
318 742 _m
399 742 461 709 505 645 _c
548 580 570 486 570 364 _c
570 241 548 147 505 83 _c
461 19 399 -13 318 -13 _c
236 -13 173 19 130 83 _c
87 147 66 241 66 364 _c
66 486 87 580 130 645 _c
173 709 236 742 318 742 _c
_cl}_d
/one{636 0 110 0 544 729 _sc
124 83 _m
285 83 _l
285 639 _l
110 604 _l
110 694 _l
284 729 _l
383 729 _l
383 83 _l
544 83 _l
544 0 _l
124 0 _l
124 83 _l
_cl}_d
/two{{636 0 73 0 536 742 _sc
192 83 _m
536 83 _l
536 0 _l
73 0 _l
73 83 _l
110 121 161 173 226 239 _c
290 304 331 346 348 365 _c
380 400 402 430 414 455 _c
426 479 433 504 433 528 _c
433 566 419 598 392 622 _c
365 646 330 659 286 659 _c
255 659 222 653 188 643 _c
154 632 117 616 78 594 _c
78 694 _l
118 710 155 722 189 730 _c
223 738 255 742 284 742 _c
}_e{359 742 419 723 464 685 _c
509 647 532 597 532 534 _c
532 504 526 475 515 449 _c
504 422 484 390 454 354 _c
446 344 420 317 376 272 _c
332 227 271 164 192 83 _c
_cl}_e}_d
/three{{636 0 76 -13 556 742 _sc
406 393 _m
453 383 490 362 516 330 _c
542 298 556 258 556 212 _c
556 140 531 84 482 45 _c
432 6 362 -13 271 -13 _c
240 -13 208 -10 176 -4 _c
144 1 110 10 76 22 _c
76 117 _l
103 101 133 89 166 81 _c
198 73 232 69 268 69 _c
330 69 377 81 409 105 _c
441 129 458 165 458 212 _c
458 254 443 288 413 312 _c
383 336 341 349 287 349 _c
}_e{202 349 _l
202 430 _l
291 430 _l
339 430 376 439 402 459 _c
428 478 441 506 441 543 _c
441 580 427 609 401 629 _c
374 649 336 659 287 659 _c
260 659 231 656 200 650 _c
169 644 135 635 98 623 _c
98 711 _l
135 721 170 729 203 734 _c
235 739 266 742 296 742 _c
370 742 429 725 473 691 _c
517 657 539 611 539 553 _c
539 513 527 479 504 451 _c
481 423 448 403 406 393 _c
_cl}_e}_d
/four{636 0 49 0 580 729 _sc
378 643 _m
129 254 _l
378 254 _l
378 643 _l
352 729 _m
476 729 _l
476 254 _l
580 254 _l
580 172 _l
476 172 _l
476 0 _l
378 0 _l
378 172 _l
49 172 _l
49 267 _l
352 729 _l
_cl}_d
/five{{636 0 77 -13 549 729 _sc
108 729 _m
495 729 _l
495 646 _l
198 646 _l
198 467 _l
212 472 227 476 241 478 _c
255 480 270 482 284 482 _c
365 482 429 459 477 415 _c
525 370 549 310 549 234 _c
549 155 524 94 475 51 _c
426 8 357 -13 269 -13 _c
238 -13 207 -10 175 -6 _c
143 -1 111 6 77 17 _c
77 116 _l
106 100 136 88 168 80 _c
199 72 232 69 267 69 _c
}_e{323 69 368 83 401 113 _c
433 143 450 183 450 234 _c
450 284 433 324 401 354 _c
368 384 323 399 267 399 _c
241 399 214 396 188 390 _c
162 384 135 375 108 363 _c
108 729 _l
_cl}_e}_d
/six{{636 0 70 -13 573 742 _sc
330 404 _m
286 404 251 388 225 358 _c
199 328 186 286 186 234 _c
186 181 199 139 225 109 _c
251 79 286 64 330 64 _c
374 64 409 79 435 109 _c
461 139 474 181 474 234 _c
474 286 461 328 435 358 _c
409 388 374 404 330 404 _c
526 713 _m
526 623 _l
501 635 476 644 451 650 _c
425 656 400 659 376 659 _c
310 659 260 637 226 593 _c
}_e{192 549 172 482 168 394 _c
187 422 211 444 240 459 _c
269 474 301 482 336 482 _c
409 482 467 459 509 415 _c
551 371 573 310 573 234 _c
573 159 550 99 506 54 _c
462 9 403 -13 330 -13 _c
246 -13 181 19 137 83 _c
92 147 70 241 70 364 _c
70 479 97 571 152 639 _c
206 707 280 742 372 742 _c
396 742 421 739 447 735 _c
472 730 498 723 526 713 _c
_cl}_e}_d
/eight{{636 0 68 -13 568 742 _sc
318 346 _m
271 346 234 333 207 308 _c
180 283 167 249 167 205 _c
167 161 180 126 207 101 _c
234 76 271 64 318 64 _c
364 64 401 76 428 102 _c
455 127 469 161 469 205 _c
469 249 455 283 429 308 _c
402 333 365 346 318 346 _c
219 388 _m
177 398 144 418 120 447 _c
96 476 85 511 85 553 _c
85 611 105 657 147 691 _c
188 725 245 742 318 742 _c
}_e{390 742 447 725 489 691 _c
530 657 551 611 551 553 _c
551 511 539 476 515 447 _c
491 418 459 398 417 388 _c
464 377 501 355 528 323 _c
554 291 568 251 568 205 _c
568 134 546 80 503 43 _c
459 5 398 -13 318 -13 _c
237 -13 175 5 132 43 _c
89 80 68 134 68 205 _c
68 251 81 291 108 323 _c
134 355 171 377 219 388 _c
183 544 _m
183 506 194 476 218 455 _c
}_e{242 434 275 424 318 424 _c
360 424 393 434 417 455 _c
441 476 453 506 453 544 _c
453 582 441 611 417 632 _c
393 653 360 664 318 664 _c
275 664 242 653 218 632 _c
194 611 183 582 183 544 _c
_cl}_e}_d
/B{{686 0 98 0 615 729 _sc
197 348 _m
197 81 _l
355 81 _l
408 81 447 92 473 114 _c
498 136 511 169 511 215 _c
511 260 498 293 473 315 _c
447 337 408 348 355 348 _c
197 348 _l
197 648 _m
197 428 _l
343 428 _l
391 428 426 437 450 455 _c
474 473 486 500 486 538 _c
486 574 474 602 450 620 _c
426 638 391 648 343 648 _c
197 648 _l
98 729 _m
350 729 _l
}_e{425 729 483 713 524 682 _c
564 650 585 606 585 549 _c
585 504 574 468 553 442 _c
532 416 502 399 462 393 _c
510 382 548 360 575 327 _c
601 294 615 253 615 204 _c
615 138 592 88 548 53 _c
504 17 441 0 360 0 _c
98 0 _l
98 729 _l
_cl}_e}_d
/I{295 0 98 0 197 729 _sc
98 729 _m
197 729 _l
197 0 _l
98 0 _l
98 729 _l
_cl}_d
/M{863 0 98 0 765 729 _sc
98 729 _m
245 729 _l
431 233 _l
618 729 _l
765 729 _l
765 0 _l
669 0 _l
669 640 _l
481 140 _l
382 140 _l
194 640 _l
194 0 _l
98 0 _l
98 729 _l
_cl}_d
/P{603 0 98 0 569 729 _sc
197 648 _m
197 374 _l
321 374 _l
367 374 402 385 427 409 _c
452 433 465 467 465 511 _c
465 555 452 588 427 612 _c
402 636 367 648 321 648 _c
197 648 _l
98 729 _m
321 729 _l
402 729 464 710 506 673 _c
548 636 569 582 569 511 _c
569 439 548 384 506 348 _c
464 311 402 293 321 293 _c
197 293 _l
197 0 _l
98 0 _l
98 729 _l
_cl}_d
/bracketleft{390 0 86 -131 293 760 _sc
86 760 _m
293 760 _l
293 690 _l
176 690 _l
176 -61 _l
293 -61 _l
293 -131 _l
86 -131 _l
86 760 _l
_cl}_d
/bracketright{390 0 97 -131 304 760 _sc
304 760 _m
304 -131 _l
97 -131 _l
97 -61 _l
214 -61 _l
214 690 _l
97 690 _l
97 760 _l
304 760 _l
_cl}_d
/a{{613 0 60 -13 522 560 _sc
343 275 _m
270 275 220 266 192 250 _c
164 233 150 205 150 165 _c
150 133 160 107 181 89 _c
202 70 231 61 267 61 _c
317 61 357 78 387 114 _c
417 149 432 196 432 255 _c
432 275 _l
343 275 _l
522 312 _m
522 0 _l
432 0 _l
432 83 _l
411 49 385 25 355 10 _c
325 -5 287 -13 243 -13 _c
187 -13 142 2 109 33 _c
76 64 60 106 60 159 _c
}_e{60 220 80 266 122 298 _c
163 329 224 345 306 345 _c
432 345 _l
432 354 _l
432 395 418 427 391 450 _c
364 472 326 484 277 484 _c
245 484 215 480 185 472 _c
155 464 127 453 100 439 _c
100 522 _l
132 534 164 544 195 550 _c
226 556 256 560 286 560 _c
365 560 424 539 463 498 _c
502 457 522 395 522 312 _c
_cl}_e}_d
/c{{550 0 55 -13 488 560 _sc
488 526 _m
488 442 _l
462 456 437 466 411 473 _c
385 480 360 484 334 484 _c
276 484 230 465 198 428 _c
166 391 150 339 150 273 _c
150 206 166 154 198 117 _c
230 80 276 62 334 62 _c
360 62 385 65 411 72 _c
437 79 462 90 488 104 _c
488 21 _l
462 9 436 0 410 -5 _c
383 -10 354 -13 324 -13 _c
242 -13 176 12 128 64 _c
}_e{79 115 55 185 55 273 _c
55 362 79 432 128 483 _c
177 534 244 560 330 560 _c
358 560 385 557 411 551 _c
437 545 463 537 488 526 _c
_cl}_e}_d
/d{{635 0 55 -13 544 760 _sc
454 464 _m
454 760 _l
544 760 _l
544 0 _l
454 0 _l
454 82 _l
435 49 411 25 382 10 _c
353 -5 319 -13 279 -13 _c
213 -13 159 13 117 65 _c
75 117 55 187 55 273 _c
55 359 75 428 117 481 _c
159 533 213 560 279 560 _c
319 560 353 552 382 536 _c
411 520 435 496 454 464 _c
148 273 _m
148 207 161 155 188 117 _c
215 79 253 61 301 61 _c
}_e{348 61 385 79 413 117 _c
440 155 454 207 454 273 _c
454 339 440 390 413 428 _c
385 466 348 485 301 485 _c
253 485 215 466 188 428 _c
161 390 148 339 148 273 _c
_cl}_e}_d
/e{{615 0 55 -13 562 560 _sc
562 296 _m
562 252 _l
149 252 _l
153 190 171 142 205 110 _c
238 78 284 62 344 62 _c
378 62 412 66 444 74 _c
476 82 509 95 541 113 _c
541 28 _l
509 14 476 3 442 -3 _c
408 -9 373 -13 339 -13 _c
251 -13 182 12 131 62 _c
80 112 55 181 55 268 _c
55 357 79 428 127 481 _c
175 533 241 560 323 560 _c
397 560 455 536 498 489 _c
}_e{540 441 562 377 562 296 _c
472 322 _m
471 371 457 410 431 440 _c
404 469 368 484 324 484 _c
274 484 234 469 204 441 _c
174 413 156 373 152 322 _c
472 322 _l
_cl}_e}_d
/g{{635 0 55 -207 544 560 _sc
454 280 _m
454 344 440 395 414 431 _c
387 467 349 485 301 485 _c
253 485 215 467 188 431 _c
161 395 148 344 148 280 _c
148 215 161 165 188 129 _c
215 93 253 75 301 75 _c
349 75 387 93 414 129 _c
440 165 454 215 454 280 _c
544 68 _m
544 -24 523 -93 482 -139 _c
440 -184 377 -207 292 -207 _c
260 -207 231 -204 203 -200 _c
175 -195 147 -188 121 -178 _c
}_e{121 -91 _l
147 -105 173 -115 199 -122 _c
225 -129 251 -133 278 -133 _c
336 -133 380 -117 410 -87 _c
439 -56 454 -10 454 52 _c
454 96 _l
435 64 411 40 382 24 _c
353 8 319 0 279 0 _c
211 0 157 25 116 76 _c
75 127 55 195 55 280 _c
55 364 75 432 116 483 _c
157 534 211 560 279 560 _c
319 560 353 552 382 536 _c
411 520 435 496 454 464 _c
454 547 _l
544 547 _l
}_e{544 68 _l
_cl}_e}_d
/h{634 0 91 0 549 760 _sc
549 330 _m
549 0 _l
459 0 _l
459 327 _l
459 379 448 417 428 443 _c
408 469 378 482 338 482 _c
289 482 251 466 223 435 _c
195 404 181 362 181 309 _c
181 0 _l
91 0 _l
91 760 _l
181 760 _l
181 462 _l
202 494 227 519 257 535 _c
286 551 320 560 358 560 _c
420 560 468 540 500 501 _c
532 462 549 405 549 330 _c
_cl}_d
/i{278 0 94 0 184 760 _sc
94 547 _m
184 547 _l
184 0 _l
94 0 _l
94 547 _l
94 760 _m
184 760 _l
184 646 _l
94 646 _l
94 760 _l
_cl}_d
/m{{974 0 91 0 889 560 _sc
520 442 _m
542 482 569 511 600 531 _c
631 550 668 560 711 560 _c
767 560 811 540 842 500 _c
873 460 889 403 889 330 _c
889 0 _l
799 0 _l
799 327 _l
799 379 789 418 771 444 _c
752 469 724 482 686 482 _c
639 482 602 466 575 435 _c
548 404 535 362 535 309 _c
535 0 _l
445 0 _l
445 327 _l
445 379 435 418 417 444 _c
398 469 369 482 331 482 _c
}_e{285 482 248 466 221 435 _c
194 404 181 362 181 309 _c
181 0 _l
91 0 _l
91 547 _l
181 547 _l
181 462 _l
201 495 226 520 255 536 _c
283 552 317 560 357 560 _c
397 560 430 550 458 530 _c
486 510 506 480 520 442 _c
_cl}_e}_d
/n{634 0 91 0 549 560 _sc
549 330 _m
549 0 _l
459 0 _l
459 327 _l
459 379 448 417 428 443 _c
408 469 378 482 338 482 _c
289 482 251 466 223 435 _c
195 404 181 362 181 309 _c
181 0 _l
91 0 _l
91 547 _l
181 547 _l
181 462 _l
202 494 227 519 257 535 _c
286 551 320 560 358 560 _c
420 560 468 540 500 501 _c
532 462 549 405 549 330 _c
_cl}_d
/r{411 0 91 0 411 560 _sc
411 463 _m
401 469 390 473 378 476 _c
366 478 353 480 339 480 _c
288 480 249 463 222 430 _c
194 397 181 350 181 288 _c
181 0 _l
91 0 _l
91 547 _l
181 547 _l
181 462 _l
199 495 224 520 254 536 _c
284 552 321 560 365 560 _c
371 560 378 559 386 559 _c
393 558 401 557 411 555 _c
411 463 _l
_cl}_d
/s{{521 0 54 -13 472 560 _sc
443 531 _m
443 446 _l
417 458 391 468 364 475 _c
336 481 308 485 279 485 _c
234 485 200 478 178 464 _c
156 450 145 430 145 403 _c
145 382 153 366 169 354 _c
185 342 217 330 265 320 _c
296 313 _l
360 299 405 279 432 255 _c
458 230 472 195 472 151 _c
472 100 452 60 412 31 _c
372 1 316 -13 246 -13 _c
216 -13 186 -10 154 -5 _c
}_e{122 0 89 8 54 20 _c
54 113 _l
87 95 120 82 152 74 _c
184 65 216 61 248 61 _c
290 61 323 68 346 82 _c
368 96 380 117 380 144 _c
380 168 371 187 355 200 _c
339 213 303 226 247 238 _c
216 245 _l
160 257 119 275 95 299 _c
70 323 58 356 58 399 _c
58 450 76 490 112 518 _c
148 546 200 560 268 560 _c
301 560 332 557 362 552 _c
391 547 418 540 443 531 _c
}_e{_cl}_e}_d
/t{392 0 27 0 368 702 _sc
183 702 _m
183 547 _l
368 547 _l
368 477 _l
183 477 _l
183 180 _l
183 135 189 106 201 94 _c
213 81 238 75 276 75 _c
368 75 _l
368 0 _l
276 0 _l
206 0 158 13 132 39 _c
106 65 93 112 93 180 _c
93 477 _l
27 477 _l
27 547 _l
93 547 _l
93 702 _l
183 702 _l
_cl}_d
/u{634 0 85 -13 543 547 _sc
85 216 _m
85 547 _l
175 547 _l
175 219 _l
175 167 185 129 205 103 _c
225 77 255 64 296 64 _c
344 64 383 79 411 110 _c
439 141 453 183 453 237 _c
453 547 _l
543 547 _l
543 0 _l
453 0 _l
453 84 _l
431 50 405 26 377 10 _c
348 -5 315 -13 277 -13 _c
214 -13 166 6 134 45 _c
101 83 85 140 85 216 _c
_cl}_d
/x{592 0 29 0 559 547 _sc
549 547 _m
351 281 _l
559 0 _l
453 0 _l
294 215 _l
135 0 _l
29 0 _l
241 286 _l
47 547 _l
153 547 _l
298 352 _l
443 547 _l
549 547 _l
_cl}_d
/minus{838 0 106 272 732 355 _sc
106 355 _m
732 355 _l
732 272 _l
106 272 _l
106 355 _l
_cl}_d
end readonly def

/BuildGlyph
 {exch begin
 CharStrings exch
 2 copy known not{pop /.notdef}if
 true 3 1 roll get exec
 end}_d

/BuildChar {
 1 index /Encoding get exch get
 1 index /BuildGlyph get exec
}_d

FontName currentdict end definefont pop
end
%%EndProlog
mpldict begin
18 180 translate
576 432 0 0 clipbox
100000 setmiterlimit
gsave
0 0 m
576 0 l
576 432 l
0 432 l
cl
1.000 setgray
fill
grestore
gsave
72 231.709091 m
518.4 231.709091 l
518.4 388.8 l
72 388.8 l
cl
1.000 setgray
fill
grestore
1.000 setlinewidth
1 setlinejoin
2 setlinecap
[] 0 setdash
1.000 0.000 0.000 setrgbcolor
gsave
446.4 157.1 72 231.7 clipbox
72 328.814143 m
79.44 334.961577 l
86.88 339.815017 l
94.32 345.647015 l
101.76 345.016287 l
109.2 348.605811 l
116.64 348.579081 l
124.08 348.976563 l
131.52 349.031188 l
138.96 348.300884 l
146.4 348.235294 l
153.84 347.677624 l
161.28 347.798194 l
168.72 347.798194 l
176.16 347.292837 l
183.6 346.331565 l
191.04 346.004616 l
198.48 345.257281 l
205.92 344.687097 l
213.36 343.294191 l
220.8 345.549605 l
228.24 343.88011 l
235.68 345.071537 l
243.12 342.843936 l
250.56 344.169881 l
258 341.852828 l
265.44 342.285382 l
272.88 342.535436 l
280.32 342.99508 l
287.76 342.240419 l
295.2 340.710473 l
302.64 342.61814 l
310.08 342.735735 l
317.52 342.597495 l
324.96 343.107739 l
332.4 343.65385 l
339.84 342.641711 l
347.28 345.236433 l
354.72 344.558292 l
362.16 346.254647 l
369.6 345.873432 l
377.04 347.133617 l
384.48 344.982012 l
391.92 347.150308 l
399.36 347.547013 l
406.8 346.192414 l
414.24 347.547013 l
421.68 348.128564 l
429.12 348.48078 l
436.56 348.714615 l
444 346.658455 l
451.44 345.034719 l
458.88 342.811826 l
466.32 338.841619 l
473.76 335.425117 l
481.2 328.876014 l
stroke
grestore
0.502 0.000 0.000 setrgbcolor
gsave
446.4 157.1 72 231.7 clipbox
72 327.096372 m
79.44 333.628921 l
86.88 337.714312 l
94.32 342.535436 l
101.76 343.371163 l
109.2 347.228817 l
116.64 348.183131 l
124.08 348.701322 l
131.52 348.701322 l
138.96 348.316685 l
146.4 349.018091 l
153.84 348.01672 l
161.28 348.668053 l
168.72 348.87129 l
176.16 349.226685 l
183.6 348.316685 l
191.04 347.80744 l
198.48 347.399112 l
205.92 346.631608 l
213.36 345.941648 l
220.8 346.910621 l
228.24 346.294382 l
235.68 347.460275 l
243.12 346.980408 l
250.56 347.43442 l
258 346.910621 l
265.44 346.102477 l
272.88 347.262036 l
280.32 347.724078 l
287.76 347.150308 l
295.2 347.43442 l
302.64 347.920384 l
310.08 348.692455 l
317.52 348.732326 l
324.96 348.932763 l
332.4 348.774331 l
339.84 349.631485 l
347.28 350.787655 l
354.72 350.795692 l
362.16 352.013746 l
369.6 352.854525 l
377.04 353.346732 l
384.48 354.149504 l
391.92 354.528875 l
399.36 355.277716 l
406.8 356.409508 l
414.24 356.347666 l
421.68 357.018255 l
429.12 356.58631 l
436.56 357.707649 l
444 355.063378 l
451.44 354.503567 l
458.88 353.654619 l
466.32 349.806854 l
473.76 343.498836 l
481.2 339.615717 l
stroke
grestore
1.000 1.000 0.000 setrgbcolor
gsave
446.4 157.1 72 231.7 clipbox
72 239.73192 m
79.44 250.696067 l
86.88 252.587742 l
94.32 256.102855 l
101.76 253.951124 l
109.2 259.267156 l
116.64 254.69276 l
124.08 270.362773 l
131.52 253.951124 l
138.96 261.892334 l
146.4 266.959473 l
153.84 262.658402 l
161.28 254.69276 l
168.72 260.962347 l
176.16 259.847326 l
183.6 260.962347 l
191.04 265.363722 l
198.48 263.877014 l
205.92 268.251984 l
213.36 263.877014 l
220.8 266.123291 l
228.24 264.461158 l
235.68 269.470597 l
243.12 264.461158 l
250.56 271.469444 l
258 271.469444 l
265.44 268.72896 l
272.88 268.634415 l
280.32 276.670171 l
287.76 279.411161 l
295.2 278.65485 l
302.64 277.993248 l
310.08 277.310456 l
317.52 283.36482 l
324.96 280.740625 l
332.4 280.251739 l
339.84 282.193638 l
347.28 282.738428 l
354.72 283.02982 l
362.16 288.150692 l
369.6 287.456673 l
377.04 291.993467 l
384.48 292.771084 l
391.92 291.350283 l
399.36 294.919395 l
406.8 291.25211 l
414.24 292.740518 l
421.68 296.205407 l
429.12 294.01683 l
436.56 295.029575 l
444 290.954849 l
451.44 295.491593 l
458.88 290.450013 l
466.32 288.822829 l
473.76 281.737309 l
481.2 280.740625 l
stroke
grestore
0.502 0.502 0.000 setrgbcolor
gsave
446.4 157.1 72 231.7 clipbox
72 357.016754 m
79.44 364.27524 l
86.88 367.323718 l
94.32 370.901375 l
101.76 373.802847 l
109.2 374.517886 l
116.64 375.618056 l
124.08 376.493393 l
131.52 375.998401 l
138.96 376.673183 l
146.4 375.543305 l
153.84 376.700021 l
161.28 376.676166 l
168.72 375.07185 l
176.16 375.543305 l
183.6 373.423275 l
191.04 373.245998 l
198.48 374.294875 l
205.92 373.412151 l
213.36 374.602233 l
220.8 373.955923 l
228.24 373.489895 l
235.68 373.439949 l
243.12 372.901921 l
250.56 373.874419 l
258 372.153167 l
265.44 372.594153 l
272.88 372.357271 l
280.32 372.519594 l
287.76 373.301992 l
295.2 373.527278 l
302.64 373.81991 l
310.08 373.512056 l
317.52 373.368992 l
324.96 374.124727 l
332.4 375.318104 l
339.84 375.372091 l
347.28 375.38414 l
354.72 375.889714 l
362.16 376.033483 l
369.6 374.868232 l
377.04 375.274816 l
384.48 376.508434 l
391.92 376.827191 l
399.36 377.233296 l
406.8 377.412167 l
414.24 377.611262 l
421.68 377.409285 l
429.12 376.524665 l
436.56 376.74646 l
444 376.522862 l
451.44 373.255107 l
458.88 371.796091 l
466.32 366.182469 l
473.76 363.753305 l
481.2 357.375331 l
stroke
grestore
0.000 1.000 0.000 setrgbcolor
gsave
446.4 157.1 72 231.7 clipbox
72 331.853772 m
79.44 336.547582 l
86.88 342.99508 l
94.32 345.974415 l
101.76 348.668053 l
109.2 349.959911 l
116.64 350.73937 l
124.08 353.25027 l
131.52 353.432111 l
138.96 353.710761 l
146.4 353.923456 l
153.84 354.279556 l
161.28 354.212918 l
168.72 352.627149 l
176.16 353.266377 l
183.6 351.655966 l
191.04 352.553282 l
198.48 351.467988 l
205.92 351.851863 l
213.36 351.937719 l
220.8 349.343129 l
228.24 350.167811 l
235.68 351.035401 l
243.12 350.400323 l
250.56 350.889899 l
258 350.001654 l
265.44 350.176085 l
272.88 351.968162 l
280.32 350.283355 l
287.76 351.088966 l
295.2 350.250406 l
302.64 350.16988 l
310.08 350.363455 l
317.52 351.043345 l
324.96 352.028919 l
332.4 349.768945 l
339.84 349.295765 l
347.28 351.122623 l
354.72 351.899603 l
362.16 351.429023 l
369.6 353.271743 l
377.04 351.501053 l
384.48 354.037642 l
391.92 353.074086 l
399.36 352.827148 l
406.8 352.492148 l
414.24 353.294982 l
421.68 351.429023 l
429.12 353.635286 l
436.56 352.028919 l
444 349.909712 l
451.44 349.009355 l
458.88 343.704338 l
466.32 341.764027 l
473.76 335.092051 l
481.2 330.920269 l
stroke
grestore
0.000 0.502 0.000 setrgbcolor
gsave
446.4 157.1 72 231.7 clipbox
72 330.466417 m
79.44 335.81399 l
86.88 339.64285 l
94.32 342.348171 l
101.76 347.05715 l
109.2 345.713408 l
116.64 348.692455 l
124.08 346.590051 l
131.52 347.17889 l
138.96 346.845441 l
146.4 347.128846 l
153.84 346.274524 l
161.28 345.008382 l
168.72 343.577893 l
176.16 344.769872 l
183.6 346.23724 l
191.04 346.82609 l
198.48 344.825764 l
205.92 346.420543 l
213.36 346.538604 l
220.8 346.716912 l
228.24 346.102477 l
235.68 346.658455 l
243.12 346.804299 l
250.56 345.710858 l
258 347.860529 l
265.44 346.587604 l
272.88 347.304672 l
280.32 347.964019 l
287.76 349.467493 l
295.2 350.318307 l
302.64 350.357304 l
310.08 352.724631 l
317.52 354.633162 l
324.96 352.992695 l
332.4 354.602937 l
339.84 355.396228 l
347.28 356.420312 l
354.72 357.075192 l
362.16 358.211513 l
369.6 359.878256 l
377.04 359.415381 l
384.48 360.136461 l
391.92 361.085859 l
399.36 362.049354 l
406.8 362.9916 l
414.24 363.815569 l
421.68 364.485562 l
429.12 365.322964 l
436.56 365.580558 l
444 365.59762 l
451.44 364.189669 l
458.88 360.465733 l
466.32 357.725073 l
473.76 355.709608 l
481.2 349.226685 l
stroke
grestore
0 setlinejoin
0.000 setgray
gsave
72 388.8 m
518.4 388.8 l
stroke
grestore
gsave
72 231.709091 m
518.4 231.709091 l
stroke
grestore
gsave
518.4 231.709091 m
518.4 388.8 l
stroke
grestore
gsave
72 231.709091 m
72 388.8 l
stroke
grestore
0.500 setlinewidth
1 setlinejoin
0 setlinecap
gsave
/o {
gsave
newpath
translate
0.5 setlinewidth
1 setlinejoin
0 setlinecap
0 0 m
0 4 l

gsave
0.000 setgray
fill
grestore
stroke
grestore
} bind def
72 231.709 o
grestore
gsave
/o {
gsave
newpath
translate
0.5 setlinewidth
1 setlinejoin
0 setlinecap
0 0 m
0 -4 l

gsave
0.000 setgray
fill
grestore
stroke
grestore
} bind def
72 388.8 o
grestore
/BitstreamVeraSans-Roman findfont
12.000 scalefont
setfont
gsave
68.179688 218.584091 translate
0.000000 rotate
0.000000 0.000000 m /zero glyphshow
grestore
gsave
/o {
gsave
newpath
translate
0.5 setlinewidth
1 setlinejoin
0 setlinecap
0 0 m
0 4 l

gsave
0.000 setgray
fill
grestore
stroke
grestore
} bind def
146.4 231.709 o
grestore
gsave
/o {
gsave
newpath
translate
0.5 setlinewidth
1 setlinejoin
0 setlinecap
0 0 m
0 -4 l

gsave
0.000 setgray
fill
grestore
stroke
grestore
} bind def
146.4 388.8 o
grestore
gsave
138.759375 218.584091 translate
0.000000 rotate
0.000000 0.000000 m /one glyphshow
7.634766 0.000000 m /zero glyphshow
grestore
gsave
/o {
gsave
newpath
translate
0.5 setlinewidth
1 setlinejoin
0 setlinecap
0 0 m
0 4 l

gsave
0.000 setgray
fill
grestore
stroke
grestore
} bind def
220.8 231.709 o
grestore
gsave
/o {
gsave
newpath
translate
0.5 setlinewidth
1 setlinejoin
0 setlinecap
0 0 m
0 -4 l

gsave
0.000 setgray
fill
grestore
stroke
grestore
} bind def
220.8 388.8 o
grestore
gsave
213.159375 218.584091 translate
0.000000 rotate
0.000000 0.000000 m /two glyphshow
7.634766 0.000000 m /zero glyphshow
grestore
gsave
/o {
gsave
newpath
translate
0.5 setlinewidth
1 setlinejoin
0 setlinecap
0 0 m
0 4 l

gsave
0.000 setgray
fill
grestore
stroke
grestore
} bind def
295.2 231.709 o
grestore
gsave
/o {
gsave
newpath
translate
0.5 setlinewidth
1 setlinejoin
0 setlinecap
0 0 m
0 -4 l

gsave
0.000 setgray
fill
grestore
stroke
grestore
} bind def
295.2 388.8 o
grestore
gsave
287.559375 218.584091 translate
0.000000 rotate
0.000000 0.000000 m /three glyphshow
7.634766 0.000000 m /zero glyphshow
grestore
gsave
/o {
gsave
newpath
translate
0.5 setlinewidth
1 setlinejoin
0 setlinecap
0 0 m
0 4 l

gsave
0.000 setgray
fill
grestore
stroke
grestore
} bind def
369.6 231.709 o
grestore
gsave
/o {
gsave
newpath
translate
0.5 setlinewidth
1 setlinejoin
0 setlinecap
0 0 m
0 -4 l

gsave
0.000 setgray
fill
grestore
stroke
grestore
} bind def
369.6 388.8 o
grestore
gsave
361.959375 218.584091 translate
0.000000 rotate
0.000000 0.000000 m /four glyphshow
7.634766 0.000000 m /zero glyphshow
grestore
gsave
/o {
gsave
newpath
translate
0.5 setlinewidth
1 setlinejoin
0 setlinecap
0 0 m
0 4 l

gsave
0.000 setgray
fill
grestore
stroke
grestore
} bind def
444 231.709 o
grestore
gsave
/o {
gsave
newpath
translate
0.5 setlinewidth
1 setlinejoin
0 setlinecap
0 0 m
0 -4 l

gsave
0.000 setgray
fill
grestore
stroke
grestore
} bind def
444 388.8 o
grestore
gsave
436.359375 218.584091 translate
0.000000 rotate
0.000000 0.000000 m /five glyphshow
7.634766 0.000000 m /zero glyphshow
grestore
gsave
/o {
gsave
newpath
translate
0.5 setlinewidth
1 setlinejoin
0 setlinecap
0 0 m
0 4 l

gsave
0.000 setgray
fill
grestore
stroke
grestore
} bind def
518.4 231.709 o
grestore
gsave
/o {
gsave
newpath
translate
0.5 setlinewidth
1 setlinejoin
0 setlinecap
0 0 m
0 -4 l

gsave
0.000 setgray
fill
grestore
stroke
grestore
} bind def
518.4 388.8 o
grestore
gsave
510.759375 218.584091 translate
0.000000 rotate
0.000000 0.000000 m /six glyphshow
7.634766 0.000000 m /zero glyphshow
grestore
gsave
278.559375 201.959091 translate
0.000000 rotate
0.000000 0.000000 m /I glyphshow
3.539062 0.000000 m /n glyphshow
11.144531 0.000000 m /d glyphshow
18.761719 0.000000 m /e glyphshow
26.144531 0.000000 m /x glyphshow
grestore
gsave
/o {
gsave
newpath
translate
0.5 setlinewidth
1 setlinejoin
0 setlinecap
0 0 m
4 0 l

gsave
0.000 setgray
fill
grestore
stroke
grestore
} bind def
72 231.709 o
grestore
gsave
/o {
gsave
newpath
translate
0.5 setlinewidth
1 setlinejoin
0 setlinecap
0 0 m
-4 0 l

gsave
0.000 setgray
fill
grestore
stroke
grestore
} bind def
518.4 231.709 o
grestore
gsave
60.359375 228.396591 translate
0.000000 rotate
0.000000 0.000000 m /eight glyphshow
grestore
gsave
/o {
gsave
newpath
translate
0.5 setlinewidth
1 setlinejoin
0 setlinecap
0 0 m
4 0 l

gsave
0.000 setgray
fill
grestore
stroke
grestore
} bind def
72 251.345 o
grestore
gsave
/o {
gsave
newpath
translate
0.5 setlinewidth
1 setlinejoin
0 setlinecap
0 0 m
-4 0 l

gsave
0.000 setgray
fill
grestore
stroke
grestore
} bind def
518.4 251.345 o
grestore
gsave
52.718750 248.032955 translate
0.000000 rotate
0.000000 0.000000 m /one glyphshow
7.634766 0.000000 m /zero glyphshow
grestore
gsave
/o {
gsave
newpath
translate
0.5 setlinewidth
1 setlinejoin
0 setlinecap
0 0 m
4 0 l

gsave
0.000 setgray
fill
grestore
stroke
grestore
} bind def
72 270.982 o
grestore
gsave
/o {
gsave
newpath
translate
0.5 setlinewidth
1 setlinejoin
0 setlinecap
0 0 m
-4 0 l

gsave
0.000 setgray
fill
grestore
stroke
grestore
} bind def
518.4 270.982 o
grestore
gsave
52.718750 267.669318 translate
0.000000 rotate
0.000000 0.000000 m /one glyphshow
7.634766 0.000000 m /two glyphshow
grestore
gsave
/o {
gsave
newpath
translate
0.5 setlinewidth
1 setlinejoin
0 setlinecap
0 0 m
4 0 l

gsave
0.000 setgray
fill
grestore
stroke
grestore
} bind def
72 290.618 o
grestore
gsave
/o {
gsave
newpath
translate
0.5 setlinewidth
1 setlinejoin
0 setlinecap
0 0 m
-4 0 l

gsave
0.000 setgray
fill
grestore
stroke
grestore
} bind def
518.4 290.618 o
grestore
gsave
52.718750 287.305682 translate
0.000000 rotate
0.000000 0.000000 m /one glyphshow
7.634766 0.000000 m /four glyphshow
grestore
gsave
/o {
gsave
newpath
translate
0.5 setlinewidth
1 setlinejoin
0 setlinecap
0 0 m
4 0 l

gsave
0.000 setgray
fill
grestore
stroke
grestore
} bind def
72 310.255 o
grestore
gsave
/o {
gsave
newpath
translate
0.5 setlinewidth
1 setlinejoin
0 setlinecap
0 0 m
-4 0 l

gsave
0.000 setgray
fill
grestore
stroke
grestore
} bind def
518.4 310.255 o
grestore
gsave
52.718750 306.942045 translate
0.000000 rotate
0.000000 0.000000 m /one glyphshow
7.634766 0.000000 m /six glyphshow
grestore
gsave
/o {
gsave
newpath
translate
0.5 setlinewidth
1 setlinejoin
0 setlinecap
0 0 m
4 0 l

gsave
0.000 setgray
fill
grestore
stroke
grestore
} bind def
72 329.891 o
grestore
gsave
/o {
gsave
newpath
translate
0.5 setlinewidth
1 setlinejoin
0 setlinecap
0 0 m
-4 0 l

gsave
0.000 setgray
fill
grestore
stroke
grestore
} bind def
518.4 329.891 o
grestore
gsave
52.718750 326.578409 translate
0.000000 rotate
0.000000 0.000000 m /one glyphshow
7.634766 0.000000 m /eight glyphshow
grestore
gsave
/o {
gsave
newpath
translate
0.5 setlinewidth
1 setlinejoin
0 setlinecap
0 0 m
4 0 l

gsave
0.000 setgray
fill
grestore
stroke
grestore
} bind def
72 349.527 o
grestore
gsave
/o {
gsave
newpath
translate
0.5 setlinewidth
1 setlinejoin
0 setlinecap
0 0 m
-4 0 l

gsave
0.000 setgray
fill
grestore
stroke
grestore
} bind def
518.4 349.527 o
grestore
gsave
52.718750 346.214773 translate
0.000000 rotate
0.000000 0.000000 m /two glyphshow
7.634766 0.000000 m /zero glyphshow
grestore
gsave
/o {
gsave
newpath
translate
0.5 setlinewidth
1 setlinejoin
0 setlinecap
0 0 m
4 0 l

gsave
0.000 setgray
fill
grestore
stroke
grestore
} bind def
72 369.164 o
grestore
gsave
/o {
gsave
newpath
translate
0.5 setlinewidth
1 setlinejoin
0 setlinecap
0 0 m
-4 0 l

gsave
0.000 setgray
fill
grestore
stroke
grestore
} bind def
518.4 369.164 o
grestore
gsave
52.718750 365.851136 translate
0.000000 rotate
0.000000 0.000000 m /two glyphshow
7.634766 0.000000 m /two glyphshow
grestore
gsave
/o {
gsave
newpath
translate
0.5 setlinewidth
1 setlinejoin
0 setlinecap
0 0 m
4 0 l

gsave
0.000 setgray
fill
grestore
stroke
grestore
} bind def
72 388.8 o
grestore
gsave
/o {
gsave
newpath
translate
0.5 setlinewidth
1 setlinejoin
0 setlinecap
0 0 m
-4 0 l

gsave
0.000 setgray
fill
grestore
stroke
grestore
} bind def
518.4 388.8 o
grestore
gsave
52.718750 385.487500 translate
0.000000 rotate
0.000000 0.000000 m /two glyphshow
7.634766 0.000000 m /four glyphshow
grestore
gsave
45.218750 263.926420 translate
90.000000 rotate
0.000000 0.000000 m /M glyphshow
10.353516 0.000000 m /a glyphshow
17.707031 0.000000 m /g glyphshow
25.324219 0.000000 m /n glyphshow
32.929688 0.000000 m /i glyphshow
36.263672 0.000000 m /t glyphshow
40.968750 0.000000 m /u glyphshow
48.574219 0.000000 m /d glyphshow
56.191406 0.000000 m /e glyphshow
63.574219 0.000000 m /space glyphshow
67.388672 0.000000 m /bracketleft glyphshow
72.070312 0.000000 m /d glyphshow
79.687500 0.000000 m /B glyphshow
87.919922 0.000000 m /bracketright glyphshow
grestore
1.000 setlinewidth
0 setlinejoin
gsave
339.000625 252.79875 m
511.2 252.79875 l
511.2 381.6 l
339.000625 381.6 l
cl
gsave
1.000 setgray
fill
grestore
stroke
grestore
1 setlinejoin
2 setlinecap
1.000 0.000 0.000 setrgbcolor
gsave
349.080625 370.239375 m
369.240625 370.239375 l
stroke
grestore
0.000 setgray
/BitstreamVeraSans-Roman findfont
14.400 scalefont
setfont
gsave
385.080625 365.199375 translate
0.000000 rotate
0.000000 0.000000 m /e glyphshow
8.843994 0.000000 m /r glyphshow
14.754028 0.000000 m /i glyphshow
18.747864 0.000000 m /c glyphshow
26.651306 0.000000 m /h glyphshow
35.762024 0.000000 m /space glyphshow
40.331421 0.000000 m /t glyphshow
45.967712 0.000000 m /x glyphshow
54.474792 0.000000 m /zero glyphshow
63.620605 0.000000 m /comma glyphshow
68.190002 0.000000 m /space glyphshow
72.759399 0.000000 m /r glyphshow
78.669434 0.000000 m /x glyphshow
87.176514 0.000000 m /two glyphshow
grestore
0.502 0.000 0.000 setrgbcolor
gsave
349.080625 349.4925 m
369.240625 349.4925 l
stroke
grestore
0.000 setgray
gsave
385.080625 344.452500 translate
0.000000 rotate
0.000000 0.000000 m /e glyphshow
8.843994 0.000000 m /r glyphshow
14.754028 0.000000 m /i glyphshow
18.747864 0.000000 m /c glyphshow
26.651306 0.000000 m /h glyphshow
35.762024 0.000000 m /space glyphshow
40.331421 0.000000 m /t glyphshow
45.967712 0.000000 m /x glyphshow
54.474792 0.000000 m /one glyphshow
63.620605 0.000000 m /comma glyphshow
68.190002 0.000000 m /space glyphshow
72.759399 0.000000 m /r glyphshow
78.669434 0.000000 m /x glyphshow
87.176514 0.000000 m /two glyphshow
grestore
1.000 1.000 0.000 setrgbcolor
gsave
349.080625 328.745625 m
369.240625 328.745625 l
stroke
grestore
0.000 setgray
gsave
385.080625 323.705625 translate
0.000000 rotate
0.000000 0.000000 m /e glyphshow
8.843994 0.000000 m /r glyphshow
14.754028 0.000000 m /i glyphshow
18.747864 0.000000 m /c glyphshow
26.651306 0.000000 m /h glyphshow
35.762024 0.000000 m /space glyphshow
40.331421 0.000000 m /t glyphshow
45.967712 0.000000 m /x glyphshow
54.474792 0.000000 m /two glyphshow
63.620605 0.000000 m /comma glyphshow
68.190002 0.000000 m /space glyphshow
72.759399 0.000000 m /r glyphshow
78.669434 0.000000 m /x glyphshow
87.176514 0.000000 m /two glyphshow
grestore
0.502 0.502 0.000 setrgbcolor
gsave
349.080625 307.99875 m
369.240625 307.99875 l
stroke
grestore
0.000 setgray
gsave
385.080625 302.958750 translate
0.000000 rotate
0.000000 0.000000 m /m glyphshow
14.002991 0.000000 m /i glyphshow
17.996826 0.000000 m /r glyphshow
23.906860 0.000000 m /a glyphshow
32.715759 0.000000 m /n glyphshow
41.826477 0.000000 m /d glyphshow
50.951233 0.000000 m /a glyphshow
59.760132 0.000000 m /space glyphshow
64.329529 0.000000 m /t glyphshow
69.965820 0.000000 m /x glyphshow
78.472900 0.000000 m /zero glyphshow
87.618713 0.000000 m /comma glyphshow
92.188110 0.000000 m /space glyphshow
96.757507 0.000000 m /r glyphshow
102.667542 0.000000 m /x glyphshow
111.174622 0.000000 m /two glyphshow
grestore
0.000 1.000 0.000 setrgbcolor
gsave
349.080625 287.251875 m
369.240625 287.251875 l
stroke
grestore
0.000 setgray
gsave
385.080625 282.211875 translate
0.000000 rotate
0.000000 0.000000 m /m glyphshow
14.002991 0.000000 m /i glyphshow
17.996826 0.000000 m /r glyphshow
23.906860 0.000000 m /a glyphshow
32.715759 0.000000 m /n glyphshow
41.826477 0.000000 m /d glyphshow
50.951233 0.000000 m /a glyphshow
59.760132 0.000000 m /space glyphshow
64.329529 0.000000 m /t glyphshow
69.965820 0.000000 m /x glyphshow
78.472900 0.000000 m /one glyphshow
87.618713 0.000000 m /comma glyphshow
92.188110 0.000000 m /space glyphshow
96.757507 0.000000 m /r glyphshow
102.667542 0.000000 m /x glyphshow
111.174622 0.000000 m /two glyphshow
grestore
0.000 0.502 0.000 setrgbcolor
gsave
349.080625 266.505 m
369.240625 266.505 l
stroke
grestore
0.000 setgray
gsave
385.080625 261.465000 translate
0.000000 rotate
0.000000 0.000000 m /m glyphshow
14.002991 0.000000 m /i glyphshow
17.996826 0.000000 m /r glyphshow
23.906860 0.000000 m /a glyphshow
32.715759 0.000000 m /n glyphshow
41.826477 0.000000 m /d glyphshow
50.951233 0.000000 m /a glyphshow
59.760132 0.000000 m /space glyphshow
64.329529 0.000000 m /t glyphshow
69.965820 0.000000 m /x glyphshow
78.472900 0.000000 m /two glyphshow
87.618713 0.000000 m /comma glyphshow
92.188110 0.000000 m /space glyphshow
96.757507 0.000000 m /r glyphshow
102.667542 0.000000 m /x glyphshow
111.174622 0.000000 m /two glyphshow
grestore
gsave
72 43.2 m
518.4 43.2 l
518.4 200.290909 l
72 200.290909 l
cl
1.000 setgray
fill
grestore
1.000 0.000 0.000 setrgbcolor
gsave
446.4 157.1 72 43.2 clipbox
72 136.942123 m
79.44 135.210689 l
86.88 133.838901 l
94.32 131.619467 l
101.76 130.068673 l
109.2 129.142695 l
116.64 127.237827 l
124.08 126.362964 l
131.52 125.543664 l
138.96 124.789027 l
146.4 124.589045 l
153.84 124.21277 l
161.28 124.618555 l
168.72 124.618555 l
176.16 124.444004 l
183.6 124.292341 l
191.04 124.742932 l
198.48 126.345375 l
205.92 126.182472 l
213.36 127.272684 l
220.8 127.654434 l
228.24 128.134355 l
235.68 129.58156 l
243.12 130.027823 l
250.56 131.746277 l
258 132.639556 l
265.44 132.51697 l
272.88 133.548357 l
280.32 135.709947 l
287.76 136.014068 l
295.2 136.997072 l
302.64 138.474975 l
310.08 139.124948 l
317.52 139.954161 l
324.96 140.410738 l
332.4 141.6691 l
339.84 142.453289 l
347.28 142.61152 l
354.72 143.683173 l
362.16 144.05484 l
369.6 144.442942 l
377.04 144.694125 l
384.48 145.442959 l
391.92 145.812541 l
399.36 144.774629 l
406.8 145.197281 l
414.24 144.774629 l
421.68 144.666224 l
429.12 144.296045 l
436.56 142.321567 l
444 141.510007 l
451.44 139.954161 l
458.88 139.448418 l
466.32 137.881554 l
473.76 135.037601 l
481.2 133.998998 l
stroke
grestore
0.502 0.000 0.000 setrgbcolor
gsave
446.4 157.1 72 43.2 clipbox
72 82.688322 m
79.44 82.051377 l
86.88 80.288853 l
94.32 79.097824 l
101.76 77.084311 l
109.2 75.478363 l
116.64 75.048438 l
124.08 73.49306 l
131.52 73.49306 l
138.96 72.611213 l
146.4 72.374051 l
153.84 71.715083 l
161.28 72.491656 l
168.72 71.934082 l
176.16 71.821623 l
183.6 72.611213 l
191.04 73.305457 l
198.48 73.724561 l
205.92 74.586415 l
213.36 75.176289 l
220.8 75.626002 l
228.24 76.227479 l
235.68 77.522507 l
243.12 78.139634 l
250.56 78.553454 l
258 78.891185 l
265.44 80.653799 l
272.88 81.42592 l
280.32 83.999629 l
287.76 84.123086 l
295.2 85.039293 l
302.64 85.744039 l
310.08 86.867508 l
317.52 87.888039 l
324.96 88.705832 l
332.4 89.500507 l
339.84 89.52842 l
347.28 90.900727 l
354.72 91.281967 l
362.16 91.08597 l
369.6 91.809169 l
377.04 92.518408 l
384.48 92.665006 l
391.92 92.649337 l
399.36 92.618817 l
406.8 92.74147 l
414.24 92.408247 l
421.68 92.054477 l
429.12 90.734321 l
436.56 89.92782 l
444 88.480237 l
451.44 86.853253 l
458.88 85.484902 l
466.32 83.71878 l
473.76 82.504595 l
481.2 80.798774 l
stroke
grestore
1.000 1.000 0.000 setrgbcolor
gsave
446.4 157.1 72 43.2 clipbox
72 113.794852 m
79.44 113.53305 l
86.88 111.787884 l
94.32 112.641101 l
101.76 107.630247 l
109.2 107.476841 l
116.64 110.199222 l
124.08 108.103321 l
131.52 105.015934 l
138.96 108.495996 l
146.4 110.199222 l
153.84 110.616954 l
161.28 110.199222 l
168.72 111.940101 l
176.16 109.753017 l
183.6 111.940101 l
191.04 111.375993 l
198.48 112.641101 l
205.92 115.009712 l
213.36 112.641101 l
220.8 118.959112 l
228.24 115.884021 l
235.68 117.869324 l
243.12 115.884021 l
250.56 120.519776 l
258 120.519776 l
265.44 123.052611 l
272.88 121.745455 l
280.32 123.91836 l
287.76 129.028411 l
295.2 128.063465 l
302.64 127.065865 l
310.08 129.415556 l
317.52 128.356524 l
324.96 127.751803 l
332.4 129.95786 l
339.84 129.570986 l
347.28 127.468606 l
354.72 130.432076 l
362.16 131.220261 l
369.6 132.357328 l
377.04 131.188332 l
384.48 131.847408 l
391.92 132.225543 l
399.36 132.114916 l
406.8 130.505345 l
414.24 130.184423 l
421.68 130.236371 l
429.12 127.606888 l
436.56 128.955413 l
444 124.860867 l
451.44 123.841355 l
458.88 122.530491 l
466.32 120.112863 l
473.76 117.869324 l
481.2 115.739106 l
stroke
grestore
0.502 0.502 0.000 setrgbcolor
gsave
446.4 157.1 72 43.2 clipbox
72 101.258331 m
79.44 100.129359 l
86.88 99.02119 l
94.32 97.444433 l
101.76 94.929412 l
109.2 94.305333 l
116.64 92.179548 l
124.08 91.840048 l
131.52 91.322949 l
138.96 91.108511 l
146.4 90.367261 l
153.84 90.173786 l
161.28 91.212389 l
168.72 91.332226 l
176.16 91.434192 l
183.6 91.685763 l
191.04 92.252818 l
198.48 93.655999 l
205.92 93.940836 l
213.36 94.520188 l
220.8 95.254639 l
228.24 96.22713 l
235.68 96.9352 l
243.12 97.613566 l
250.56 98.763927 l
258 99.488453 l
265.44 100.414111 l
272.88 101.394311 l
280.32 102.986982 l
287.76 104.571652 l
295.2 105.373684 l
302.64 106.323091 l
310.08 107.114451 l
317.52 108.390802 l
324.96 108.66824 l
332.4 109.753017 l
339.84 110.288342 l
347.28 110.674442 l
354.72 111.315058 l
362.16 111.8391 l
369.6 112.156352 l
377.04 112.737122 l
384.48 112.781026 l
391.92 113.196699 l
399.36 113.283184 l
406.8 112.869421 l
414.24 112.913811 l
421.68 112.641101 l
429.12 112.081547 l
436.56 111.062435 l
444 109.881135 l
451.44 108.63663 l
458.88 107.476841 l
466.32 106.229137 l
473.76 105.029166 l
481.2 103.308049 l
stroke
grestore
0.000 1.000 0.000 setrgbcolor
gsave
446.4 157.1 72 43.2 clipbox
72 169.90694 m
79.44 169.520067 l
86.88 166.554675 l
94.32 165.439635 l
101.76 165.02584 l
109.2 163.435415 l
116.64 162.121346 l
124.08 161.533585 l
131.52 161.293849 l
138.96 160.260284 l
146.4 160.029052 l
153.84 159.964089 l
161.28 160.355977 l
168.72 160.468857 l
176.16 161.131352 l
183.6 161.276804 l
191.04 161.285504 l
198.48 161.94627 l
205.92 161.029151 l
213.36 163.10658 l
220.8 164.081718 l
228.24 164.297366 l
235.68 165.188296 l
243.12 166.651096 l
250.56 168.281521 l
258 167.875231 l
265.44 169.792777 l
272.88 169.982724 l
280.32 171.995686 l
287.76 171.783671 l
295.2 173.121036 l
302.64 174.41706 l
310.08 174.67502 l
317.52 175.857578 l
324.96 176.238246 l
332.4 176.869914 l
339.84 178.24132 l
347.28 178.853807 l
354.72 179.886629 l
362.16 180.03762 l
369.6 180.546826 l
377.04 179.852935 l
384.48 180.598603 l
391.92 179.984049 l
399.36 180.699972 l
406.8 180.493138 l
414.24 179.453019 l
421.68 179.079939 l
429.12 178.754174 l
436.56 177.995553 l
444 176.686077 l
451.44 176.110788 l
458.88 174.833943 l
466.32 173.065448 l
473.76 171.735868 l
481.2 171.467361 l
stroke
grestore
0.000 0.502 0.000 setrgbcolor
gsave
446.4 157.1 72 43.2 clipbox
72 69.297667 m
79.44 68.433411 l
86.88 67.94158 l
94.32 67.182541 l
101.76 65.32072 l
109.2 64.606075 l
116.64 64.089217 l
124.08 61.741 l
131.52 62.343467 l
138.96 62.783195 l
146.4 62.137146 l
153.84 62.392732 l
161.28 62.90409 l
168.72 63.001983 l
176.16 63.587668 l
183.6 63.682528 l
191.04 64.917229 l
198.48 65.611143 l
205.92 66.507588 l
213.36 67.840664 l
220.8 68.034142 l
228.24 70.302926 l
235.68 71.136174 l
243.12 72.357104 l
250.56 74.1106 l
258 75.478363 l
265.44 75.478363 l
272.88 76.649293 l
280.32 78.223966 l
287.76 79.681736 l
295.2 80.156623 l
302.64 81.71025 l
310.08 82.040797 l
317.52 83.590711 l
324.96 84.639964 l
332.4 85.244365 l
339.84 86.588304 l
347.28 87.712734 l
354.72 87.928263 l
362.16 88.975474 l
369.6 89.204173 l
377.04 90.121915 l
384.48 89.675048 l
391.92 90.001979 l
399.36 90.022073 l
406.8 90.041289 l
414.24 88.789863 l
421.68 88.544595 l
429.12 87.76925 l
436.56 87.103881 l
444 85.861537 l
451.44 84.670771 l
458.88 83.428965 l
466.32 81.651458 l
473.76 80.580172 l
481.2 79.135102 l
stroke
grestore
0 setlinejoin
0.000 setgray
gsave
72 200.290909 m
518.4 200.290909 l
stroke
grestore
gsave
72 43.2 m
518.4 43.2 l
stroke
grestore
gsave
518.4 43.2 m
518.4 200.290909 l
stroke
grestore
gsave
72 43.2 m
72 200.290909 l
stroke
grestore
0.500 setlinewidth
1 setlinejoin
0 setlinecap
gsave
/o {
gsave
newpath
translate
0.5 setlinewidth
1 setlinejoin
0 setlinecap
0 0 m
0 4 l

gsave
0.000 setgray
fill
grestore
stroke
grestore
} bind def
72 43.2 o
grestore
gsave
/o {
gsave
newpath
translate
0.5 setlinewidth
1 setlinejoin
0 setlinecap
0 0 m
0 -4 l

gsave
0.000 setgray
fill
grestore
stroke
grestore
} bind def
72 200.291 o
grestore
/BitstreamVeraSans-Roman findfont
12.000 scalefont
setfont
gsave
68.179688 30.075000 translate
0.000000 rotate
0.000000 0.000000 m /zero glyphshow
grestore
gsave
/o {
gsave
newpath
translate
0.5 setlinewidth
1 setlinejoin
0 setlinecap
0 0 m
0 4 l

gsave
0.000 setgray
fill
grestore
stroke
grestore
} bind def
146.4 43.2 o
grestore
gsave
/o {
gsave
newpath
translate
0.5 setlinewidth
1 setlinejoin
0 setlinecap
0 0 m
0 -4 l

gsave
0.000 setgray
fill
grestore
stroke
grestore
} bind def
146.4 200.291 o
grestore
gsave
138.759375 30.075000 translate
0.000000 rotate
0.000000 0.000000 m /one glyphshow
7.634766 0.000000 m /zero glyphshow
grestore
gsave
/o {
gsave
newpath
translate
0.5 setlinewidth
1 setlinejoin
0 setlinecap
0 0 m
0 4 l

gsave
0.000 setgray
fill
grestore
stroke
grestore
} bind def
220.8 43.2 o
grestore
gsave
/o {
gsave
newpath
translate
0.5 setlinewidth
1 setlinejoin
0 setlinecap
0 0 m
0 -4 l

gsave
0.000 setgray
fill
grestore
stroke
grestore
} bind def
220.8 200.291 o
grestore
gsave
213.159375 30.075000 translate
0.000000 rotate
0.000000 0.000000 m /two glyphshow
7.634766 0.000000 m /zero glyphshow
grestore
gsave
/o {
gsave
newpath
translate
0.5 setlinewidth
1 setlinejoin
0 setlinecap
0 0 m
0 4 l

gsave
0.000 setgray
fill
grestore
stroke
grestore
} bind def
295.2 43.2 o
grestore
gsave
/o {
gsave
newpath
translate
0.5 setlinewidth
1 setlinejoin
0 setlinecap
0 0 m
0 -4 l

gsave
0.000 setgray
fill
grestore
stroke
grestore
} bind def
295.2 200.291 o
grestore
gsave
287.559375 30.075000 translate
0.000000 rotate
0.000000 0.000000 m /three glyphshow
7.634766 0.000000 m /zero glyphshow
grestore
gsave
/o {
gsave
newpath
translate
0.5 setlinewidth
1 setlinejoin
0 setlinecap
0 0 m
0 4 l

gsave
0.000 setgray
fill
grestore
stroke
grestore
} bind def
369.6 43.2 o
grestore
gsave
/o {
gsave
newpath
translate
0.5 setlinewidth
1 setlinejoin
0 setlinecap
0 0 m
0 -4 l

gsave
0.000 setgray
fill
grestore
stroke
grestore
} bind def
369.6 200.291 o
grestore
gsave
361.959375 30.075000 translate
0.000000 rotate
0.000000 0.000000 m /four glyphshow
7.634766 0.000000 m /zero glyphshow
grestore
gsave
/o {
gsave
newpath
translate
0.5 setlinewidth
1 setlinejoin
0 setlinecap
0 0 m
0 4 l

gsave
0.000 setgray
fill
grestore
stroke
grestore
} bind def
444 43.2 o
grestore
gsave
/o {
gsave
newpath
translate
0.5 setlinewidth
1 setlinejoin
0 setlinecap
0 0 m
0 -4 l

gsave
0.000 setgray
fill
grestore
stroke
grestore
} bind def
444 200.291 o
grestore
gsave
436.359375 30.075000 translate
0.000000 rotate
0.000000 0.000000 m /five glyphshow
7.634766 0.000000 m /zero glyphshow
grestore
gsave
/o {
gsave
newpath
translate
0.5 setlinewidth
1 setlinejoin
0 setlinecap
0 0 m
0 4 l

gsave
0.000 setgray
fill
grestore
stroke
grestore
} bind def
518.4 43.2 o
grestore
gsave
/o {
gsave
newpath
translate
0.5 setlinewidth
1 setlinejoin
0 setlinecap
0 0 m
0 -4 l

gsave
0.000 setgray
fill
grestore
stroke
grestore
} bind def
518.4 200.291 o
grestore
gsave
510.759375 30.075000 translate
0.000000 rotate
0.000000 0.000000 m /six glyphshow
7.634766 0.000000 m /zero glyphshow
grestore
gsave
278.559375 13.450000 translate
0.000000 rotate
0.000000 0.000000 m /I glyphshow
3.539062 0.000000 m /n glyphshow
11.144531 0.000000 m /d glyphshow
18.761719 0.000000 m /e glyphshow
26.144531 0.000000 m /x glyphshow
grestore
gsave
/o {
gsave
newpath
translate
0.5 setlinewidth
1 setlinejoin
0 setlinecap
0 0 m
4 0 l

gsave
0.000 setgray
fill
grestore
stroke
grestore
} bind def
72 43.2 o
grestore
gsave
/o {
gsave
newpath
translate
0.5 setlinewidth
1 setlinejoin
0 setlinecap
0 0 m
-4 0 l

gsave
0.000 setgray
fill
grestore
stroke
grestore
} bind def
518.4 43.2 o
grestore
gsave
50.296875 39.887500 translate
0.000000 rotate
0.000000 0.000000 m /minus glyphshow
10.054688 0.000000 m /four glyphshow
grestore
gsave
/o {
gsave
newpath
translate
0.5 setlinewidth
1 setlinejoin
0 setlinecap
0 0 m
4 0 l

gsave
0.000 setgray
fill
grestore
stroke
grestore
} bind def
72 62.8364 o
grestore
gsave
/o {
gsave
newpath
translate
0.5 setlinewidth
1 setlinejoin
0 setlinecap
0 0 m
-4 0 l

gsave
0.000 setgray
fill
grestore
stroke
grestore
} bind def
518.4 62.8364 o
grestore
gsave
50.296875 59.523864 translate
0.000000 rotate
0.000000 0.000000 m /minus glyphshow
10.054688 0.000000 m /three glyphshow
grestore
gsave
/o {
gsave
newpath
translate
0.5 setlinewidth
1 setlinejoin
0 setlinecap
0 0 m
4 0 l

gsave
0.000 setgray
fill
grestore
stroke
grestore
} bind def
72 82.4727 o
grestore
gsave
/o {
gsave
newpath
translate
0.5 setlinewidth
1 setlinejoin
0 setlinecap
0 0 m
-4 0 l

gsave
0.000 setgray
fill
grestore
stroke
grestore
} bind def
518.4 82.4727 o
grestore
gsave
50.296875 79.160227 translate
0.000000 rotate
0.000000 0.000000 m /minus glyphshow
10.054688 0.000000 m /two glyphshow
grestore
gsave
/o {
gsave
newpath
translate
0.5 setlinewidth
1 setlinejoin
0 setlinecap
0 0 m
4 0 l

gsave
0.000 setgray
fill
grestore
stroke
grestore
} bind def
72 102.109 o
grestore
gsave
/o {
gsave
newpath
translate
0.5 setlinewidth
1 setlinejoin
0 setlinecap
0 0 m
-4 0 l

gsave
0.000 setgray
fill
grestore
stroke
grestore
} bind def
518.4 102.109 o
grestore
gsave
50.296875 98.796591 translate
0.000000 rotate
0.000000 0.000000 m /minus glyphshow
10.054688 0.000000 m /one glyphshow
grestore
gsave
/o {
gsave
newpath
translate
0.5 setlinewidth
1 setlinejoin
0 setlinecap
0 0 m
4 0 l

gsave
0.000 setgray
fill
grestore
stroke
grestore
} bind def
72 121.745 o
grestore
gsave
/o {
gsave
newpath
translate
0.5 setlinewidth
1 setlinejoin
0 setlinecap
0 0 m
-4 0 l

gsave
0.000 setgray
fill
grestore
stroke
grestore
} bind def
518.4 121.745 o
grestore
gsave
60.359375 118.432955 translate
0.000000 rotate
0.000000 0.000000 m /zero glyphshow
grestore
gsave
/o {
gsave
newpath
translate
0.5 setlinewidth
1 setlinejoin
0 setlinecap
0 0 m
4 0 l

gsave
0.000 setgray
fill
grestore
stroke
grestore
} bind def
72 141.382 o
grestore
gsave
/o {
gsave
newpath
translate
0.5 setlinewidth
1 setlinejoin
0 setlinecap
0 0 m
-4 0 l

gsave
0.000 setgray
fill
grestore
stroke
grestore
} bind def
518.4 141.382 o
grestore
gsave
60.359375 138.069318 translate
0.000000 rotate
0.000000 0.000000 m /one glyphshow
grestore
gsave
/o {
gsave
newpath
translate
0.5 setlinewidth
1 setlinejoin
0 setlinecap
0 0 m
4 0 l

gsave
0.000 setgray
fill
grestore
stroke
grestore
} bind def
72 161.018 o
grestore
gsave
/o {
gsave
newpath
translate
0.5 setlinewidth
1 setlinejoin
0 setlinecap
0 0 m
-4 0 l

gsave
0.000 setgray
fill
grestore
stroke
grestore
} bind def
518.4 161.018 o
grestore
gsave
60.359375 157.705682 translate
0.000000 rotate
0.000000 0.000000 m /two glyphshow
grestore
gsave
/o {
gsave
newpath
translate
0.5 setlinewidth
1 setlinejoin
0 setlinecap
0 0 m
4 0 l

gsave
0.000 setgray
fill
grestore
stroke
grestore
} bind def
72 180.655 o
grestore
gsave
/o {
gsave
newpath
translate
0.5 setlinewidth
1 setlinejoin
0 setlinecap
0 0 m
-4 0 l

gsave
0.000 setgray
fill
grestore
stroke
grestore
} bind def
518.4 180.655 o
grestore
gsave
60.359375 177.342045 translate
0.000000 rotate
0.000000 0.000000 m /three glyphshow
grestore
gsave
/o {
gsave
newpath
translate
0.5 setlinewidth
1 setlinejoin
0 setlinecap
0 0 m
4 0 l

gsave
0.000 setgray
fill
grestore
stroke
grestore
} bind def
72 200.291 o
grestore
gsave
/o {
gsave
newpath
translate
0.5 setlinewidth
1 setlinejoin
0 setlinecap
0 0 m
-4 0 l

gsave
0.000 setgray
fill
grestore
stroke
grestore
} bind def
518.4 200.291 o
grestore
gsave
60.359375 196.978409 translate
0.000000 rotate
0.000000 0.000000 m /four glyphshow
grestore
gsave
42.796875 87.268892 translate
90.000000 rotate
0.000000 0.000000 m /P glyphshow
7.236328 0.000000 m /h glyphshow
14.841797 0.000000 m /a glyphshow
22.195312 0.000000 m /s glyphshow
28.447266 0.000000 m /e glyphshow
35.830078 0.000000 m /space glyphshow
39.644531 0.000000 m /bracketleft glyphshow
44.326172 0.000000 m /r glyphshow
49.259766 0.000000 m /a glyphshow
56.613281 0.000000 m /d glyphshow
64.230469 0.000000 m /bracketright glyphshow
grestore
1.000 setlinewidth
0 setlinejoin
gsave
339.000625 64.289659 m
511.2 64.289659 l
511.2 193.090909 l
339.000625 193.090909 l
cl
gsave
1.000 setgray
fill
grestore
stroke
grestore
1 setlinejoin
2 setlinecap
1.000 0.000 0.000 setrgbcolor
gsave
349.080625 181.730284 m
369.240625 181.730284 l
stroke
grestore
0.000 setgray
/BitstreamVeraSans-Roman findfont
14.400 scalefont
setfont
gsave
385.080625 176.690284 translate
0.000000 rotate
0.000000 0.000000 m /e glyphshow
8.843994 0.000000 m /r glyphshow
14.754028 0.000000 m /i glyphshow
18.747864 0.000000 m /c glyphshow
26.651306 0.000000 m /h glyphshow
35.762024 0.000000 m /space glyphshow
40.331421 0.000000 m /t glyphshow
45.967712 0.000000 m /x glyphshow
54.474792 0.000000 m /zero glyphshow
63.620605 0.000000 m /comma glyphshow
68.190002 0.000000 m /space glyphshow
72.759399 0.000000 m /r glyphshow
78.669434 0.000000 m /x glyphshow
87.176514 0.000000 m /two glyphshow
grestore
0.502 0.000 0.000 setrgbcolor
gsave
349.080625 160.983409 m
369.240625 160.983409 l
stroke
grestore
0.000 setgray
gsave
385.080625 155.943409 translate
0.000000 rotate
0.000000 0.000000 m /e glyphshow
8.843994 0.000000 m /r glyphshow
14.754028 0.000000 m /i glyphshow
18.747864 0.000000 m /c glyphshow
26.651306 0.000000 m /h glyphshow
35.762024 0.000000 m /space glyphshow
40.331421 0.000000 m /t glyphshow
45.967712 0.000000 m /x glyphshow
54.474792 0.000000 m /one glyphshow
63.620605 0.000000 m /comma glyphshow
68.190002 0.000000 m /space glyphshow
72.759399 0.000000 m /r glyphshow
78.669434 0.000000 m /x glyphshow
87.176514 0.000000 m /two glyphshow
grestore
1.000 1.000 0.000 setrgbcolor
gsave
349.080625 140.236534 m
369.240625 140.236534 l
stroke
grestore
0.000 setgray
gsave
385.080625 135.196534 translate
0.000000 rotate
0.000000 0.000000 m /e glyphshow
8.843994 0.000000 m /r glyphshow
14.754028 0.000000 m /i glyphshow
18.747864 0.000000 m /c glyphshow
26.651306 0.000000 m /h glyphshow
35.762024 0.000000 m /space glyphshow
40.331421 0.000000 m /t glyphshow
45.967712 0.000000 m /x glyphshow
54.474792 0.000000 m /two glyphshow
63.620605 0.000000 m /comma glyphshow
68.190002 0.000000 m /space glyphshow
72.759399 0.000000 m /r glyphshow
78.669434 0.000000 m /x glyphshow
87.176514 0.000000 m /two glyphshow
grestore
0.502 0.502 0.000 setrgbcolor
gsave
349.080625 119.489659 m
369.240625 119.489659 l
stroke
grestore
0.000 setgray
gsave
385.080625 114.449659 translate
0.000000 rotate
0.000000 0.000000 m /m glyphshow
14.002991 0.000000 m /i glyphshow
17.996826 0.000000 m /r glyphshow
23.906860 0.000000 m /a glyphshow
32.715759 0.000000 m /n glyphshow
41.826477 0.000000 m /d glyphshow
50.951233 0.000000 m /a glyphshow
59.760132 0.000000 m /space glyphshow
64.329529 0.000000 m /t glyphshow
69.965820 0.000000 m /x glyphshow
78.472900 0.000000 m /zero glyphshow
87.618713 0.000000 m /comma glyphshow
92.188110 0.000000 m /space glyphshow
96.757507 0.000000 m /r glyphshow
102.667542 0.000000 m /x glyphshow
111.174622 0.000000 m /two glyphshow
grestore
0.000 1.000 0.000 setrgbcolor
gsave
349.080625 98.742784 m
369.240625 98.742784 l
stroke
grestore
0.000 setgray
gsave
385.080625 93.702784 translate
0.000000 rotate
0.000000 0.000000 m /m glyphshow
14.002991 0.000000 m /i glyphshow
17.996826 0.000000 m /r glyphshow
23.906860 0.000000 m /a glyphshow
32.715759 0.000000 m /n glyphshow
41.826477 0.000000 m /d glyphshow
50.951233 0.000000 m /a glyphshow
59.760132 0.000000 m /space glyphshow
64.329529 0.000000 m /t glyphshow
69.965820 0.000000 m /x glyphshow
78.472900 0.000000 m /one glyphshow
87.618713 0.000000 m /comma glyphshow
92.188110 0.000000 m /space glyphshow
96.757507 0.000000 m /r glyphshow
102.667542 0.000000 m /x glyphshow
111.174622 0.000000 m /two glyphshow
grestore
0.000 0.502 0.000 setrgbcolor
gsave
349.080625 77.995909 m
369.240625 77.995909 l
stroke
grestore
0.000 setgray
gsave
385.080625 72.955909 translate
0.000000 rotate
0.000000 0.000000 m /m glyphshow
14.002991 0.000000 m /i glyphshow
17.996826 0.000000 m /r glyphshow
23.906860 0.000000 m /a glyphshow
32.715759 0.000000 m /n glyphshow
41.826477 0.000000 m /d glyphshow
50.951233 0.000000 m /a glyphshow
59.760132 0.000000 m /space glyphshow
64.329529 0.000000 m /t glyphshow
69.965820 0.000000 m /x glyphshow
78.472900 0.000000 m /two glyphshow
87.618713 0.000000 m /comma glyphshow
92.188110 0.000000 m /space glyphshow
96.757507 0.000000 m /r glyphshow
102.667542 0.000000 m /x glyphshow
111.174622 0.000000 m /two glyphshow
grestore

end
showpage
