%!PS-Adobe-3.0 EPSF-3.0
%%Title: plot3D_e_rx_idx0_tx_idx0_m_rx_idx0_tx_idx0.eps
%%Creator: matplotlib version 1.5.1, http://matplotlib.org/
%%CreationDate: Tue Feb 14 22:16:21 2017
%%Orientation: portrait
%%BoundingBox: 18 180 594 612
%%EndComments
%%BeginProlog
/mpldict 8 dict def
mpldict begin
/m { moveto } bind def
/l { lineto } bind def
/r { rlineto } bind def
/c { curveto } bind def
/cl { closepath } bind def
/box {
m
1 index 0 r
0 exch r
neg 0 r
cl
} bind def
/clipbox {
box
clip
newpath
} bind def
%!PS-Adobe-3.0 Resource-Font
%%Title: Bitstream Vera Sans
%%Copyright: Copyright (c) 2003 by Bitstream, Inc. All Rights Reserved.
%%Creator: Converted from TrueType to type 3 by PPR
25 dict begin
/_d{bind def}bind def
/_m{moveto}_d
/_l{lineto}_d
/_cl{closepath eofill}_d
/_c{curveto}_d
/_sc{7 -1 roll{setcachedevice}{pop pop pop pop pop pop}ifelse}_d
/_e{exec}_d
/FontName /BitstreamVeraSans-Roman def
/PaintType 0 def
/FontMatrix[.001 0 0 .001 0 0]def
/FontBBox[-183 -236 1287 928]def
/FontType 3 def
/Encoding [ /space /comma /zero /one /two /three /four /five /six /seven /eight /B /E /F /M /S /bracketleft /bracketright /a /b /c /d /e /g /h /i /m /n /r /t /u /x ] def
/FontInfo 10 dict dup begin
/FamilyName (Bitstream Vera Sans) def
/FullName (Bitstream Vera Sans) def
/Notice (Copyright (c) 2003 by Bitstream, Inc. All Rights Reserved. Bitstream Vera is a trademark of Bitstream, Inc.) def
/Weight (Roman) def
/Version (Release 1.10) def
/ItalicAngle 0.0 def
/isFixedPitch false def
/UnderlinePosition -213 def
/UnderlineThickness 143 def
end readonly def
/CharStrings 32 dict dup begin
/space{318 0 0 0 0 0 _sc
}_d
/comma{318 0 77 -115 220 124 _sc
117 124 _m
220 124 _l
220 40 _l
140 -115 _l
77 -115 _l
117 40 _l
117 124 _l
_cl}_d
/zero{636 0 66 -13 570 742 _sc
318 664 _m
267 664 229 639 203 589 _c
177 539 165 464 165 364 _c
165 264 177 189 203 139 _c
229 89 267 64 318 64 _c
369 64 407 89 433 139 _c
458 189 471 264 471 364 _c
471 464 458 539 433 589 _c
407 639 369 664 318 664 _c
318 742 _m
399 742 461 709 505 645 _c
548 580 570 486 570 364 _c
570 241 548 147 505 83 _c
461 19 399 -13 318 -13 _c
236 -13 173 19 130 83 _c
87 147 66 241 66 364 _c
66 486 87 580 130 645 _c
173 709 236 742 318 742 _c
_cl}_d
/one{636 0 110 0 544 729 _sc
124 83 _m
285 83 _l
285 639 _l
110 604 _l
110 694 _l
284 729 _l
383 729 _l
383 83 _l
544 83 _l
544 0 _l
124 0 _l
124 83 _l
_cl}_d
/two{{636 0 73 0 536 742 _sc
192 83 _m
536 83 _l
536 0 _l
73 0 _l
73 83 _l
110 121 161 173 226 239 _c
290 304 331 346 348 365 _c
380 400 402 430 414 455 _c
426 479 433 504 433 528 _c
433 566 419 598 392 622 _c
365 646 330 659 286 659 _c
255 659 222 653 188 643 _c
154 632 117 616 78 594 _c
78 694 _l
118 710 155 722 189 730 _c
223 738 255 742 284 742 _c
}_e{359 742 419 723 464 685 _c
509 647 532 597 532 534 _c
532 504 526 475 515 449 _c
504 422 484 390 454 354 _c
446 344 420 317 376 272 _c
332 227 271 164 192 83 _c
_cl}_e}_d
/three{{636 0 76 -13 556 742 _sc
406 393 _m
453 383 490 362 516 330 _c
542 298 556 258 556 212 _c
556 140 531 84 482 45 _c
432 6 362 -13 271 -13 _c
240 -13 208 -10 176 -4 _c
144 1 110 10 76 22 _c
76 117 _l
103 101 133 89 166 81 _c
198 73 232 69 268 69 _c
330 69 377 81 409 105 _c
441 129 458 165 458 212 _c
458 254 443 288 413 312 _c
383 336 341 349 287 349 _c
}_e{202 349 _l
202 430 _l
291 430 _l
339 430 376 439 402 459 _c
428 478 441 506 441 543 _c
441 580 427 609 401 629 _c
374 649 336 659 287 659 _c
260 659 231 656 200 650 _c
169 644 135 635 98 623 _c
98 711 _l
135 721 170 729 203 734 _c
235 739 266 742 296 742 _c
370 742 429 725 473 691 _c
517 657 539 611 539 553 _c
539 513 527 479 504 451 _c
481 423 448 403 406 393 _c
_cl}_e}_d
/four{636 0 49 0 580 729 _sc
378 643 _m
129 254 _l
378 254 _l
378 643 _l
352 729 _m
476 729 _l
476 254 _l
580 254 _l
580 172 _l
476 172 _l
476 0 _l
378 0 _l
378 172 _l
49 172 _l
49 267 _l
352 729 _l
_cl}_d
/five{{636 0 77 -13 549 729 _sc
108 729 _m
495 729 _l
495 646 _l
198 646 _l
198 467 _l
212 472 227 476 241 478 _c
255 480 270 482 284 482 _c
365 482 429 459 477 415 _c
525 370 549 310 549 234 _c
549 155 524 94 475 51 _c
426 8 357 -13 269 -13 _c
238 -13 207 -10 175 -6 _c
143 -1 111 6 77 17 _c
77 116 _l
106 100 136 88 168 80 _c
199 72 232 69 267 69 _c
}_e{323 69 368 83 401 113 _c
433 143 450 183 450 234 _c
450 284 433 324 401 354 _c
368 384 323 399 267 399 _c
241 399 214 396 188 390 _c
162 384 135 375 108 363 _c
108 729 _l
_cl}_e}_d
/six{{636 0 70 -13 573 742 _sc
330 404 _m
286 404 251 388 225 358 _c
199 328 186 286 186 234 _c
186 181 199 139 225 109 _c
251 79 286 64 330 64 _c
374 64 409 79 435 109 _c
461 139 474 181 474 234 _c
474 286 461 328 435 358 _c
409 388 374 404 330 404 _c
526 713 _m
526 623 _l
501 635 476 644 451 650 _c
425 656 400 659 376 659 _c
310 659 260 637 226 593 _c
}_e{192 549 172 482 168 394 _c
187 422 211 444 240 459 _c
269 474 301 482 336 482 _c
409 482 467 459 509 415 _c
551 371 573 310 573 234 _c
573 159 550 99 506 54 _c
462 9 403 -13 330 -13 _c
246 -13 181 19 137 83 _c
92 147 70 241 70 364 _c
70 479 97 571 152 639 _c
206 707 280 742 372 742 _c
396 742 421 739 447 735 _c
472 730 498 723 526 713 _c
_cl}_e}_d
/seven{636 0 82 0 551 729 _sc
82 729 _m
551 729 _l
551 687 _l
286 0 _l
183 0 _l
432 646 _l
82 646 _l
82 729 _l
_cl}_d
/eight{{636 0 68 -13 568 742 _sc
318 346 _m
271 346 234 333 207 308 _c
180 283 167 249 167 205 _c
167 161 180 126 207 101 _c
234 76 271 64 318 64 _c
364 64 401 76 428 102 _c
455 127 469 161 469 205 _c
469 249 455 283 429 308 _c
402 333 365 346 318 346 _c
219 388 _m
177 398 144 418 120 447 _c
96 476 85 511 85 553 _c
85 611 105 657 147 691 _c
188 725 245 742 318 742 _c
}_e{390 742 447 725 489 691 _c
530 657 551 611 551 553 _c
551 511 539 476 515 447 _c
491 418 459 398 417 388 _c
464 377 501 355 528 323 _c
554 291 568 251 568 205 _c
568 134 546 80 503 43 _c
459 5 398 -13 318 -13 _c
237 -13 175 5 132 43 _c
89 80 68 134 68 205 _c
68 251 81 291 108 323 _c
134 355 171 377 219 388 _c
183 544 _m
183 506 194 476 218 455 _c
}_e{242 434 275 424 318 424 _c
360 424 393 434 417 455 _c
441 476 453 506 453 544 _c
453 582 441 611 417 632 _c
393 653 360 664 318 664 _c
275 664 242 653 218 632 _c
194 611 183 582 183 544 _c
_cl}_e}_d
/B{{686 0 98 0 615 729 _sc
197 348 _m
197 81 _l
355 81 _l
408 81 447 92 473 114 _c
498 136 511 169 511 215 _c
511 260 498 293 473 315 _c
447 337 408 348 355 348 _c
197 348 _l
197 648 _m
197 428 _l
343 428 _l
391 428 426 437 450 455 _c
474 473 486 500 486 538 _c
486 574 474 602 450 620 _c
426 638 391 648 343 648 _c
197 648 _l
98 729 _m
350 729 _l
}_e{425 729 483 713 524 682 _c
564 650 585 606 585 549 _c
585 504 574 468 553 442 _c
532 416 502 399 462 393 _c
510 382 548 360 575 327 _c
601 294 615 253 615 204 _c
615 138 592 88 548 53 _c
504 17 441 0 360 0 _c
98 0 _l
98 729 _l
_cl}_e}_d
/E{632 0 98 0 568 729 _sc
98 729 _m
559 729 _l
559 646 _l
197 646 _l
197 430 _l
544 430 _l
544 347 _l
197 347 _l
197 83 _l
568 83 _l
568 0 _l
98 0 _l
98 729 _l
_cl}_d
/F{575 0 98 0 517 729 _sc
98 729 _m
517 729 _l
517 646 _l
197 646 _l
197 431 _l
486 431 _l
486 348 _l
197 348 _l
197 0 _l
98 0 _l
98 729 _l
_cl}_d
/M{863 0 98 0 765 729 _sc
98 729 _m
245 729 _l
431 233 _l
618 729 _l
765 729 _l
765 0 _l
669 0 _l
669 640 _l
481 140 _l
382 140 _l
194 640 _l
194 0 _l
98 0 _l
98 729 _l
_cl}_d
/S{{635 0 66 -13 579 742 _sc
535 705 _m
535 609 _l
497 627 462 640 429 649 _c
395 657 363 662 333 662 _c
279 662 237 651 208 631 _c
179 610 165 580 165 542 _c
165 510 174 485 194 469 _c
213 452 250 439 304 429 _c
364 417 _l
437 403 491 378 526 343 _c
561 307 579 260 579 201 _c
579 130 555 77 508 41 _c
460 5 391 -13 300 -13 _c
265 -13 228 -9 189 -2 _c
}_e{150 5 110 16 69 32 _c
69 134 _l
109 111 148 94 186 83 _c
224 71 262 66 300 66 _c
356 66 399 77 430 99 _c
460 121 476 152 476 194 _c
476 230 465 258 443 278 _c
421 298 385 313 335 323 _c
275 335 _l
201 349 148 372 115 404 _c
82 435 66 478 66 534 _c
66 598 88 649 134 686 _c
179 723 242 742 322 742 _c
356 742 390 739 426 733 _c
461 727 497 717 535 705 _c
}_e{_cl}_e}_d
/bracketleft{390 0 86 -131 293 760 _sc
86 760 _m
293 760 _l
293 690 _l
176 690 _l
176 -61 _l
293 -61 _l
293 -131 _l
86 -131 _l
86 760 _l
_cl}_d
/bracketright{390 0 97 -131 304 760 _sc
304 760 _m
304 -131 _l
97 -131 _l
97 -61 _l
214 -61 _l
214 690 _l
97 690 _l
97 760 _l
304 760 _l
_cl}_d
/a{{613 0 60 -13 522 560 _sc
343 275 _m
270 275 220 266 192 250 _c
164 233 150 205 150 165 _c
150 133 160 107 181 89 _c
202 70 231 61 267 61 _c
317 61 357 78 387 114 _c
417 149 432 196 432 255 _c
432 275 _l
343 275 _l
522 312 _m
522 0 _l
432 0 _l
432 83 _l
411 49 385 25 355 10 _c
325 -5 287 -13 243 -13 _c
187 -13 142 2 109 33 _c
76 64 60 106 60 159 _c
}_e{60 220 80 266 122 298 _c
163 329 224 345 306 345 _c
432 345 _l
432 354 _l
432 395 418 427 391 450 _c
364 472 326 484 277 484 _c
245 484 215 480 185 472 _c
155 464 127 453 100 439 _c
100 522 _l
132 534 164 544 195 550 _c
226 556 256 560 286 560 _c
365 560 424 539 463 498 _c
502 457 522 395 522 312 _c
_cl}_e}_d
/b{{635 0 91 -13 580 760 _sc
487 273 _m
487 339 473 390 446 428 _c
418 466 381 485 334 485 _c
286 485 249 466 222 428 _c
194 390 181 339 181 273 _c
181 207 194 155 222 117 _c
249 79 286 61 334 61 _c
381 61 418 79 446 117 _c
473 155 487 207 487 273 _c
181 464 _m
199 496 223 520 252 536 _c
281 552 316 560 356 560 _c
422 560 476 533 518 481 _c
559 428 580 359 580 273 _c
}_e{580 187 559 117 518 65 _c
476 13 422 -13 356 -13 _c
316 -13 281 -5 252 10 _c
223 25 199 49 181 82 _c
181 0 _l
91 0 _l
91 760 _l
181 760 _l
181 464 _l
_cl}_e}_d
/c{{550 0 55 -13 488 560 _sc
488 526 _m
488 442 _l
462 456 437 466 411 473 _c
385 480 360 484 334 484 _c
276 484 230 465 198 428 _c
166 391 150 339 150 273 _c
150 206 166 154 198 117 _c
230 80 276 62 334 62 _c
360 62 385 65 411 72 _c
437 79 462 90 488 104 _c
488 21 _l
462 9 436 0 410 -5 _c
383 -10 354 -13 324 -13 _c
242 -13 176 12 128 64 _c
}_e{79 115 55 185 55 273 _c
55 362 79 432 128 483 _c
177 534 244 560 330 560 _c
358 560 385 557 411 551 _c
437 545 463 537 488 526 _c
_cl}_e}_d
/d{{635 0 55 -13 544 760 _sc
454 464 _m
454 760 _l
544 760 _l
544 0 _l
454 0 _l
454 82 _l
435 49 411 25 382 10 _c
353 -5 319 -13 279 -13 _c
213 -13 159 13 117 65 _c
75 117 55 187 55 273 _c
55 359 75 428 117 481 _c
159 533 213 560 279 560 _c
319 560 353 552 382 536 _c
411 520 435 496 454 464 _c
148 273 _m
148 207 161 155 188 117 _c
215 79 253 61 301 61 _c
}_e{348 61 385 79 413 117 _c
440 155 454 207 454 273 _c
454 339 440 390 413 428 _c
385 466 348 485 301 485 _c
253 485 215 466 188 428 _c
161 390 148 339 148 273 _c
_cl}_e}_d
/e{{615 0 55 -13 562 560 _sc
562 296 _m
562 252 _l
149 252 _l
153 190 171 142 205 110 _c
238 78 284 62 344 62 _c
378 62 412 66 444 74 _c
476 82 509 95 541 113 _c
541 28 _l
509 14 476 3 442 -3 _c
408 -9 373 -13 339 -13 _c
251 -13 182 12 131 62 _c
80 112 55 181 55 268 _c
55 357 79 428 127 481 _c
175 533 241 560 323 560 _c
397 560 455 536 498 489 _c
}_e{540 441 562 377 562 296 _c
472 322 _m
471 371 457 410 431 440 _c
404 469 368 484 324 484 _c
274 484 234 469 204 441 _c
174 413 156 373 152 322 _c
472 322 _l
_cl}_e}_d
/g{{635 0 55 -207 544 560 _sc
454 280 _m
454 344 440 395 414 431 _c
387 467 349 485 301 485 _c
253 485 215 467 188 431 _c
161 395 148 344 148 280 _c
148 215 161 165 188 129 _c
215 93 253 75 301 75 _c
349 75 387 93 414 129 _c
440 165 454 215 454 280 _c
544 68 _m
544 -24 523 -93 482 -139 _c
440 -184 377 -207 292 -207 _c
260 -207 231 -204 203 -200 _c
175 -195 147 -188 121 -178 _c
}_e{121 -91 _l
147 -105 173 -115 199 -122 _c
225 -129 251 -133 278 -133 _c
336 -133 380 -117 410 -87 _c
439 -56 454 -10 454 52 _c
454 96 _l
435 64 411 40 382 24 _c
353 8 319 0 279 0 _c
211 0 157 25 116 76 _c
75 127 55 195 55 280 _c
55 364 75 432 116 483 _c
157 534 211 560 279 560 _c
319 560 353 552 382 536 _c
411 520 435 496 454 464 _c
454 547 _l
544 547 _l
}_e{544 68 _l
_cl}_e}_d
/h{634 0 91 0 549 760 _sc
549 330 _m
549 0 _l
459 0 _l
459 327 _l
459 379 448 417 428 443 _c
408 469 378 482 338 482 _c
289 482 251 466 223 435 _c
195 404 181 362 181 309 _c
181 0 _l
91 0 _l
91 760 _l
181 760 _l
181 462 _l
202 494 227 519 257 535 _c
286 551 320 560 358 560 _c
420 560 468 540 500 501 _c
532 462 549 405 549 330 _c
_cl}_d
/i{278 0 94 0 184 760 _sc
94 547 _m
184 547 _l
184 0 _l
94 0 _l
94 547 _l
94 760 _m
184 760 _l
184 646 _l
94 646 _l
94 760 _l
_cl}_d
/m{{974 0 91 0 889 560 _sc
520 442 _m
542 482 569 511 600 531 _c
631 550 668 560 711 560 _c
767 560 811 540 842 500 _c
873 460 889 403 889 330 _c
889 0 _l
799 0 _l
799 327 _l
799 379 789 418 771 444 _c
752 469 724 482 686 482 _c
639 482 602 466 575 435 _c
548 404 535 362 535 309 _c
535 0 _l
445 0 _l
445 327 _l
445 379 435 418 417 444 _c
398 469 369 482 331 482 _c
}_e{285 482 248 466 221 435 _c
194 404 181 362 181 309 _c
181 0 _l
91 0 _l
91 547 _l
181 547 _l
181 462 _l
201 495 226 520 255 536 _c
283 552 317 560 357 560 _c
397 560 430 550 458 530 _c
486 510 506 480 520 442 _c
_cl}_e}_d
/n{634 0 91 0 549 560 _sc
549 330 _m
549 0 _l
459 0 _l
459 327 _l
459 379 448 417 428 443 _c
408 469 378 482 338 482 _c
289 482 251 466 223 435 _c
195 404 181 362 181 309 _c
181 0 _l
91 0 _l
91 547 _l
181 547 _l
181 462 _l
202 494 227 519 257 535 _c
286 551 320 560 358 560 _c
420 560 468 540 500 501 _c
532 462 549 405 549 330 _c
_cl}_d
/r{411 0 91 0 411 560 _sc
411 463 _m
401 469 390 473 378 476 _c
366 478 353 480 339 480 _c
288 480 249 463 222 430 _c
194 397 181 350 181 288 _c
181 0 _l
91 0 _l
91 547 _l
181 547 _l
181 462 _l
199 495 224 520 254 536 _c
284 552 321 560 365 560 _c
371 560 378 559 386 559 _c
393 558 401 557 411 555 _c
411 463 _l
_cl}_d
/t{392 0 27 0 368 702 _sc
183 702 _m
183 547 _l
368 547 _l
368 477 _l
183 477 _l
183 180 _l
183 135 189 106 201 94 _c
213 81 238 75 276 75 _c
368 75 _l
368 0 _l
276 0 _l
206 0 158 13 132 39 _c
106 65 93 112 93 180 _c
93 477 _l
27 477 _l
27 547 _l
93 547 _l
93 702 _l
183 702 _l
_cl}_d
/u{634 0 85 -13 543 547 _sc
85 216 _m
85 547 _l
175 547 _l
175 219 _l
175 167 185 129 205 103 _c
225 77 255 64 296 64 _c
344 64 383 79 411 110 _c
439 141 453 183 453 237 _c
453 547 _l
543 547 _l
543 0 _l
453 0 _l
453 84 _l
431 50 405 26 377 10 _c
348 -5 315 -13 277 -13 _c
214 -13 166 6 134 45 _c
101 83 85 140 85 216 _c
_cl}_d
/x{592 0 29 0 559 547 _sc
549 547 _m
351 281 _l
559 0 _l
453 0 _l
294 215 _l
135 0 _l
29 0 _l
241 286 _l
47 547 _l
153 547 _l
298 352 _l
443 547 _l
549 547 _l
_cl}_d
end readonly def

/BuildGlyph
 {exch begin
 CharStrings exch
 2 copy known not{pop /.notdef}if
 true 3 1 roll get exec
 end}_d

/BuildChar {
 1 index /Encoding get exch get
 1 index /BuildGlyph get exec
}_d

FontName currentdict end definefont pop
end
%%EndProlog
mpldict begin
18 180 translate
576 432 0 0 clipbox
100000 setmiterlimit
gsave
0 0 m
576 0 l
576 432 l
0 432 l
cl
1.000 setgray
fill
grestore
gsave
72 231.709091 m
518.4 231.709091 l
518.4 388.8 l
72 388.8 l
cl
1.000 setgray
fill
grestore
1.000 setlinewidth
0 setlinejoin
0 setlinecap
[] 0 setdash
0.950 setgray
gsave
131.177218 266.420646 m
258.939234 304.935777 l
256.812132 378.531872 l
121.926546 343.926818 l
gsave
fill
grestore
stroke
grestore
0.900 setgray
gsave
258.939234 304.935777 m
465.901687 283.403333 l
474.560748 359.218688 l
256.812132 378.531872 l
gsave
fill
grestore
stroke
grestore
0.925 setgray
gsave
131.177218 266.420646 m
348.929684 241.342606 l
465.901687 283.403333 l
258.939234 304.935777 l
gsave
fill
grestore
stroke
grestore
0.750 setlinewidth
1 setlinejoin
2 setlinecap
0.000 setgray
gsave
131.177218 266.420646 m
348.929684 241.342606 l
stroke
grestore
/BitstreamVeraSans-Roman findfont
12.000 scalefont
setfont
gsave
166.465753 236.953651 translate
353.430324 rotate
0.000000 0.000000 m /S glyphshow
7.617188 0.000000 m /u glyphshow
15.222656 0.000000 m /b glyphshow
22.839844 0.000000 m /c glyphshow
29.437500 0.000000 m /a glyphshow
36.791016 0.000000 m /r glyphshow
41.724609 0.000000 m /r glyphshow
46.658203 0.000000 m /i glyphshow
49.992188 0.000000 m /e glyphshow
57.375000 0.000000 m /r glyphshow
62.308594 0.000000 m /space glyphshow
66.123047 0.000000 m /i glyphshow
69.457031 0.000000 m /n glyphshow
77.062500 0.000000 m /d glyphshow
84.679688 0.000000 m /e glyphshow
92.062500 0.000000 m /x glyphshow
grestore
1.000 setlinewidth
0 setlinecap
0.900 setgray
gsave
135.341407 265.941066 m
262.91012 304.522645 l
260.98105 378.16211 l
stroke
grestore
gsave
168.925005 262.073322 m
294.916126 301.192729 l
294.595943 375.180642 l
stroke
grestore
gsave
202.996171 258.149426 m
327.352943 297.817992 l
328.6864 372.156994 l
stroke
grestore
gsave
237.565599 254.168146 m
360.229327 294.397521 l
363.262586 369.090263 l
stroke
grestore
gsave
272.644301 250.128214 m
393.554274 290.930383 l
398.334956 365.979524 l
stroke
grestore
gsave
308.243613 246.028325 m
427.337028 287.415613 l
433.914269 362.823822 l
stroke
grestore
gsave
344.375213 241.867134 m
461.587089 283.852225 l
470.011596 359.622175 l
stroke
grestore
2 setlinecap
0.000 setgray
gsave
136.440324 266.27342 m
133.139482 265.275121 l
stroke
grestore
gsave
121.660658 248.008746 translate
0.000000 rotate
0.000000 0.000000 m /zero glyphshow
grestore
gsave
170.01089 262.410482 m
166.749164 261.397738 l
stroke
grestore
gsave
155.239871 244.069709 translate
0.000000 rotate
0.000000 0.000000 m /two glyphshow
grestore
gsave
204.068528 258.491497 m
200.847407 257.463992 l
stroke
grestore
gsave
189.307565 240.073370 translate
0.000000 rotate
0.000000 0.000000 m /four glyphshow
grestore
gsave
238.623915 254.515236 m
235.444941 253.472645 l
stroke
grestore
gsave
223.874476 236.018471 translate
0.000000 rotate
0.000000 0.000000 m /six glyphshow
grestore
gsave
273.688045 250.480435 m
270.552814 249.422423 l
stroke
grestore
gsave
258.951659 231.903713 translate
0.000000 rotate
0.000000 0.000000 m /eight glyphshow
grestore
gsave
309.272234 246.385791 m
306.1824 245.312013 l
stroke
grestore
gsave
290.730184 227.727762 translate
0.000000 rotate
0.000000 0.000000 m /one glyphshow
7.634766 0.000000 m /zero glyphshow
grestore
gsave
345.388141 242.229963 m
342.345417 241.140065 l
stroke
grestore
gsave
326.862401 223.489243 translate
0.000000 rotate
0.000000 0.000000 m /one glyphshow
7.634766 0.000000 m /two glyphshow
grestore
0.750 setlinewidth
gsave
465.901687 283.403333 m
348.929684 241.342606 l
stroke
grestore
gsave
411.172481 231.160105 translate
19.777542 rotate
0.000000 0.000000 m /F glyphshow
6.902344 0.000000 m /r glyphshow
11.835938 0.000000 m /a glyphshow
19.189453 0.000000 m /m glyphshow
30.878906 0.000000 m /e glyphshow
38.261719 0.000000 m /space glyphshow
42.076172 0.000000 m /i glyphshow
45.410156 0.000000 m /n glyphshow
53.015625 0.000000 m /d glyphshow
60.632812 0.000000 m /e glyphshow
68.015625 0.000000 m /x glyphshow
grestore
1.000 setlinewidth
0 setlinecap
0.900 setgray
gsave
124.83963 344.674173 m
133.925947 267.249277 l
351.454544 242.250494 l
stroke
grestore
gsave
147.806962 350.566469 m
155.613677 273.787259 l
371.363131 249.409212 l
stroke
grestore
gsave
170.190782 356.309064 m
176.778102 280.167486 l
390.769477 256.387335 l
stroke
grestore
gsave
192.013047 361.907591 m
197.437937 286.395599 l
409.692352 263.191612 l
stroke
grestore
gsave
213.294627 367.367406 m
217.611014 292.476974 l
428.1496 269.828459 l
stroke
grestore
gsave
234.055372 372.693599 m
237.314336 298.416736 l
446.158198 276.30398 l
stroke
grestore
gsave
254.31417 377.891017 m
256.564121 304.219776 l
463.734308 282.623988 l
stroke
grestore
2 setlinecap
0.000 setgray
gsave
349.633738 242.459744 m
355.10024 241.831524 l
stroke
grestore
gsave
364.803122 225.365630 translate
0.000000 rotate
0.000000 0.000000 m /zero glyphshow
grestore
gsave
369.558238 249.613152 m
374.976914 249.000882 l
stroke
grestore
gsave
380.661352 232.619529 translate
0.000000 rotate
0.000000 0.000000 m /one glyphshow
7.634766 0.000000 m /zero glyphshow
grestore
gsave
388.980278 256.586163 m
394.351787 255.989245 l
stroke
grestore
gsave
399.843725 239.690530 translate
0.000000 rotate
0.000000 0.000000 m /two glyphshow
7.634766 0.000000 m /zero glyphshow
grestore
gsave
407.91863 263.385518 m
413.243626 262.803381 l
stroke
grestore
gsave
418.548458 246.585465 translate
0.000000 rotate
0.000000 0.000000 m /three glyphshow
7.634766 0.000000 m /zero glyphshow
grestore
gsave
426.39114 270.017624 m
431.67027 269.449726 l
stroke
grestore
gsave
436.793174 253.310827 translate
0.000000 rotate
0.000000 0.000000 m /four glyphshow
7.634766 0.000000 m /zero glyphshow
grestore
gsave
444.414786 276.488576 m
449.648694 275.9344 l
stroke
grestore
gsave
454.594636 259.872797 translate
0.000000 rotate
0.000000 0.000000 m /five glyphshow
7.634766 0.000000 m /zero glyphshow
grestore
gsave
462.005733 282.804178 m
467.195055 282.263234 l
stroke
grestore
gsave
471.968804 266.277259 translate
0.000000 rotate
0.000000 0.000000 m /six glyphshow
7.634766 0.000000 m /zero glyphshow
grestore
0.750 setlinewidth
gsave
465.901687 283.403333 m
474.560748 359.218688 l
stroke
grestore
gsave
522.833652 276.513032 translate
83.484339 rotate
0.000000 0.000000 m /M glyphshow
10.353516 0.000000 m /a glyphshow
17.707031 0.000000 m /g glyphshow
25.324219 0.000000 m /n glyphshow
32.929688 0.000000 m /i glyphshow
36.263672 0.000000 m /t glyphshow
40.968750 0.000000 m /u glyphshow
48.574219 0.000000 m /d glyphshow
56.191406 0.000000 m /e glyphshow
63.574219 0.000000 m /space glyphshow
67.388672 0.000000 m /bracketleft glyphshow
72.070312 0.000000 m /d glyphshow
79.687500 0.000000 m /B glyphshow
87.919922 0.000000 m /bracketright glyphshow
grestore
1.000 setlinewidth
0 setlinecap
0.900 setgray
gsave
466.066381 284.84533 m
258.89869 306.338558 l
131.001569 267.892314 l
stroke
grestore
gsave
467.204648 294.811548 m
258.618568 316.030561 l
129.78727 278.066239 l
stroke
grestore
gsave
468.358745 304.916367 m
258.334714 325.851681 l
128.555523 288.386353 l
stroke
grestore
gsave
469.529004 315.162699 m
258.047054 335.804518 l
127.305949 298.855829 l
stroke
grestore
gsave
470.715767 325.553538 m
257.755509 345.891737 l
126.038158 309.477935 l
stroke
grestore
gsave
471.919387 336.091962 m
257.460001 356.11608 l
124.75175 320.256031 l
stroke
grestore
gsave
473.140224 346.781138 m
257.160449 366.480362 l
123.446309 331.193581 l
stroke
grestore
gsave
474.378652 357.624324 m
256.856768 376.987474 l
122.121412 342.294147 l
stroke
grestore
2 setlinecap
0.000 setgray
gsave
464.337863 285.02466 m
469.527014 284.486296 l
stroke
grestore
gsave
483.138950 276.970724 translate
0.000000 rotate
0.000000 0.000000 m /one glyphshow
7.634766 0.000000 m /zero glyphshow
grestore
gsave
465.4638 294.988641 m
470.689989 294.456992 l
stroke
grestore
gsave
484.444692 286.921323 translate
0.000000 rotate
0.000000 0.000000 m /one glyphshow
7.634766 0.000000 m /two glyphshow
grestore
gsave
466.605391 305.091143 m
471.86915 304.566448 l
stroke
grestore
gsave
485.768548 297.009967 translate
0.000000 rotate
0.000000 0.000000 m /one glyphshow
7.634766 0.000000 m /four glyphshow
grestore
gsave
467.762963 315.335075 m
473.064836 314.817582 l
stroke
grestore
gsave
487.110899 307.239548 translate
0.000000 rotate
0.000000 0.000000 m /one glyphshow
7.634766 0.000000 m /six glyphshow
grestore
gsave
468.936855 325.723428 m
474.277397 325.213394 l
stroke
grestore
gsave
488.472134 317.613042 translate
0.000000 rotate
0.000000 0.000000 m /one glyphshow
7.634766 0.000000 m /eight glyphshow
grestore
gsave
470.127414 336.259279 m
475.507192 335.756968 l
stroke
grestore
gsave
489.852655 328.133506 translate
0.000000 rotate
0.000000 0.000000 m /two glyphshow
7.634766 0.000000 m /zero glyphshow
grestore
gsave
471.334998 346.94579 m
476.754593 346.451476 l
stroke
grestore
gsave
491.252874 338.804086 translate
0.000000 rotate
0.000000 0.000000 m /two glyphshow
7.634766 0.000000 m /two glyphshow
grestore
gsave
472.559975 357.786217 m
478.01998 357.300183 l
stroke
grestore
gsave
492.673217 349.628019 translate
0.000000 rotate
0.000000 0.000000 m /two glyphshow
7.634766 0.000000 m /four glyphshow
grestore
0 setlinecap
gsave
446.4 157.1 72 231.7 clipbox
238.967521 355.154544 m
255.659648 354.24335 l
272.774504 338.049658 l
289.485116 346.897987 l
306.498405 340.827823 l
323.517899 333.885404 l
341.141985 349.813645 l
358.291558 339.332668 l
376.444898 350.620473 l
393.646884 339.458256 l
412.085469 346.404859 l
413.944634 346.613587 l
415.712029 345.68927 l
417.435233 344.300317 l
419.015013 341.204345 l
420.642926 338.8803 l
402.376384 332.258494 l
385.389559 342.71478 l
366.62212 314.881695 l
350.482546 342.568547 l
332.937465 326.812665 l
316.127439 333.040849 l
299.330624 339.504093 l
282.716605 331.905087 l
265.910428 346.071599 l
249.39851 346.978632 l
247.265774 350.51274 l
245.221214 351.246708 l
243.118591 353.27562 l
241.060977 353.876746 l
238.967521 355.154544 l
cl
gsave
0.000 0.000 0.500 setrgbcolor
fill
grestore
stroke
grestore
gsave
446.4 157.1 72 231.7 clipbox
218.642809 346.77862 m
235.414921 346.097116 l
252.813319 330.469378 l
269.504545 338.939388 l
286.691655 332.648605 l
303.892596 325.110263 l
321.405928 341.752265 l
338.051229 301.914099 l
356.898519 342.411101 l
374.346579 331.219542 l
392.823324 338.4305 l
394.825356 340.136053 l
396.750322 340.663675 l
398.662948 341.077757 l
400.63675 342.494349 l
402.57988 343.496268 l
404.534542 344.719971 l
406.466308 345.661341 l
408.331299 345.718616 l
410.288915 347.137197 l
412.085469 346.404859 l
393.646884 339.458256 l
376.444898 350.620473 l
358.291558 339.332668 l
341.141985 349.813645 l
323.517899 333.885404 l
306.498405 340.827823 l
289.485116 346.897987 l
272.774504 338.049658 l
255.659648 354.24335 l
238.967521 355.154544 l
236.938689 354.679101 l
234.913792 353.9963 l
232.898122 353.007276 l
230.863286 352.348043 l
228.870424 350.714917 l
226.791596 350.78266 l
224.787425 349.244474 l
222.712742 349.014651 l
220.733944 346.879604 l
218.642809 346.77862 l
cl
gsave
0.000 0.000 0.955 setrgbcolor
fill
grestore
stroke
grestore
gsave
446.4 157.1 72 231.7 clipbox
198.098217 335.274515 m
214.941759 334.266113 l
232.580095 319.071116 l
249.211148 327.291178 l
266.513134 321.883926 l
283.884147 313.86556 l
301.232432 330.72365 l
318.388061 283.573644 l
336.841726 330.889547 l
354.489138 319.292032 l
372.931047 326.360258 l
374.971223 328.286917 l
376.975347 329.535951 l
378.967516 330.619423 l
380.950156 331.594421 l
382.933373 332.652693 l
384.924697 333.922427 l
386.891021 334.811949 l
388.854067 335.716298 l
390.800144 336.40568 l
392.823324 338.4305 l
374.346579 331.219542 l
356.898519 342.411101 l
338.051229 301.914099 l
321.405928 341.752265 l
303.892596 325.110263 l
286.691655 332.648605 l
269.504545 338.939388 l
252.813319 330.469378 l
235.414921 346.097116 l
218.642809 346.77862 l
216.590527 345.873175 l
214.551172 344.670962 l
212.492471 343.739101 l
210.460497 342.296715 l
208.411344 341.087806 l
206.350289 340.013081 l
204.333293 338.199143 l
202.300962 336.591136 l
200.158737 336.574415 l
198.098217 335.274515 l
cl
gsave
0.000 0.000 0.993 setrgbcolor
fill
grestore
stroke
grestore
gsave
446.4 157.1 72 231.7 clipbox
412.085469 346.404859 m
430.113775 344.616055 l
431.918434 344.437735 l
433.612626 343.079339 l
435.316768 341.935554 l
436.987775 340.521646 l
438.491637 337.387341 l
420.642926 338.8803 l
419.015013 341.204345 l
417.435233 344.300317 l
415.712029 345.68927 l
413.944634 346.613587 l
412.085469 346.404859 l
cl
gsave
0.000 0.000 0.812 setrgbcolor
fill
grestore
stroke
grestore
gsave
446.4 157.1 72 231.7 clipbox
177.303368 322.389964 m
194.172199 321.607038 l
212.082412 306.073312 l
228.601146 314.788358 l
246.010826 309.599644 l
263.557057 300.872255 l
280.718867 317.026648 l
298.457185 324.205353 l
316.410149 318.227414 l
334.269765 306.682301 l
352.688291 314.145638 l
354.715357 315.006568 l
356.735411 315.802122 l
358.759488 316.821436 l
360.766137 317.509854 l
362.833757 319.779866 l
364.854158 320.968325 l
366.877012 322.292633 l
368.903252 323.761086 l
370.917957 325.043524 l
372.931047 326.360258 l
354.489138 319.292032 l
336.841726 330.889547 l
318.388061 283.573644 l
301.232432 330.72365 l
283.884147 313.86556 l
266.513134 321.883926 l
249.211148 327.291178 l
232.580095 319.071116 l
214.941759 334.266113 l
198.098217 335.274515 l
195.954847 335.10416 l
193.955575 332.84023 l
191.935199 330.857555 l
189.845614 329.782371 l
187.740037 328.865047 l
185.722942 326.753195 l
183.579884 326.219013 l
181.471773 325.182615 l
179.443947 323.11927 l
177.303368 322.389964 l
cl
gsave
0.000 0.000 1.000 setrgbcolor
fill
grestore
stroke
grestore
gsave
446.4 157.1 72 231.7 clipbox
392.823324 338.4305 m
410.99455 336.696974 l
412.917768 337.38512 l
414.846187 338.201674 l
416.758658 338.866042 l
418.731979 340.364748 l
420.702093 341.854286 l
422.554487 341.918853 l
424.521425 343.451464 l
426.390524 343.83799 l
428.323023 345.035237 l
430.113775 344.616055 l
412.085469 346.404859 l
410.288915 347.137197 l
408.331299 345.718616 l
406.466308 345.661341 l
404.534542 344.719971 l
402.57988 343.496268 l
400.63675 342.494349 l
398.662948 341.077757 l
396.750322 340.663675 l
394.825356 340.136053 l
392.823324 338.4305 l
cl
gsave
0.000 0.000 0.839 setrgbcolor
fill
grestore
stroke
grestore
gsave
446.4 157.1 72 231.7 clipbox
155.429703 316.957229 m
172.400067 316.424985 l
190.651313 301.005622 l
207.126341 310.292163 l
224.860774 302.898458 l
242.599252 295.291222 l
259.641054 311.967186 l
277.85929 291.704865 l
295.603046 312.273755 l
313.76244 300.796546 l
332.223499 308.445461 l
334.261184 307.517662 l
336.329716 308.288983 l
338.371553 308.204593 l
340.418329 308.581179 l
342.491978 310.129946 l
344.494301 309.353741 l
346.549173 310.578231 l
348.586494 311.371122 l
350.610092 311.898408 l
352.688291 314.145638 l
334.269765 306.682301 l
316.410149 318.227414 l
298.457185 324.205353 l
280.718867 317.026648 l
263.557057 300.872255 l
246.010826 309.599644 l
228.601146 314.788358 l
212.082412 306.073312 l
194.172199 321.607038 l
177.303368 322.389964 l
175.166674 321.555331 l
173.008021 320.918686 l
170.831769 320.420196 l
168.825072 317.965857 l
166.539361 318.57122 l
164.354203 317.992198 l
162.201962 317.003408 l
159.714369 319.469901 l
157.547186 318.488088 l
155.429703 316.957229 l
cl
gsave
0.000 0.000 0.926 setrgbcolor
fill
grestore
stroke
grestore
gsave
446.4 157.1 72 231.7 clipbox
372.931047 326.360258 m
391.155599 324.020519 l
393.224566 326.427487 l
395.151235 326.589632 l
397.147087 327.918288 l
399.141647 329.274016 l
401.129755 330.578124 l
403.121412 331.979548 l
405.061148 332.676156 l
407.032545 333.884372 l
409.013229 335.266977 l
410.99455 336.696974 l
392.823324 338.4305 l
390.800144 336.40568 l
388.854067 335.716298 l
386.891021 334.811949 l
384.924697 333.922427 l
382.933373 332.652693 l
380.950156 331.594421 l
378.967516 330.619423 l
376.975347 329.535951 l
374.971223 328.286917 l
372.931047 326.360258 l
cl
gsave
0.000 0.000 0.964 setrgbcolor
fill
grestore
stroke
grestore
gsave
446.4 157.1 72 231.7 clipbox
133.1629 309.77772 m
150.256275 309.027519 l
169.025636 291.556645 l
185.408895 301.10709 l
203.219419 295.41982 l
221.351089 284.625662 l
238.094487 304.008061 l
257.438575 260.391214 l
274.276519 303.878861 l
292.723736 290.270726 l
311.168614 299.130341 l
313.302889 300.933275 l
315.450527 304.351563 l
317.581339 306.053275 l
319.685084 305.814574 l
321.802742 307.14855 l
323.898934 307.329035 l
325.994221 307.86386 l
328.061444 307.185213 l
330.123287 306.702689 l
332.223499 308.445461 l
313.76244 300.796546 l
295.603046 312.273755 l
277.85929 291.704865 l
259.641054 311.967186 l
242.599252 295.291222 l
224.860774 302.898458 l
207.126341 310.292163 l
190.651313 301.005622 l
172.400067 316.424985 l
155.429703 316.957229 l
153.14013 317.112163 l
150.823043 317.457408 l
148.596468 316.843289 l
146.310806 316.736471 l
143.951701 317.249082 l
141.677815 316.886817 l
139.407311 316.432689 l
137.32167 314.259819 l
135.126148 313.051174 l
133.1629 309.77772 l
cl
gsave
0.000 0.000 0.978 setrgbcolor
fill
grestore
stroke
grestore
gsave
446.4 157.1 72 231.7 clipbox
352.688291 314.145638 m
370.948551 310.499922 l
373.030421 312.813737 l
374.996091 312.822647 l
377.080688 315.273719 l
378.994054 314.486369 l
381.11344 317.668781 l
383.064561 317.785415 l
385.116142 319.784558 l
387.184512 322.09717 l
389.197452 323.485887 l
391.155599 324.020519 l
372.931047 326.360258 l
370.917957 325.043524 l
368.903252 323.761086 l
366.877012 322.292633 l
364.854158 320.968325 l
362.833757 319.779866 l
360.766137 317.509854 l
358.759488 316.821436 l
356.735411 315.802122 l
354.715357 315.006568 l
352.688291 314.145638 l
cl
gsave
0.000 0.000 0.796 setrgbcolor
fill
grestore
stroke
grestore
gsave
446.4 157.1 72 231.7 clipbox
332.223499 308.445461 m
350.711033 305.615948 l
352.767545 306.302651 l
354.818346 306.977036 l
356.841969 307.074048 l
358.820792 306.205344 l
360.862201 307.106593 l
362.845301 306.729686 l
364.885128 307.843884 l
366.894624 308.368236 l
368.941521 309.822833 l
370.948551 310.499922 l
352.688291 314.145638 l
350.610092 311.898408 l
348.586494 311.371122 l
346.549173 310.578231 l
344.494301 309.353741 l
342.491978 310.129946 l
340.418329 308.581179 l
338.371553 308.204593 l
336.329716 308.288983 l
334.261184 307.517662 l
332.223499 308.445461 l
cl
gsave
0.000 0.000 0.705 setrgbcolor
fill
grestore
stroke
grestore
gsave
446.4 157.1 72 231.7 clipbox
311.168614 299.130341 m
329.795052 295.937917 l
331.934946 298.201441 l
334.109879 302.066528 l
336.238676 303.85552 l
338.328476 304.200228 l
340.424451 305.016227 l
342.488123 304.866701 l
344.579271 305.907899 l
346.584882 304.331943 l
348.667355 305.488566 l
350.711033 305.615948 l
332.223499 308.445461 l
330.123287 306.702689 l
328.061444 307.185213 l
325.994221 307.86386 l
323.898934 307.329035 l
321.802742 307.14855 l
319.685084 305.814574 l
317.581339 306.053275 l
315.450527 304.351563 l
313.302889 300.933275 l
311.168614 299.130341 l
cl
gsave
0.000 0.000 0.965 setrgbcolor
fill
grestore
stroke
grestore
/BitstreamVeraSans-Roman findfont
14.400 scalefont
setfont
gsave
246.903125 381.232727 translate
0.000000 rotate
0.000000 0.000000 m /E glyphshow
9.082642 0.000000 m /r glyphshow
14.992676 0.000000 m /i glyphshow
18.986511 0.000000 m /c glyphshow
26.889954 0.000000 m /h glyphshow
36.000671 0.000000 m /space glyphshow
40.570068 0.000000 m /r glyphshow
46.480103 0.000000 m /x glyphshow
54.987183 0.000000 m /zero glyphshow
64.132996 0.000000 m /comma glyphshow
68.702393 0.000000 m /space glyphshow
73.271790 0.000000 m /t glyphshow
78.908081 0.000000 m /x glyphshow
87.415161 0.000000 m /zero glyphshow
grestore
gsave
72 43.2 m
518.4 43.2 l
518.4 200.290909 l
72 200.290909 l
cl
1.000 setgray
fill
grestore
0 setlinejoin
0.950 setgray
gsave
131.177218 77.911555 m
258.939234 116.426686 l
256.812132 190.022781 l
121.926546 155.417727 l
gsave
fill
grestore
stroke
grestore
0.900 setgray
gsave
258.939234 116.426686 m
465.901687 94.894242 l
474.560748 170.709597 l
256.812132 190.022781 l
gsave
fill
grestore
stroke
grestore
0.925 setgray
gsave
131.177218 77.911555 m
348.929684 52.833515 l
465.901687 94.894242 l
258.939234 116.426686 l
gsave
fill
grestore
stroke
grestore
0.750 setlinewidth
1 setlinejoin
2 setlinecap
0.000 setgray
gsave
131.177218 77.911555 m
348.929684 52.833515 l
stroke
grestore
/BitstreamVeraSans-Roman findfont
12.000 scalefont
setfont
gsave
166.465753 48.444560 translate
353.430324 rotate
0.000000 0.000000 m /S glyphshow
7.617188 0.000000 m /u glyphshow
15.222656 0.000000 m /b glyphshow
22.839844 0.000000 m /c glyphshow
29.437500 0.000000 m /a glyphshow
36.791016 0.000000 m /r glyphshow
41.724609 0.000000 m /r glyphshow
46.658203 0.000000 m /i glyphshow
49.992188 0.000000 m /e glyphshow
57.375000 0.000000 m /r glyphshow
62.308594 0.000000 m /space glyphshow
66.123047 0.000000 m /i glyphshow
69.457031 0.000000 m /n glyphshow
77.062500 0.000000 m /d glyphshow
84.679688 0.000000 m /e glyphshow
92.062500 0.000000 m /x glyphshow
grestore
1.000 setlinewidth
0 setlinecap
0.900 setgray
gsave
135.341407 77.431975 m
262.91012 116.013554 l
260.98105 189.653019 l
stroke
grestore
gsave
160.483807 74.536384 m
286.874573 113.520284 l
286.148026 187.420838 l
stroke
grestore
gsave
185.898981 71.609378 m
311.080141 111.001928 l
311.581097 185.165055 l
stroke
grestore
gsave
211.591391 68.650443 m
335.530482 108.458107 l
337.284506 182.885295 l
stroke
grestore
gsave
237.565599 65.659055 m
360.229327 105.88843 l
363.262586 180.581173 l
stroke
grestore
gsave
263.826267 62.634676 m
385.180483 103.292504 l
389.519764 178.252296 l
stroke
grestore
gsave
290.378159 59.576757 m
410.387838 100.669922 l
416.060561 175.898263 l
stroke
grestore
gsave
317.226148 56.484737 m
435.855357 98.020273 l
442.889598 173.518666 l
stroke
grestore
gsave
344.375213 53.358043 m
461.587089 95.343135 l
470.011596 171.113084 l
stroke
grestore
2 setlinecap
0.000 setgray
gsave
136.440324 77.764329 m
133.139482 76.76603 l
stroke
grestore
gsave
121.660658 59.499656 translate
0.000000 rotate
0.000000 0.000000 m /zero glyphshow
grestore
gsave
161.572996 74.872332 m
158.301354 73.863229 l
stroke
grestore
gsave
146.799685 56.550701 translate
0.000000 rotate
0.000000 0.000000 m /one glyphshow
grestore
gsave
186.978165 71.94898 m
183.736553 70.928896 l
stroke
grestore
gsave
172.211994 53.569690 translate
0.000000 rotate
0.000000 0.000000 m /two glyphshow
grestore
gsave
212.660287 68.993759 m
209.449556 67.962513 l
stroke
grestore
gsave
197.902064 50.556095 translate
0.000000 rotate
0.000000 0.000000 m /three glyphshow
grestore
gsave
238.623915 66.006145 m
235.444941 64.963554 l
stroke
grestore
gsave
223.874476 47.509380 translate
0.000000 rotate
0.000000 0.000000 m /four glyphshow
grestore
gsave
264.873705 62.985603 m
261.727385 61.931478 l
stroke
grestore
gsave
250.133908 44.428995 translate
0.000000 rotate
0.000000 0.000000 m /five glyphshow
grestore
gsave
291.414412 59.931585 m
288.301669 58.865734 l
stroke
grestore
gsave
276.685146 41.314381 translate
0.000000 rotate
0.000000 0.000000 m /six glyphshow
grestore
gsave
318.2509 56.843532 m
315.17268 55.765758 l
stroke
grestore
gsave
303.533081 38.164962 translate
0.000000 rotate
0.000000 0.000000 m /seven glyphshow
grestore
gsave
345.388141 53.720872 m
342.345417 52.630974 l
stroke
grestore
gsave
330.682713 34.980152 translate
0.000000 rotate
0.000000 0.000000 m /eight glyphshow
grestore
0.750 setlinewidth
gsave
465.901687 94.894242 m
348.929684 52.833515 l
stroke
grestore
gsave
411.172481 42.651014 translate
19.777542 rotate
0.000000 0.000000 m /F glyphshow
6.902344 0.000000 m /r glyphshow
11.835938 0.000000 m /a glyphshow
19.189453 0.000000 m /m glyphshow
30.878906 0.000000 m /e glyphshow
38.261719 0.000000 m /space glyphshow
42.076172 0.000000 m /i glyphshow
45.410156 0.000000 m /n glyphshow
53.015625 0.000000 m /d glyphshow
60.632812 0.000000 m /e glyphshow
68.015625 0.000000 m /x glyphshow
grestore
1.000 setlinewidth
0 setlinecap
0.900 setgray
gsave
124.83963 156.165082 m
133.925947 78.740186 l
351.454544 53.741403 l
stroke
grestore
gsave
147.806962 162.057378 m
155.613677 85.278169 l
371.363131 60.900121 l
stroke
grestore
gsave
170.190782 167.799973 m
176.778102 91.658395 l
390.769477 67.878245 l
stroke
grestore
gsave
192.013047 173.398501 m
197.437937 97.886508 l
409.692352 74.682521 l
stroke
grestore
gsave
213.294627 178.858315 m
217.611014 103.967883 l
428.1496 81.319368 l
stroke
grestore
gsave
234.055372 184.184508 m
237.314336 109.907645 l
446.158198 87.794889 l
stroke
grestore
gsave
254.31417 189.381926 m
256.564121 115.710685 l
463.734308 94.114897 l
stroke
grestore
2 setlinecap
0.000 setgray
gsave
349.633738 53.950653 m
355.10024 53.322433 l
stroke
grestore
gsave
364.803122 36.856539 translate
0.000000 rotate
0.000000 0.000000 m /zero glyphshow
grestore
gsave
369.558238 61.104061 m
374.976914 60.491791 l
stroke
grestore
gsave
380.661352 44.110438 translate
0.000000 rotate
0.000000 0.000000 m /one glyphshow
7.634766 0.000000 m /zero glyphshow
grestore
gsave
388.980278 68.077072 m
394.351787 67.480154 l
stroke
grestore
gsave
399.843725 51.181439 translate
0.000000 rotate
0.000000 0.000000 m /two glyphshow
7.634766 0.000000 m /zero glyphshow
grestore
gsave
407.91863 74.876427 m
413.243626 74.29429 l
stroke
grestore
gsave
418.548458 58.076374 translate
0.000000 rotate
0.000000 0.000000 m /three glyphshow
7.634766 0.000000 m /zero glyphshow
grestore
gsave
426.39114 81.508533 m
431.67027 80.940635 l
stroke
grestore
gsave
436.793174 64.801736 translate
0.000000 rotate
0.000000 0.000000 m /four glyphshow
7.634766 0.000000 m /zero glyphshow
grestore
gsave
444.414786 87.979485 m
449.648694 87.42531 l
stroke
grestore
gsave
454.594636 71.363707 translate
0.000000 rotate
0.000000 0.000000 m /five glyphshow
7.634766 0.000000 m /zero glyphshow
grestore
gsave
462.005733 94.295087 m
467.195055 93.754143 l
stroke
grestore
gsave
471.968804 77.768168 translate
0.000000 rotate
0.000000 0.000000 m /six glyphshow
7.634766 0.000000 m /zero glyphshow
grestore
0.750 setlinewidth
gsave
465.901687 94.894242 m
474.560748 170.709597 l
stroke
grestore
gsave
522.833652 88.003941 translate
83.484339 rotate
0.000000 0.000000 m /M glyphshow
10.353516 0.000000 m /a glyphshow
17.707031 0.000000 m /g glyphshow
25.324219 0.000000 m /n glyphshow
32.929688 0.000000 m /i glyphshow
36.263672 0.000000 m /t glyphshow
40.968750 0.000000 m /u glyphshow
48.574219 0.000000 m /d glyphshow
56.191406 0.000000 m /e glyphshow
63.574219 0.000000 m /space glyphshow
67.388672 0.000000 m /bracketleft glyphshow
72.070312 0.000000 m /d glyphshow
79.687500 0.000000 m /B glyphshow
87.919922 0.000000 m /bracketright glyphshow
grestore
1.000 setlinewidth
0 setlinecap
0.900 setgray
gsave
466.066381 96.336239 m
258.89869 117.829467 l
131.001569 79.383223 l
stroke
grestore
gsave
467.395889 107.976891 m
258.57152 129.149287 l
129.583201 91.266931 l
stroke
grestore
gsave
468.747018 119.806851 m
258.239254 140.645437 l
128.140998 103.350332 l
stroke
grestore
gsave
470.120301 131.830774 m
257.901772 152.322069 l
126.674356 115.638505 l
stroke
grestore
gsave
471.516285 144.053471 m
257.558949 164.183467 l
125.182646 128.136698 l
stroke
grestore
gsave
472.93554 156.479911 m
257.210659 176.234051 l
123.665222 140.850342 l
stroke
grestore
gsave
474.378652 169.115233 m
256.856768 188.478383 l
122.121412 153.785057 l
stroke
grestore
2 setlinecap
0.000 setgray
gsave
464.337863 96.515569 m
469.527014 95.977205 l
stroke
grestore
gsave
486.959262 88.461634 translate
0.000000 rotate
0.000000 0.000000 m /eight glyphshow
grestore
gsave
465.65297 108.153603 m
470.885383 107.623096 l
stroke
grestore
gsave
484.664066 100.084009 translate
0.000000 rotate
0.000000 0.000000 m /one glyphshow
7.634766 0.000000 m /zero glyphshow
grestore
gsave
466.989456 119.980835 m
472.265859 119.458514 l
stroke
grestore
gsave
486.213924 111.894931 translate
0.000000 rotate
0.000000 0.000000 m /one glyphshow
7.634766 0.000000 m /two glyphshow
grestore
gsave
468.347848 132.001918 m
473.668985 131.488122 l
stroke
grestore
gsave
487.789131 123.899026 translate
0.000000 rotate
0.000000 0.000000 m /one glyphshow
7.634766 0.000000 m /four glyphshow
grestore
gsave
469.728688 144.221656 m
475.095323 143.71674 l
stroke
grestore
gsave
489.390313 136.101071 translate
0.000000 rotate
0.000000 0.000000 m /one glyphshow
7.634766 0.000000 m /six glyphshow
grestore
gsave
471.132537 156.645014 m
476.545454 156.149348 l
stroke
grestore
gsave
491.018119 148.506004 translate
0.000000 rotate
0.000000 0.000000 m /one glyphshow
7.634766 0.000000 m /eight glyphshow
grestore
gsave
472.559975 169.277126 m
478.01998 168.791093 l
stroke
grestore
gsave
492.673217 161.118928 translate
0.000000 rotate
0.000000 0.000000 m /two glyphshow
7.634766 0.000000 m /zero glyphshow
grestore
0 setlinecap
gsave
446.4 157.1 72 43.2 clipbox
239.259397 159.550549 m
264.002814 167.406802 l
289.511731 154.978437 l
314.963036 143.940771 l
340.018765 118.857854 l
366.909636 147.259479 l
392.070899 125.405916 l
418.426994 123.668587 l
445.489084 125.899752 l
447.260086 125.986983 l
448.973688 125.55818 l
450.60448 124.380885 l
452.176737 122.717036 l
453.450929 118.277246 l
426.706385 116.454472 l
400.909674 122.133395 l
375.937521 140.949331 l
349.160462 113.76767 l
324.455306 136.598144 l
299.331798 150.070377 l
274.161188 160.096028 l
249.644958 151.31222 l
247.488175 155.785375 l
245.412566 157.580247 l
243.31108 159.759534 l
241.270661 160.097805 l
239.259397 159.550549 l
cl
gsave
0.724 0.815 0.976 setrgbcolor
fill
grestore
stroke
grestore
gsave
446.4 157.1 72 43.2 clipbox
219.12003 149.572422 m
243.897299 156.097461 l
269.591907 146.307465 l
295.320839 133.576904 l
320.843997 111.457194 l
347.538329 140.226303 l
373.156058 118.455308 l
399.386782 111.821802 l
426.480156 113.559367 l
428.361411 114.412834 l
430.455242 117.720651 l
432.31094 118.343303 l
433.989357 117.060746 l
435.956997 119.024579 l
437.907164 120.81357 l
439.844429 122.482858 l
441.887616 125.28056 l
443.929531 128.056473 l
445.489084 125.899752 l
418.426994 123.668587 l
392.070899 125.405916 l
366.909636 147.259479 l
340.018765 118.857854 l
314.963036 143.940771 l
289.511731 154.978437 l
264.002814 167.406802 l
239.259397 159.550549 l
237.249437 158.857035 l
235.236698 158.123449 l
233.155696 158.8013 l
231.227859 156.012101 l
229.127485 156.844888 l
227.139294 155.224602 l
225.119723 154.181926 l
223.143724 152.231738 l
221.140029 150.777043 l
219.12003 149.572422 l
cl
gsave
0.706 0.016 0.150 setrgbcolor
fill
grestore
stroke
grestore
gsave
446.4 157.1 72 43.2 clipbox
198.381658 142.660456 m
223.189796 149.556757 l
249.267891 137.161563 l
275.289068 124.397361 l
301.232432 102.942753 l
327.620549 128.174376 l
353.711582 109.208757 l
380.324035 105.393198 l
407.551367 106.483805 l
409.482641 107.435309 l
411.41923 108.509014 l
413.355873 109.630247 l
415.311092 111.033176 l
417.382765 113.935181 l
419.17025 113.30566 l
421.150744 115.124505 l
422.836309 113.421502 l
424.721249 114.200724 l
426.480156 113.559367 l
399.386782 111.821802 l
373.156058 118.455308 l
347.538329 140.226303 l
320.843997 111.457194 l
295.320839 133.576904 l
269.591907 146.307465 l
243.897299 156.097461 l
219.12003 149.572422 l
217.063066 148.96615 l
215.024436 147.955503 l
213.077541 145.326434 l
210.855929 147.250216 l
208.915413 144.435805 l
206.834255 143.86114 l
204.916097 140.688841 l
202.679246 142.365736 l
200.634 141.035849 l
198.381658 142.660456 l
cl
gsave
0.379 0.504 0.914 setrgbcolor
fill
grestore
stroke
grestore
gsave
446.4 157.1 72 43.2 clipbox
176.902591 138.66956 m
201.697993 147.150404 l
228.171011 135.003599 l
254.597436 122.754752 l
281.171818 95.939849 l
307.401016 125.865548 l
333.881879 100.972197 l
360.755137 98.28004 l
388.377748 102.960721 l
390.229814 101.834287 l
392.310089 104.498469 l
394.081331 102.333466 l
396.046444 103.321934 l
397.893284 102.596755 l
399.790268 102.733228 l
401.708989 103.272326 l
403.391837 100.541536 l
405.679343 106.411786 l
407.551367 106.483805 l
380.324035 105.393198 l
353.711582 109.208757 l
327.620549 128.174376 l
301.232432 102.942753 l
275.289068 124.397361 l
249.267891 137.161563 l
223.189796 149.556757 l
198.381658 142.660456 l
196.352459 140.954499 l
194.198678 140.951859 l
192.059499 140.654817 l
190.114975 137.674539 l
187.894566 138.330969 l
185.611256 139.68007 l
183.421259 139.711536 l
181.330393 138.424895 l
179.124249 138.499146 l
176.902591 138.66956 l
cl
gsave
0.230 0.299 0.754 setrgbcolor
fill
grestore
stroke
grestore
gsave
446.4 157.1 72 43.2 clipbox
154.741988 135.406916 m
179.594661 144.170907 l
206.517815 131.280051 l
233.265342 120.645028 l
260.459606 94.52055 l
286.535103 124.529016 l
313.674746 102.075072 l
340.869252 97.267638 l
368.472717 96.162132 l
370.445247 95.990386 l
372.546395 98.57733 l
374.669058 101.587181 l
376.54122 99.761531 l
378.504403 99.862331 l
380.545926 101.514517 l
382.550957 102.559224 l
384.530032 103.222091 l
386.598003 105.482825 l
388.377748 102.960721 l
360.755137 98.28004 l
333.881879 100.972197 l
307.401016 125.865548 l
281.171818 95.939849 l
254.597436 122.754752 l
228.171011 135.003599 l
201.697993 147.150404 l
176.902591 138.66956 l
174.800685 137.342718 l
172.632073 136.746813 l
170.527422 135.36253 l
168.273917 135.602136 l
165.964549 136.365101 l
163.580718 137.825922 l
161.379194 137.225469 l
159.165953 136.687817 l
156.959451 136.020009 l
154.741988 135.406916 l
cl
gsave
0.877 0.395 0.312 setrgbcolor
fill
grestore
stroke
grestore
gsave
446.4 157.1 72 43.2 clipbox
133.642507 117.079065 m
158.097624 127.994699 l
185.25948 114.480775 l
212.364529 100.395148 l
239.877629 74.198312 l
265.439078 104.18458 l
292.82992 83.683356 l
320.086305 80.144138 l
347.772459 80.873873 l
350.00016 86.647725 l
352.213416 91.758705 l
354.297494 93.170756 l
356.38405 94.734528 l
358.493916 96.958761 l
360.586045 98.775835 l
362.565072 97.979101 l
364.580149 98.218987 l
366.570136 98.047193 l
368.472717 96.162132 l
340.869252 97.267638 l
313.674746 102.075072 l
286.535103 124.529016 l
260.459606 94.52055 l
233.265342 120.645028 l
206.517815 131.280051 l
179.594661 144.170907 l
154.741988 135.406916 l
152.584594 134.13805 l
150.209246 134.970959 l
147.935267 134.724668 l
145.796486 133.124567 l
143.579899 132.228279 l
141.363695 131.282119 l
139.463082 127.415324 l
137.181996 127.005607 l
135.542189 120.856653 l
133.642507 117.079065 l
cl
gsave
0.719 0.812 0.978 setrgbcolor
fill
grestore
stroke
grestore
/BitstreamVeraSans-Roman findfont
14.400 scalefont
setfont
gsave
235.817187 192.723636 translate
0.000000 rotate
0.000000 0.000000 m /M glyphshow
12.402649 0.000000 m /i glyphshow
16.396484 0.000000 m /r glyphshow
22.306519 0.000000 m /a glyphshow
31.115417 0.000000 m /n glyphshow
40.226135 0.000000 m /d glyphshow
49.350891 0.000000 m /a glyphshow
58.159790 0.000000 m /space glyphshow
62.729187 0.000000 m /r glyphshow
68.639221 0.000000 m /x glyphshow
77.146301 0.000000 m /zero glyphshow
86.292114 0.000000 m /comma glyphshow
90.861511 0.000000 m /space glyphshow
95.430908 0.000000 m /t glyphshow
101.067200 0.000000 m /x glyphshow
109.574280 0.000000 m /zero glyphshow
grestore

end
showpage
