%!PS-Adobe-3.0 EPSF-3.0
%%Title: plot3D_e_rx_idx0_tx_idx0_m_rx_idx0_tx_idx0.eps
%%Creator: matplotlib version 1.5.1, http://matplotlib.org/
%%CreationDate: Tue Feb 14 23:54:14 2017
%%Orientation: portrait
%%BoundingBox: 18 180 594 612
%%EndComments
%%BeginProlog
/mpldict 8 dict def
mpldict begin
/m { moveto } bind def
/l { lineto } bind def
/r { rlineto } bind def
/c { curveto } bind def
/cl { closepath } bind def
/box {
m
1 index 0 r
0 exch r
neg 0 r
cl
} bind def
/clipbox {
box
clip
newpath
} bind def
%!PS-Adobe-3.0 Resource-Font
%%Title: Bitstream Vera Sans
%%Copyright: Copyright (c) 2003 by Bitstream, Inc. All Rights Reserved.
%%Creator: Converted from TrueType to type 3 by PPR
25 dict begin
/_d{bind def}bind def
/_m{moveto}_d
/_l{lineto}_d
/_cl{closepath eofill}_d
/_c{curveto}_d
/_sc{7 -1 roll{setcachedevice}{pop pop pop pop pop pop}ifelse}_d
/_e{exec}_d
/FontName /BitstreamVeraSans-Roman def
/PaintType 0 def
/FontMatrix[.001 0 0 .001 0 0]def
/FontBBox[-183 -236 1287 928]def
/FontType 3 def
/Encoding [ /space /comma /zero /one /two /three /four /five /six /seven /eight /nine /B /E /F /M /S /bracketleft /bracketright /a /b /c /d /e /g /h /i /m /n /r /t /u /x ] def
/FontInfo 10 dict dup begin
/FamilyName (Bitstream Vera Sans) def
/FullName (Bitstream Vera Sans) def
/Notice (Copyright (c) 2003 by Bitstream, Inc. All Rights Reserved. Bitstream Vera is a trademark of Bitstream, Inc.) def
/Weight (Roman) def
/Version (Release 1.10) def
/ItalicAngle 0.0 def
/isFixedPitch false def
/UnderlinePosition -213 def
/UnderlineThickness 143 def
end readonly def
/CharStrings 33 dict dup begin
/space{318 0 0 0 0 0 _sc
}_d
/comma{318 0 77 -115 220 124 _sc
117 124 _m
220 124 _l
220 40 _l
140 -115 _l
77 -115 _l
117 40 _l
117 124 _l
_cl}_d
/zero{636 0 66 -13 570 742 _sc
318 664 _m
267 664 229 639 203 589 _c
177 539 165 464 165 364 _c
165 264 177 189 203 139 _c
229 89 267 64 318 64 _c
369 64 407 89 433 139 _c
458 189 471 264 471 364 _c
471 464 458 539 433 589 _c
407 639 369 664 318 664 _c
318 742 _m
399 742 461 709 505 645 _c
548 580 570 486 570 364 _c
570 241 548 147 505 83 _c
461 19 399 -13 318 -13 _c
236 -13 173 19 130 83 _c
87 147 66 241 66 364 _c
66 486 87 580 130 645 _c
173 709 236 742 318 742 _c
_cl}_d
/one{636 0 110 0 544 729 _sc
124 83 _m
285 83 _l
285 639 _l
110 604 _l
110 694 _l
284 729 _l
383 729 _l
383 83 _l
544 83 _l
544 0 _l
124 0 _l
124 83 _l
_cl}_d
/two{{636 0 73 0 536 742 _sc
192 83 _m
536 83 _l
536 0 _l
73 0 _l
73 83 _l
110 121 161 173 226 239 _c
290 304 331 346 348 365 _c
380 400 402 430 414 455 _c
426 479 433 504 433 528 _c
433 566 419 598 392 622 _c
365 646 330 659 286 659 _c
255 659 222 653 188 643 _c
154 632 117 616 78 594 _c
78 694 _l
118 710 155 722 189 730 _c
223 738 255 742 284 742 _c
}_e{359 742 419 723 464 685 _c
509 647 532 597 532 534 _c
532 504 526 475 515 449 _c
504 422 484 390 454 354 _c
446 344 420 317 376 272 _c
332 227 271 164 192 83 _c
_cl}_e}_d
/three{{636 0 76 -13 556 742 _sc
406 393 _m
453 383 490 362 516 330 _c
542 298 556 258 556 212 _c
556 140 531 84 482 45 _c
432 6 362 -13 271 -13 _c
240 -13 208 -10 176 -4 _c
144 1 110 10 76 22 _c
76 117 _l
103 101 133 89 166 81 _c
198 73 232 69 268 69 _c
330 69 377 81 409 105 _c
441 129 458 165 458 212 _c
458 254 443 288 413 312 _c
383 336 341 349 287 349 _c
}_e{202 349 _l
202 430 _l
291 430 _l
339 430 376 439 402 459 _c
428 478 441 506 441 543 _c
441 580 427 609 401 629 _c
374 649 336 659 287 659 _c
260 659 231 656 200 650 _c
169 644 135 635 98 623 _c
98 711 _l
135 721 170 729 203 734 _c
235 739 266 742 296 742 _c
370 742 429 725 473 691 _c
517 657 539 611 539 553 _c
539 513 527 479 504 451 _c
481 423 448 403 406 393 _c
_cl}_e}_d
/four{636 0 49 0 580 729 _sc
378 643 _m
129 254 _l
378 254 _l
378 643 _l
352 729 _m
476 729 _l
476 254 _l
580 254 _l
580 172 _l
476 172 _l
476 0 _l
378 0 _l
378 172 _l
49 172 _l
49 267 _l
352 729 _l
_cl}_d
/five{{636 0 77 -13 549 729 _sc
108 729 _m
495 729 _l
495 646 _l
198 646 _l
198 467 _l
212 472 227 476 241 478 _c
255 480 270 482 284 482 _c
365 482 429 459 477 415 _c
525 370 549 310 549 234 _c
549 155 524 94 475 51 _c
426 8 357 -13 269 -13 _c
238 -13 207 -10 175 -6 _c
143 -1 111 6 77 17 _c
77 116 _l
106 100 136 88 168 80 _c
199 72 232 69 267 69 _c
}_e{323 69 368 83 401 113 _c
433 143 450 183 450 234 _c
450 284 433 324 401 354 _c
368 384 323 399 267 399 _c
241 399 214 396 188 390 _c
162 384 135 375 108 363 _c
108 729 _l
_cl}_e}_d
/six{{636 0 70 -13 573 742 _sc
330 404 _m
286 404 251 388 225 358 _c
199 328 186 286 186 234 _c
186 181 199 139 225 109 _c
251 79 286 64 330 64 _c
374 64 409 79 435 109 _c
461 139 474 181 474 234 _c
474 286 461 328 435 358 _c
409 388 374 404 330 404 _c
526 713 _m
526 623 _l
501 635 476 644 451 650 _c
425 656 400 659 376 659 _c
310 659 260 637 226 593 _c
}_e{192 549 172 482 168 394 _c
187 422 211 444 240 459 _c
269 474 301 482 336 482 _c
409 482 467 459 509 415 _c
551 371 573 310 573 234 _c
573 159 550 99 506 54 _c
462 9 403 -13 330 -13 _c
246 -13 181 19 137 83 _c
92 147 70 241 70 364 _c
70 479 97 571 152 639 _c
206 707 280 742 372 742 _c
396 742 421 739 447 735 _c
472 730 498 723 526 713 _c
_cl}_e}_d
/seven{636 0 82 0 551 729 _sc
82 729 _m
551 729 _l
551 687 _l
286 0 _l
183 0 _l
432 646 _l
82 646 _l
82 729 _l
_cl}_d
/eight{{636 0 68 -13 568 742 _sc
318 346 _m
271 346 234 333 207 308 _c
180 283 167 249 167 205 _c
167 161 180 126 207 101 _c
234 76 271 64 318 64 _c
364 64 401 76 428 102 _c
455 127 469 161 469 205 _c
469 249 455 283 429 308 _c
402 333 365 346 318 346 _c
219 388 _m
177 398 144 418 120 447 _c
96 476 85 511 85 553 _c
85 611 105 657 147 691 _c
188 725 245 742 318 742 _c
}_e{390 742 447 725 489 691 _c
530 657 551 611 551 553 _c
551 511 539 476 515 447 _c
491 418 459 398 417 388 _c
464 377 501 355 528 323 _c
554 291 568 251 568 205 _c
568 134 546 80 503 43 _c
459 5 398 -13 318 -13 _c
237 -13 175 5 132 43 _c
89 80 68 134 68 205 _c
68 251 81 291 108 323 _c
134 355 171 377 219 388 _c
183 544 _m
183 506 194 476 218 455 _c
}_e{242 434 275 424 318 424 _c
360 424 393 434 417 455 _c
441 476 453 506 453 544 _c
453 582 441 611 417 632 _c
393 653 360 664 318 664 _c
275 664 242 653 218 632 _c
194 611 183 582 183 544 _c
_cl}_e}_d
/nine{{636 0 63 -13 566 742 _sc
110 15 _m
110 105 _l
134 93 159 84 185 78 _c
210 72 235 69 260 69 _c
324 69 374 90 408 134 _c
442 178 462 244 468 334 _c
448 306 424 284 396 269 _c
367 254 335 247 300 247 _c
226 247 168 269 126 313 _c
84 357 63 417 63 494 _c
63 568 85 628 129 674 _c
173 719 232 742 306 742 _c
390 742 455 709 499 645 _c
543 580 566 486 566 364 _c
}_e{566 248 538 157 484 89 _c
429 21 356 -13 264 -13 _c
239 -13 214 -10 189 -6 _c
163 -2 137 5 110 15 _c
306 324 _m
350 324 385 339 411 369 _c
437 399 450 441 450 494 _c
450 546 437 588 411 618 _c
385 648 350 664 306 664 _c
262 664 227 648 201 618 _c
175 588 162 546 162 494 _c
162 441 175 399 201 369 _c
227 339 262 324 306 324 _c
_cl}_e}_d
/B{{686 0 98 0 615 729 _sc
197 348 _m
197 81 _l
355 81 _l
408 81 447 92 473 114 _c
498 136 511 169 511 215 _c
511 260 498 293 473 315 _c
447 337 408 348 355 348 _c
197 348 _l
197 648 _m
197 428 _l
343 428 _l
391 428 426 437 450 455 _c
474 473 486 500 486 538 _c
486 574 474 602 450 620 _c
426 638 391 648 343 648 _c
197 648 _l
98 729 _m
350 729 _l
}_e{425 729 483 713 524 682 _c
564 650 585 606 585 549 _c
585 504 574 468 553 442 _c
532 416 502 399 462 393 _c
510 382 548 360 575 327 _c
601 294 615 253 615 204 _c
615 138 592 88 548 53 _c
504 17 441 0 360 0 _c
98 0 _l
98 729 _l
_cl}_e}_d
/E{632 0 98 0 568 729 _sc
98 729 _m
559 729 _l
559 646 _l
197 646 _l
197 430 _l
544 430 _l
544 347 _l
197 347 _l
197 83 _l
568 83 _l
568 0 _l
98 0 _l
98 729 _l
_cl}_d
/F{575 0 98 0 517 729 _sc
98 729 _m
517 729 _l
517 646 _l
197 646 _l
197 431 _l
486 431 _l
486 348 _l
197 348 _l
197 0 _l
98 0 _l
98 729 _l
_cl}_d
/M{863 0 98 0 765 729 _sc
98 729 _m
245 729 _l
431 233 _l
618 729 _l
765 729 _l
765 0 _l
669 0 _l
669 640 _l
481 140 _l
382 140 _l
194 640 _l
194 0 _l
98 0 _l
98 729 _l
_cl}_d
/S{{635 0 66 -13 579 742 _sc
535 705 _m
535 609 _l
497 627 462 640 429 649 _c
395 657 363 662 333 662 _c
279 662 237 651 208 631 _c
179 610 165 580 165 542 _c
165 510 174 485 194 469 _c
213 452 250 439 304 429 _c
364 417 _l
437 403 491 378 526 343 _c
561 307 579 260 579 201 _c
579 130 555 77 508 41 _c
460 5 391 -13 300 -13 _c
265 -13 228 -9 189 -2 _c
}_e{150 5 110 16 69 32 _c
69 134 _l
109 111 148 94 186 83 _c
224 71 262 66 300 66 _c
356 66 399 77 430 99 _c
460 121 476 152 476 194 _c
476 230 465 258 443 278 _c
421 298 385 313 335 323 _c
275 335 _l
201 349 148 372 115 404 _c
82 435 66 478 66 534 _c
66 598 88 649 134 686 _c
179 723 242 742 322 742 _c
356 742 390 739 426 733 _c
461 727 497 717 535 705 _c
}_e{_cl}_e}_d
/bracketleft{390 0 86 -131 293 760 _sc
86 760 _m
293 760 _l
293 690 _l
176 690 _l
176 -61 _l
293 -61 _l
293 -131 _l
86 -131 _l
86 760 _l
_cl}_d
/bracketright{390 0 97 -131 304 760 _sc
304 760 _m
304 -131 _l
97 -131 _l
97 -61 _l
214 -61 _l
214 690 _l
97 690 _l
97 760 _l
304 760 _l
_cl}_d
/a{{613 0 60 -13 522 560 _sc
343 275 _m
270 275 220 266 192 250 _c
164 233 150 205 150 165 _c
150 133 160 107 181 89 _c
202 70 231 61 267 61 _c
317 61 357 78 387 114 _c
417 149 432 196 432 255 _c
432 275 _l
343 275 _l
522 312 _m
522 0 _l
432 0 _l
432 83 _l
411 49 385 25 355 10 _c
325 -5 287 -13 243 -13 _c
187 -13 142 2 109 33 _c
76 64 60 106 60 159 _c
}_e{60 220 80 266 122 298 _c
163 329 224 345 306 345 _c
432 345 _l
432 354 _l
432 395 418 427 391 450 _c
364 472 326 484 277 484 _c
245 484 215 480 185 472 _c
155 464 127 453 100 439 _c
100 522 _l
132 534 164 544 195 550 _c
226 556 256 560 286 560 _c
365 560 424 539 463 498 _c
502 457 522 395 522 312 _c
_cl}_e}_d
/b{{635 0 91 -13 580 760 _sc
487 273 _m
487 339 473 390 446 428 _c
418 466 381 485 334 485 _c
286 485 249 466 222 428 _c
194 390 181 339 181 273 _c
181 207 194 155 222 117 _c
249 79 286 61 334 61 _c
381 61 418 79 446 117 _c
473 155 487 207 487 273 _c
181 464 _m
199 496 223 520 252 536 _c
281 552 316 560 356 560 _c
422 560 476 533 518 481 _c
559 428 580 359 580 273 _c
}_e{580 187 559 117 518 65 _c
476 13 422 -13 356 -13 _c
316 -13 281 -5 252 10 _c
223 25 199 49 181 82 _c
181 0 _l
91 0 _l
91 760 _l
181 760 _l
181 464 _l
_cl}_e}_d
/c{{550 0 55 -13 488 560 _sc
488 526 _m
488 442 _l
462 456 437 466 411 473 _c
385 480 360 484 334 484 _c
276 484 230 465 198 428 _c
166 391 150 339 150 273 _c
150 206 166 154 198 117 _c
230 80 276 62 334 62 _c
360 62 385 65 411 72 _c
437 79 462 90 488 104 _c
488 21 _l
462 9 436 0 410 -5 _c
383 -10 354 -13 324 -13 _c
242 -13 176 12 128 64 _c
}_e{79 115 55 185 55 273 _c
55 362 79 432 128 483 _c
177 534 244 560 330 560 _c
358 560 385 557 411 551 _c
437 545 463 537 488 526 _c
_cl}_e}_d
/d{{635 0 55 -13 544 760 _sc
454 464 _m
454 760 _l
544 760 _l
544 0 _l
454 0 _l
454 82 _l
435 49 411 25 382 10 _c
353 -5 319 -13 279 -13 _c
213 -13 159 13 117 65 _c
75 117 55 187 55 273 _c
55 359 75 428 117 481 _c
159 533 213 560 279 560 _c
319 560 353 552 382 536 _c
411 520 435 496 454 464 _c
148 273 _m
148 207 161 155 188 117 _c
215 79 253 61 301 61 _c
}_e{348 61 385 79 413 117 _c
440 155 454 207 454 273 _c
454 339 440 390 413 428 _c
385 466 348 485 301 485 _c
253 485 215 466 188 428 _c
161 390 148 339 148 273 _c
_cl}_e}_d
/e{{615 0 55 -13 562 560 _sc
562 296 _m
562 252 _l
149 252 _l
153 190 171 142 205 110 _c
238 78 284 62 344 62 _c
378 62 412 66 444 74 _c
476 82 509 95 541 113 _c
541 28 _l
509 14 476 3 442 -3 _c
408 -9 373 -13 339 -13 _c
251 -13 182 12 131 62 _c
80 112 55 181 55 268 _c
55 357 79 428 127 481 _c
175 533 241 560 323 560 _c
397 560 455 536 498 489 _c
}_e{540 441 562 377 562 296 _c
472 322 _m
471 371 457 410 431 440 _c
404 469 368 484 324 484 _c
274 484 234 469 204 441 _c
174 413 156 373 152 322 _c
472 322 _l
_cl}_e}_d
/g{{635 0 55 -207 544 560 _sc
454 280 _m
454 344 440 395 414 431 _c
387 467 349 485 301 485 _c
253 485 215 467 188 431 _c
161 395 148 344 148 280 _c
148 215 161 165 188 129 _c
215 93 253 75 301 75 _c
349 75 387 93 414 129 _c
440 165 454 215 454 280 _c
544 68 _m
544 -24 523 -93 482 -139 _c
440 -184 377 -207 292 -207 _c
260 -207 231 -204 203 -200 _c
175 -195 147 -188 121 -178 _c
}_e{121 -91 _l
147 -105 173 -115 199 -122 _c
225 -129 251 -133 278 -133 _c
336 -133 380 -117 410 -87 _c
439 -56 454 -10 454 52 _c
454 96 _l
435 64 411 40 382 24 _c
353 8 319 0 279 0 _c
211 0 157 25 116 76 _c
75 127 55 195 55 280 _c
55 364 75 432 116 483 _c
157 534 211 560 279 560 _c
319 560 353 552 382 536 _c
411 520 435 496 454 464 _c
454 547 _l
544 547 _l
}_e{544 68 _l
_cl}_e}_d
/h{634 0 91 0 549 760 _sc
549 330 _m
549 0 _l
459 0 _l
459 327 _l
459 379 448 417 428 443 _c
408 469 378 482 338 482 _c
289 482 251 466 223 435 _c
195 404 181 362 181 309 _c
181 0 _l
91 0 _l
91 760 _l
181 760 _l
181 462 _l
202 494 227 519 257 535 _c
286 551 320 560 358 560 _c
420 560 468 540 500 501 _c
532 462 549 405 549 330 _c
_cl}_d
/i{278 0 94 0 184 760 _sc
94 547 _m
184 547 _l
184 0 _l
94 0 _l
94 547 _l
94 760 _m
184 760 _l
184 646 _l
94 646 _l
94 760 _l
_cl}_d
/m{{974 0 91 0 889 560 _sc
520 442 _m
542 482 569 511 600 531 _c
631 550 668 560 711 560 _c
767 560 811 540 842 500 _c
873 460 889 403 889 330 _c
889 0 _l
799 0 _l
799 327 _l
799 379 789 418 771 444 _c
752 469 724 482 686 482 _c
639 482 602 466 575 435 _c
548 404 535 362 535 309 _c
535 0 _l
445 0 _l
445 327 _l
445 379 435 418 417 444 _c
398 469 369 482 331 482 _c
}_e{285 482 248 466 221 435 _c
194 404 181 362 181 309 _c
181 0 _l
91 0 _l
91 547 _l
181 547 _l
181 462 _l
201 495 226 520 255 536 _c
283 552 317 560 357 560 _c
397 560 430 550 458 530 _c
486 510 506 480 520 442 _c
_cl}_e}_d
/n{634 0 91 0 549 560 _sc
549 330 _m
549 0 _l
459 0 _l
459 327 _l
459 379 448 417 428 443 _c
408 469 378 482 338 482 _c
289 482 251 466 223 435 _c
195 404 181 362 181 309 _c
181 0 _l
91 0 _l
91 547 _l
181 547 _l
181 462 _l
202 494 227 519 257 535 _c
286 551 320 560 358 560 _c
420 560 468 540 500 501 _c
532 462 549 405 549 330 _c
_cl}_d
/r{411 0 91 0 411 560 _sc
411 463 _m
401 469 390 473 378 476 _c
366 478 353 480 339 480 _c
288 480 249 463 222 430 _c
194 397 181 350 181 288 _c
181 0 _l
91 0 _l
91 547 _l
181 547 _l
181 462 _l
199 495 224 520 254 536 _c
284 552 321 560 365 560 _c
371 560 378 559 386 559 _c
393 558 401 557 411 555 _c
411 463 _l
_cl}_d
/t{392 0 27 0 368 702 _sc
183 702 _m
183 547 _l
368 547 _l
368 477 _l
183 477 _l
183 180 _l
183 135 189 106 201 94 _c
213 81 238 75 276 75 _c
368 75 _l
368 0 _l
276 0 _l
206 0 158 13 132 39 _c
106 65 93 112 93 180 _c
93 477 _l
27 477 _l
27 547 _l
93 547 _l
93 702 _l
183 702 _l
_cl}_d
/u{634 0 85 -13 543 547 _sc
85 216 _m
85 547 _l
175 547 _l
175 219 _l
175 167 185 129 205 103 _c
225 77 255 64 296 64 _c
344 64 383 79 411 110 _c
439 141 453 183 453 237 _c
453 547 _l
543 547 _l
543 0 _l
453 0 _l
453 84 _l
431 50 405 26 377 10 _c
348 -5 315 -13 277 -13 _c
214 -13 166 6 134 45 _c
101 83 85 140 85 216 _c
_cl}_d
/x{592 0 29 0 559 547 _sc
549 547 _m
351 281 _l
559 0 _l
453 0 _l
294 215 _l
135 0 _l
29 0 _l
241 286 _l
47 547 _l
153 547 _l
298 352 _l
443 547 _l
549 547 _l
_cl}_d
end readonly def

/BuildGlyph
 {exch begin
 CharStrings exch
 2 copy known not{pop /.notdef}if
 true 3 1 roll get exec
 end}_d

/BuildChar {
 1 index /Encoding get exch get
 1 index /BuildGlyph get exec
}_d

FontName currentdict end definefont pop
end
%%EndProlog
mpldict begin
18 180 translate
576 432 0 0 clipbox
100000 setmiterlimit
gsave
0 0 m
576 0 l
576 432 l
0 432 l
cl
1.000 setgray
fill
grestore
gsave
72 231.709091 m
518.4 231.709091 l
518.4 388.8 l
72 388.8 l
cl
1.000 setgray
fill
grestore
1.000 setlinewidth
0 setlinejoin
0 setlinecap
[] 0 setdash
0.950 setgray
gsave
131.177218 266.420646 m
258.939234 304.935777 l
256.812132 378.531872 l
121.926546 343.926818 l
gsave
fill
grestore
stroke
grestore
0.900 setgray
gsave
258.939234 304.935777 m
465.901687 283.403333 l
474.560748 359.218688 l
256.812132 378.531872 l
gsave
fill
grestore
stroke
grestore
0.925 setgray
gsave
131.177218 266.420646 m
348.929684 241.342606 l
465.901687 283.403333 l
258.939234 304.935777 l
gsave
fill
grestore
stroke
grestore
0.750 setlinewidth
1 setlinejoin
2 setlinecap
0.000 setgray
gsave
131.177218 266.420646 m
348.929684 241.342606 l
stroke
grestore
/BitstreamVeraSans-Roman findfont
12.000 scalefont
setfont
gsave
178.417999 235.577139 translate
353.430324 rotate
0.000000 0.000000 m /F glyphshow
6.902344 0.000000 m /r glyphshow
11.835938 0.000000 m /a glyphshow
19.189453 0.000000 m /m glyphshow
30.878906 0.000000 m /e glyphshow
38.261719 0.000000 m /space glyphshow
42.076172 0.000000 m /i glyphshow
45.410156 0.000000 m /n glyphshow
53.015625 0.000000 m /d glyphshow
60.632812 0.000000 m /e glyphshow
68.015625 0.000000 m /x glyphshow
grestore
1.000 setlinewidth
0 setlinecap
0.900 setgray
gsave
135.341407 265.941066 m
262.91012 304.522645 l
260.98105 378.16211 l
stroke
grestore
gsave
160.483807 263.045475 m
286.874573 302.029375 l
286.148026 375.929929 l
stroke
grestore
gsave
185.898981 260.118469 m
311.080141 299.511019 l
311.581097 373.674146 l
stroke
grestore
gsave
211.591391 257.159534 m
335.530482 296.967198 l
337.284506 371.394386 l
stroke
grestore
gsave
237.565599 254.168146 m
360.229327 294.397521 l
363.262586 369.090263 l
stroke
grestore
gsave
263.826267 251.143767 m
385.180483 291.801595 l
389.519764 366.761387 l
stroke
grestore
gsave
290.378159 248.085848 m
410.387838 289.179013 l
416.060561 364.407354 l
stroke
grestore
gsave
317.226148 244.993828 m
435.855357 286.529364 l
442.889598 362.027757 l
stroke
grestore
gsave
344.375213 241.867134 m
461.587089 283.852225 l
470.011596 359.622175 l
stroke
grestore
2 setlinecap
0.000 setgray
gsave
136.440324 266.27342 m
133.139482 265.275121 l
stroke
grestore
gsave
121.660658 248.008746 translate
0.000000 rotate
0.000000 0.000000 m /zero glyphshow
grestore
gsave
161.572996 263.381423 m
158.301354 262.37232 l
stroke
grestore
gsave
146.799685 245.059792 translate
0.000000 rotate
0.000000 0.000000 m /five glyphshow
grestore
gsave
186.978165 260.458071 m
183.736553 259.437987 l
stroke
grestore
gsave
168.391681 242.078780 translate
0.000000 rotate
0.000000 0.000000 m /one glyphshow
7.634766 0.000000 m /zero glyphshow
grestore
gsave
212.660287 257.50285 m
209.449556 256.471604 l
stroke
grestore
gsave
194.081752 239.065186 translate
0.000000 rotate
0.000000 0.000000 m /one glyphshow
7.634766 0.000000 m /five glyphshow
grestore
gsave
238.623915 254.515236 m
235.444941 253.472645 l
stroke
grestore
gsave
220.054163 236.018471 translate
0.000000 rotate
0.000000 0.000000 m /two glyphshow
7.634766 0.000000 m /zero glyphshow
grestore
gsave
264.873705 251.494694 m
261.727385 250.440569 l
stroke
grestore
gsave
246.313596 232.938086 translate
0.000000 rotate
0.000000 0.000000 m /two glyphshow
7.634766 0.000000 m /five glyphshow
grestore
gsave
291.414412 248.440676 m
288.301669 247.374825 l
stroke
grestore
gsave
272.864834 229.823471 translate
0.000000 rotate
0.000000 0.000000 m /three glyphshow
7.634766 0.000000 m /zero glyphshow
grestore
gsave
318.2509 245.352623 m
315.17268 244.274849 l
stroke
grestore
gsave
299.712768 226.674052 translate
0.000000 rotate
0.000000 0.000000 m /three glyphshow
7.634766 0.000000 m /five glyphshow
grestore
gsave
345.388141 242.229963 m
342.345417 241.140065 l
stroke
grestore
gsave
326.862401 223.489243 translate
0.000000 rotate
0.000000 0.000000 m /four glyphshow
7.634766 0.000000 m /zero glyphshow
grestore
0.750 setlinewidth
gsave
465.901687 283.403333 m
348.929684 241.342606 l
stroke
grestore
gsave
399.850912 227.089102 translate
19.777542 rotate
0.000000 0.000000 m /S glyphshow
7.617188 0.000000 m /u glyphshow
15.222656 0.000000 m /b glyphshow
22.839844 0.000000 m /c glyphshow
29.437500 0.000000 m /a glyphshow
36.791016 0.000000 m /r glyphshow
41.724609 0.000000 m /r glyphshow
46.658203 0.000000 m /i glyphshow
49.992188 0.000000 m /e glyphshow
57.375000 0.000000 m /r glyphshow
62.308594 0.000000 m /space glyphshow
66.123047 0.000000 m /i glyphshow
69.457031 0.000000 m /n glyphshow
77.062500 0.000000 m /d glyphshow
84.679688 0.000000 m /e glyphshow
92.062500 0.000000 m /x glyphshow
grestore
1.000 setlinewidth
0 setlinecap
0.900 setgray
gsave
124.83963 344.674173 m
133.925947 267.249277 l
351.454544 242.250494 l
stroke
grestore
gsave
147.806962 350.566469 m
155.613677 273.787259 l
371.363131 249.409212 l
stroke
grestore
gsave
170.190782 356.309064 m
176.778102 280.167486 l
390.769477 256.387335 l
stroke
grestore
gsave
192.013047 361.907591 m
197.437937 286.395599 l
409.692352 263.191612 l
stroke
grestore
gsave
213.294627 367.367406 m
217.611014 292.476974 l
428.1496 269.828459 l
stroke
grestore
gsave
234.055372 372.693599 m
237.314336 298.416736 l
446.158198 276.30398 l
stroke
grestore
gsave
254.31417 377.891017 m
256.564121 304.219776 l
463.734308 282.623988 l
stroke
grestore
2 setlinecap
0.000 setgray
gsave
349.633738 242.459744 m
355.10024 241.831524 l
stroke
grestore
gsave
364.803122 225.365630 translate
0.000000 rotate
0.000000 0.000000 m /zero glyphshow
grestore
gsave
369.558238 249.613152 m
374.976914 249.000882 l
stroke
grestore
gsave
380.661352 232.619529 translate
0.000000 rotate
0.000000 0.000000 m /one glyphshow
7.634766 0.000000 m /zero glyphshow
grestore
gsave
388.980278 256.586163 m
394.351787 255.989245 l
stroke
grestore
gsave
399.843725 239.690530 translate
0.000000 rotate
0.000000 0.000000 m /two glyphshow
7.634766 0.000000 m /zero glyphshow
grestore
gsave
407.91863 263.385518 m
413.243626 262.803381 l
stroke
grestore
gsave
418.548458 246.585465 translate
0.000000 rotate
0.000000 0.000000 m /three glyphshow
7.634766 0.000000 m /zero glyphshow
grestore
gsave
426.39114 270.017624 m
431.67027 269.449726 l
stroke
grestore
gsave
436.793174 253.310827 translate
0.000000 rotate
0.000000 0.000000 m /four glyphshow
7.634766 0.000000 m /zero glyphshow
grestore
gsave
444.414786 276.488576 m
449.648694 275.9344 l
stroke
grestore
gsave
454.594636 259.872797 translate
0.000000 rotate
0.000000 0.000000 m /five glyphshow
7.634766 0.000000 m /zero glyphshow
grestore
gsave
462.005733 282.804178 m
467.195055 282.263234 l
stroke
grestore
gsave
471.968804 266.277259 translate
0.000000 rotate
0.000000 0.000000 m /six glyphshow
7.634766 0.000000 m /zero glyphshow
grestore
0.750 setlinewidth
gsave
465.901687 283.403333 m
474.560748 359.218688 l
stroke
grestore
gsave
522.833652 276.513032 translate
83.484339 rotate
0.000000 0.000000 m /M glyphshow
10.353516 0.000000 m /a glyphshow
17.707031 0.000000 m /g glyphshow
25.324219 0.000000 m /n glyphshow
32.929688 0.000000 m /i glyphshow
36.263672 0.000000 m /t glyphshow
40.968750 0.000000 m /u glyphshow
48.574219 0.000000 m /d glyphshow
56.191406 0.000000 m /e glyphshow
63.574219 0.000000 m /space glyphshow
67.388672 0.000000 m /bracketleft glyphshow
72.070312 0.000000 m /d glyphshow
79.687500 0.000000 m /B glyphshow
87.919922 0.000000 m /bracketright glyphshow
grestore
1.000 setlinewidth
0 setlinecap
0.900 setgray
gsave
466.066381 284.84533 m
258.89869 306.338558 l
131.001569 267.892314 l
stroke
grestore
gsave
467.061506 293.55825 m
258.653786 314.812052 l
129.940004 276.786568 l
stroke
grestore
gsave
468.068718 302.377011 m
258.406032 323.384155 l
128.865116 285.792447 l
stroke
grestore
gsave
469.088241 311.303553 m
258.155377 332.056601 l
127.776653 294.912067 l
stroke
grestore
gsave
470.120301 320.339865 m
257.901772 340.83116 l
126.674356 304.147596 l
stroke
grestore
gsave
471.16513 329.487984 m
257.645162 349.709647 l
125.557959 313.501257 l
stroke
grestore
gsave
472.222968 338.749997 m
257.385496 358.693919 l
124.42719 322.975333 l
stroke
grestore
gsave
473.294058 348.128046 m
257.122716 367.785879 l
123.28177 332.572162 l
stroke
grestore
gsave
474.378652 357.624324 m
256.856768 376.987474 l
122.121412 342.294147 l
stroke
grestore
2 setlinecap
0.000 setgray
gsave
464.337863 285.02466 m
469.527014 284.486296 l
stroke
grestore
gsave
486.959262 276.970724 translate
0.000000 rotate
0.000000 0.000000 m /eight glyphshow
grestore
gsave
465.322209 293.735627 m
470.543739 293.203125 l
stroke
grestore
gsave
484.280491 285.670007 translate
0.000000 rotate
0.000000 0.000000 m /one glyphshow
7.634766 0.000000 m /zero glyphshow
grestore
gsave
466.318508 302.552373 m
471.572824 302.025917 l
stroke
grestore
gsave
485.435865 294.474707 translate
0.000000 rotate
0.000000 0.000000 m /one glyphshow
7.634766 0.000000 m /two glyphshow
grestore
gsave
467.326979 311.476838 m
472.614495 310.956616 l
stroke
grestore
gsave
486.605325 303.386752 translate
0.000000 rotate
0.000000 0.000000 m /one glyphshow
7.634766 0.000000 m /four glyphshow
grestore
gsave
468.347848 320.511009 m
473.668985 319.997213 l
stroke
grestore
gsave
487.789131 312.408117 translate
0.000000 rotate
0.000000 0.000000 m /one glyphshow
7.634766 0.000000 m /six glyphshow
grestore
gsave
469.381343 329.656919 m
474.736531 329.14975 l
stroke
grestore
gsave
488.987547 321.540826 translate
0.000000 rotate
0.000000 0.000000 m /one glyphshow
7.634766 0.000000 m /eight glyphshow
grestore
gsave
470.4277 338.916656 m
475.817377 338.416319 l
stroke
grestore
gsave
490.200847 330.786953 translate
0.000000 rotate
0.000000 0.000000 m /two glyphshow
7.634766 0.000000 m /zero glyphshow
grestore
gsave
471.487162 348.292358 m
476.911775 347.799064 l
stroke
grestore
gsave
491.429308 340.148624 translate
0.000000 rotate
0.000000 0.000000 m /two glyphshow
7.634766 0.000000 m /two glyphshow
grestore
gsave
472.559975 357.786217 m
478.01998 357.300183 l
stroke
grestore
gsave
492.673217 349.628019 translate
0.000000 rotate
0.000000 0.000000 m /two glyphshow
7.634766 0.000000 m /four glyphshow
grestore
0 setlinecap
gsave
446.4 157.1 72 231.7 clipbox
238.537798 365.600209 m
243.731845 360.946535 l
249.247731 346.48252 l
254.13337 349.56884 l
259.469993 337.720861 l
264.295263 344.020684 l
268.998321 358.693898 l
274.351622 343.297688 l
279.076757 364.944791 l
284.533482 335.422323 l
289.563283 336.881737 l
291.530506 336.77781 l
293.498268 335.312469 l
295.449412 335.547384 l
297.402809 332.741107 l
299.341277 331.113263 l
294.349944 329.170129 l
289.140936 357.86347 l
284.305894 337.764438 l
279.110288 352.369258 l
274.361344 337.462956 l
269.534386 331.503368 l
264.320709 343.425242 l
259.480427 339.610024 l
254.113832 353.920242 l
248.997673 358.619695 l
246.871778 361.528722 l
244.807974 362.384418 l
242.71479 363.779258 l
240.601177 365.432631 l
238.537798 365.600209 l
cl
gsave
0.963 0.754 0.656 setrgbcolor
fill
grestore
stroke
grestore
gsave
446.4 157.1 72 231.7 clipbox
289.563283 336.881737 m
294.625182 336.460807 l
299.684801 349.095652 l
304.828263 354.92243 l
309.890108 337.324119 l
315.222059 360.573751 l
320.295184 349.6028 l
325.472844 348.924819 l
330.547921 342.494388 l
335.956727 351.883098 l
340.957555 342.843988 l
342.867475 342.513497 l
344.771963 342.237482 l
346.637293 340.894362 l
348.491546 339.501586 l
350.294759 336.845552 l
345.390036 345.524007 l
339.997699 337.144955 l
334.991142 342.727713 l
329.856698 342.865403 l
324.908269 354.042668 l
319.47013 330.307396 l
314.577158 348.338839 l
309.447008 342.803061 l
304.355644 331.283199 l
299.341277 331.113263 l
297.402809 332.741107 l
295.449412 335.547384 l
293.498268 335.312469 l
291.530506 336.77781 l
289.563283 336.881737 l
cl
gsave
0.941 0.806 0.735 setrgbcolor
fill
grestore
stroke
grestore
gsave
446.4 157.1 72 231.7 clipbox
218.028764 357.969292 m
223.33983 352.782454 l
229.061379 338.652993 l
233.940209 341.511812 l
239.452787 329.90045 l
244.237481 335.689015 l
248.771188 350.218622 l
254.309417 336.327939 l
258.805731 356.790583 l
264.670066 327.877448 l
269.694107 329.993486 l
271.703851 330.572613 l
273.723101 330.369732 l
275.699183 332.276455 l
277.697759 332.674214 l
279.677534 334.002408 l
281.662573 334.711563 l
283.642638 335.462152 l
285.621401 335.920476 l
287.589538 336.983803 l
289.563283 336.881737 l
284.533482 335.422323 l
279.076757 364.944791 l
274.351622 343.297688 l
268.998321 358.693898 l
264.295263 344.020684 l
259.469993 337.720861 l
254.13337 349.56884 l
249.247731 346.48252 l
243.731845 360.946535 l
238.537798 365.600209 l
236.504654 364.893472 l
234.459594 364.354122 l
232.420056 363.580888 l
230.34679 363.436489 l
228.30615 362.482711 l
226.234251 362.081872 l
224.20137 360.802446 l
222.144942 359.915053 l
220.075703 359.188161 l
218.028764 357.969292 l
cl
gsave
0.912 0.470 0.367 setrgbcolor
fill
grestore
stroke
grestore
gsave
446.4 157.1 72 231.7 clipbox
269.694107 329.993486 m
274.813968 328.33147 l
279.723268 341.55449 l
284.821136 347.137986 l
290.147696 329.149599 l
295.197395 353.000528 l
300.445627 341.482425 l
305.663203 341.694918 l
310.852384 334.976364 l
316.165411 343.953504 l
321.317183 335.153027 l
323.316893 337.007942 l
325.292344 337.451795 l
327.281982 339.013351 l
329.250144 339.550119 l
331.220954 340.467566 l
333.169509 340.526185 l
335.147283 342.150082 l
337.106527 343.085919 l
339.023631 342.501039 l
340.957555 342.843988 l
335.956727 351.883098 l
330.547921 342.494388 l
325.472844 348.924819 l
320.295184 349.6028 l
315.222059 360.573751 l
309.890108 337.324119 l
304.828263 354.92243 l
299.684801 349.095652 l
294.625182 336.460807 l
289.563283 336.881737 l
287.589538 336.983803 l
285.621401 335.920476 l
283.642638 335.462152 l
281.662573 334.711563 l
279.677534 334.002408 l
277.697759 332.674214 l
275.699183 332.276455 l
273.723101 330.369732 l
271.703851 330.572613 l
269.694107 329.993486 l
cl
gsave
0.968 0.663 0.544 setrgbcolor
fill
grestore
stroke
grestore
gsave
446.4 157.1 72 231.7 clipbox
197.299628 346.840147 m
202.681896 341.902625 l
208.612942 327.853451 l
213.434702 331.255822 l
219.133709 319.536518 l
223.87633 324.901778 l
228.200301 339.897556 l
233.968422 325.609682 l
238.193854 346.150115 l
244.529881 315.862874 l
249.514518 318.627271 l
251.557412 319.49882 l
253.582902 320.775619 l
255.617641 321.648582 l
257.638096 322.860592 l
259.64761 324.343454 l
261.678162 324.940601 l
263.704179 325.519165 l
265.711077 326.686691 l
267.702949 328.369852 l
269.694107 329.993486 l
264.670066 327.877448 l
258.805731 356.790583 l
254.309417 336.327939 l
248.771188 350.218622 l
244.237481 335.689015 l
239.452787 329.90045 l
233.940209 341.511812 l
229.061379 338.652993 l
223.33983 352.782454 l
218.028764 357.969292 l
215.959668 357.084748 l
213.921555 355.588468 l
211.811822 355.26055 l
209.763 353.827986 l
207.658882 353.243334 l
205.574461 352.265033 l
203.500452 351.062104 l
201.460185 349.296243 l
199.362539 348.350736 l
197.299628 346.840147 l
cl
gsave
0.958 0.771 0.680 setrgbcolor
fill
grestore
stroke
grestore
gsave
446.4 157.1 72 231.7 clipbox
340.957555 342.843988 m
346.634025 357.981669 l
351.858257 355.994076 l
357.01578 352.174754 l
361.801252 339.449569 l
367.589796 351.242091 l
372.545705 343.434661 l
378.362795 353.293767 l
383.788965 354.432204 l
388.376379 340.741276 l
393.541697 337.753401 l
395.40991 337.9866 l
397.224281 337.465999 l
398.984988 336.236454 l
400.682683 334.19629 l
402.337661 331.687808 l
397.229461 334.470631 l
392.773175 348.061932 l
387.382348 346.74333 l
381.564577 337.027818 l
376.710015 344.84348 l
370.152041 317.050475 l
366.270055 346.34355 l
361.170845 349.77845 l
355.985843 351.104785 l
350.294759 336.845552 l
348.491546 339.501586 l
346.637293 340.894362 l
344.771963 342.237482 l
342.867475 342.513497 l
340.957555 342.843988 l
cl
gsave
0.839 0.322 0.265 setrgbcolor
fill
grestore
stroke
grestore
gsave
446.4 157.1 72 231.7 clipbox
393.541697 337.753401 m
398.18572 326.874766 l
404.896786 346.924427 l
410.165466 344.868715 l
413.592345 318.594668 l
419.712182 328.304179 l
425.884743 337.617154 l
431.356025 337.908885 l
435.523893 323.620822 l
437.34556 324.006512 l
438.953521 322.148193 l
440.612655 320.942472 l
442.366143 320.816891 l
443.875516 318.22736 l
439.743147 331.421982 l
434.307361 330.928292 l
428.184684 322.204223 l
422.110809 313.124976 l
418.822027 338.47762 l
413.673928 341.254016 l
406.860039 320.770056 l
402.337661 331.687808 l
400.682683 334.19629 l
398.984988 336.236454 l
397.224281 337.465999 l
395.40991 337.9866 l
393.541697 337.753401 l
cl
gsave
0.855 0.864 0.877 setrgbcolor
fill
grestore
stroke
grestore
gsave
446.4 157.1 72 231.7 clipbox
176.167836 335.957872 m
181.599237 331.493377 l
187.833491 316.381115 l
192.627843 319.658265 l
198.60233 306.616098 l
203.19839 313.138182 l
207.275771 328.810209 l
213.268951 314.461552 l
217.291084 333.64405 l
224.058216 303.628479 l
228.961416 307.481076 l
231.041229 308.441496 l
233.13274 309.057158 l
235.161145 310.95894 l
237.321658 309.790186 l
239.327418 312.051818 l
241.368277 313.438275 l
243.419818 314.476572 l
245.444482 316.120708 l
247.50487 316.72295 l
249.514518 318.627271 l
244.529881 315.862874 l
238.193854 346.150115 l
233.968422 325.609682 l
228.200301 339.897556 l
223.87633 324.901778 l
219.133709 319.536518 l
213.434702 331.255822 l
208.612942 327.853451 l
202.681896 341.902625 l
197.299628 346.840147 l
195.150024 346.521477 l
193.067 345.191992 l
191.00836 343.486243 l
188.872617 342.781874 l
186.806864 341.09366 l
184.6718 340.267945 l
182.577747 338.864455 l
180.386751 338.623531 l
178.302134 337.008853 l
176.167836 335.957872 l
cl
gsave
0.673 0.783 0.992 setrgbcolor
fill
grestore
stroke
grestore
gsave
446.4 157.1 72 231.7 clipbox
249.514518 318.627271 m
254.658009 317.422489 l
259.390504 331.069243 l
264.428416 336.75716 l
270.020841 318.779906 l
274.777968 341.891615 l
280.196867 330.68044 l
285.425613 331.384629 l
290.732745 323.852014 l
295.942896 332.909567 l
301.232432 324.610828 l
303.257468 325.250428 l
305.279167 326.49465 l
307.298643 328.007679 l
309.314236 329.28043 l
311.323649 330.115293 l
313.329726 331.077695 l
315.33021 331.872573 l
317.330229 333.035283 l
319.330969 334.540935 l
321.317183 335.153027 l
316.165411 343.953504 l
310.852384 334.976364 l
305.663203 341.694918 l
300.445627 341.482425 l
295.197395 353.000528 l
290.147696 329.149599 l
284.821136 347.137986 l
279.723268 341.55449 l
274.813968 328.33147 l
269.694107 329.993486 l
267.702949 328.369852 l
265.711077 326.686691 l
263.704179 325.519165 l
261.678162 324.940601 l
259.64761 324.343454 l
257.638096 322.860592 l
255.617641 321.648582 l
253.582902 320.775619 l
251.557412 319.49882 l
249.514518 318.627271 l
cl
gsave
0.876 0.860 0.851 setrgbcolor
fill
grestore
stroke
grestore
gsave
446.4 157.1 72 231.7 clipbox
321.317183 335.153027 m
326.832645 350.555625 l
332.117301 348.662861 l
337.354403 344.716925 l
341.603422 305.407964 l
347.986487 343.127954 l
353.092946 335.87879 l
358.784674 344.87052 l
364.25214 346.598525 l
369.051874 333.027808 l
374.293271 330.133475 l
376.230424 330.754288 l
378.196802 332.032705 l
380.136683 332.867725 l
382.094422 334.108897 l
384.022763 334.875716 l
385.947 335.645619 l
387.889616 336.805968 l
389.750713 336.644416 l
391.690196 337.887528 l
393.541697 337.753401 l
388.376379 340.741276 l
383.788965 354.432204 l
378.362795 353.293767 l
372.545705 343.434661 l
367.589796 351.242091 l
361.801252 339.449569 l
357.01578 352.174754 l
351.858257 355.994076 l
346.634025 357.981669 l
340.957555 342.843988 l
339.023631 342.501039 l
337.106527 343.085919 l
335.147283 342.150082 l
333.169509 340.526185 l
331.220954 340.467566 l
329.250144 339.550119 l
327.281982 339.013351 l
325.292344 337.451795 l
323.316893 337.007942 l
321.317183 335.153027 l
cl
gsave
0.706 0.016 0.150 setrgbcolor
fill
grestore
stroke
grestore
gsave
446.4 157.1 72 231.7 clipbox
228.961416 307.481076 m
234.094954 307.215261 l
238.73304 318.968036 l
243.714136 324.392373 l
249.51949 307.957163 l
253.972988 330.942502 l
259.584994 319.14557 l
264.840737 319.033062 l
270.258595 311.916913 l
275.371164 320.228422 l
280.77936 312.675767 l
282.840336 313.914801 l
284.898664 315.074393 l
286.949054 316.668044 l
289.006782 317.074282 l
291.056119 317.856796 l
293.09885 318.981239 l
295.136394 320.453725 l
297.169826 322.413558 l
299.203803 322.937282 l
301.232432 324.610828 l
295.942896 332.909567 l
290.732745 323.852014 l
285.425613 331.384629 l
280.196867 330.68044 l
274.777968 341.891615 l
270.020841 318.779906 l
264.428416 336.75716 l
259.390504 331.069243 l
254.658009 317.422489 l
249.514518 318.627271 l
247.50487 316.72295 l
245.444482 316.120708 l
243.419818 314.476572 l
241.368277 313.438275 l
239.327418 312.051818 l
237.321658 309.790186 l
235.161145 310.95894 l
233.13274 309.057158 l
231.041229 308.441496 l
228.961416 307.481076 l
cl
gsave
0.527 0.665 0.989 setrgbcolor
fill
grestore
stroke
grestore
gsave
446.4 157.1 72 231.7 clipbox
374.293271 330.133475 m
379.125965 319.58733 l
385.636519 339.90845 l
390.90579 336.806663 l
394.728212 311.072768 l
400.754589 320.658364 l
406.822206 329.612527 l
412.379097 330.629137 l
416.74255 316.111765 l
418.628918 316.726409 l
420.49445 317.140611 l
422.427441 318.439068 l
424.29318 318.964993 l
426.190969 319.926699 l
428.113368 321.21846 l
430.006332 322.204785 l
431.942153 323.717857 l
433.734742 323.654631 l
435.523893 323.620822 l
431.356025 337.908885 l
425.884743 337.617154 l
419.712182 328.304179 l
413.592345 318.594668 l
410.165466 344.868715 l
404.896786 346.924427 l
398.18572 326.874766 l
393.541697 337.753401 l
391.690196 337.887528 l
389.750713 336.644416 l
387.889616 336.805968 l
385.947 335.645619 l
384.022763 334.875716 l
382.094422 334.108897 l
380.136683 332.867725 l
378.196802 332.032705 l
376.230424 330.754288 l
374.293271 330.133475 l
cl
gsave
0.961 0.763 0.668 setrgbcolor
fill
grestore
stroke
grestore
gsave
446.4 157.1 72 231.7 clipbox
154.208393 329.315293 m
159.590058 326.387325 l
166.077014 311.382089 l
170.995733 313.093838 l
177.088636 301.312607 l
181.494214 309.394961 l
185.567294 322.644752 l
191.915959 306.834219 l
195.511028 328.404691 l
202.783158 298.041739 l
207.821973 299.435778 l
209.898323 301.19573 l
212.052664 301.643771 l
214.245391 301.346292 l
216.269468 303.809713 l
218.444163 303.613135 l
220.639558 302.898772 l
222.716845 304.210558 l
224.826728 304.833855 l
226.987202 304.355029 l
228.961416 307.481076 l
224.058216 303.628479 l
217.291084 333.64405 l
213.268951 314.461552 l
207.275771 328.810209 l
203.19839 313.138182 l
198.60233 306.616098 l
192.627843 319.658265 l
187.833491 316.381115 l
181.599237 331.493377 l
176.167836 335.957872 l
174.059744 334.549982 l
171.856852 334.199452 l
169.725476 332.966009 l
167.553327 332.145812 l
165.29753 332.188244 l
163.097027 331.552096 l
160.872761 331.108775 l
158.624861 330.847427 l
156.293034 331.37885 l
154.208393 329.315293 l
cl
gsave
0.468 0.606 0.969 setrgbcolor
fill
grestore
stroke
grestore
gsave
446.4 157.1 72 231.7 clipbox
301.232432 324.610828 m
306.561307 339.669419 l
311.894589 338.122525 l
317.203237 333.860512 l
321.942201 290.787376 l
327.904594 332.561207 l
333.115405 324.64343 l
338.732556 334.559854 l
344.187045 335.768511 l
349.184924 322.118551 l
354.467089 318.68026 l
356.483629 320.309288 l
358.446117 320.600318 l
360.463889 322.418459 l
362.462743 323.821471 l
364.423165 324.389407 l
366.446777 326.51008 l
368.409601 327.307358 l
370.33972 327.495354 l
372.304037 328.522596 l
374.293271 330.133475 l
369.051874 333.027808 l
364.25214 346.598525 l
358.784674 344.87052 l
353.092946 335.87879 l
347.986487 343.127954 l
341.603422 305.407964 l
337.354403 344.716925 l
332.117301 348.662861 l
326.832645 350.555625 l
321.317183 335.153027 l
319.330969 334.540935 l
317.330229 333.035283 l
315.33021 331.872573 l
313.329726 331.077695 l
311.323649 330.115293 l
309.314236 329.28043 l
307.298643 328.007679 l
305.279167 326.49465 l
303.257468 325.250428 l
301.232432 324.610828 l
cl
gsave
0.949 0.572 0.453 setrgbcolor
fill
grestore
stroke
grestore
gsave
446.4 157.1 72 231.7 clipbox
207.821973 299.435778 m
212.958456 299.628848 l
217.274967 314.497286 l
222.300664 318.359412 l
228.44144 300.73166 l
232.568526 324.199614 l
238.301269 314.389699 l
243.719515 311.217479 l
249.148548 307.541501 l
254.183361 315.880208 l
259.781878 306.988737 l
261.922767 306.966955 l
264.054446 307.015763 l
266.160819 307.82254 l
268.279206 307.874602 l
270.361139 309.322427 l
272.461455 309.67652 l
274.576287 308.892164 l
276.63611 310.83328 l
278.724658 310.795757 l
280.77936 312.675767 l
275.371164 320.228422 l
270.258595 311.916913 l
264.840737 319.033062 l
259.584994 319.14557 l
253.972988 330.942502 l
249.51949 307.957163 l
243.714136 324.392373 l
238.73304 318.968036 l
234.094954 307.215261 l
228.961416 307.481076 l
226.987202 304.355029 l
224.826728 304.833855 l
222.716845 304.210558 l
220.639558 302.898772 l
218.444163 303.613135 l
216.269468 303.809713 l
214.245391 301.346292 l
212.052664 301.643771 l
209.898323 301.19573 l
207.821973 299.435778 l
cl
gsave
0.324 0.433 0.865 setrgbcolor
fill
grestore
stroke
grestore
gsave
446.4 157.1 72 231.7 clipbox
354.467089 318.68026 m
359.479036 308.670936 l
365.736842 328.712491 l
371.070617 325.644417 l
375.252649 300.012721 l
381.166862 309.378257 l
387.136385 318.223432 l
392.672625 318.743405 l
397.225009 303.967635 l
399.200464 305.316671 l
401.187064 306.872515 l
403.140285 307.982874 l
405.104404 309.297267 l
407.040351 310.262361 l
408.947476 310.887181 l
410.948651 312.836382 l
412.830864 313.234781 l
414.799477 314.821969 l
416.74255 316.111765 l
412.379097 330.629137 l
406.822206 329.612527 l
400.754589 320.658364 l
394.728212 311.072768 l
390.90579 336.806663 l
385.636519 339.90845 l
379.125965 319.58733 l
374.293271 330.133475 l
372.304037 328.522596 l
370.33972 327.495354 l
368.409601 327.307358 l
366.446777 326.51008 l
364.423165 324.389407 l
362.462743 323.821471 l
360.463889 322.418459 l
358.446117 320.600318 l
356.483629 320.309288 l
354.467089 318.68026 l
cl
gsave
0.801 0.850 0.930 setrgbcolor
fill
grestore
stroke
grestore
gsave
446.4 157.1 72 231.7 clipbox
131.663844 322.87257 m
137.533789 316.230898 l
144.191865 301.972147 l
148.967695 304.993657 l
155.277758 293.117768 l
159.800384 298.958319 l
163.352446 315.776838 l
170.023897 299.425089 l
173.347644 320.631455 l
180.987816 291.782319 l
186.013292 293.49114 l
188.087254 295.797466 l
190.299183 296.286417 l
192.471012 297.228722 l
194.562395 299.204656 l
196.687842 300.682677 l
198.894762 300.954374 l
201.163727 300.222938 l
203.359741 300.43306 l
205.562714 300.432056 l
207.821973 299.435778 l
202.783158 298.041739 l
195.511028 328.404691 l
191.915959 306.834219 l
185.567294 322.644752 l
181.494214 309.394961 l
177.088636 301.312607 l
170.995733 313.093838 l
166.077014 311.382089 l
159.590058 326.387325 l
154.208393 329.315293 l
151.898437 329.483529 l
149.618089 329.280548 l
147.34796 328.910056 l
144.72596 331.826856 l
142.536967 330.522269 l
140.189614 330.646916 l
138.169532 327.713305 l
136.07925 325.422183 l
133.751685 325.226655 l
131.663844 322.87257 l
cl
gsave
0.511 0.649 0.985 setrgbcolor
fill
grestore
stroke
grestore
gsave
446.4 157.1 72 231.7 clipbox
280.77936 312.675767 m
285.923878 326.947487 l
291.291866 325.557652 l
296.67407 321.417366 l
302.045745 323.956209 l
307.425262 320.163217 l
312.759599 312.101043 l
318.254905 321.776944 l
323.722481 323.887428 l
328.907752 309.344192 l
334.267721 306.591653 l
336.298494 307.589159 l
338.310163 307.995505 l
340.346723 309.551594 l
342.376551 310.96002 l
344.37838 311.516194 l
346.406371 313.09599 l
348.438403 314.879555 l
350.49587 317.482966 l
352.499898 318.539296 l
354.467089 318.68026 l
349.184924 322.118551 l
344.187045 335.768511 l
338.732556 334.559854 l
333.115405 324.64343 l
327.904594 332.561207 l
321.942201 290.787376 l
317.203237 333.860512 l
311.894589 338.122525 l
306.561307 339.669419 l
301.232432 324.610828 l
299.203803 322.937282 l
297.169826 322.413558 l
295.136394 320.453725 l
293.09885 318.981239 l
291.056119 317.856796 l
289.006782 317.074282 l
286.949054 316.668044 l
284.898664 315.074393 l
282.840336 313.914801 l
280.77936 312.675767 l
cl
gsave
0.896 0.850 0.823 setrgbcolor
fill
grestore
stroke
grestore
gsave
446.4 157.1 72 231.7 clipbox
334.267721 306.591653 m
339.442668 296.952776 l
345.442042 316.669903 l
350.812407 312.879488 l
355.407886 288.707889 l
361.194637 297.459845 l
367.033979 305.55428 l
372.604832 306.546104 l
377.436687 293.002932 l
379.405845 293.60613 l
381.396884 294.698685 l
383.359248 295.350798 l
385.40822 297.586294 l
387.383865 298.59427 l
389.263075 298.072252 l
391.25443 299.494902 l
393.218252 300.525789 l
395.295986 303.38645 l
397.225009 303.967635 l
392.672625 318.743405 l
387.136385 318.223432 l
381.166862 309.378257 l
375.252649 300.012721 l
371.070617 325.644417 l
365.736842 328.712491 l
359.479036 308.670936 l
354.467089 318.68026 l
352.499898 318.539296 l
350.49587 317.482966 l
348.438403 314.879555 l
346.406371 313.09599 l
344.37838 311.516194 l
342.376551 310.96002 l
340.346723 309.551594 l
338.310163 307.995505 l
336.298494 307.589159 l
334.267721 306.591653 l
cl
gsave
0.410 0.541 0.936 setrgbcolor
fill
grestore
stroke
grestore
gsave
446.4 157.1 72 231.7 clipbox
186.013292 293.49114 m
191.283863 292.331168 l
195.612475 304.316502 l
200.437421 310.550661 l
206.82905 293.622042 l
210.61063 317.46781 l
216.714364 304.389006 l
221.980563 305.321439 l
227.706913 297.595415 l
232.598778 306.82345 l
238.397487 296.990062 l
240.447763 300.604757 l
242.574535 302.394141 l
244.702911 304.082532 l
246.838149 305.516546 l
248.977423 306.743877 l
251.16975 306.304004 l
253.311152 307.150891 l
255.484163 306.825054 l
257.609246 307.826826 l
259.781878 306.988737 l
254.183361 315.880208 l
249.148548 307.541501 l
243.719515 311.217479 l
238.301269 314.389699 l
232.568526 324.199614 l
228.44144 300.73166 l
222.300664 318.359412 l
217.274967 314.497286 l
212.958456 299.628848 l
207.821973 299.435778 l
205.562714 300.432056 l
203.359741 300.43306 l
201.163727 300.222938 l
198.894762 300.954374 l
196.687842 300.682677 l
194.562395 299.204656 l
192.471012 297.228722 l
190.299183 296.286417 l
188.087254 295.797466 l
186.013292 293.49114 l
cl
gsave
0.369 0.491 0.905 setrgbcolor
fill
grestore
stroke
grestore
gsave
446.4 157.1 72 231.7 clipbox
259.781878 306.988737 m
264.725727 322.681164 l
270.161283 321.172588 l
275.652531 316.750512 l
281.397498 292.583558 l
286.503577 316.194276 l
292.013172 305.966443 l
297.406077 317.867687 l
302.888964 316.557211 l
308.324653 304.104955 l
313.765575 301.161641 l
315.822586 299.861737 l
317.921852 303.21654 l
319.962125 301.795011 l
322.008387 301.57762 l
324.066102 302.586911 l
326.098177 302.340285 l
328.150769 303.627655 l
330.193456 304.588474 l
332.238305 305.855561 l
334.267721 306.591653 l
328.907752 309.344192 l
323.722481 323.887428 l
318.254905 321.776944 l
312.759599 312.101043 l
307.425262 320.163217 l
302.045745 323.956209 l
296.67407 321.417366 l
291.291866 325.557652 l
285.923878 326.947487 l
280.77936 312.675767 l
278.724658 310.795757 l
276.63611 310.83328 l
274.576287 308.892164 l
272.461455 309.67652 l
270.361139 309.322427 l
268.279206 307.874602 l
266.160819 307.82254 l
264.054446 307.015763 l
261.922767 306.966955 l
259.781878 306.988737 l
cl
gsave
0.763 0.835 0.956 setrgbcolor
fill
grestore
stroke
grestore
gsave
446.4 157.1 72 231.7 clipbox
313.765575 301.161641 m
319.108992 290.757873 l
324.872831 310.300404 l
330.385325 308.937034 l
335.269337 280.722943 l
341.04642 292.231754 l
346.829488 300.594008 l
352.402269 300.657022 l
357.368598 284.678545 l
359.426464 286.255304 l
361.406807 286.035978 l
363.348183 285.088099 l
365.435876 287.651119 l
367.497601 289.645554 l
369.461589 289.597466 l
371.35964 288.333775 l
373.349077 289.110125 l
375.322123 289.658348 l
377.436687 293.002932 l
372.604832 306.546104 l
367.033979 305.55428 l
361.194637 297.459845 l
355.407886 288.707889 l
350.812407 312.879488 l
345.442042 316.669903 l
339.442668 296.952776 l
334.267721 306.591653 l
332.238305 305.855561 l
330.193456 304.588474 l
328.150769 303.627655 l
326.098177 302.340285 l
324.066102 302.586911 l
322.008387 301.57762 l
319.962125 301.795011 l
317.921852 303.21654 l
315.822586 299.861737 l
313.765575 301.161641 l
cl
gsave
0.230 0.299 0.754 setrgbcolor
fill
grestore
stroke
grestore
gsave
446.4 157.1 72 231.7 clipbox
238.397487 296.990062 m
243.10034 313.485041 l
248.647456 310.256685 l
254.179136 307.281155 l
260.817757 265.123702 l
265.129624 305.238976 l
270.71088 299.80419 l
276.040627 307.612496 l
281.515506 310.234578 l
287.193353 295.641275 l
292.71814 291.223533 l
294.833868 294.409179 l
296.952246 297.294098 l
299.073101 299.100992 l
301.191732 299.671881 l
303.304564 300.26415 l
305.406373 299.009976 l
307.509793 300.69086 l
309.59888 300.316486 l
311.681603 300.226828 l
313.765575 301.161641 l
308.324653 304.104955 l
302.888964 316.557211 l
297.406077 317.867687 l
292.013172 305.966443 l
286.503577 316.194276 l
281.397498 292.583558 l
275.652531 316.750512 l
270.161283 321.172588 l
264.725727 322.681164 l
259.781878 306.988737 l
257.609246 307.826826 l
255.484163 306.825054 l
253.311152 307.150891 l
251.16975 306.304004 l
248.977423 306.743877 l
246.838149 305.516546 l
244.702911 304.082532 l
242.574535 302.394141 l
240.447763 300.604757 l
238.397487 296.990062 l
cl
gsave
0.744 0.825 0.966 setrgbcolor
fill
grestore
stroke
grestore
gsave
446.4 157.1 72 231.7 clipbox
292.71814 291.223533 m
298.238097 281.18325 l
303.752845 302.548306 l
309.304613 298.10032 l
314.652621 273.696252 l
320.264406 282.133503 l
325.96918 291.206311 l
331.581656 291.691295 l
336.889069 279.021356 l
339.003235 281.132434 l
341.035351 280.3274 l
343.142256 282.42565 l
345.269536 285.237106 l
347.324959 285.777125 l
349.401111 287.111886 l
351.33931 284.5746 l
353.365393 284.865992 l
355.403592 285.649462 l
357.368598 284.678545 l
352.402269 300.657022 l
346.829488 300.594008 l
341.04642 292.231754 l
335.269337 280.722943 l
330.385325 308.937034 l
324.872831 310.300404 l
319.108992 290.757873 l
313.765575 301.161641 l
311.681603 300.226828 l
309.59888 300.316486 l
307.509793 300.69086 l
305.406373 299.009976 l
303.304564 300.26415 l
301.191732 299.671881 l
299.073101 299.100992 l
296.952246 297.294098 l
294.833868 294.409179 l
292.71814 291.223533 l
cl
gsave
0.281 0.373 0.818 setrgbcolor
fill
grestore
stroke
grestore
/BitstreamVeraSans-Roman findfont
14.400 scalefont
setfont
gsave
246.903125 381.232727 translate
0.000000 rotate
0.000000 0.000000 m /E glyphshow
9.082642 0.000000 m /r glyphshow
14.992676 0.000000 m /i glyphshow
18.986511 0.000000 m /c glyphshow
26.889954 0.000000 m /h glyphshow
36.000671 0.000000 m /space glyphshow
40.570068 0.000000 m /r glyphshow
46.480103 0.000000 m /x glyphshow
54.987183 0.000000 m /zero glyphshow
64.132996 0.000000 m /comma glyphshow
68.702393 0.000000 m /space glyphshow
73.271790 0.000000 m /t glyphshow
78.908081 0.000000 m /x glyphshow
87.415161 0.000000 m /zero glyphshow
grestore
gsave
72 43.2 m
518.4 43.2 l
518.4 200.290909 l
72 200.290909 l
cl
1.000 setgray
fill
grestore
0 setlinejoin
0.950 setgray
gsave
131.177218 77.911555 m
258.939234 116.426686 l
256.812132 190.022781 l
121.926546 155.417727 l
gsave
fill
grestore
stroke
grestore
0.900 setgray
gsave
258.939234 116.426686 m
465.901687 94.894242 l
474.560748 170.709597 l
256.812132 190.022781 l
gsave
fill
grestore
stroke
grestore
0.925 setgray
gsave
131.177218 77.911555 m
348.929684 52.833515 l
465.901687 94.894242 l
258.939234 116.426686 l
gsave
fill
grestore
stroke
grestore
0.750 setlinewidth
1 setlinejoin
2 setlinecap
0.000 setgray
gsave
131.177218 77.911555 m
348.929684 52.833515 l
stroke
grestore
/BitstreamVeraSans-Roman findfont
12.000 scalefont
setfont
gsave
178.417999 47.068048 translate
353.430324 rotate
0.000000 0.000000 m /F glyphshow
6.902344 0.000000 m /r glyphshow
11.835938 0.000000 m /a glyphshow
19.189453 0.000000 m /m glyphshow
30.878906 0.000000 m /e glyphshow
38.261719 0.000000 m /space glyphshow
42.076172 0.000000 m /i glyphshow
45.410156 0.000000 m /n glyphshow
53.015625 0.000000 m /d glyphshow
60.632812 0.000000 m /e glyphshow
68.015625 0.000000 m /x glyphshow
grestore
1.000 setlinewidth
0 setlinecap
0.900 setgray
gsave
135.341407 77.431975 m
262.91012 116.013554 l
260.98105 189.653019 l
stroke
grestore
gsave
168.925005 73.564231 m
294.916126 112.683638 l
294.595943 186.671551 l
stroke
grestore
gsave
202.996171 69.640335 m
327.352943 109.308901 l
328.6864 183.647903 l
stroke
grestore
gsave
237.565599 65.659055 m
360.229327 105.88843 l
363.262586 180.581173 l
stroke
grestore
gsave
272.644301 61.619123 m
393.554274 102.421292 l
398.334956 177.470434 l
stroke
grestore
gsave
308.243613 57.519234 m
427.337028 98.906522 l
433.914269 174.314731 l
stroke
grestore
gsave
344.375213 53.358043 m
461.587089 95.343135 l
470.011596 171.113084 l
stroke
grestore
2 setlinecap
0.000 setgray
gsave
136.440324 77.764329 m
133.139482 76.76603 l
stroke
grestore
gsave
121.660658 59.499656 translate
0.000000 rotate
0.000000 0.000000 m /zero glyphshow
grestore
gsave
170.01089 73.901391 m
166.749164 72.888647 l
stroke
grestore
gsave
155.239871 55.560618 translate
0.000000 rotate
0.000000 0.000000 m /five glyphshow
grestore
gsave
204.068528 69.982406 m
200.847407 68.954901 l
stroke
grestore
gsave
185.487252 51.564280 translate
0.000000 rotate
0.000000 0.000000 m /one glyphshow
7.634766 0.000000 m /zero glyphshow
grestore
gsave
238.623915 66.006145 m
235.444941 64.963554 l
stroke
grestore
gsave
220.054163 47.509380 translate
0.000000 rotate
0.000000 0.000000 m /one glyphshow
7.634766 0.000000 m /five glyphshow
grestore
gsave
273.688045 61.971344 m
270.552814 60.913332 l
stroke
grestore
gsave
255.131347 43.394622 translate
0.000000 rotate
0.000000 0.000000 m /two glyphshow
7.634766 0.000000 m /zero glyphshow
grestore
gsave
309.272234 57.8767 m
306.1824 56.802923 l
stroke
grestore
gsave
290.730184 39.218671 translate
0.000000 rotate
0.000000 0.000000 m /two glyphshow
7.634766 0.000000 m /five glyphshow
grestore
gsave
345.388141 53.720872 m
342.345417 52.630974 l
stroke
grestore
gsave
326.862401 34.980152 translate
0.000000 rotate
0.000000 0.000000 m /three glyphshow
7.634766 0.000000 m /zero glyphshow
grestore
0.750 setlinewidth
gsave
465.901687 94.894242 m
348.929684 52.833515 l
stroke
grestore
gsave
399.850912 38.580011 translate
19.777542 rotate
0.000000 0.000000 m /S glyphshow
7.617188 0.000000 m /u glyphshow
15.222656 0.000000 m /b glyphshow
22.839844 0.000000 m /c glyphshow
29.437500 0.000000 m /a glyphshow
36.791016 0.000000 m /r glyphshow
41.724609 0.000000 m /r glyphshow
46.658203 0.000000 m /i glyphshow
49.992188 0.000000 m /e glyphshow
57.375000 0.000000 m /r glyphshow
62.308594 0.000000 m /space glyphshow
66.123047 0.000000 m /i glyphshow
69.457031 0.000000 m /n glyphshow
77.062500 0.000000 m /d glyphshow
84.679688 0.000000 m /e glyphshow
92.062500 0.000000 m /x glyphshow
grestore
1.000 setlinewidth
0 setlinecap
0.900 setgray
gsave
124.83963 156.165082 m
133.925947 78.740186 l
351.454544 53.741403 l
stroke
grestore
gsave
147.806962 162.057378 m
155.613677 85.278169 l
371.363131 60.900121 l
stroke
grestore
gsave
170.190782 167.799973 m
176.778102 91.658395 l
390.769477 67.878245 l
stroke
grestore
gsave
192.013047 173.398501 m
197.437937 97.886508 l
409.692352 74.682521 l
stroke
grestore
gsave
213.294627 178.858315 m
217.611014 103.967883 l
428.1496 81.319368 l
stroke
grestore
gsave
234.055372 184.184508 m
237.314336 109.907645 l
446.158198 87.794889 l
stroke
grestore
gsave
254.31417 189.381926 m
256.564121 115.710685 l
463.734308 94.114897 l
stroke
grestore
2 setlinecap
0.000 setgray
gsave
349.633738 53.950653 m
355.10024 53.322433 l
stroke
grestore
gsave
364.803122 36.856539 translate
0.000000 rotate
0.000000 0.000000 m /zero glyphshow
grestore
gsave
369.558238 61.104061 m
374.976914 60.491791 l
stroke
grestore
gsave
380.661352 44.110438 translate
0.000000 rotate
0.000000 0.000000 m /one glyphshow
7.634766 0.000000 m /zero glyphshow
grestore
gsave
388.980278 68.077072 m
394.351787 67.480154 l
stroke
grestore
gsave
399.843725 51.181439 translate
0.000000 rotate
0.000000 0.000000 m /two glyphshow
7.634766 0.000000 m /zero glyphshow
grestore
gsave
407.91863 74.876427 m
413.243626 74.29429 l
stroke
grestore
gsave
418.548458 58.076374 translate
0.000000 rotate
0.000000 0.000000 m /three glyphshow
7.634766 0.000000 m /zero glyphshow
grestore
gsave
426.39114 81.508533 m
431.67027 80.940635 l
stroke
grestore
gsave
436.793174 64.801736 translate
0.000000 rotate
0.000000 0.000000 m /four glyphshow
7.634766 0.000000 m /zero glyphshow
grestore
gsave
444.414786 87.979485 m
449.648694 87.42531 l
stroke
grestore
gsave
454.594636 71.363707 translate
0.000000 rotate
0.000000 0.000000 m /five glyphshow
7.634766 0.000000 m /zero glyphshow
grestore
gsave
462.005733 94.295087 m
467.195055 93.754143 l
stroke
grestore
gsave
471.968804 77.768168 translate
0.000000 rotate
0.000000 0.000000 m /six glyphshow
7.634766 0.000000 m /zero glyphshow
grestore
0.750 setlinewidth
gsave
465.901687 94.894242 m
474.560748 170.709597 l
stroke
grestore
gsave
522.833652 88.003941 translate
83.484339 rotate
0.000000 0.000000 m /M glyphshow
10.353516 0.000000 m /a glyphshow
17.707031 0.000000 m /g glyphshow
25.324219 0.000000 m /n glyphshow
32.929688 0.000000 m /i glyphshow
36.263672 0.000000 m /t glyphshow
40.968750 0.000000 m /u glyphshow
48.574219 0.000000 m /d glyphshow
56.191406 0.000000 m /e glyphshow
63.574219 0.000000 m /space glyphshow
67.388672 0.000000 m /bracketleft glyphshow
72.070312 0.000000 m /d glyphshow
79.687500 0.000000 m /B glyphshow
87.919922 0.000000 m /bracketright glyphshow
grestore
1.000 setlinewidth
0 setlinecap
0.900 setgray
gsave
466.066381 96.336239 m
258.89869 117.829467 l
131.001569 79.383223 l
stroke
grestore
gsave
466.950343 104.075865 m
258.681137 125.356623 l
130.058609 87.283752 l
stroke
grestore
gsave
467.843837 111.89895 m
258.461337 132.961543 l
129.105144 95.272296 l
stroke
grestore
gsave
468.747018 119.806851 m
258.239254 140.645437 l
128.140998 103.350332 l
stroke
grestore
gsave
469.660045 127.800954 m
258.014853 148.409543 l
127.16599 111.519375 l
stroke
grestore
gsave
470.583079 135.882678 m
257.788097 156.255123 l
126.179936 119.780969 l
stroke
grestore
gsave
471.516285 144.053471 m
257.558949 164.183467 l
125.182646 128.136698 l
stroke
grestore
gsave
472.459834 152.314813 m
257.327371 172.19589 l
124.173928 136.588179 l
stroke
grestore
gsave
473.413897 160.668218 m
257.093324 180.293738 l
123.153584 145.137067 l
stroke
grestore
gsave
474.378652 169.115233 m
256.856768 188.478383 l
122.121412 153.785057 l
stroke
grestore
2 setlinecap
0.000 setgray
gsave
464.337863 96.515569 m
469.527014 95.977205 l
stroke
grestore
gsave
483.138950 88.461634 translate
0.000000 rotate
0.000000 0.000000 m /one glyphshow
7.634766 0.000000 m /zero glyphshow
grestore
gsave
465.212251 104.253462 m
470.430163 103.7203 l
stroke
grestore
gsave
484.152975 96.189158 translate
0.000000 rotate
0.000000 0.000000 m /one glyphshow
7.634766 0.000000 m /one glyphshow
grestore
gsave
466.096064 112.074765 m
471.343059 111.54695 l
stroke
grestore
gsave
485.177907 103.999808 translate
0.000000 rotate
0.000000 0.000000 m /one glyphshow
7.634766 0.000000 m /two glyphshow
grestore
gsave
466.989456 119.980835 m
472.265859 119.458514 l
stroke
grestore
gsave
486.213924 111.894931 translate
0.000000 rotate
0.000000 0.000000 m /one glyphshow
7.634766 0.000000 m /three glyphshow
grestore
gsave
467.892583 127.973058 m
473.198725 127.456382 l
stroke
grestore
gsave
487.261207 119.875906 translate
0.000000 rotate
0.000000 0.000000 m /one glyphshow
7.634766 0.000000 m /four glyphshow
grestore
gsave
468.805606 136.052849 m
474.141823 135.541973 l
stroke
grestore
gsave
488.319941 127.944139 translate
0.000000 rotate
0.000000 0.000000 m /one glyphshow
7.634766 0.000000 m /five glyphshow
grestore
gsave
469.728688 144.221656 m
475.095323 143.71674 l
stroke
grestore
gsave
489.390313 136.101071 translate
0.000000 rotate
0.000000 0.000000 m /one glyphshow
7.634766 0.000000 m /six glyphshow
grestore
gsave
470.661995 152.480957 m
476.059397 151.982166 l
stroke
grestore
gsave
490.472518 144.348172 translate
0.000000 rotate
0.000000 0.000000 m /one glyphshow
7.634766 0.000000 m /seven glyphshow
grestore
gsave
471.605699 160.832265 m
477.034222 160.339766 l
stroke
grestore
gsave
491.566752 152.686945 translate
0.000000 rotate
0.000000 0.000000 m /one glyphshow
7.634766 0.000000 m /eight glyphshow
grestore
gsave
472.559975 169.277126 m
478.01998 168.791093 l
stroke
grestore
gsave
492.673217 161.118928 translate
0.000000 rotate
0.000000 0.000000 m /one glyphshow
7.634766 0.000000 m /nine glyphshow
grestore
0 setlinecap
gsave
446.4 157.1 72 43.2 clipbox
240.099022 139.140987 m
245.854252 160.141188 l
252.863217 148.83144 l
259.76859 138.51484 l
265.934223 156.837506 l
272.379175 170.328453 l
279.44643 151.018721 l
286.250418 143.125924 l
292.81251 170.463019 l
299.701994 143.838969 l
306.510063 155.637787 l
308.462957 154.561849 l
310.401756 152.658087 l
312.341715 152.413589 l
314.240545 148.22321 l
316.13084 144.87229 l
309.337667 134.312203 l
302.702035 162.747207 l
296.042991 132.121623 l
289.37624 139.847998 l
282.522251 159.038918 l
276.081615 145.037035 l
269.861244 127.631185 l
263.166907 135.577667 l
256.213315 150.60689 l
250.537109 125.402471 l
248.311066 132.777646 l
246.261097 134.71051 l
244.105452 139.096398 l
242.1076 139.063518 l
240.099022 139.140987 l
cl
gsave
0.614 0.740 0.999 setrgbcolor
fill
grestore
stroke
grestore
gsave
446.4 157.1 72 43.2 clipbox
220.355287 127.060475 m
225.809095 148.595699 l
233.258038 131.437353 l
240.107625 125.616257 l
245.947443 146.319351 l
252.333012 156.729297 l
259.627285 138.941676 l
266.568991 130.381463 l
272.692914 162.274556 l
280.036382 131.210518 l
286.68015 145.319241 l
288.698262 144.145993 l
290.651108 150.845118 l
292.65335 150.919434 l
294.637156 153.763036 l
296.626377 155.207216 l
298.618222 153.660097 l
300.598377 154.995837 l
302.576266 156.968809 l
304.543144 154.470222 l
306.510063 155.637787 l
299.701994 143.838969 l
292.81251 170.463019 l
286.250418 143.125924 l
279.44643 151.018721 l
272.379175 170.328453 l
265.934223 156.837506 l
259.76859 138.51484 l
252.863217 148.83144 l
245.854252 160.141188 l
240.099022 139.140987 l
238.101927 138.794992 l
236.170276 136.833553 l
234.111539 137.660435 l
232.198252 135.179171 l
230.339518 131.568246 l
228.159137 134.549046 l
226.24626 131.964762 l
224.321212 129.626766 l
222.258138 129.869322 l
220.355287 127.060475 l
cl
gsave
0.931 0.819 0.759 setrgbcolor
fill
grestore
stroke
grestore
gsave
446.4 157.1 72 43.2 clipbox
306.510063 155.637787 m
313.174709 133.235472 l
320.014812 138.914563 l
326.765059 134.895728 l
334.146847 160.330959 l
340.670354 143.481529 l
347.322018 134.944867 l
353.6939 120.08564 l
361.197296 136.005061 l
369.040777 155.57831 l
375.81714 149.516595 l
377.615943 148.044673 l
379.454611 147.520751 l
381.180807 145.035137 l
382.786865 140.580516 l
384.400152 136.557861 l
377.923187 145.759475 l
370.099136 127.408796 l
362.550053 110.923556 l
356.349109 125.698129 l
349.812288 133.632685 l
343.382605 147.062663 l
336.051528 126.496859 l
329.337441 127.123115 l
322.567641 122.605174 l
316.13084 144.87229 l
314.240545 148.22321 l
312.341715 152.413589 l
310.401756 152.658087 l
308.462957 154.561849 l
306.510063 155.637787 l
cl
gsave
0.749 0.828 0.963 setrgbcolor
fill
grestore
stroke
grestore
gsave
446.4 157.1 72 43.2 clipbox
200.168443 116.783174 m
205.342573 138.260455 l
212.943203 122.968601 l
219.920571 116.862606 l
225.547609 136.630044 l
231.617481 151.278172 l
239.561409 125.001905 l
246.439302 121.532584 l
252.260794 150.164409 l
259.975156 121.748286 l
266.485847 134.538233 l
268.553061 134.213689 l
270.553725 136.736162 l
272.59403 137.21607 l
274.614167 138.519998 l
276.670719 137.435241 l
278.63015 142.114036 l
280.714362 138.205085 l
282.735454 137.979111 l
284.708412 141.442119 l
286.68015 145.319241 l
280.036382 131.210518 l
272.692914 162.274556 l
266.568991 130.381463 l
259.627285 138.941676 l
252.333012 156.729297 l
245.947443 146.319351 l
240.107625 125.616257 l
233.258038 131.437353 l
225.809095 148.595699 l
220.355287 127.060475 l
218.249468 127.881521 l
216.34283 125.094625 l
214.336206 124.020806 l
212.093653 126.787724 l
210.195669 123.754105 l
208.221795 121.948952 l
206.284446 119.555141 l
204.22827 118.95822 l
202.282026 116.660385 l
200.168443 116.783174 l
cl
gsave
0.230 0.299 0.754 setrgbcolor
fill
grestore
stroke
grestore
gsave
446.4 157.1 72 43.2 clipbox
286.68015 145.319241 m
293.685637 119.347931 l
300.461996 121.768888 l
307.294943 126.269684 l
314.333749 146.521955 l
321.096624 130.242901 l
327.866184 121.294955 l
334.410756 105.037567 l
341.743486 121.977372 l
349.426215 143.959286 l
356.284938 137.35953 l
358.347163 141.044648 l
360.164498 138.477505 l
362.22768 142.227848 l
364.142597 142.38942 l
366.088834 143.405144 l
368.190645 147.975511 l
370.073465 147.674511 l
372.062457 149.76396 l
373.857155 147.872904 l
375.81714 149.516595 l
369.040777 155.57831 l
361.197296 136.005061 l
353.6939 120.08564 l
347.322018 134.944867 l
340.670354 143.481529 l
334.146847 160.330959 l
326.765059 134.895728 l
320.014812 138.914563 l
313.174709 133.235472 l
306.510063 155.637787 l
304.543144 154.470222 l
302.576266 156.968809 l
300.598377 154.995837 l
298.618222 153.660097 l
296.626377 155.207216 l
294.637156 153.763036 l
292.65335 150.919434 l
290.651108 150.845118 l
288.698262 144.145993 l
286.68015 145.319241 l
cl
gsave
0.825 0.296 0.250 setrgbcolor
fill
grestore
stroke
grestore
gsave
446.4 157.1 72 43.2 clipbox
375.81714 149.516595 m
381.96849 132.563788 l
389.271119 137.282394 l
396.500071 139.735242 l
403.276153 134.882275 l
410.701637 139.110864 l
416.052151 116.038186 l
425.192168 140.796242 l
432.712119 144.148842 l
439.871809 142.981795 l
446.984256 141.164678 l
448.611882 139.621551 l
450.405673 139.829866 l
451.707538 135.245649 l
453.409189 134.716261 l
454.773538 131.007869 l
447.673783 131.910165 l
440.767558 134.671184 l
432.843246 126.033594 l
424.037685 105.670655 l
418.995245 129.711372 l
411.465829 123.295541 l
405.067664 131.743519 l
397.883521 129.01202 l
390.444467 121.230509 l
384.400152 136.557861 l
382.786865 140.580516 l
381.180807 145.035137 l
379.454611 147.520751 l
377.615943 148.044673 l
375.81714 149.516595 l
cl
gsave
0.923 0.829 0.777 setrgbcolor
fill
grestore
stroke
grestore
gsave
446.4 157.1 72 43.2 clipbox
178.685498 117.366493 m
183.597414 139.080418 l
191.250311 127.04579 l
198.80593 115.200719 l
204.256028 134.249802 l
210.246841 147.716768 l
218.343663 126.425821 l
225.618625 117.747308 l
230.931306 149.684233 l
239.235457 118.582937 l
245.59822 132.058985 l
247.688516 133.050431 l
249.734283 135.200429 l
251.856901 135.015634 l
253.995697 134.085876 l
256.030685 136.245225 l
258.231105 132.682382 l
260.27184 134.279158 l
262.283485 136.891882 l
264.423537 134.354887 l
266.485847 134.538233 l
259.975156 121.748286 l
252.260794 150.164409 l
246.439302 121.532584 l
239.561409 125.001905 l
231.617481 151.278172 l
225.547609 136.630044 l
219.920571 116.862606 l
212.943203 122.968601 l
205.342573 138.260455 l
200.168443 116.783174 l
198.086325 116.35767 l
195.957725 116.499992 l
193.927079 115.208026 l
191.708809 116.380481 l
189.619933 115.721194 l
187.373371 117.024192 l
185.100094 118.527197 l
182.931974 118.584986 l
180.908527 116.794297 l
178.685498 117.366493 l
cl
gsave
0.338 0.453 0.879 setrgbcolor
fill
grestore
stroke
grestore
gsave
446.4 157.1 72 43.2 clipbox
266.485847 134.538233 m
273.899706 107.004379 l
280.63122 111.424513 l
287.43299 115.554534 l
294.223767 135.798048 l
301.232432 125.708061 l
308.159663 112.940731 l
314.991111 100.05293 l
322.085525 112.30735 l
329.524049 135.017528 l
336.40365 124.059056 l
338.497332 129.032461 l
340.419781 127.313557 l
342.475442 130.767199 l
344.415473 130.176854 l
346.394434 131.125396 l
348.428329 133.923046 l
350.384218 134.343787 l
352.407434 136.871644 l
354.361771 137.470501 l
356.284938 137.35953 l
349.426215 143.959286 l
341.743486 121.977372 l
334.410756 105.037567 l
327.866184 121.294955 l
321.096624 130.242901 l
314.333749 146.521955 l
307.294943 126.269684 l
300.461996 121.768888 l
293.685637 119.347931 l
286.68015 145.319241 l
284.708412 141.442119 l
282.735454 137.979111 l
280.714362 138.205085 l
278.63015 142.114036 l
276.670719 137.435241 l
274.614167 138.519998 l
272.59403 137.21607 l
270.553725 136.736162 l
268.553061 134.213689 l
266.485847 134.538233 l
cl
gsave
0.657 0.772 0.995 setrgbcolor
fill
grestore
stroke
grestore
gsave
446.4 157.1 72 43.2 clipbox
356.284938 137.35953 m
362.585303 118.283682 l
369.80236 122.188446 l
377.132881 127.040489 l
383.98083 122.00867 l
391.540172 128.951736 l
397.223157 106.051499 l
405.793983 126.613542 l
413.311171 130.262085 l
420.805747 132.836922 l
427.76422 128.532127 l
429.846905 131.488019 l
431.882326 133.895173 l
433.576808 132.493496 l
435.689232 135.80572 l
437.70939 138.092004 l
439.494892 137.86359 l
441.339818 138.334853 l
443.138594 138.37391 l
444.795725 137.009609 l
446.984256 141.164678 l
439.871809 142.981795 l
432.712119 144.148842 l
425.192168 140.796242 l
416.052151 116.038186 l
410.701637 139.110864 l
403.276153 134.882275 l
396.500071 139.735242 l
389.271119 137.282394 l
381.96849 132.563788 l
375.81714 149.516595 l
373.857155 147.872904 l
372.062457 149.76396 l
370.073465 147.674511 l
368.190645 147.975511 l
366.088834 143.405144 l
364.142597 142.38942 l
362.22768 142.227848 l
360.164498 138.477505 l
358.347163 141.044648 l
356.284938 137.35953 l
cl
gsave
0.706 0.016 0.150 setrgbcolor
fill
grestore
stroke
grestore
gsave
446.4 157.1 72 43.2 clipbox
156.785886 114.725332 m
161.440041 136.29459 l
170.02398 116.532766 l
177.168426 111.86534 l
182.224418 132.957075 l
188.009284 147.364407 l
196.649437 123.885923 l
203.97423 117.31041 l
209.063657 146.387673 l
217.707335 118.403132 l
223.873075 133.287727 l
226.138066 132.03033 l
228.251343 133.623067 l
230.521784 131.871752 l
232.752381 130.708903 l
234.819765 132.942608 l
237.007424 132.387765 l
239.271281 129.804408 l
241.354009 131.328115 l
243.543917 130.036131 l
245.59822 132.058985 l
239.235457 118.582937 l
230.931306 149.684233 l
225.618625 117.747308 l
218.343663 126.425821 l
210.246841 147.716768 l
204.256028 134.249802 l
198.80593 115.200719 l
191.250311 127.04579 l
183.597414 139.080418 l
178.685498 117.366493 l
176.689187 115.172907 l
174.767092 112.115607 l
172.412273 113.987551 l
170.133268 114.87038 l
168.034517 113.667314 l
165.789643 114.000455 l
163.626231 113.380095 l
161.267181 114.745087 l
159.187579 113.118262 l
156.785886 114.725332 l
cl
gsave
0.809 0.853 0.922 setrgbcolor
fill
grestore
stroke
grestore
gsave
446.4 157.1 72 43.2 clipbox
245.59822 132.058985 m
253.26532 110.567991 l
260.036908 114.60398 l
267.051196 111.065892 l
273.48382 138.306356 l
280.801573 122.569062 l
287.961762 110.606948 l
295.035867 98.304197 l
302.031703 109.855082 l
309.218088 130.80696 l
316.352109 124.07171 l
318.37556 122.993941 l
320.411342 123.622167 l
322.506986 128.761728 l
324.492527 126.470373 l
326.504583 126.489758 l
328.491587 125.521311 l
330.511771 126.696286 l
332.504832 126.761274 l
334.550783 129.459554 l
336.40365 124.059056 l
329.524049 135.017528 l
322.085525 112.30735 l
314.991111 100.05293 l
308.159663 112.940731 l
301.232432 125.708061 l
294.223767 135.798048 l
287.43299 115.554534 l
280.63122 111.424513 l
273.899706 107.004379 l
266.485847 134.538233 l
264.423537 134.354887 l
262.283485 136.891882 l
260.27184 134.279158 l
258.231105 132.682382 l
256.030685 136.245225 l
253.995697 134.085876 l
251.856901 135.015634 l
249.734283 135.200429 l
247.688516 133.050431 l
245.59822 132.058985 l
cl
gsave
0.787 0.845 0.940 setrgbcolor
fill
grestore
stroke
grestore
gsave
446.4 157.1 72 43.2 clipbox
336.40365 124.059056 m
343.142989 110.942678 l
350.470235 118.285797 l
357.630526 118.710186 l
364.624571 114.561045 l
371.970796 117.966275 l
378.159907 98.469159 l
386.14528 112.678282 l
394.076341 123.342129 l
401.172344 119.767404 l
408.530465 119.867981 l
410.272402 118.045596 l
412.313316 120.318482 l
414.318519 122.135286 l
416.212121 122.548274 l
418.225331 124.532117 l
420.264819 126.857541 l
421.933699 124.670076 l
423.686963 123.636762 l
425.629299 124.944529 l
427.76422 128.532127 l
420.805747 132.836922 l
413.311171 130.262085 l
405.793983 126.613542 l
397.223157 106.051499 l
391.540172 128.951736 l
383.98083 122.00867 l
377.132881 127.040489 l
369.80236 122.188446 l
362.585303 118.283682 l
356.284938 137.35953 l
354.361771 137.470501 l
352.407434 136.871644 l
350.384218 134.343787 l
348.428329 133.923046 l
346.394434 131.125396 l
344.415473 130.176854 l
342.475442 130.767199 l
340.419781 127.313557 l
338.497332 129.032461 l
336.40365 124.059056 l
cl
gsave
0.851 0.863 0.881 setrgbcolor
fill
grestore
stroke
grestore
gsave
446.4 157.1 72 43.2 clipbox
136.437445 92.66418 m
140.527103 116.008582 l
148.713841 102.721399 l
156.533765 92.117906 l
161.404911 111.514715 l
166.935481 125.970616 l
175.614945 105.900667 l
183.263404 96.459084 l
187.776385 126.939333 l
196.989585 96.736319 l
202.84376 112.48276 l
205.093086 112.43495 l
207.127706 115.600797 l
209.0792 120.120881 l
211.042144 124.553005 l
213.120497 127.150812 l
215.372785 126.766381 l
217.457507 129.17912 l
219.633775 129.928465 l
221.681028 132.978468 l
223.873075 133.287727 l
217.707335 118.403132 l
209.063657 146.387673 l
203.97423 117.31041 l
196.649437 123.885923 l
188.009284 147.364407 l
182.224418 132.957075 l
177.168426 111.86534 l
170.02398 116.532766 l
161.440041 136.29459 l
156.785886 114.725332 l
154.616155 113.896995 l
152.659241 110.931336 l
150.099539 113.807085 l
147.864344 113.435107 l
145.779641 111.590046 l
143.763093 109.096964 l
141.822391 105.913528 l
139.869624 102.85895 l
138.242985 96.93206 l
136.437445 92.66418 l
cl
gsave
0.441 0.577 0.955 setrgbcolor
fill
grestore
stroke
grestore
gsave
446.4 157.1 72 43.2 clipbox
316.352109 124.07171 m
323.300571 107.571282 l
330.563709 113.387366 l
337.870445 117.516706 l
344.890755 109.767208 l
352.335115 115.529661 l
358.685618 91.735847 l
366.871432 113.42889 l
374.474037 118.505482 l
382.021687 121.113927 l
389.151082 115.826769 l
391.058768 115.328189 l
393.217589 118.960095 l
395.10428 118.300015 l
396.749477 114.075025 l
398.862187 117.125986 l
400.623834 114.993571 l
402.76188 118.468474 l
404.566049 117.17814 l
406.627543 119.605242 l
408.530465 119.867981 l
401.172344 119.767404 l
394.076341 123.342129 l
386.14528 112.678282 l
378.159907 98.469159 l
371.970796 117.966275 l
364.624571 114.561045 l
357.630526 118.710186 l
350.470235 118.285797 l
343.142989 110.942678 l
336.40365 124.059056 l
334.550783 129.459554 l
332.504832 126.761274 l
330.511771 126.696286 l
328.491587 125.521311 l
326.504583 126.489758 l
324.492527 126.470373 l
322.506986 128.761728 l
320.411342 123.622167 l
318.37556 122.993941 l
316.352109 124.07171 l
cl
gsave
0.892 0.852 0.829 setrgbcolor
fill
grestore
stroke
grestore
gsave
446.4 157.1 72 43.2 clipbox
223.873075 133.287727 m
232.251735 105.149284 l
239.002217 109.476467 l
245.837887 113.377061 l
252.151593 135.009122 l
259.756058 119.39244 l
267.136996 108.065907 l
274.525172 91.935843 l
281.318844 109.82817 l
288.290157 130.729688 l
295.602015 124.033836 l
297.712408 122.799308 l
299.811877 121.650599 l
301.900757 120.392815 l
303.989312 124.722681 l
306.06518 123.654771 l
308.138863 124.288926 l
310.201197 123.938625 l
312.283533 127.333236 l
314.327355 126.124604 l
316.352109 124.07171 l
309.218088 130.80696 l
302.031703 109.855082 l
295.035867 98.304197 l
287.961762 110.606948 l
280.801573 122.569062 l
273.48382 138.306356 l
267.051196 111.065892 l
260.036908 114.60398 l
253.26532 110.567991 l
245.59822 132.058985 l
243.543917 130.036131 l
241.354009 131.328115 l
239.271281 129.804408 l
237.007424 132.387765 l
234.819765 132.942608 l
232.752381 130.708903 l
230.521784 131.871752 l
228.251343 133.623067 l
226.138066 132.03033 l
223.873075 133.287727 l
cl
gsave
0.918 0.484 0.378 setrgbcolor
fill
grestore
stroke
grestore
gsave
446.4 157.1 72 43.2 clipbox
202.84376 112.48276 m
211.584873 84.981827 l
218.110823 91.711221 l
225.155281 90.404702 l
231.025671 113.848188 l
238.835391 98.338351 l
246.327509 87.907298 l
253.936238 71.76038 l
260.509909 87.457732 l
267.123213 109.346073 l
274.49001 103.788698 l
276.573946 107.84483 l
278.653546 112.465077 l
280.722773 118.257195 l
282.868411 118.704446 l
284.994341 120.367903 l
287.111727 122.642501 l
289.239709 123.510057 l
291.371569 123.061608 l
293.484673 124.518847 l
295.602015 124.033836 l
288.290157 130.729688 l
281.318844 109.82817 l
274.525172 91.935843 l
267.136996 108.065907 l
259.756058 119.39244 l
252.151593 135.009122 l
245.837887 113.377061 l
239.002217 109.476467 l
232.251735 105.149284 l
223.873075 133.287727 l
221.681028 132.978468 l
219.633775 129.928465 l
217.457507 129.17912 l
215.372785 126.766381 l
213.120497 127.150812 l
211.042144 124.553005 l
209.0792 120.120881 l
207.127706 115.600797 l
205.093086 112.43495 l
202.84376 112.48276 l
cl
gsave
0.916 0.834 0.789 setrgbcolor
fill
grestore
stroke
grestore
gsave
446.4 157.1 72 43.2 clipbox
295.602015 124.033836 m
302.865158 106.852455 l
310.120327 111.566937 l
317.447408 115.885587 l
324.656634 108.359883 l
332.113415 114.726061 l
338.848556 89.932228 l
346.730245 108.909452 l
354.46904 117.816694 l
361.860123 115.407404 l
369.282669 113.54455 l
371.411475 116.133288 l
373.189038 111.603065 l
375.293466 113.90307 l
377.359233 115.475185 l
379.252567 113.870059 l
381.195132 113.370135 l
383.249452 115.0094 l
385.162368 114.230267 l
387.147963 114.839579 l
389.151082 115.826769 l
382.021687 121.113927 l
374.474037 118.505482 l
366.871432 113.42889 l
358.685618 91.735847 l
352.335115 115.529661 l
344.890755 109.767208 l
337.870445 117.516706 l
330.563709 113.387366 l
323.300571 107.571282 l
316.352109 124.07171 l
314.327355 126.124604 l
312.283533 127.333236 l
310.201197 123.938625 l
308.138863 124.288926 l
306.06518 123.654771 l
303.989312 124.722681 l
301.900757 120.392815 l
299.811877 121.650599 l
297.712408 122.799308 l
295.602015 124.033836 l
cl
gsave
0.852 0.346 0.280 setrgbcolor
fill
grestore
stroke
grestore
gsave
446.4 157.1 72 43.2 clipbox
274.49001 103.788698 m
281.991837 86.246116 l
289.150695 92.091905 l
296.42198 90.855448 l
303.702423 84.812893 l
311.041858 92.027909 l
318.104745 67.346008 l
325.7988 92.712866 l
333.277335 95.249222 l
340.739372 95.095208 l
348.086392 90.504743 l
350.371607 97.566452 l
352.667955 104.585425 l
354.782141 106.322897 l
357.060678 112.421057 l
359.037968 110.676989 l
361.179008 113.218491 l
363.203534 113.019904 l
365.193721 112.21596 l
367.298324 114.150957 l
369.282669 113.54455 l
361.860123 115.407404 l
354.46904 117.816694 l
346.730245 108.909452 l
338.848556 89.932228 l
332.113415 114.726061 l
324.656634 108.359883 l
317.447408 115.885587 l
310.120327 111.566937 l
302.865158 106.852455 l
295.602015 124.033836 l
293.484673 124.518847 l
291.371569 123.061608 l
289.239709 123.510057 l
287.111727 122.642501 l
284.994341 120.367903 l
282.868411 118.704446 l
280.722773 118.257195 l
278.653546 112.465077 l
276.573946 107.84483 l
274.49001 103.788698 l
cl
gsave
0.969 0.711 0.600 setrgbcolor
fill
grestore
stroke
grestore
/BitstreamVeraSans-Roman findfont
14.400 scalefont
setfont
gsave
235.817187 192.723636 translate
0.000000 rotate
0.000000 0.000000 m /M glyphshow
12.402649 0.000000 m /i glyphshow
16.396484 0.000000 m /r glyphshow
22.306519 0.000000 m /a glyphshow
31.115417 0.000000 m /n glyphshow
40.226135 0.000000 m /d glyphshow
49.350891 0.000000 m /a glyphshow
58.159790 0.000000 m /space glyphshow
62.729187 0.000000 m /r glyphshow
68.639221 0.000000 m /x glyphshow
77.146301 0.000000 m /zero glyphshow
86.292114 0.000000 m /comma glyphshow
90.861511 0.000000 m /space glyphshow
95.430908 0.000000 m /t glyphshow
101.067200 0.000000 m /x glyphshow
109.574280 0.000000 m /zero glyphshow
grestore

end
showpage
