%!PS-Adobe-3.0 EPSF-3.0
%%Title: e_rx0_tx0_m_rx0_tx0.eps
%%Creator: matplotlib version 1.5.1, http://matplotlib.org/
%%CreationDate: Wed Feb 15 15:33:12 2017
%%Orientation: portrait
%%BoundingBox: 18 180 594 612
%%EndComments
%%BeginProlog
/mpldict 8 dict def
mpldict begin
/m { moveto } bind def
/l { lineto } bind def
/r { rlineto } bind def
/c { curveto } bind def
/cl { closepath } bind def
/box {
m
1 index 0 r
0 exch r
neg 0 r
cl
} bind def
/clipbox {
box
clip
newpath
} bind def
%!PS-Adobe-3.0 Resource-Font
%%Title: Bitstream Vera Sans
%%Copyright: Copyright (c) 2003 by Bitstream, Inc. All Rights Reserved.
%%Creator: Converted from TrueType to type 3 by PPR
25 dict begin
/_d{bind def}bind def
/_m{moveto}_d
/_l{lineto}_d
/_cl{closepath eofill}_d
/_c{curveto}_d
/_sc{7 -1 roll{setcachedevice}{pop pop pop pop pop pop}ifelse}_d
/_e{exec}_d
/FontName /BitstreamVeraSans-Roman def
/PaintType 0 def
/FontMatrix[.001 0 0 .001 0 0]def
/FontBBox[-183 -236 1287 928]def
/FontType 3 def
/Encoding [ /space /comma /zero /one /two /three /four /six /eight /B /I /M /P /bracketleft /bracketright /a /c /d /e /g /h /i /m /n /r /s /t /u /x /minus ] def
/FontInfo 10 dict dup begin
/FamilyName (Bitstream Vera Sans) def
/FullName (Bitstream Vera Sans) def
/Notice (Copyright (c) 2003 by Bitstream, Inc. All Rights Reserved. Bitstream Vera is a trademark of Bitstream, Inc.) def
/Weight (Roman) def
/Version (Release 1.10) def
/ItalicAngle 0.0 def
/isFixedPitch false def
/UnderlinePosition -213 def
/UnderlineThickness 143 def
end readonly def
/CharStrings 30 dict dup begin
/space{318 0 0 0 0 0 _sc
}_d
/comma{318 0 77 -115 220 124 _sc
117 124 _m
220 124 _l
220 40 _l
140 -115 _l
77 -115 _l
117 40 _l
117 124 _l
_cl}_d
/zero{636 0 66 -13 570 742 _sc
318 664 _m
267 664 229 639 203 589 _c
177 539 165 464 165 364 _c
165 264 177 189 203 139 _c
229 89 267 64 318 64 _c
369 64 407 89 433 139 _c
458 189 471 264 471 364 _c
471 464 458 539 433 589 _c
407 639 369 664 318 664 _c
318 742 _m
399 742 461 709 505 645 _c
548 580 570 486 570 364 _c
570 241 548 147 505 83 _c
461 19 399 -13 318 -13 _c
236 -13 173 19 130 83 _c
87 147 66 241 66 364 _c
66 486 87 580 130 645 _c
173 709 236 742 318 742 _c
_cl}_d
/one{636 0 110 0 544 729 _sc
124 83 _m
285 83 _l
285 639 _l
110 604 _l
110 694 _l
284 729 _l
383 729 _l
383 83 _l
544 83 _l
544 0 _l
124 0 _l
124 83 _l
_cl}_d
/two{{636 0 73 0 536 742 _sc
192 83 _m
536 83 _l
536 0 _l
73 0 _l
73 83 _l
110 121 161 173 226 239 _c
290 304 331 346 348 365 _c
380 400 402 430 414 455 _c
426 479 433 504 433 528 _c
433 566 419 598 392 622 _c
365 646 330 659 286 659 _c
255 659 222 653 188 643 _c
154 632 117 616 78 594 _c
78 694 _l
118 710 155 722 189 730 _c
223 738 255 742 284 742 _c
}_e{359 742 419 723 464 685 _c
509 647 532 597 532 534 _c
532 504 526 475 515 449 _c
504 422 484 390 454 354 _c
446 344 420 317 376 272 _c
332 227 271 164 192 83 _c
_cl}_e}_d
/three{{636 0 76 -13 556 742 _sc
406 393 _m
453 383 490 362 516 330 _c
542 298 556 258 556 212 _c
556 140 531 84 482 45 _c
432 6 362 -13 271 -13 _c
240 -13 208 -10 176 -4 _c
144 1 110 10 76 22 _c
76 117 _l
103 101 133 89 166 81 _c
198 73 232 69 268 69 _c
330 69 377 81 409 105 _c
441 129 458 165 458 212 _c
458 254 443 288 413 312 _c
383 336 341 349 287 349 _c
}_e{202 349 _l
202 430 _l
291 430 _l
339 430 376 439 402 459 _c
428 478 441 506 441 543 _c
441 580 427 609 401 629 _c
374 649 336 659 287 659 _c
260 659 231 656 200 650 _c
169 644 135 635 98 623 _c
98 711 _l
135 721 170 729 203 734 _c
235 739 266 742 296 742 _c
370 742 429 725 473 691 _c
517 657 539 611 539 553 _c
539 513 527 479 504 451 _c
481 423 448 403 406 393 _c
_cl}_e}_d
/four{636 0 49 0 580 729 _sc
378 643 _m
129 254 _l
378 254 _l
378 643 _l
352 729 _m
476 729 _l
476 254 _l
580 254 _l
580 172 _l
476 172 _l
476 0 _l
378 0 _l
378 172 _l
49 172 _l
49 267 _l
352 729 _l
_cl}_d
/six{{636 0 70 -13 573 742 _sc
330 404 _m
286 404 251 388 225 358 _c
199 328 186 286 186 234 _c
186 181 199 139 225 109 _c
251 79 286 64 330 64 _c
374 64 409 79 435 109 _c
461 139 474 181 474 234 _c
474 286 461 328 435 358 _c
409 388 374 404 330 404 _c
526 713 _m
526 623 _l
501 635 476 644 451 650 _c
425 656 400 659 376 659 _c
310 659 260 637 226 593 _c
}_e{192 549 172 482 168 394 _c
187 422 211 444 240 459 _c
269 474 301 482 336 482 _c
409 482 467 459 509 415 _c
551 371 573 310 573 234 _c
573 159 550 99 506 54 _c
462 9 403 -13 330 -13 _c
246 -13 181 19 137 83 _c
92 147 70 241 70 364 _c
70 479 97 571 152 639 _c
206 707 280 742 372 742 _c
396 742 421 739 447 735 _c
472 730 498 723 526 713 _c
_cl}_e}_d
/eight{{636 0 68 -13 568 742 _sc
318 346 _m
271 346 234 333 207 308 _c
180 283 167 249 167 205 _c
167 161 180 126 207 101 _c
234 76 271 64 318 64 _c
364 64 401 76 428 102 _c
455 127 469 161 469 205 _c
469 249 455 283 429 308 _c
402 333 365 346 318 346 _c
219 388 _m
177 398 144 418 120 447 _c
96 476 85 511 85 553 _c
85 611 105 657 147 691 _c
188 725 245 742 318 742 _c
}_e{390 742 447 725 489 691 _c
530 657 551 611 551 553 _c
551 511 539 476 515 447 _c
491 418 459 398 417 388 _c
464 377 501 355 528 323 _c
554 291 568 251 568 205 _c
568 134 546 80 503 43 _c
459 5 398 -13 318 -13 _c
237 -13 175 5 132 43 _c
89 80 68 134 68 205 _c
68 251 81 291 108 323 _c
134 355 171 377 219 388 _c
183 544 _m
183 506 194 476 218 455 _c
}_e{242 434 275 424 318 424 _c
360 424 393 434 417 455 _c
441 476 453 506 453 544 _c
453 582 441 611 417 632 _c
393 653 360 664 318 664 _c
275 664 242 653 218 632 _c
194 611 183 582 183 544 _c
_cl}_e}_d
/B{{686 0 98 0 615 729 _sc
197 348 _m
197 81 _l
355 81 _l
408 81 447 92 473 114 _c
498 136 511 169 511 215 _c
511 260 498 293 473 315 _c
447 337 408 348 355 348 _c
197 348 _l
197 648 _m
197 428 _l
343 428 _l
391 428 426 437 450 455 _c
474 473 486 500 486 538 _c
486 574 474 602 450 620 _c
426 638 391 648 343 648 _c
197 648 _l
98 729 _m
350 729 _l
}_e{425 729 483 713 524 682 _c
564 650 585 606 585 549 _c
585 504 574 468 553 442 _c
532 416 502 399 462 393 _c
510 382 548 360 575 327 _c
601 294 615 253 615 204 _c
615 138 592 88 548 53 _c
504 17 441 0 360 0 _c
98 0 _l
98 729 _l
_cl}_e}_d
/I{295 0 98 0 197 729 _sc
98 729 _m
197 729 _l
197 0 _l
98 0 _l
98 729 _l
_cl}_d
/M{863 0 98 0 765 729 _sc
98 729 _m
245 729 _l
431 233 _l
618 729 _l
765 729 _l
765 0 _l
669 0 _l
669 640 _l
481 140 _l
382 140 _l
194 640 _l
194 0 _l
98 0 _l
98 729 _l
_cl}_d
/P{603 0 98 0 569 729 _sc
197 648 _m
197 374 _l
321 374 _l
367 374 402 385 427 409 _c
452 433 465 467 465 511 _c
465 555 452 588 427 612 _c
402 636 367 648 321 648 _c
197 648 _l
98 729 _m
321 729 _l
402 729 464 710 506 673 _c
548 636 569 582 569 511 _c
569 439 548 384 506 348 _c
464 311 402 293 321 293 _c
197 293 _l
197 0 _l
98 0 _l
98 729 _l
_cl}_d
/bracketleft{390 0 86 -131 293 760 _sc
86 760 _m
293 760 _l
293 690 _l
176 690 _l
176 -61 _l
293 -61 _l
293 -131 _l
86 -131 _l
86 760 _l
_cl}_d
/bracketright{390 0 97 -131 304 760 _sc
304 760 _m
304 -131 _l
97 -131 _l
97 -61 _l
214 -61 _l
214 690 _l
97 690 _l
97 760 _l
304 760 _l
_cl}_d
/a{{613 0 60 -13 522 560 _sc
343 275 _m
270 275 220 266 192 250 _c
164 233 150 205 150 165 _c
150 133 160 107 181 89 _c
202 70 231 61 267 61 _c
317 61 357 78 387 114 _c
417 149 432 196 432 255 _c
432 275 _l
343 275 _l
522 312 _m
522 0 _l
432 0 _l
432 83 _l
411 49 385 25 355 10 _c
325 -5 287 -13 243 -13 _c
187 -13 142 2 109 33 _c
76 64 60 106 60 159 _c
}_e{60 220 80 266 122 298 _c
163 329 224 345 306 345 _c
432 345 _l
432 354 _l
432 395 418 427 391 450 _c
364 472 326 484 277 484 _c
245 484 215 480 185 472 _c
155 464 127 453 100 439 _c
100 522 _l
132 534 164 544 195 550 _c
226 556 256 560 286 560 _c
365 560 424 539 463 498 _c
502 457 522 395 522 312 _c
_cl}_e}_d
/c{{550 0 55 -13 488 560 _sc
488 526 _m
488 442 _l
462 456 437 466 411 473 _c
385 480 360 484 334 484 _c
276 484 230 465 198 428 _c
166 391 150 339 150 273 _c
150 206 166 154 198 117 _c
230 80 276 62 334 62 _c
360 62 385 65 411 72 _c
437 79 462 90 488 104 _c
488 21 _l
462 9 436 0 410 -5 _c
383 -10 354 -13 324 -13 _c
242 -13 176 12 128 64 _c
}_e{79 115 55 185 55 273 _c
55 362 79 432 128 483 _c
177 534 244 560 330 560 _c
358 560 385 557 411 551 _c
437 545 463 537 488 526 _c
_cl}_e}_d
/d{{635 0 55 -13 544 760 _sc
454 464 _m
454 760 _l
544 760 _l
544 0 _l
454 0 _l
454 82 _l
435 49 411 25 382 10 _c
353 -5 319 -13 279 -13 _c
213 -13 159 13 117 65 _c
75 117 55 187 55 273 _c
55 359 75 428 117 481 _c
159 533 213 560 279 560 _c
319 560 353 552 382 536 _c
411 520 435 496 454 464 _c
148 273 _m
148 207 161 155 188 117 _c
215 79 253 61 301 61 _c
}_e{348 61 385 79 413 117 _c
440 155 454 207 454 273 _c
454 339 440 390 413 428 _c
385 466 348 485 301 485 _c
253 485 215 466 188 428 _c
161 390 148 339 148 273 _c
_cl}_e}_d
/e{{615 0 55 -13 562 560 _sc
562 296 _m
562 252 _l
149 252 _l
153 190 171 142 205 110 _c
238 78 284 62 344 62 _c
378 62 412 66 444 74 _c
476 82 509 95 541 113 _c
541 28 _l
509 14 476 3 442 -3 _c
408 -9 373 -13 339 -13 _c
251 -13 182 12 131 62 _c
80 112 55 181 55 268 _c
55 357 79 428 127 481 _c
175 533 241 560 323 560 _c
397 560 455 536 498 489 _c
}_e{540 441 562 377 562 296 _c
472 322 _m
471 371 457 410 431 440 _c
404 469 368 484 324 484 _c
274 484 234 469 204 441 _c
174 413 156 373 152 322 _c
472 322 _l
_cl}_e}_d
/g{{635 0 55 -207 544 560 _sc
454 280 _m
454 344 440 395 414 431 _c
387 467 349 485 301 485 _c
253 485 215 467 188 431 _c
161 395 148 344 148 280 _c
148 215 161 165 188 129 _c
215 93 253 75 301 75 _c
349 75 387 93 414 129 _c
440 165 454 215 454 280 _c
544 68 _m
544 -24 523 -93 482 -139 _c
440 -184 377 -207 292 -207 _c
260 -207 231 -204 203 -200 _c
175 -195 147 -188 121 -178 _c
}_e{121 -91 _l
147 -105 173 -115 199 -122 _c
225 -129 251 -133 278 -133 _c
336 -133 380 -117 410 -87 _c
439 -56 454 -10 454 52 _c
454 96 _l
435 64 411 40 382 24 _c
353 8 319 0 279 0 _c
211 0 157 25 116 76 _c
75 127 55 195 55 280 _c
55 364 75 432 116 483 _c
157 534 211 560 279 560 _c
319 560 353 552 382 536 _c
411 520 435 496 454 464 _c
454 547 _l
544 547 _l
}_e{544 68 _l
_cl}_e}_d
/h{634 0 91 0 549 760 _sc
549 330 _m
549 0 _l
459 0 _l
459 327 _l
459 379 448 417 428 443 _c
408 469 378 482 338 482 _c
289 482 251 466 223 435 _c
195 404 181 362 181 309 _c
181 0 _l
91 0 _l
91 760 _l
181 760 _l
181 462 _l
202 494 227 519 257 535 _c
286 551 320 560 358 560 _c
420 560 468 540 500 501 _c
532 462 549 405 549 330 _c
_cl}_d
/i{278 0 94 0 184 760 _sc
94 547 _m
184 547 _l
184 0 _l
94 0 _l
94 547 _l
94 760 _m
184 760 _l
184 646 _l
94 646 _l
94 760 _l
_cl}_d
/m{{974 0 91 0 889 560 _sc
520 442 _m
542 482 569 511 600 531 _c
631 550 668 560 711 560 _c
767 560 811 540 842 500 _c
873 460 889 403 889 330 _c
889 0 _l
799 0 _l
799 327 _l
799 379 789 418 771 444 _c
752 469 724 482 686 482 _c
639 482 602 466 575 435 _c
548 404 535 362 535 309 _c
535 0 _l
445 0 _l
445 327 _l
445 379 435 418 417 444 _c
398 469 369 482 331 482 _c
}_e{285 482 248 466 221 435 _c
194 404 181 362 181 309 _c
181 0 _l
91 0 _l
91 547 _l
181 547 _l
181 462 _l
201 495 226 520 255 536 _c
283 552 317 560 357 560 _c
397 560 430 550 458 530 _c
486 510 506 480 520 442 _c
_cl}_e}_d
/n{634 0 91 0 549 560 _sc
549 330 _m
549 0 _l
459 0 _l
459 327 _l
459 379 448 417 428 443 _c
408 469 378 482 338 482 _c
289 482 251 466 223 435 _c
195 404 181 362 181 309 _c
181 0 _l
91 0 _l
91 547 _l
181 547 _l
181 462 _l
202 494 227 519 257 535 _c
286 551 320 560 358 560 _c
420 560 468 540 500 501 _c
532 462 549 405 549 330 _c
_cl}_d
/r{411 0 91 0 411 560 _sc
411 463 _m
401 469 390 473 378 476 _c
366 478 353 480 339 480 _c
288 480 249 463 222 430 _c
194 397 181 350 181 288 _c
181 0 _l
91 0 _l
91 547 _l
181 547 _l
181 462 _l
199 495 224 520 254 536 _c
284 552 321 560 365 560 _c
371 560 378 559 386 559 _c
393 558 401 557 411 555 _c
411 463 _l
_cl}_d
/s{{521 0 54 -13 472 560 _sc
443 531 _m
443 446 _l
417 458 391 468 364 475 _c
336 481 308 485 279 485 _c
234 485 200 478 178 464 _c
156 450 145 430 145 403 _c
145 382 153 366 169 354 _c
185 342 217 330 265 320 _c
296 313 _l
360 299 405 279 432 255 _c
458 230 472 195 472 151 _c
472 100 452 60 412 31 _c
372 1 316 -13 246 -13 _c
216 -13 186 -10 154 -5 _c
}_e{122 0 89 8 54 20 _c
54 113 _l
87 95 120 82 152 74 _c
184 65 216 61 248 61 _c
290 61 323 68 346 82 _c
368 96 380 117 380 144 _c
380 168 371 187 355 200 _c
339 213 303 226 247 238 _c
216 245 _l
160 257 119 275 95 299 _c
70 323 58 356 58 399 _c
58 450 76 490 112 518 _c
148 546 200 560 268 560 _c
301 560 332 557 362 552 _c
391 547 418 540 443 531 _c
}_e{_cl}_e}_d
/t{392 0 27 0 368 702 _sc
183 702 _m
183 547 _l
368 547 _l
368 477 _l
183 477 _l
183 180 _l
183 135 189 106 201 94 _c
213 81 238 75 276 75 _c
368 75 _l
368 0 _l
276 0 _l
206 0 158 13 132 39 _c
106 65 93 112 93 180 _c
93 477 _l
27 477 _l
27 547 _l
93 547 _l
93 702 _l
183 702 _l
_cl}_d
/u{634 0 85 -13 543 547 _sc
85 216 _m
85 547 _l
175 547 _l
175 219 _l
175 167 185 129 205 103 _c
225 77 255 64 296 64 _c
344 64 383 79 411 110 _c
439 141 453 183 453 237 _c
453 547 _l
543 547 _l
543 0 _l
453 0 _l
453 84 _l
431 50 405 26 377 10 _c
348 -5 315 -13 277 -13 _c
214 -13 166 6 134 45 _c
101 83 85 140 85 216 _c
_cl}_d
/x{592 0 29 0 559 547 _sc
549 547 _m
351 281 _l
559 0 _l
453 0 _l
294 215 _l
135 0 _l
29 0 _l
241 286 _l
47 547 _l
153 547 _l
298 352 _l
443 547 _l
549 547 _l
_cl}_d
/minus{838 0 106 272 732 355 _sc
106 355 _m
732 355 _l
732 272 _l
106 272 _l
106 355 _l
_cl}_d
end readonly def

/BuildGlyph
 {exch begin
 CharStrings exch
 2 copy known not{pop /.notdef}if
 true 3 1 roll get exec
 end}_d

/BuildChar {
 1 index /Encoding get exch get
 1 index /BuildGlyph get exec
}_d

FontName currentdict end definefont pop
end
%%EndProlog
mpldict begin
18 180 translate
576 432 0 0 clipbox
100000 setmiterlimit
gsave
0 0 m
576 0 l
576 432 l
0 432 l
cl
1.000 setgray
fill
grestore
gsave
72 231.709091 m
518.4 231.709091 l
518.4 388.8 l
72 388.8 l
cl
1.000 setgray
fill
grestore
1.000 setlinewidth
1 setlinejoin
2 setlinecap
[] 0 setdash
1.000 0.000 0.000 setrgbcolor
gsave
446.4 157.1 72 231.7 clipbox
72 286.484618 m
74.48 302.085114 l
76.96 301.617163 l
79.44 301.617163 l
81.92 300.139712 l
84.4 301.617163 l
86.88 301.617163 l
89.36 300.139712 l
91.84 292.710109 l
94.32 300.139712 l
96.8 285.401407 l
99.28 285.401407 l
101.76 288.481309 l
104.24 285.401407 l
106.72 257.9808 l
109.2 273.348764 l
111.68 273.348764 l
114.16 262.2096 l
116.64 262.2096 l
119.12 262.2096 l
121.6 271.116654 l
124.08 271.116654 l
126.56 262.2096 l
129.04 262.2096 l
131.52 275.345455 l
134 275.345455 l
136.48 231.709091 l
138.96 262.2096 l
141.44 285.401407 l
143.92 295.522822 l
146.4 301.617163 l
148.88 305.463102 l
151.36 300.139712 l
153.84 305.845964 l
156.32 310.524217 l
158.8 310.818037 l
161.28 310.818037 l
163.76 305.845964 l
166.24 310.818037 l
168.72 299.620473 l
171.2 305.463102 l
173.68 310.818037 l
176.16 322.750247 l
178.64 314.988437 l
181.12 314.988437 l
183.6 322.750247 l
186.08 319.725091 l
188.56 319.725091 l
191.04 320.614974 l
193.52 323.953892 l
196 323.210619 l
198.48 320.086074 l
200.96 321.297968 l
203.44 315.901917 l
205.92 305.845964 l
208.4 298.537262 l
stroke
grestore
0.502 0.000 0.000 setrgbcolor
gsave
446.4 157.1 72 231.7 clipbox
72 346.357783 m
74.48 352.715114 l
76.96 355.558657 l
79.44 358.60139 l
81.92 359.359073 l
84.4 359.336553 l
86.88 358.030676 l
89.36 355.640993 l
91.84 359.89169 l
94.32 355.448316 l
96.8 353.711128 l
99.28 349.820412 l
101.76 348.589893 l
104.24 345.110858 l
106.72 334.349783 l
109.2 336.869809 l
111.68 340.666021 l
114.16 338.56173 l
116.64 341.024726 l
119.12 339.093724 l
121.6 337.162495 l
124.08 335.963611 l
126.56 332.306242 l
129.04 339.028036 l
131.52 337.734645 l
134 333.750829 l
136.48 338.083661 l
138.96 339.093724 l
141.44 335.093056 l
143.92 345.300845 l
146.4 339.354223 l
148.88 344.578355 l
151.36 350.2256 l
153.84 350.2256 l
156.32 353.312789 l
158.8 357.54159 l
161.28 356.52384 l
163.76 358.22283 l
166.24 357.342366 l
168.72 362.331763 l
171.2 360.579331 l
173.68 363.882664 l
176.16 367.296435 l
178.64 366.58748 l
181.12 365.561142 l
183.6 364.934332 l
186.08 366.230634 l
188.56 370.200821 l
191.04 369.854733 l
193.52 370.175401 l
196 369.436197 l
198.48 369.906406 l
200.96 368.625623 l
203.44 364.251338 l
205.92 359.693709 l
208.4 355.448316 l
stroke
grestore
1.000 0.000 0.000 setrgbcolor
gsave
446.4 157.1 72 231.7 clipbox
72 286.484618 m
74.48 302.085114 l
76.96 301.617163 l
79.44 301.617163 l
81.92 300.139712 l
84.4 301.617163 l
86.88 301.617163 l
89.36 300.139712 l
91.84 292.710109 l
94.32 300.139712 l
96.8 285.401407 l
99.28 285.401407 l
101.76 288.481309 l
104.24 285.401407 l
106.72 257.9808 l
109.2 273.348764 l
111.68 273.348764 l
114.16 262.2096 l
116.64 262.2096 l
119.12 262.2096 l
121.6 271.116654 l
124.08 271.116654 l
126.56 262.2096 l
129.04 262.2096 l
131.52 275.345455 l
134 275.345455 l
136.48 231.709091 l
138.96 262.2096 l
141.44 285.401407 l
143.92 295.522822 l
146.4 301.617163 l
148.88 305.463102 l
151.36 300.139712 l
153.84 305.845964 l
156.32 310.524217 l
158.8 310.818037 l
161.28 310.818037 l
163.76 305.845964 l
166.24 310.818037 l
168.72 299.620473 l
171.2 305.463102 l
173.68 310.818037 l
176.16 322.750247 l
178.64 314.988437 l
181.12 314.988437 l
183.6 322.750247 l
186.08 319.725091 l
188.56 319.725091 l
191.04 320.614974 l
193.52 323.953892 l
196 323.210619 l
198.48 320.086074 l
200.96 321.297968 l
203.44 315.901917 l
205.92 305.845964 l
208.4 298.537262 l
210.88 345.110858 l
213.36 347.943313 l
215.84 352.810746 l
218.32 357.54159 l
220.8 360.642536 l
223.28 364.934332 l
225.76 354.772427 l
228.24 348.589893 l
230.72 348.589893 l
233.2 339.674892 l
235.68 346.402426 l
238.16 343.361829 l
240.64 345.675199 l
243.12 345.300845 l
245.6 329.909236 l
248.08 314.988437 l
250.56 314.753018 l
253.04 330.120982 l
255.52 313.275566 l
258 330.225974 l
260.48 323.953892 l
262.96 314.753018 l
265.44 310.818037 l
267.92 285.401407 l
270.4 303.849273 l
272.88 303.849273 l
275.36 323.953892 l
277.84 326.023331 l
280.32 335.886102 l
282.8 332.117673 l
285.28 332.585623 l
287.76 343.724787 l
290.24 346.755835 l
292.72 353.711128 l
295.2 358.246713 l
297.68 358.880429 l
300.16 358.857332 l
302.64 358.880429 l
305.12 358.857332 l
307.6 364.934332 l
310.08 361.202094 l
312.56 362.331763 l
315.04 365.561142 l
317.52 372.629492 l
320 365.770905 l
322.48 369.854733 l
324.96 370.465699 l
327.44 372.279894 l
329.92 373.757346 l
332.4 375.293665 l
334.88 378.834411 l
337.36 375.467617 l
339.84 377.221299 l
342.32 375.059216 l
344.8 367.590255 l
347.28 362.937642 l
stroke
grestore
0.502 0.000 0.000 setrgbcolor
gsave
446.4 157.1 72 231.7 clipbox
72 346.357783 m
74.48 352.715114 l
76.96 355.558657 l
79.44 358.60139 l
81.92 359.359073 l
84.4 359.336553 l
86.88 358.030676 l
89.36 355.640993 l
91.84 359.89169 l
94.32 355.448316 l
96.8 353.711128 l
99.28 349.820412 l
101.76 348.589893 l
104.24 345.110858 l
106.72 334.349783 l
109.2 336.869809 l
111.68 340.666021 l
114.16 338.56173 l
116.64 341.024726 l
119.12 339.093724 l
121.6 337.162495 l
124.08 335.963611 l
126.56 332.306242 l
129.04 339.028036 l
131.52 337.734645 l
134 333.750829 l
136.48 338.083661 l
138.96 339.093724 l
141.44 335.093056 l
143.92 345.300845 l
146.4 339.354223 l
148.88 344.578355 l
151.36 350.2256 l
153.84 350.2256 l
156.32 353.312789 l
158.8 357.54159 l
161.28 356.52384 l
163.76 358.22283 l
166.24 357.342366 l
168.72 362.331763 l
171.2 360.579331 l
173.68 363.882664 l
176.16 367.296435 l
178.64 366.58748 l
181.12 365.561142 l
183.6 364.934332 l
186.08 366.230634 l
188.56 370.200821 l
191.04 369.854733 l
193.52 370.175401 l
196 369.436197 l
198.48 369.906406 l
200.96 368.625623 l
203.44 364.251338 l
205.92 359.693709 l
208.4 355.448316 l
210.88 332.585623 l
213.36 342.173625 l
215.84 350.870499 l
218.32 357.267113 l
220.8 359.493637 l
223.28 353.832028 l
225.76 356.100927 l
228.24 359.336553 l
230.72 361.222504 l
233.2 353.466989 l
235.68 353.711128 l
238.16 353.832028 l
240.64 347.102775 l
243.12 334.433823 l
245.6 310.818037 l
248.08 292.710109 l
250.56 323.953892 l
253.04 319.170387 l
255.52 334.930385 l
258 337.944825 l
260.48 339.289434 l
262.96 338.56173 l
265.44 332.585623 l
267.92 336.346473 l
270.4 340.666021 l
272.88 342.06182 l
275.36 342.884714 l
277.84 335.886102 l
280.32 299.620473 l
282.8 323.210619 l
285.28 340.176935 l
287.76 332.306242 l
290.24 351.080679 l
292.72 355.30948 l
295.2 358.318181 l
297.68 361.626162 l
300.16 359.869794 l
302.64 358.857332 l
305.12 364.664081 l
307.6 364.664081 l
310.08 365.512404 l
312.56 364.251338 l
315.04 364.303425 l
317.52 357.039546 l
320 363.233469 l
322.48 350.586583 l
324.96 355.30948 l
327.44 360.705532 l
329.92 363.233469 l
332.4 369.906406 l
334.88 369.236781 l
337.36 375.147474 l
339.84 370.515734 l
342.32 367.663004 l
344.8 361.14073 l
347.28 363.596874 l
stroke
grestore
1.000 0.000 0.000 setrgbcolor
gsave
446.4 157.1 72 231.7 clipbox
72 286.484618 m
74.48 302.085114 l
76.96 301.617163 l
79.44 301.617163 l
81.92 300.139712 l
84.4 301.617163 l
86.88 301.617163 l
89.36 300.139712 l
91.84 292.710109 l
94.32 300.139712 l
96.8 285.401407 l
99.28 285.401407 l
101.76 288.481309 l
104.24 285.401407 l
106.72 257.9808 l
109.2 273.348764 l
111.68 273.348764 l
114.16 262.2096 l
119.12 262.2096 l
121.6 271.116654 l
124.08 271.116654 l
126.56 262.2096 l
129.04 262.2096 l
131.52 275.345455 l
134 275.345455 l
136.48 231.709091 l
138.96 262.2096 l
141.44 285.401407 l
143.92 295.522822 l
146.4 301.617163 l
148.88 305.463102 l
151.36 300.139712 l
153.84 305.845964 l
156.32 310.524217 l
158.8 310.818037 l
161.28 310.818037 l
163.76 305.845964 l
166.24 310.818037 l
168.72 299.620473 l
171.2 305.463102 l
173.68 310.818037 l
176.16 322.750247 l
178.64 314.988437 l
181.12 314.988437 l
183.6 322.750247 l
186.08 319.725091 l
188.56 319.725091 l
191.04 320.614974 l
193.52 323.953892 l
196 323.210619 l
198.48 320.086074 l
200.96 321.297968 l
203.44 315.901917 l
205.92 305.845964 l
208.4 298.537262 l
210.88 345.110858 l
213.36 347.943313 l
218.32 357.54159 l
220.8 360.642536 l
223.28 364.934332 l
225.76 354.772427 l
228.24 348.589893 l
230.72 348.589893 l
233.2 339.674892 l
235.68 346.402426 l
238.16 343.361829 l
240.64 345.675199 l
243.12 345.300845 l
248.08 314.988437 l
250.56 314.753018 l
253.04 330.120982 l
255.52 313.275566 l
258 330.225974 l
260.48 323.953892 l
262.96 314.753018 l
265.44 310.818037 l
267.92 285.401407 l
270.4 303.849273 l
272.88 303.849273 l
275.36 323.953892 l
277.84 326.023331 l
280.32 335.886102 l
282.8 332.117673 l
285.28 332.585623 l
287.76 343.724787 l
290.24 346.755835 l
292.72 353.711128 l
295.2 358.246713 l
297.68 358.880429 l
305.12 358.857332 l
307.6 364.934332 l
310.08 361.202094 l
312.56 362.331763 l
315.04 365.561142 l
317.52 372.629492 l
320 365.770905 l
322.48 369.854733 l
324.96 370.465699 l
327.44 372.279894 l
332.4 375.293665 l
334.88 378.834411 l
337.36 375.467617 l
339.84 377.221299 l
342.32 375.059216 l
344.8 367.590255 l
347.28 362.937642 l
349.76 315.220968 l
352.24 315.901917 l
354.72 321.79453 l
357.2 324.947807 l
359.68 326.023331 l
362.16 330.225974 l
364.64 324.947807 l
367.12 324.808971 l
369.6 313.275566 l
372.08 315.901917 l
374.56 306.589237 l
377.04 315.901917 l
379.52 295.522822 l
382 299.620473 l
384.48 292.710109 l
386.96 292.710109 l
389.44 244.844945 l
391.92 286.484618 l
394.4 288.481309 l
396.88 292.710109 l
399.36 262.2096 l
401.84 271.116654 l
404.32 244.844945 l
406.8 231.709091 l
409.28 280.317528 l
411.76 275.345455 l
414.24 292.710109 l
419.2 310.818037 l
421.68 306.95022 l
424.16 310.818037 l
426.64 318.404585 l
429.12 318.404585 l
431.6 326.153579 l
434.08 331.540439 l
436.56 327.041081 l
439.04 332.585623 l
441.52 329.909236 l
444 333.221928 l
446.48 339.674892 l
448.96 334.433823 l
451.44 341.492677 l
453.92 341.318547 l
456.4 341.492677 l
458.88 343.518234 l
461.36 343.309405 l
463.84 343.776075 l
466.32 342.173625 l
468.8 345.110858 l
471.28 347.145699 l
473.76 349.670896 l
476.24 344.967108 l
478.72 347.485637 l
481.2 341.318547 l
483.68 340.114902 l
486.16 336.346473 l
486.16 336.346473 l
stroke
grestore
0.502 0.000 0.000 setrgbcolor
gsave
446.4 157.1 72 231.7 clipbox
72 346.357783 m
74.48 352.715114 l
76.96 355.558657 l
79.44 358.60139 l
81.92 359.359073 l
84.4 359.336553 l
86.88 358.030676 l
89.36 355.640993 l
91.84 359.89169 l
94.32 355.448316 l
96.8 353.711128 l
99.28 349.820412 l
101.76 348.589893 l
104.24 345.110858 l
106.72 334.349783 l
109.2 336.869809 l
111.68 340.666021 l
114.16 338.56173 l
116.64 341.024726 l
121.6 337.162495 l
124.08 335.963611 l
126.56 332.306242 l
129.04 339.028036 l
131.52 337.734645 l
134 333.750829 l
136.48 338.083661 l
138.96 339.093724 l
141.44 335.093056 l
143.92 345.300845 l
146.4 339.354223 l
148.88 344.578355 l
151.36 350.2256 l
153.84 350.2256 l
156.32 353.312789 l
158.8 357.54159 l
161.28 356.52384 l
163.76 358.22283 l
166.24 357.342366 l
168.72 362.331763 l
171.2 360.579331 l
176.16 367.296435 l
178.64 366.58748 l
181.12 365.561142 l
183.6 364.934332 l
186.08 366.230634 l
188.56 370.200821 l
191.04 369.854733 l
193.52 370.175401 l
196 369.436197 l
198.48 369.906406 l
200.96 368.625623 l
208.4 355.448316 l
210.88 332.585623 l
213.36 342.173625 l
215.84 350.870499 l
218.32 357.267113 l
220.8 359.493637 l
223.28 353.832028 l
225.76 356.100927 l
228.24 359.336553 l
230.72 361.222504 l
233.2 353.466989 l
235.68 353.711128 l
238.16 353.832028 l
240.64 347.102775 l
243.12 334.433823 l
245.6 310.818037 l
248.08 292.710109 l
250.56 323.953892 l
253.04 319.170387 l
255.52 334.930385 l
258 337.944825 l
260.48 339.289434 l
262.96 338.56173 l
265.44 332.585623 l
267.92 336.346473 l
270.4 340.666021 l
272.88 342.06182 l
275.36 342.884714 l
277.84 335.886102 l
280.32 299.620473 l
282.8 323.210619 l
285.28 340.176935 l
287.76 332.306242 l
290.24 351.080679 l
292.72 355.30948 l
295.2 358.318181 l
297.68 361.626162 l
300.16 359.869794 l
302.64 358.857332 l
305.12 364.664081 l
307.6 364.664081 l
310.08 365.512404 l
312.56 364.251338 l
315.04 364.303425 l
317.52 357.039546 l
320 363.233469 l
322.48 350.586583 l
324.96 355.30948 l
327.44 360.705532 l
329.92 363.233469 l
332.4 369.906406 l
334.88 369.236781 l
337.36 375.147474 l
339.84 370.515734 l
342.32 367.663004 l
344.8 361.14073 l
347.28 363.596874 l
349.76 330.640221 l
352.24 339.354223 l
354.72 345.442096 l
357.2 352.457711 l
359.68 353.982077 l
362.16 350.298349 l
364.64 349.670896 l
367.12 346.755835 l
369.6 348.787507 l
372.08 345.488946 l
374.56 352.29504 l
377.04 347.569677 l
379.52 330.640221 l
382 335.886102 l
384.48 328.356822 l
386.96 324.808971 l
389.44 330.120982 l
391.92 324.947807 l
394.4 332.585623 l
396.88 327.888872 l
399.36 336.346473 l
401.84 314.753018 l
404.32 308.658676 l
406.8 311.673116 l
409.28 329.037771 l
411.76 327.041081 l
414.24 331.831254 l
416.72 328.925965 l
419.2 323.210619 l
421.68 320.086074 l
424.16 330.640221 l
426.64 334.349783 l
429.12 342.06182 l
431.6 349.215138 l
434.08 350.298349 l
436.56 343.929113 l
439.04 346.402426 l
441.52 350.26201 l
444 357.064967 l
446.48 358.246713 l
448.96 358.318181 l
453.92 359.869794 l
456.4 355.141523 l
458.88 355.885877 l
461.36 353.711128 l
463.84 350.2256 l
468.8 360.726483 l
471.28 365.770905 l
473.76 365.365433 l
476.24 358.006519 l
478.72 362.177217 l
481.2 356.52384 l
483.68 353.832028 l
486.16 354.071539 l
486.16 354.071539 l
stroke
grestore
0 setlinejoin
0.000 setgray
gsave
72 388.8 m
518.4 388.8 l
stroke
grestore
gsave
518.4 231.709091 m
518.4 388.8 l
stroke
grestore
gsave
72 231.709091 m
72 388.8 l
stroke
grestore
gsave
72 231.709091 m
518.4 231.709091 l
stroke
grestore
0.500 setlinewidth
1 setlinejoin
0 setlinecap
gsave
/o {
gsave
newpath
translate
0.5 setlinewidth
1 setlinejoin
0 setlinecap
0 0 m
0 4 l

gsave
0.000 setgray
fill
grestore
stroke
grestore
} bind def
72 231.709 o
grestore
gsave
/o {
gsave
newpath
translate
0.5 setlinewidth
1 setlinejoin
0 setlinecap
0 0 m
0 -4 l

gsave
0.000 setgray
fill
grestore
stroke
grestore
} bind def
72 388.8 o
grestore
/BitstreamVeraSans-Roman findfont
12.000 scalefont
setfont
gsave
68.179688 218.584091 translate
0.000000 rotate
0.000000 0.000000 m /zero glyphshow
grestore
gsave
/o {
gsave
newpath
translate
0.5 setlinewidth
1 setlinejoin
0 setlinecap
0 0 m
0 4 l

gsave
0.000 setgray
fill
grestore
stroke
grestore
} bind def
121.6 231.709 o
grestore
gsave
/o {
gsave
newpath
translate
0.5 setlinewidth
1 setlinejoin
0 setlinecap
0 0 m
0 -4 l

gsave
0.000 setgray
fill
grestore
stroke
grestore
} bind def
121.6 388.8 o
grestore
gsave
113.959375 218.584091 translate
0.000000 rotate
0.000000 0.000000 m /two glyphshow
7.634766 0.000000 m /zero glyphshow
grestore
gsave
/o {
gsave
newpath
translate
0.5 setlinewidth
1 setlinejoin
0 setlinecap
0 0 m
0 4 l

gsave
0.000 setgray
fill
grestore
stroke
grestore
} bind def
171.2 231.709 o
grestore
gsave
/o {
gsave
newpath
translate
0.5 setlinewidth
1 setlinejoin
0 setlinecap
0 0 m
0 -4 l

gsave
0.000 setgray
fill
grestore
stroke
grestore
} bind def
171.2 388.8 o
grestore
gsave
163.559375 218.584091 translate
0.000000 rotate
0.000000 0.000000 m /four glyphshow
7.634766 0.000000 m /zero glyphshow
grestore
gsave
/o {
gsave
newpath
translate
0.5 setlinewidth
1 setlinejoin
0 setlinecap
0 0 m
0 4 l

gsave
0.000 setgray
fill
grestore
stroke
grestore
} bind def
220.8 231.709 o
grestore
gsave
/o {
gsave
newpath
translate
0.5 setlinewidth
1 setlinejoin
0 setlinecap
0 0 m
0 -4 l

gsave
0.000 setgray
fill
grestore
stroke
grestore
} bind def
220.8 388.8 o
grestore
gsave
213.159375 218.584091 translate
0.000000 rotate
0.000000 0.000000 m /six glyphshow
7.634766 0.000000 m /zero glyphshow
grestore
gsave
/o {
gsave
newpath
translate
0.5 setlinewidth
1 setlinejoin
0 setlinecap
0 0 m
0 4 l

gsave
0.000 setgray
fill
grestore
stroke
grestore
} bind def
270.4 231.709 o
grestore
gsave
/o {
gsave
newpath
translate
0.5 setlinewidth
1 setlinejoin
0 setlinecap
0 0 m
0 -4 l

gsave
0.000 setgray
fill
grestore
stroke
grestore
} bind def
270.4 388.8 o
grestore
gsave
262.759375 218.584091 translate
0.000000 rotate
0.000000 0.000000 m /eight glyphshow
7.634766 0.000000 m /zero glyphshow
grestore
gsave
/o {
gsave
newpath
translate
0.5 setlinewidth
1 setlinejoin
0 setlinecap
0 0 m
0 4 l

gsave
0.000 setgray
fill
grestore
stroke
grestore
} bind def
320 231.709 o
grestore
gsave
/o {
gsave
newpath
translate
0.5 setlinewidth
1 setlinejoin
0 setlinecap
0 0 m
0 -4 l

gsave
0.000 setgray
fill
grestore
stroke
grestore
} bind def
320 388.8 o
grestore
gsave
308.539062 218.584091 translate
0.000000 rotate
0.000000 0.000000 m /one glyphshow
7.634766 0.000000 m /zero glyphshow
15.269531 0.000000 m /zero glyphshow
grestore
gsave
/o {
gsave
newpath
translate
0.5 setlinewidth
1 setlinejoin
0 setlinecap
0 0 m
0 4 l

gsave
0.000 setgray
fill
grestore
stroke
grestore
} bind def
369.6 231.709 o
grestore
gsave
/o {
gsave
newpath
translate
0.5 setlinewidth
1 setlinejoin
0 setlinecap
0 0 m
0 -4 l

gsave
0.000 setgray
fill
grestore
stroke
grestore
} bind def
369.6 388.8 o
grestore
gsave
358.139063 218.584091 translate
0.000000 rotate
0.000000 0.000000 m /one glyphshow
7.634766 0.000000 m /two glyphshow
15.269531 0.000000 m /zero glyphshow
grestore
gsave
/o {
gsave
newpath
translate
0.5 setlinewidth
1 setlinejoin
0 setlinecap
0 0 m
0 4 l

gsave
0.000 setgray
fill
grestore
stroke
grestore
} bind def
419.2 231.709 o
grestore
gsave
/o {
gsave
newpath
translate
0.5 setlinewidth
1 setlinejoin
0 setlinecap
0 0 m
0 -4 l

gsave
0.000 setgray
fill
grestore
stroke
grestore
} bind def
419.2 388.8 o
grestore
gsave
407.739062 218.584091 translate
0.000000 rotate
0.000000 0.000000 m /one glyphshow
7.634766 0.000000 m /four glyphshow
15.269531 0.000000 m /zero glyphshow
grestore
gsave
/o {
gsave
newpath
translate
0.5 setlinewidth
1 setlinejoin
0 setlinecap
0 0 m
0 4 l

gsave
0.000 setgray
fill
grestore
stroke
grestore
} bind def
468.8 231.709 o
grestore
gsave
/o {
gsave
newpath
translate
0.5 setlinewidth
1 setlinejoin
0 setlinecap
0 0 m
0 -4 l

gsave
0.000 setgray
fill
grestore
stroke
grestore
} bind def
468.8 388.8 o
grestore
gsave
457.339063 218.584091 translate
0.000000 rotate
0.000000 0.000000 m /one glyphshow
7.634766 0.000000 m /six glyphshow
15.269531 0.000000 m /zero glyphshow
grestore
gsave
/o {
gsave
newpath
translate
0.5 setlinewidth
1 setlinejoin
0 setlinecap
0 0 m
0 4 l

gsave
0.000 setgray
fill
grestore
stroke
grestore
} bind def
518.4 231.709 o
grestore
gsave
/o {
gsave
newpath
translate
0.5 setlinewidth
1 setlinejoin
0 setlinecap
0 0 m
0 -4 l

gsave
0.000 setgray
fill
grestore
stroke
grestore
} bind def
518.4 388.8 o
grestore
gsave
506.939062 218.584091 translate
0.000000 rotate
0.000000 0.000000 m /one glyphshow
7.634766 0.000000 m /eight glyphshow
15.269531 0.000000 m /zero glyphshow
grestore
gsave
278.559375 201.959091 translate
0.000000 rotate
0.000000 0.000000 m /I glyphshow
3.539062 0.000000 m /n glyphshow
11.144531 0.000000 m /d glyphshow
18.761719 0.000000 m /e glyphshow
26.144531 0.000000 m /x glyphshow
grestore
gsave
/o {
gsave
newpath
translate
0.5 setlinewidth
1 setlinejoin
0 setlinecap
0 0 m
4 0 l

gsave
0.000 setgray
fill
grestore
stroke
grestore
} bind def
72 231.709 o
grestore
gsave
/o {
gsave
newpath
translate
0.5 setlinewidth
1 setlinejoin
0 setlinecap
0 0 m
-4 0 l

gsave
0.000 setgray
fill
grestore
stroke
grestore
} bind def
518.4 231.709 o
grestore
gsave
60.359375 228.396591 translate
0.000000 rotate
0.000000 0.000000 m /zero glyphshow
grestore
gsave
/o {
gsave
newpath
translate
0.5 setlinewidth
1 setlinejoin
0 setlinecap
0 0 m
4 0 l

gsave
0.000 setgray
fill
grestore
stroke
grestore
} bind def
72 249.164 o
grestore
gsave
/o {
gsave
newpath
translate
0.5 setlinewidth
1 setlinejoin
0 setlinecap
0 0 m
-4 0 l

gsave
0.000 setgray
fill
grestore
stroke
grestore
} bind def
518.4 249.164 o
grestore
gsave
60.359375 245.851136 translate
0.000000 rotate
0.000000 0.000000 m /two glyphshow
grestore
gsave
/o {
gsave
newpath
translate
0.5 setlinewidth
1 setlinejoin
0 setlinecap
0 0 m
4 0 l

gsave
0.000 setgray
fill
grestore
stroke
grestore
} bind def
72 266.618 o
grestore
gsave
/o {
gsave
newpath
translate
0.5 setlinewidth
1 setlinejoin
0 setlinecap
0 0 m
-4 0 l

gsave
0.000 setgray
fill
grestore
stroke
grestore
} bind def
518.4 266.618 o
grestore
gsave
60.359375 263.305682 translate
0.000000 rotate
0.000000 0.000000 m /four glyphshow
grestore
gsave
/o {
gsave
newpath
translate
0.5 setlinewidth
1 setlinejoin
0 setlinecap
0 0 m
4 0 l

gsave
0.000 setgray
fill
grestore
stroke
grestore
} bind def
72 284.073 o
grestore
gsave
/o {
gsave
newpath
translate
0.5 setlinewidth
1 setlinejoin
0 setlinecap
0 0 m
-4 0 l

gsave
0.000 setgray
fill
grestore
stroke
grestore
} bind def
518.4 284.073 o
grestore
gsave
60.359375 280.760227 translate
0.000000 rotate
0.000000 0.000000 m /six glyphshow
grestore
gsave
/o {
gsave
newpath
translate
0.5 setlinewidth
1 setlinejoin
0 setlinecap
0 0 m
4 0 l

gsave
0.000 setgray
fill
grestore
stroke
grestore
} bind def
72 301.527 o
grestore
gsave
/o {
gsave
newpath
translate
0.5 setlinewidth
1 setlinejoin
0 setlinecap
0 0 m
-4 0 l

gsave
0.000 setgray
fill
grestore
stroke
grestore
} bind def
518.4 301.527 o
grestore
gsave
60.359375 298.214773 translate
0.000000 rotate
0.000000 0.000000 m /eight glyphshow
grestore
gsave
/o {
gsave
newpath
translate
0.5 setlinewidth
1 setlinejoin
0 setlinecap
0 0 m
4 0 l

gsave
0.000 setgray
fill
grestore
stroke
grestore
} bind def
72 318.982 o
grestore
gsave
/o {
gsave
newpath
translate
0.5 setlinewidth
1 setlinejoin
0 setlinecap
0 0 m
-4 0 l

gsave
0.000 setgray
fill
grestore
stroke
grestore
} bind def
518.4 318.982 o
grestore
gsave
52.718750 315.669318 translate
0.000000 rotate
0.000000 0.000000 m /one glyphshow
7.634766 0.000000 m /zero glyphshow
grestore
gsave
/o {
gsave
newpath
translate
0.5 setlinewidth
1 setlinejoin
0 setlinecap
0 0 m
4 0 l

gsave
0.000 setgray
fill
grestore
stroke
grestore
} bind def
72 336.436 o
grestore
gsave
/o {
gsave
newpath
translate
0.5 setlinewidth
1 setlinejoin
0 setlinecap
0 0 m
-4 0 l

gsave
0.000 setgray
fill
grestore
stroke
grestore
} bind def
518.4 336.436 o
grestore
gsave
52.718750 333.123864 translate
0.000000 rotate
0.000000 0.000000 m /one glyphshow
7.634766 0.000000 m /two glyphshow
grestore
gsave
/o {
gsave
newpath
translate
0.5 setlinewidth
1 setlinejoin
0 setlinecap
0 0 m
4 0 l

gsave
0.000 setgray
fill
grestore
stroke
grestore
} bind def
72 353.891 o
grestore
gsave
/o {
gsave
newpath
translate
0.5 setlinewidth
1 setlinejoin
0 setlinecap
0 0 m
-4 0 l

gsave
0.000 setgray
fill
grestore
stroke
grestore
} bind def
518.4 353.891 o
grestore
gsave
52.718750 350.578409 translate
0.000000 rotate
0.000000 0.000000 m /one glyphshow
7.634766 0.000000 m /four glyphshow
grestore
gsave
/o {
gsave
newpath
translate
0.5 setlinewidth
1 setlinejoin
0 setlinecap
0 0 m
4 0 l

gsave
0.000 setgray
fill
grestore
stroke
grestore
} bind def
72 371.345 o
grestore
gsave
/o {
gsave
newpath
translate
0.5 setlinewidth
1 setlinejoin
0 setlinecap
0 0 m
-4 0 l

gsave
0.000 setgray
fill
grestore
stroke
grestore
} bind def
518.4 371.345 o
grestore
gsave
52.718750 368.032955 translate
0.000000 rotate
0.000000 0.000000 m /one glyphshow
7.634766 0.000000 m /six glyphshow
grestore
gsave
/o {
gsave
newpath
translate
0.5 setlinewidth
1 setlinejoin
0 setlinecap
0 0 m
4 0 l

gsave
0.000 setgray
fill
grestore
stroke
grestore
} bind def
72 388.8 o
grestore
gsave
/o {
gsave
newpath
translate
0.5 setlinewidth
1 setlinejoin
0 setlinecap
0 0 m
-4 0 l

gsave
0.000 setgray
fill
grestore
stroke
grestore
} bind def
518.4 388.8 o
grestore
gsave
52.718750 385.487500 translate
0.000000 rotate
0.000000 0.000000 m /one glyphshow
7.634766 0.000000 m /eight glyphshow
grestore
gsave
45.218750 263.926420 translate
90.000000 rotate
0.000000 0.000000 m /M glyphshow
10.353516 0.000000 m /a glyphshow
17.707031 0.000000 m /g glyphshow
25.324219 0.000000 m /n glyphshow
32.929688 0.000000 m /i glyphshow
36.263672 0.000000 m /t glyphshow
40.968750 0.000000 m /u glyphshow
48.574219 0.000000 m /d glyphshow
56.191406 0.000000 m /e glyphshow
63.574219 0.000000 m /space glyphshow
67.388672 0.000000 m /bracketleft glyphshow
72.070312 0.000000 m /d glyphshow
79.687500 0.000000 m /B glyphshow
87.919922 0.000000 m /bracketright glyphshow
grestore
1.000 setlinewidth
0 setlinejoin
gsave
339.000625 335.78625 m
511.2 335.78625 l
511.2 381.6 l
339.000625 381.6 l
cl
gsave
1.000 setgray
fill
grestore
stroke
grestore
1 setlinejoin
2 setlinecap
1.000 0.000 0.000 setrgbcolor
gsave
349.080625 370.239375 m
369.240625 370.239375 l
stroke
grestore
0.000 setgray
/BitstreamVeraSans-Roman findfont
14.400 scalefont
setfont
gsave
385.080625 365.199375 translate
0.000000 rotate
0.000000 0.000000 m /e glyphshow
8.843994 0.000000 m /r glyphshow
14.754028 0.000000 m /i glyphshow
18.747864 0.000000 m /c glyphshow
26.651306 0.000000 m /h glyphshow
35.762024 0.000000 m /space glyphshow
40.331421 0.000000 m /t glyphshow
45.967712 0.000000 m /x glyphshow
54.474792 0.000000 m /one glyphshow
63.620605 0.000000 m /comma glyphshow
68.190002 0.000000 m /space glyphshow
72.759399 0.000000 m /r glyphshow
78.669434 0.000000 m /x glyphshow
87.176514 0.000000 m /one glyphshow
grestore
0.502 0.000 0.000 setrgbcolor
gsave
349.080625 349.4925 m
369.240625 349.4925 l
stroke
grestore
0.000 setgray
gsave
385.080625 344.452500 translate
0.000000 rotate
0.000000 0.000000 m /m glyphshow
14.002991 0.000000 m /i glyphshow
17.996826 0.000000 m /r glyphshow
23.906860 0.000000 m /a glyphshow
32.715759 0.000000 m /n glyphshow
41.826477 0.000000 m /d glyphshow
50.951233 0.000000 m /a glyphshow
59.760132 0.000000 m /space glyphshow
64.329529 0.000000 m /t glyphshow
69.965820 0.000000 m /x glyphshow
78.472900 0.000000 m /one glyphshow
87.618713 0.000000 m /comma glyphshow
92.188110 0.000000 m /space glyphshow
96.757507 0.000000 m /r glyphshow
102.667542 0.000000 m /x glyphshow
111.174622 0.000000 m /one glyphshow
grestore
gsave
72 43.2 m
518.4 43.2 l
518.4 200.290909 l
72 200.290909 l
cl
1.000 setgray
fill
grestore
1.000 0.000 0.000 setrgbcolor
gsave
446.4 157.1 72 43.2 clipbox
72 137.167818 m
74.48 134.994913 l
76.96 128.063465 l
79.44 128.063465 l
81.92 124.988374 l
84.4 128.063465 l
86.88 128.063465 l
89.36 118.502535 l
91.84 121.745455 l
94.32 118.502535 l
96.8 116.934964 l
99.28 116.934964 l
101.76 112.641101 l
104.24 116.934964 l
106.72 121.745455 l
109.2 121.745455 l
111.68 121.745455 l
114.16 130.849808 l
116.64 130.849808 l
119.12 130.849808 l
121.6 137.167818 l
124.08 137.167818 l
126.56 143.485829 l
129.04 130.849808 l
131.52 146.272172 l
134 146.272172 l
136.48 152.590182 l
138.96 161.694535 l
141.44 157.400673 l
143.92 160.061944 l
146.4 158.908193 l
148.88 152.590182 l
151.36 155.833102 l
153.84 149.80384 l
156.32 152.590182 l
158.8 150.148303 l
161.28 150.148303 l
163.76 155.376525 l
166.24 155.032062 l
168.72 152.590182 l
171.2 152.590182 l
173.68 155.032062 l
176.16 150.809952 l
178.64 152.590182 l
181.12 152.590182 l
183.6 150.809952 l
186.08 148.714051 l
188.56 148.714051 l
191.04 146.867031 l
193.52 147.36196 l
196 143.485829 l
198.48 142.632612 l
200.96 138.474975 l
203.44 138.675339 l
205.92 137.167818 l
208.4 132.357328 l
stroke
grestore
0.502 0.000 0.000 setrgbcolor
gsave
446.4 157.1 72 43.2 clipbox
72 162.547753 m
74.48 159.163197 l
76.96 158.671622 l
79.44 156.060102 l
81.92 153.26703 l
84.4 152.590182 l
86.88 151.889182 l
89.36 149.592705 l
91.84 149.237564 l
94.32 150.334424 l
96.8 147.017498 l
99.28 148.201915 l
101.76 147.125389 l
104.24 146.583834 l
106.72 152.590182 l
109.2 153.815861 l
111.68 158.207193 l
114.16 158.53774 l
116.64 161.694535 l
119.12 162.211163 l
121.6 160.061944 l
124.08 161.694535 l
126.56 166.055416 l
129.04 168.012546 l
131.52 170.559433 l
134 173.735698 l
136.48 174.861141 l
138.96 173.81393 l
141.44 179.558779 l
143.92 182.453909 l
146.4 62.355589 l
148.88 65.108901 l
151.36 65.284221 l
153.84 65.284221 l
156.32 64.866489 l
158.8 64.349862 l
161.28 67.52776 l
163.76 65.71236 l
166.24 66.599705 l
168.72 67.760133 l
171.2 68.867294 l
173.68 68.085462 l
176.16 69.160352 l
178.64 66.904593 l
181.12 67.10095 l
183.6 67.853195 l
186.08 66.37401 l
188.56 67.338955 l
191.04 66.860762 l
193.52 65.730425 l
196 64.237334 l
198.48 62.624973 l
200.96 61.116392 l
203.44 60.650858 l
205.92 180.743429 l
208.4 181.179151 l
stroke
grestore
1.000 0.000 0.000 setrgbcolor
gsave
446.4 157.1 72 43.2 clipbox
72 137.167818 m
74.48 134.994913 l
76.96 128.063465 l
79.44 128.063465 l
81.92 124.988374 l
84.4 128.063465 l
86.88 128.063465 l
89.36 118.502535 l
91.84 121.745455 l
94.32 118.502535 l
96.8 116.934964 l
99.28 116.934964 l
101.76 112.641101 l
104.24 116.934964 l
106.72 121.745455 l
109.2 121.745455 l
111.68 121.745455 l
114.16 130.849808 l
116.64 130.849808 l
119.12 130.849808 l
121.6 137.167818 l
124.08 137.167818 l
126.56 143.485829 l
129.04 130.849808 l
131.52 146.272172 l
134 146.272172 l
136.48 152.590182 l
138.96 161.694535 l
141.44 157.400673 l
143.92 160.061944 l
146.4 158.908193 l
148.88 152.590182 l
151.36 155.833102 l
153.84 149.80384 l
156.32 152.590182 l
158.8 150.148303 l
161.28 150.148303 l
163.76 155.376525 l
166.24 155.032062 l
168.72 152.590182 l
171.2 152.590182 l
173.68 155.032062 l
176.16 150.809952 l
178.64 152.590182 l
181.12 152.590182 l
183.6 150.809952 l
186.08 148.714051 l
188.56 148.714051 l
191.04 146.867031 l
193.52 147.36196 l
196 143.485829 l
198.48 142.632612 l
200.96 138.474975 l
203.44 138.675339 l
205.92 137.167818 l
208.4 132.357328 l
210.88 177.428562 l
213.36 173.921526 l
215.84 171.442473 l
218.32 169.520067 l
220.8 162.865466 l
223.28 163.001692 l
225.76 157.215429 l
228.24 158.054976 l
230.72 158.054976 l
233.2 156.020109 l
235.68 160.415714 l
238.16 153.622723 l
240.64 155.51384 l
243.12 153.571184 l
245.6 148.136678 l
248.08 152.590182 l
250.56 143.485829 l
253.04 161.694535 l
255.52 171.255466 l
258 166.980006 l
260.48 165.570666 l
262.96 161.694535 l
265.44 162.784324 l
267.92 157.400673 l
270.4 69.160352 l
272.88 69.160352 l
275.36 77.920243 l
277.84 74.324612 l
280.32 73.698132 l
282.8 75.478363 l
285.28 64.201104 l
287.76 73.305457 l
290.24 72.125744 l
292.72 72.692021 l
295.2 69.472014 l
297.68 70.080133 l
300.16 68.546915 l
302.64 70.080133 l
305.12 68.546915 l
307.6 67.853195 l
310.08 68.006601 l
312.56 70.560571 l
315.04 67.10095 l
317.52 70.013569 l
320 62.923149 l
322.48 66.860762 l
324.96 66.214368 l
327.44 65.917432 l
329.92 62.842341 l
332.4 61.836229 l
334.88 180.591319 l
337.36 178.517119 l
339.84 176.983321 l
342.32 173.12983 l
344.8 171.888677 l
347.28 169.319703 l
stroke
grestore
0.502 0.000 0.000 setrgbcolor
gsave
446.4 157.1 72 43.2 clipbox
72 162.547753 m
74.48 159.163197 l
76.96 158.671622 l
79.44 156.060102 l
81.92 153.26703 l
84.4 152.590182 l
86.88 151.889182 l
89.36 149.592705 l
91.84 149.237564 l
94.32 150.334424 l
96.8 147.017498 l
99.28 148.201915 l
101.76 147.125389 l
104.24 146.583834 l
106.72 152.590182 l
109.2 153.815861 l
111.68 158.207193 l
114.16 158.53774 l
116.64 161.694535 l
119.12 162.211163 l
121.6 160.061944 l
124.08 161.694535 l
126.56 166.055416 l
129.04 168.012546 l
131.52 170.559433 l
134 173.735698 l
136.48 174.861141 l
138.96 173.81393 l
141.44 179.558779 l
143.92 182.453909 l
146.4 62.355589 l
148.88 65.108901 l
151.36 65.284221 l
153.84 65.284221 l
156.32 64.866489 l
158.8 64.349862 l
161.28 67.52776 l
163.76 65.71236 l
166.24 66.599705 l
168.72 67.760133 l
171.2 68.867294 l
173.68 68.085462 l
176.16 69.160352 l
178.64 66.904593 l
181.12 67.10095 l
183.6 67.853195 l
186.08 66.37401 l
188.56 67.338955 l
191.04 66.860762 l
193.52 65.730425 l
196 64.237334 l
198.48 62.624973 l
200.96 61.116392 l
203.44 60.650858 l
205.92 180.743429 l
208.4 181.179151 l
210.88 64.201104 l
213.36 64.349862 l
215.84 62.602885 l
218.32 179.83928 l
220.8 177.970117 l
223.28 175.381501 l
225.76 171.684139 l
228.24 168.491387 l
230.72 166.644784 l
233.2 166.333533 l
235.68 165.226204 l
238.16 160.643592 l
240.64 152.590182 l
243.12 151.283026 l
245.6 155.032062 l
248.08 165.226204 l
250.56 178.206688 l
253.04 181.47778 l
255.52 175.484308 l
258 178.62442 l
260.48 176.389959 l
262.96 177.487353 l
265.44 174.943994 l
267.92 177.116899 l
270.4 177.8179 l
272.88 175.764808 l
275.36 174.798001 l
277.84 169.792777 l
280.32 183.43491 l
282.8 179.903242 l
285.28 70.667873 l
287.76 73.521233 l
290.24 70.667873 l
292.72 71.1845 l
295.2 67.91527 l
297.68 64.55728 l
300.16 66.162874 l
302.64 64.201104 l
305.12 63.008747 l
307.6 63.008747 l
310.08 61.784144 l
312.56 182.840051 l
315.04 182.246282 l
317.52 180.546826 l
320 181.599366 l
322.48 182.581693 l
324.96 61.56352 l
327.44 61.363155 l
329.92 61.891543 l
332.4 180.865936 l
334.88 179.763317 l
337.36 176.128852 l
339.84 173.428371 l
342.32 169.166297 l
344.8 167.555969 l
347.28 164.136415 l
stroke
grestore
1.000 0.000 0.000 setrgbcolor
gsave
446.4 157.1 72 43.2 clipbox
72 137.167818 m
74.48 134.994913 l
76.96 128.063465 l
79.44 128.063465 l
81.92 124.988374 l
84.4 128.063465 l
86.88 128.063465 l
89.36 118.502535 l
91.84 121.745455 l
94.32 118.502535 l
96.8 116.934964 l
99.28 116.934964 l
101.76 112.641101 l
104.24 116.934964 l
106.72 121.745455 l
111.68 121.745455 l
114.16 130.849808 l
119.12 130.849808 l
121.6 137.167818 l
124.08 137.167818 l
126.56 143.485829 l
129.04 130.849808 l
131.52 146.272172 l
134 146.272172 l
136.48 152.590182 l
138.96 161.694535 l
141.44 157.400673 l
143.92 160.061944 l
146.4 158.908193 l
148.88 152.590182 l
151.36 155.833102 l
153.84 149.80384 l
156.32 152.590182 l
158.8 150.148303 l
161.28 150.148303 l
163.76 155.376525 l
166.24 155.032062 l
168.72 152.590182 l
171.2 152.590182 l
173.68 155.032062 l
176.16 150.809952 l
178.64 152.590182 l
181.12 152.590182 l
183.6 150.809952 l
186.08 148.714051 l
188.56 148.714051 l
191.04 146.867031 l
193.52 147.36196 l
196 143.485829 l
198.48 142.632612 l
200.96 138.474975 l
203.44 138.675339 l
205.92 137.167818 l
208.4 132.357328 l
210.88 177.428562 l
213.36 173.921526 l
215.84 171.442473 l
218.32 169.520067 l
220.8 162.865466 l
223.28 163.001692 l
225.76 157.215429 l
228.24 158.054976 l
230.72 158.054976 l
233.2 156.020109 l
235.68 160.415714 l
238.16 153.622723 l
240.64 155.51384 l
243.12 153.571184 l
245.6 148.136678 l
248.08 152.590182 l
250.56 143.485829 l
253.04 161.694535 l
255.52 171.255466 l
258 166.980006 l
260.48 165.570666 l
262.96 161.694535 l
265.44 162.784324 l
267.92 157.400673 l
270.4 69.160352 l
272.88 69.160352 l
275.36 77.920243 l
277.84 74.324612 l
280.32 73.698132 l
282.8 75.478363 l
285.28 64.201104 l
287.76 73.305457 l
290.24 72.125744 l
292.72 72.692021 l
295.2 69.472014 l
297.68 70.080133 l
300.16 68.546915 l
302.64 70.080133 l
305.12 68.546915 l
307.6 67.853195 l
310.08 68.006601 l
312.56 70.560571 l
315.04 67.10095 l
317.52 70.013569 l
320 62.923149 l
322.48 66.860762 l
324.96 66.214368 l
327.44 65.917432 l
329.92 62.842341 l
332.4 61.836229 l
334.88 180.591319 l
337.36 178.517119 l
339.84 176.983321 l
342.32 173.12983 l
344.8 171.888677 l
347.28 169.319703 l
349.76 181.262005 l
352.24 179.141047 l
354.72 175.963149 l
357.2 176.586316 l
359.68 166.858796 l
362.16 166.980006 l
364.64 159.438777 l
367.12 163.202056 l
369.6 164.769627 l
372.08 166.505026 l
374.56 164.136415 l
377.04 156.884045 l
379.52 160.061944 l
382 152.590182 l
386.96 152.590182 l
389.44 137.167818 l
391.92 168.012546 l
394.4 174.330557 l
396.88 165.226204 l
399.36 161.694535 l
401.84 168.012546 l
404.32 168.012546 l
406.8 183.43491 l
409.28 71.602232 l
411.76 66.37401 l
414.24 72.692021 l
416.72 66.37401 l
419.2 62.497879 l
421.68 65.520792 l
424.16 70.250141 l
426.64 68.268404 l
429.12 68.268404 l
431.6 68.433411 l
434.08 67.265958 l
436.56 64.866489 l
439.04 64.201104 l
441.52 64.509503 l
444 65.520792 l
448.96 61.363155 l
451.44 62.228904 l
453.92 61.145788 l
456.4 62.228904 l
458.88 181.375509 l
461.36 183.43491 l
463.84 180.359819 l
466.32 179.141047 l
468.8 177.428562 l
471.28 174.748289 l
473.76 172.373427 l
476.24 169.412766 l
478.72 168.012546 l
481.2 164.136415 l
483.68 160.688424 l
486.16 158.908193 l
486.16 158.908193 l
stroke
grestore
0.502 0.000 0.000 setrgbcolor
gsave
446.4 157.1 72 43.2 clipbox
72 162.547753 m
74.48 159.163197 l
76.96 158.671622 l
79.44 156.060102 l
81.92 153.26703 l
86.88 151.889182 l
89.36 149.592705 l
91.84 149.237564 l
94.32 150.334424 l
96.8 147.017498 l
99.28 148.201915 l
101.76 147.125389 l
104.24 146.583834 l
106.72 152.590182 l
109.2 153.815861 l
111.68 158.207193 l
114.16 158.53774 l
116.64 161.694535 l
119.12 162.211163 l
121.6 160.061944 l
124.08 161.694535 l
126.56 166.055416 l
129.04 168.012546 l
131.52 170.559433 l
134 173.735698 l
136.48 174.861141 l
138.96 173.81393 l
141.44 179.558779 l
143.92 182.453909 l
146.4 62.355589 l
148.88 65.108901 l
151.36 65.284221 l
153.84 65.284221 l
158.8 64.349862 l
161.28 67.52776 l
163.76 65.71236 l
166.24 66.599705 l
171.2 68.867294 l
173.68 68.085462 l
176.16 69.160352 l
178.64 66.904593 l
181.12 67.10095 l
183.6 67.853195 l
186.08 66.37401 l
188.56 67.338955 l
191.04 66.860762 l
193.52 65.730425 l
198.48 62.624973 l
200.96 61.116392 l
203.44 60.650858 l
205.92 180.743429 l
208.4 181.179151 l
210.88 64.201104 l
213.36 64.349862 l
215.84 62.602885 l
218.32 179.83928 l
220.8 177.970117 l
223.28 175.381501 l
225.76 171.684139 l
228.24 168.491387 l
230.72 166.644784 l
233.2 166.333533 l
235.68 165.226204 l
238.16 160.643592 l
240.64 152.590182 l
243.12 151.283026 l
245.6 155.032062 l
248.08 165.226204 l
250.56 178.206688 l
253.04 181.47778 l
255.52 175.484308 l
258 178.62442 l
260.48 176.389959 l
262.96 177.487353 l
265.44 174.943994 l
267.92 177.116899 l
270.4 177.8179 l
272.88 175.764808 l
275.36 174.798001 l
277.84 169.792777 l
280.32 183.43491 l
282.8 179.903242 l
285.28 70.667873 l
287.76 73.521233 l
290.24 70.667873 l
292.72 71.1845 l
297.68 64.55728 l
300.16 66.162874 l
302.64 64.201104 l
305.12 63.008747 l
307.6 63.008747 l
310.08 61.784144 l
312.56 182.840051 l
315.04 182.246282 l
317.52 180.546826 l
322.48 182.581693 l
324.96 61.56352 l
327.44 61.363155 l
329.92 61.891543 l
332.4 180.865936 l
334.88 179.763317 l
337.36 176.128852 l
339.84 173.428371 l
342.32 169.166297 l
344.8 167.555969 l
347.28 164.136415 l
349.76 65.917432 l
352.24 62.355589 l
354.72 62.013129 l
357.2 180.99303 l
359.68 181.08976 l
362.16 175.484308 l
364.64 176.287687 l
367.12 171.365165 l
369.6 173.12983 l
372.08 174.330557 l
374.56 169.166297 l
377.04 169.319703 l
379.52 164.937455 l
382 166.232316 l
384.48 170.185452 l
386.96 172.823036 l
389.44 174.330557 l
391.92 176.586316 l
394.4 179.289805 l
396.88 177.116899 l
399.36 177.116899 l
401.84 174.330557 l
404.32 175.484308 l
406.8 64.866489 l
409.28 61.56352 l
411.76 178.62442 l
414.24 182.034691 l
416.72 183.43491 l
419.2 63.587668 l
421.68 70.013569 l
424.16 72.403271 l
426.64 72.692021 l
429.12 75.478363 l
431.6 72.338251 l
434.08 68.006601 l
436.56 67.338955 l
439.04 67.88153 l
441.52 69.930011 l
444 68.195407 l
446.48 69.472014 l
448.96 67.91527 l
453.92 66.162874 l
456.4 65.416897 l
458.88 63.786678 l
461.36 65.628683 l
463.84 65.284221 l
466.32 66.137438 l
468.8 67.40655 l
471.28 62.923149 l
473.76 183.43491 l
476.24 183.43491 l
478.72 180.915109 l
481.2 175.963149 l
483.68 175.381501 l
486.16 171.888677 l
486.16 171.888677 l
stroke
grestore
0 setlinejoin
0.000 setgray
gsave
72 200.290909 m
518.4 200.290909 l
stroke
grestore
gsave
518.4 43.2 m
518.4 200.290909 l
stroke
grestore
gsave
72 43.2 m
72 200.290909 l
stroke
grestore
gsave
72 43.2 m
518.4 43.2 l
stroke
grestore
0.500 setlinewidth
1 setlinejoin
0 setlinecap
gsave
/o {
gsave
newpath
translate
0.5 setlinewidth
1 setlinejoin
0 setlinecap
0 0 m
0 4 l

gsave
0.000 setgray
fill
grestore
stroke
grestore
} bind def
72 43.2 o
grestore
gsave
/o {
gsave
newpath
translate
0.5 setlinewidth
1 setlinejoin
0 setlinecap
0 0 m
0 -4 l

gsave
0.000 setgray
fill
grestore
stroke
grestore
} bind def
72 200.291 o
grestore
/BitstreamVeraSans-Roman findfont
12.000 scalefont
setfont
gsave
68.179688 30.075000 translate
0.000000 rotate
0.000000 0.000000 m /zero glyphshow
grestore
gsave
/o {
gsave
newpath
translate
0.5 setlinewidth
1 setlinejoin
0 setlinecap
0 0 m
0 4 l

gsave
0.000 setgray
fill
grestore
stroke
grestore
} bind def
121.6 43.2 o
grestore
gsave
/o {
gsave
newpath
translate
0.5 setlinewidth
1 setlinejoin
0 setlinecap
0 0 m
0 -4 l

gsave
0.000 setgray
fill
grestore
stroke
grestore
} bind def
121.6 200.291 o
grestore
gsave
113.959375 30.075000 translate
0.000000 rotate
0.000000 0.000000 m /two glyphshow
7.634766 0.000000 m /zero glyphshow
grestore
gsave
/o {
gsave
newpath
translate
0.5 setlinewidth
1 setlinejoin
0 setlinecap
0 0 m
0 4 l

gsave
0.000 setgray
fill
grestore
stroke
grestore
} bind def
171.2 43.2 o
grestore
gsave
/o {
gsave
newpath
translate
0.5 setlinewidth
1 setlinejoin
0 setlinecap
0 0 m
0 -4 l

gsave
0.000 setgray
fill
grestore
stroke
grestore
} bind def
171.2 200.291 o
grestore
gsave
163.559375 30.075000 translate
0.000000 rotate
0.000000 0.000000 m /four glyphshow
7.634766 0.000000 m /zero glyphshow
grestore
gsave
/o {
gsave
newpath
translate
0.5 setlinewidth
1 setlinejoin
0 setlinecap
0 0 m
0 4 l

gsave
0.000 setgray
fill
grestore
stroke
grestore
} bind def
220.8 43.2 o
grestore
gsave
/o {
gsave
newpath
translate
0.5 setlinewidth
1 setlinejoin
0 setlinecap
0 0 m
0 -4 l

gsave
0.000 setgray
fill
grestore
stroke
grestore
} bind def
220.8 200.291 o
grestore
gsave
213.159375 30.075000 translate
0.000000 rotate
0.000000 0.000000 m /six glyphshow
7.634766 0.000000 m /zero glyphshow
grestore
gsave
/o {
gsave
newpath
translate
0.5 setlinewidth
1 setlinejoin
0 setlinecap
0 0 m
0 4 l

gsave
0.000 setgray
fill
grestore
stroke
grestore
} bind def
270.4 43.2 o
grestore
gsave
/o {
gsave
newpath
translate
0.5 setlinewidth
1 setlinejoin
0 setlinecap
0 0 m
0 -4 l

gsave
0.000 setgray
fill
grestore
stroke
grestore
} bind def
270.4 200.291 o
grestore
gsave
262.759375 30.075000 translate
0.000000 rotate
0.000000 0.000000 m /eight glyphshow
7.634766 0.000000 m /zero glyphshow
grestore
gsave
/o {
gsave
newpath
translate
0.5 setlinewidth
1 setlinejoin
0 setlinecap
0 0 m
0 4 l

gsave
0.000 setgray
fill
grestore
stroke
grestore
} bind def
320 43.2 o
grestore
gsave
/o {
gsave
newpath
translate
0.5 setlinewidth
1 setlinejoin
0 setlinecap
0 0 m
0 -4 l

gsave
0.000 setgray
fill
grestore
stroke
grestore
} bind def
320 200.291 o
grestore
gsave
308.539062 30.075000 translate
0.000000 rotate
0.000000 0.000000 m /one glyphshow
7.634766 0.000000 m /zero glyphshow
15.269531 0.000000 m /zero glyphshow
grestore
gsave
/o {
gsave
newpath
translate
0.5 setlinewidth
1 setlinejoin
0 setlinecap
0 0 m
0 4 l

gsave
0.000 setgray
fill
grestore
stroke
grestore
} bind def
369.6 43.2 o
grestore
gsave
/o {
gsave
newpath
translate
0.5 setlinewidth
1 setlinejoin
0 setlinecap
0 0 m
0 -4 l

gsave
0.000 setgray
fill
grestore
stroke
grestore
} bind def
369.6 200.291 o
grestore
gsave
358.139063 30.075000 translate
0.000000 rotate
0.000000 0.000000 m /one glyphshow
7.634766 0.000000 m /two glyphshow
15.269531 0.000000 m /zero glyphshow
grestore
gsave
/o {
gsave
newpath
translate
0.5 setlinewidth
1 setlinejoin
0 setlinecap
0 0 m
0 4 l

gsave
0.000 setgray
fill
grestore
stroke
grestore
} bind def
419.2 43.2 o
grestore
gsave
/o {
gsave
newpath
translate
0.5 setlinewidth
1 setlinejoin
0 setlinecap
0 0 m
0 -4 l

gsave
0.000 setgray
fill
grestore
stroke
grestore
} bind def
419.2 200.291 o
grestore
gsave
407.739062 30.075000 translate
0.000000 rotate
0.000000 0.000000 m /one glyphshow
7.634766 0.000000 m /four glyphshow
15.269531 0.000000 m /zero glyphshow
grestore
gsave
/o {
gsave
newpath
translate
0.5 setlinewidth
1 setlinejoin
0 setlinecap
0 0 m
0 4 l

gsave
0.000 setgray
fill
grestore
stroke
grestore
} bind def
468.8 43.2 o
grestore
gsave
/o {
gsave
newpath
translate
0.5 setlinewidth
1 setlinejoin
0 setlinecap
0 0 m
0 -4 l

gsave
0.000 setgray
fill
grestore
stroke
grestore
} bind def
468.8 200.291 o
grestore
gsave
457.339063 30.075000 translate
0.000000 rotate
0.000000 0.000000 m /one glyphshow
7.634766 0.000000 m /six glyphshow
15.269531 0.000000 m /zero glyphshow
grestore
gsave
/o {
gsave
newpath
translate
0.5 setlinewidth
1 setlinejoin
0 setlinecap
0 0 m
0 4 l

gsave
0.000 setgray
fill
grestore
stroke
grestore
} bind def
518.4 43.2 o
grestore
gsave
/o {
gsave
newpath
translate
0.5 setlinewidth
1 setlinejoin
0 setlinecap
0 0 m
0 -4 l

gsave
0.000 setgray
fill
grestore
stroke
grestore
} bind def
518.4 200.291 o
grestore
gsave
506.939062 30.075000 translate
0.000000 rotate
0.000000 0.000000 m /one glyphshow
7.634766 0.000000 m /eight glyphshow
15.269531 0.000000 m /zero glyphshow
grestore
gsave
278.559375 13.450000 translate
0.000000 rotate
0.000000 0.000000 m /I glyphshow
3.539062 0.000000 m /n glyphshow
11.144531 0.000000 m /d glyphshow
18.761719 0.000000 m /e glyphshow
26.144531 0.000000 m /x glyphshow
grestore
gsave
/o {
gsave
newpath
translate
0.5 setlinewidth
1 setlinejoin
0 setlinecap
0 0 m
4 0 l

gsave
0.000 setgray
fill
grestore
stroke
grestore
} bind def
72 43.2 o
grestore
gsave
/o {
gsave
newpath
translate
0.5 setlinewidth
1 setlinejoin
0 setlinecap
0 0 m
-4 0 l

gsave
0.000 setgray
fill
grestore
stroke
grestore
} bind def
518.4 43.2 o
grestore
gsave
50.296875 39.887500 translate
0.000000 rotate
0.000000 0.000000 m /minus glyphshow
10.054688 0.000000 m /four glyphshow
grestore
gsave
/o {
gsave
newpath
translate
0.5 setlinewidth
1 setlinejoin
0 setlinecap
0 0 m
4 0 l

gsave
0.000 setgray
fill
grestore
stroke
grestore
} bind def
72 62.8364 o
grestore
gsave
/o {
gsave
newpath
translate
0.5 setlinewidth
1 setlinejoin
0 setlinecap
0 0 m
-4 0 l

gsave
0.000 setgray
fill
grestore
stroke
grestore
} bind def
518.4 62.8364 o
grestore
gsave
50.296875 59.523864 translate
0.000000 rotate
0.000000 0.000000 m /minus glyphshow
10.054688 0.000000 m /three glyphshow
grestore
gsave
/o {
gsave
newpath
translate
0.5 setlinewidth
1 setlinejoin
0 setlinecap
0 0 m
4 0 l

gsave
0.000 setgray
fill
grestore
stroke
grestore
} bind def
72 82.4727 o
grestore
gsave
/o {
gsave
newpath
translate
0.5 setlinewidth
1 setlinejoin
0 setlinecap
0 0 m
-4 0 l

gsave
0.000 setgray
fill
grestore
stroke
grestore
} bind def
518.4 82.4727 o
grestore
gsave
50.296875 79.160227 translate
0.000000 rotate
0.000000 0.000000 m /minus glyphshow
10.054688 0.000000 m /two glyphshow
grestore
gsave
/o {
gsave
newpath
translate
0.5 setlinewidth
1 setlinejoin
0 setlinecap
0 0 m
4 0 l

gsave
0.000 setgray
fill
grestore
stroke
grestore
} bind def
72 102.109 o
grestore
gsave
/o {
gsave
newpath
translate
0.5 setlinewidth
1 setlinejoin
0 setlinecap
0 0 m
-4 0 l

gsave
0.000 setgray
fill
grestore
stroke
grestore
} bind def
518.4 102.109 o
grestore
gsave
50.296875 98.796591 translate
0.000000 rotate
0.000000 0.000000 m /minus glyphshow
10.054688 0.000000 m /one glyphshow
grestore
gsave
/o {
gsave
newpath
translate
0.5 setlinewidth
1 setlinejoin
0 setlinecap
0 0 m
4 0 l

gsave
0.000 setgray
fill
grestore
stroke
grestore
} bind def
72 121.745 o
grestore
gsave
/o {
gsave
newpath
translate
0.5 setlinewidth
1 setlinejoin
0 setlinecap
0 0 m
-4 0 l

gsave
0.000 setgray
fill
grestore
stroke
grestore
} bind def
518.4 121.745 o
grestore
gsave
60.359375 118.432955 translate
0.000000 rotate
0.000000 0.000000 m /zero glyphshow
grestore
gsave
/o {
gsave
newpath
translate
0.5 setlinewidth
1 setlinejoin
0 setlinecap
0 0 m
4 0 l

gsave
0.000 setgray
fill
grestore
stroke
grestore
} bind def
72 141.382 o
grestore
gsave
/o {
gsave
newpath
translate
0.5 setlinewidth
1 setlinejoin
0 setlinecap
0 0 m
-4 0 l

gsave
0.000 setgray
fill
grestore
stroke
grestore
} bind def
518.4 141.382 o
grestore
gsave
60.359375 138.069318 translate
0.000000 rotate
0.000000 0.000000 m /one glyphshow
grestore
gsave
/o {
gsave
newpath
translate
0.5 setlinewidth
1 setlinejoin
0 setlinecap
0 0 m
4 0 l

gsave
0.000 setgray
fill
grestore
stroke
grestore
} bind def
72 161.018 o
grestore
gsave
/o {
gsave
newpath
translate
0.5 setlinewidth
1 setlinejoin
0 setlinecap
0 0 m
-4 0 l

gsave
0.000 setgray
fill
grestore
stroke
grestore
} bind def
518.4 161.018 o
grestore
gsave
60.359375 157.705682 translate
0.000000 rotate
0.000000 0.000000 m /two glyphshow
grestore
gsave
/o {
gsave
newpath
translate
0.5 setlinewidth
1 setlinejoin
0 setlinecap
0 0 m
4 0 l

gsave
0.000 setgray
fill
grestore
stroke
grestore
} bind def
72 180.655 o
grestore
gsave
/o {
gsave
newpath
translate
0.5 setlinewidth
1 setlinejoin
0 setlinecap
0 0 m
-4 0 l

gsave
0.000 setgray
fill
grestore
stroke
grestore
} bind def
518.4 180.655 o
grestore
gsave
60.359375 177.342045 translate
0.000000 rotate
0.000000 0.000000 m /three glyphshow
grestore
gsave
/o {
gsave
newpath
translate
0.5 setlinewidth
1 setlinejoin
0 setlinecap
0 0 m
4 0 l

gsave
0.000 setgray
fill
grestore
stroke
grestore
} bind def
72 200.291 o
grestore
gsave
/o {
gsave
newpath
translate
0.5 setlinewidth
1 setlinejoin
0 setlinecap
0 0 m
-4 0 l

gsave
0.000 setgray
fill
grestore
stroke
grestore
} bind def
518.4 200.291 o
grestore
gsave
60.359375 196.978409 translate
0.000000 rotate
0.000000 0.000000 m /four glyphshow
grestore
gsave
42.796875 87.268892 translate
90.000000 rotate
0.000000 0.000000 m /P glyphshow
7.236328 0.000000 m /h glyphshow
14.841797 0.000000 m /a glyphshow
22.195312 0.000000 m /s glyphshow
28.447266 0.000000 m /e glyphshow
35.830078 0.000000 m /space glyphshow
39.644531 0.000000 m /bracketleft glyphshow
44.326172 0.000000 m /r glyphshow
49.259766 0.000000 m /a glyphshow
56.613281 0.000000 m /d glyphshow
64.230469 0.000000 m /bracketright glyphshow
grestore
1.000 setlinewidth
0 setlinejoin
gsave
339.000625 147.277159 m
511.2 147.277159 l
511.2 193.090909 l
339.000625 193.090909 l
cl
gsave
1.000 setgray
fill
grestore
stroke
grestore
1 setlinejoin
2 setlinecap
1.000 0.000 0.000 setrgbcolor
gsave
349.080625 181.730284 m
369.240625 181.730284 l
stroke
grestore
0.000 setgray
/BitstreamVeraSans-Roman findfont
14.400 scalefont
setfont
gsave
385.080625 176.690284 translate
0.000000 rotate
0.000000 0.000000 m /e glyphshow
8.843994 0.000000 m /r glyphshow
14.754028 0.000000 m /i glyphshow
18.747864 0.000000 m /c glyphshow
26.651306 0.000000 m /h glyphshow
35.762024 0.000000 m /space glyphshow
40.331421 0.000000 m /t glyphshow
45.967712 0.000000 m /x glyphshow
54.474792 0.000000 m /one glyphshow
63.620605 0.000000 m /comma glyphshow
68.190002 0.000000 m /space glyphshow
72.759399 0.000000 m /r glyphshow
78.669434 0.000000 m /x glyphshow
87.176514 0.000000 m /one glyphshow
grestore
0.502 0.000 0.000 setrgbcolor
gsave
349.080625 160.983409 m
369.240625 160.983409 l
stroke
grestore
0.000 setgray
gsave
385.080625 155.943409 translate
0.000000 rotate
0.000000 0.000000 m /m glyphshow
14.002991 0.000000 m /i glyphshow
17.996826 0.000000 m /r glyphshow
23.906860 0.000000 m /a glyphshow
32.715759 0.000000 m /n glyphshow
41.826477 0.000000 m /d glyphshow
50.951233 0.000000 m /a glyphshow
59.760132 0.000000 m /space glyphshow
64.329529 0.000000 m /t glyphshow
69.965820 0.000000 m /x glyphshow
78.472900 0.000000 m /one glyphshow
87.618713 0.000000 m /comma glyphshow
92.188110 0.000000 m /space glyphshow
96.757507 0.000000 m /r glyphshow
102.667542 0.000000 m /x glyphshow
111.174622 0.000000 m /one glyphshow
grestore

end
showpage
