%!PS-Adobe-3.0 EPSF-3.0
%%Title: e_rx0_tx0_m_rx0_tx0.eps
%%Creator: matplotlib version 1.5.1, http://matplotlib.org/
%%CreationDate: Tue Feb 14 23:44:01 2017
%%Orientation: portrait
%%BoundingBox: 18 180 594 612
%%EndComments
%%BeginProlog
/mpldict 8 dict def
mpldict begin
/m { moveto } bind def
/l { lineto } bind def
/r { rlineto } bind def
/c { curveto } bind def
/cl { closepath } bind def
/box {
m
1 index 0 r
0 exch r
neg 0 r
cl
} bind def
/clipbox {
box
clip
newpath
} bind def
%!PS-Adobe-3.0 Resource-Font
%%Title: Bitstream Vera Sans
%%Copyright: Copyright (c) 2003 by Bitstream, Inc. All Rights Reserved.
%%Creator: Converted from TrueType to type 3 by PPR
25 dict begin
/_d{bind def}bind def
/_m{moveto}_d
/_l{lineto}_d
/_cl{closepath eofill}_d
/_c{curveto}_d
/_sc{7 -1 roll{setcachedevice}{pop pop pop pop pop pop}ifelse}_d
/_e{exec}_d
/FontName /BitstreamVeraSans-Roman def
/PaintType 0 def
/FontMatrix[.001 0 0 .001 0 0]def
/FontBBox[-183 -236 1287 928]def
/FontType 3 def
/Encoding [ /zero /one /two /three /four /five /six /seven /eight /nine /minus ] def
/FontInfo 10 dict dup begin
/FamilyName (Bitstream Vera Sans) def
/FullName (Bitstream Vera Sans) def
/Notice (Copyright (c) 2003 by Bitstream, Inc. All Rights Reserved. Bitstream Vera is a trademark of Bitstream, Inc.) def
/Weight (Roman) def
/Version (Release 1.10) def
/ItalicAngle 0.0 def
/isFixedPitch false def
/UnderlinePosition -213 def
/UnderlineThickness 143 def
end readonly def
/CharStrings 11 dict dup begin
/zero{636 0 66 -13 570 742 _sc
318 664 _m
267 664 229 639 203 589 _c
177 539 165 464 165 364 _c
165 264 177 189 203 139 _c
229 89 267 64 318 64 _c
369 64 407 89 433 139 _c
458 189 471 264 471 364 _c
471 464 458 539 433 589 _c
407 639 369 664 318 664 _c
318 742 _m
399 742 461 709 505 645 _c
548 580 570 486 570 364 _c
570 241 548 147 505 83 _c
461 19 399 -13 318 -13 _c
236 -13 173 19 130 83 _c
87 147 66 241 66 364 _c
66 486 87 580 130 645 _c
173 709 236 742 318 742 _c
_cl}_d
/one{636 0 110 0 544 729 _sc
124 83 _m
285 83 _l
285 639 _l
110 604 _l
110 694 _l
284 729 _l
383 729 _l
383 83 _l
544 83 _l
544 0 _l
124 0 _l
124 83 _l
_cl}_d
/two{{636 0 73 0 536 742 _sc
192 83 _m
536 83 _l
536 0 _l
73 0 _l
73 83 _l
110 121 161 173 226 239 _c
290 304 331 346 348 365 _c
380 400 402 430 414 455 _c
426 479 433 504 433 528 _c
433 566 419 598 392 622 _c
365 646 330 659 286 659 _c
255 659 222 653 188 643 _c
154 632 117 616 78 594 _c
78 694 _l
118 710 155 722 189 730 _c
223 738 255 742 284 742 _c
}_e{359 742 419 723 464 685 _c
509 647 532 597 532 534 _c
532 504 526 475 515 449 _c
504 422 484 390 454 354 _c
446 344 420 317 376 272 _c
332 227 271 164 192 83 _c
_cl}_e}_d
/three{{636 0 76 -13 556 742 _sc
406 393 _m
453 383 490 362 516 330 _c
542 298 556 258 556 212 _c
556 140 531 84 482 45 _c
432 6 362 -13 271 -13 _c
240 -13 208 -10 176 -4 _c
144 1 110 10 76 22 _c
76 117 _l
103 101 133 89 166 81 _c
198 73 232 69 268 69 _c
330 69 377 81 409 105 _c
441 129 458 165 458 212 _c
458 254 443 288 413 312 _c
383 336 341 349 287 349 _c
}_e{202 349 _l
202 430 _l
291 430 _l
339 430 376 439 402 459 _c
428 478 441 506 441 543 _c
441 580 427 609 401 629 _c
374 649 336 659 287 659 _c
260 659 231 656 200 650 _c
169 644 135 635 98 623 _c
98 711 _l
135 721 170 729 203 734 _c
235 739 266 742 296 742 _c
370 742 429 725 473 691 _c
517 657 539 611 539 553 _c
539 513 527 479 504 451 _c
481 423 448 403 406 393 _c
_cl}_e}_d
/four{636 0 49 0 580 729 _sc
378 643 _m
129 254 _l
378 254 _l
378 643 _l
352 729 _m
476 729 _l
476 254 _l
580 254 _l
580 172 _l
476 172 _l
476 0 _l
378 0 _l
378 172 _l
49 172 _l
49 267 _l
352 729 _l
_cl}_d
/five{{636 0 77 -13 549 729 _sc
108 729 _m
495 729 _l
495 646 _l
198 646 _l
198 467 _l
212 472 227 476 241 478 _c
255 480 270 482 284 482 _c
365 482 429 459 477 415 _c
525 370 549 310 549 234 _c
549 155 524 94 475 51 _c
426 8 357 -13 269 -13 _c
238 -13 207 -10 175 -6 _c
143 -1 111 6 77 17 _c
77 116 _l
106 100 136 88 168 80 _c
199 72 232 69 267 69 _c
}_e{323 69 368 83 401 113 _c
433 143 450 183 450 234 _c
450 284 433 324 401 354 _c
368 384 323 399 267 399 _c
241 399 214 396 188 390 _c
162 384 135 375 108 363 _c
108 729 _l
_cl}_e}_d
/six{{636 0 70 -13 573 742 _sc
330 404 _m
286 404 251 388 225 358 _c
199 328 186 286 186 234 _c
186 181 199 139 225 109 _c
251 79 286 64 330 64 _c
374 64 409 79 435 109 _c
461 139 474 181 474 234 _c
474 286 461 328 435 358 _c
409 388 374 404 330 404 _c
526 713 _m
526 623 _l
501 635 476 644 451 650 _c
425 656 400 659 376 659 _c
310 659 260 637 226 593 _c
}_e{192 549 172 482 168 394 _c
187 422 211 444 240 459 _c
269 474 301 482 336 482 _c
409 482 467 459 509 415 _c
551 371 573 310 573 234 _c
573 159 550 99 506 54 _c
462 9 403 -13 330 -13 _c
246 -13 181 19 137 83 _c
92 147 70 241 70 364 _c
70 479 97 571 152 639 _c
206 707 280 742 372 742 _c
396 742 421 739 447 735 _c
472 730 498 723 526 713 _c
_cl}_e}_d
/seven{636 0 82 0 551 729 _sc
82 729 _m
551 729 _l
551 687 _l
286 0 _l
183 0 _l
432 646 _l
82 646 _l
82 729 _l
_cl}_d
/eight{{636 0 68 -13 568 742 _sc
318 346 _m
271 346 234 333 207 308 _c
180 283 167 249 167 205 _c
167 161 180 126 207 101 _c
234 76 271 64 318 64 _c
364 64 401 76 428 102 _c
455 127 469 161 469 205 _c
469 249 455 283 429 308 _c
402 333 365 346 318 346 _c
219 388 _m
177 398 144 418 120 447 _c
96 476 85 511 85 553 _c
85 611 105 657 147 691 _c
188 725 245 742 318 742 _c
}_e{390 742 447 725 489 691 _c
530 657 551 611 551 553 _c
551 511 539 476 515 447 _c
491 418 459 398 417 388 _c
464 377 501 355 528 323 _c
554 291 568 251 568 205 _c
568 134 546 80 503 43 _c
459 5 398 -13 318 -13 _c
237 -13 175 5 132 43 _c
89 80 68 134 68 205 _c
68 251 81 291 108 323 _c
134 355 171 377 219 388 _c
183 544 _m
183 506 194 476 218 455 _c
}_e{242 434 275 424 318 424 _c
360 424 393 434 417 455 _c
441 476 453 506 453 544 _c
453 582 441 611 417 632 _c
393 653 360 664 318 664 _c
275 664 242 653 218 632 _c
194 611 183 582 183 544 _c
_cl}_e}_d
/nine{{636 0 63 -13 566 742 _sc
110 15 _m
110 105 _l
134 93 159 84 185 78 _c
210 72 235 69 260 69 _c
324 69 374 90 408 134 _c
442 178 462 244 468 334 _c
448 306 424 284 396 269 _c
367 254 335 247 300 247 _c
226 247 168 269 126 313 _c
84 357 63 417 63 494 _c
63 568 85 628 129 674 _c
173 719 232 742 306 742 _c
390 742 455 709 499 645 _c
543 580 566 486 566 364 _c
}_e{566 248 538 157 484 89 _c
429 21 356 -13 264 -13 _c
239 -13 214 -10 189 -6 _c
163 -2 137 5 110 15 _c
306 324 _m
350 324 385 339 411 369 _c
437 399 450 441 450 494 _c
450 546 437 588 411 618 _c
385 648 350 664 306 664 _c
262 664 227 648 201 618 _c
175 588 162 546 162 494 _c
162 441 175 399 201 369 _c
227 339 262 324 306 324 _c
_cl}_e}_d
/minus{838 0 106 272 732 355 _sc
106 355 _m
732 355 _l
732 272 _l
106 272 _l
106 355 _l
_cl}_d
end readonly def

/BuildGlyph
 {exch begin
 CharStrings exch
 2 copy known not{pop /.notdef}if
 true 3 1 roll get exec
 end}_d

/BuildChar {
 1 index /Encoding get exch get
 1 index /BuildGlyph get exec
}_d

FontName currentdict end definefont pop
end
%%EndProlog
mpldict begin
18 180 translate
576 432 0 0 clipbox
100000 setmiterlimit
gsave
0 0 m
576 0 l
576 432 l
0 432 l
cl
1.000 setgray
fill
grestore
gsave
72 231.709091 m
518.4 231.709091 l
518.4 388.8 l
72 388.8 l
cl
1.000 setgray
fill
grestore
1.000 setlinewidth
1 setlinejoin
2 setlinecap
[] 0 setdash
1.000 0.000 0.000 setrgbcolor
gsave
446.4 157.1 72 231.7 clipbox
72 249.163636 m
74.48 264.278074 l
76.96 275.812483 l
79.44 286.66929 l
81.92 279.899565 l
84.4 285.379492 l
86.88 285.379492 l
89.36 283.127222 l
91.84 287.367322 l
94.32 287.367322 l
96.8 277.643857 l
99.28 277.643857 l
101.76 282.503306 l
104.24 276.371246 l
106.72 271.018473 l
109.2 272.480442 l
111.68 259.107783 l
114.16 264.022841 l
116.64 264.022841 l
119.12 269.938569 l
121.6 265.282161 l
124.08 265.282161 l
126.56 269.938569 l
129.04 261.095613 l
131.52 257.621237 l
134 248.00917 l
136.48 251.372148 l
138.96 269.051931 l
141.44 264.278074 l
143.92 243.003834 l
146.4 253.795937 l
148.88 249.163636 l
151.36 237.751132 l
153.84 248.00917 l
156.32 237.751132 l
158.8 248.00917 l
161.28 257.621237 l
163.76 252.429949 l
166.24 245.170255 l
168.72 249.540774 l
171.2 250.650182 l
173.68 249.540774 l
176.16 265.282161 l
178.64 256.700494 l
181.12 257.621237 l
183.6 271.018473 l
186.08 272.480442 l
188.56 264.022841 l
191.04 259.107783 l
193.52 266.977744 l
196 269.051931 l
198.48 276.921891 l
200.96 281.223789 l
203.44 271.651948 l
205.92 263.246662 l
208.4 263.246662 l
210.88 275.435345 l
213.36 302.084192 l
215.84 302.084192 l
218.32 312.940999 l
220.8 315.790079 l
223.28 325.279093 l
225.76 318.864056 l
228.24 320.744855 l
230.72 314.796955 l
233.2 314.796955 l
235.68 312.587102 l
238.16 325.734227 l
240.64 322.481986 l
243.12 321.651375 l
245.6 312.587102 l
248.08 310.840825 l
250.56 304.004852 l
253.04 306.756323 l
255.52 298.236468 l
258 317.825579 l
260.48 313.151761 l
262.96 310.164655 l
265.44 299.462518 l
267.92 295.323639 l
270.4 301.707054 l
272.88 295.547251 l
275.36 290.294549 l
277.84 297.290182 l
280.32 300.650147 l
282.8 284.939618 l
285.28 280.067646 l
287.76 274.862507 l
290.24 256.700494 l
292.72 262.984363 l
295.2 280.56746 l
297.68 291.429804 l
300.16 295.323639 l
302.64 289.518371 l
305.12 289.518371 l
307.6 286.101458 l
310.08 286.101458 l
312.56 295.211337 l
315.04 296.210278 l
317.52 306.086953 l
320 311.651201 l
322.48 307.495498 l
324.96 312.587102 l
327.44 312.587102 l
329.92 298.75215 l
332.4 302.550398 l
334.88 304.973366 l
337.36 311.651201 l
339.84 300.552587 l
342.32 305.747783 l
347.28 295.211337 l
349.76 310.840825 l
352.24 316.566258 l
354.72 312.587102 l
357.2 335.554435 l
359.68 338.965327 l
362.16 340.900584 l
364.64 341.963639 l
367.12 341.963639 l
369.6 344.863631 l
372.08 333.48146 l
374.56 330.276561 l
377.04 327.261352 l
379.52 329.873105 l
382 337.075283 l
384.48 333.028032 l
386.96 328.02611 l
389.44 321.030478 l
391.92 316.180156 l
394.4 319.343078 l
396.88 321.030478 l
399.36 314.256453 l
401.84 322.809201 l
404.32 314.796955 l
406.8 316.115421 l
409.28 313.639031 l
411.76 296.969429 l
414.24 296.537492 l
416.72 308.696298 l
419.2 308.379786 l
421.68 310.164655 l
424.16 312.373167 l
426.64 293.837093 l
429.12 302.084192 l
431.6 294.185354 l
434.08 307.495498 l
436.56 303.1936 l
439.04 302.642955 l
441.52 309.398931 l
444 318.803751 l
446.48 310.164655 l
448.96 288.323461 l
451.44 289.778867 l
453.92 307.65782 l
456.4 316.115421 l
458.88 321.595348 l
461.36 330.276561 l
463.84 323.985382 l
466.32 328.960857 l
468.8 327.693426 l
471.28 327.64566 l
473.76 328.449602 l
476.24 324.921282 l
478.72 337.92291 l
481.2 321.651375 l
483.68 318.682851 l
486.16 312.373167 l
486.16 312.373167 l
stroke
grestore
0.000 0.000 1.000 setrgbcolor
gsave
446.4 157.1 72 231.7 clipbox
72 335.901985 m
74.48 346.728771 l
76.96 354.297819 l
79.44 362.575182 l
81.92 368.235347 l
84.4 366.492417 l
86.88 370.646668 l
89.36 377.168236 l
91.84 367.840188 l
94.32 367.889808 l
96.8 364.267437 l
99.28 370.631295 l
101.76 365.71269 l
104.24 368.545286 l
106.72 362.802709 l
109.2 363.551416 l
111.68 361.416598 l
114.16 363.047665 l
116.64 361.357729 l
119.12 360.038916 l
121.6 360.463536 l
124.08 358.482357 l
126.56 357.970447 l
129.04 356.144814 l
131.52 353.217915 l
134 353.533061 l
136.48 350.25709 l
138.96 350.909465 l
141.44 354.72131 l
143.92 349.833599 l
146.4 349.966449 l
148.88 352.430823 l
151.36 354.838112 l
153.84 347.923083 l
156.32 352.430823 l
158.8 356.212355 l
161.28 357.364348 l
163.76 355.600104 l
166.24 354.838112 l
168.72 358.056247 l
171.2 359.237487 l
173.68 363.028878 l
176.16 361.729033 l
178.64 364.358264 l
181.12 365.71269 l
183.6 369.109675 l
186.08 370.198301 l
188.56 372.123755 l
191.04 372.123755 l
193.52 371.180831 l
196 369.380804 l
198.48 366.217014 l
200.96 367.340373 l
203.44 358.034815 l
205.92 348.589023 l
208.4 342.997689 l
210.88 280.56746 l
213.36 292.532042 l
215.84 299.058225 l
218.32 305.491398 l
220.8 303.915566 l
223.28 304.004852 l
225.76 313.708132 l
228.24 322.096632 l
230.72 315.659157 l
233.2 313.430967 l
235.68 322.096632 l
238.16 319.992001 l
240.64 322.096632 l
243.12 315.790079 l
245.6 313.708132 l
248.08 311.651201 l
250.56 312.373167 l
253.04 297.290182 l
255.52 296.210278 l
258 298.649574 l
260.48 301.707054 l
262.96 302.642955 l
265.44 305.491398 l
267.92 302.642955 l
270.4 297.713673 l
272.88 304.004852 l
275.36 299.058225 l
277.84 301.421717 l
280.32 302.084192 l
282.8 301.801691 l
285.28 305.40555 l
287.76 294.758769 l
290.24 289.908447 l
292.72 299.462518 l
295.2 303.1936 l
297.68 304.973366 l
300.16 301.421717 l
302.64 299.058225 l
305.12 304.973366 l
307.6 300.552587 l
310.08 304.973366 l
312.56 307.332478 l
315.04 311.796698 l
317.52 316.050576 l
320 317.38956 l
322.48 321.426769 l
324.96 318.803751 l
327.44 321.426769 l
329.92 318.864056 l
332.4 317.701513 l
334.88 315.659157 l
337.36 312.587102 l
339.84 312.587102 l
342.32 301.801691 l
344.8 297.81881 l
347.28 286.101458 l
stroke
grestore
0 setlinejoin
0.000 setgray
gsave
72 388.8 m
518.4 388.8 l
stroke
grestore
gsave
72 231.709091 m
518.4 231.709091 l
stroke
grestore
gsave
72 231.709091 m
72 388.8 l
stroke
grestore
gsave
518.4 231.709091 m
518.4 388.8 l
stroke
grestore
0.500 setlinewidth
1 setlinejoin
0 setlinecap
gsave
/o {
gsave
newpath
translate
0.5 setlinewidth
1 setlinejoin
0 setlinecap
0 0 m
0 4 l

gsave
0.000 setgray
fill
grestore
stroke
grestore
} bind def
72 231.709 o
grestore
gsave
/o {
gsave
newpath
translate
0.5 setlinewidth
1 setlinejoin
0 setlinecap
0 0 m
0 -4 l

gsave
0.000 setgray
fill
grestore
stroke
grestore
} bind def
72 388.8 o
grestore
/BitstreamVeraSans-Roman findfont
12.000 scalefont
setfont
gsave
68.179688 218.584091 translate
0.000000 rotate
0.000000 0.000000 m /zero glyphshow
grestore
gsave
/o {
gsave
newpath
translate
0.5 setlinewidth
1 setlinejoin
0 setlinecap
0 0 m
0 4 l

gsave
0.000 setgray
fill
grestore
stroke
grestore
} bind def
121.6 231.709 o
grestore
gsave
/o {
gsave
newpath
translate
0.5 setlinewidth
1 setlinejoin
0 setlinecap
0 0 m
0 -4 l

gsave
0.000 setgray
fill
grestore
stroke
grestore
} bind def
121.6 388.8 o
grestore
gsave
113.959375 218.584091 translate
0.000000 rotate
0.000000 0.000000 m /two glyphshow
7.634766 0.000000 m /zero glyphshow
grestore
gsave
/o {
gsave
newpath
translate
0.5 setlinewidth
1 setlinejoin
0 setlinecap
0 0 m
0 4 l

gsave
0.000 setgray
fill
grestore
stroke
grestore
} bind def
171.2 231.709 o
grestore
gsave
/o {
gsave
newpath
translate
0.5 setlinewidth
1 setlinejoin
0 setlinecap
0 0 m
0 -4 l

gsave
0.000 setgray
fill
grestore
stroke
grestore
} bind def
171.2 388.8 o
grestore
gsave
163.559375 218.584091 translate
0.000000 rotate
0.000000 0.000000 m /four glyphshow
7.634766 0.000000 m /zero glyphshow
grestore
gsave
/o {
gsave
newpath
translate
0.5 setlinewidth
1 setlinejoin
0 setlinecap
0 0 m
0 4 l

gsave
0.000 setgray
fill
grestore
stroke
grestore
} bind def
220.8 231.709 o
grestore
gsave
/o {
gsave
newpath
translate
0.5 setlinewidth
1 setlinejoin
0 setlinecap
0 0 m
0 -4 l

gsave
0.000 setgray
fill
grestore
stroke
grestore
} bind def
220.8 388.8 o
grestore
gsave
213.159375 218.584091 translate
0.000000 rotate
0.000000 0.000000 m /six glyphshow
7.634766 0.000000 m /zero glyphshow
grestore
gsave
/o {
gsave
newpath
translate
0.5 setlinewidth
1 setlinejoin
0 setlinecap
0 0 m
0 4 l

gsave
0.000 setgray
fill
grestore
stroke
grestore
} bind def
270.4 231.709 o
grestore
gsave
/o {
gsave
newpath
translate
0.5 setlinewidth
1 setlinejoin
0 setlinecap
0 0 m
0 -4 l

gsave
0.000 setgray
fill
grestore
stroke
grestore
} bind def
270.4 388.8 o
grestore
gsave
262.759375 218.584091 translate
0.000000 rotate
0.000000 0.000000 m /eight glyphshow
7.634766 0.000000 m /zero glyphshow
grestore
gsave
/o {
gsave
newpath
translate
0.5 setlinewidth
1 setlinejoin
0 setlinecap
0 0 m
0 4 l

gsave
0.000 setgray
fill
grestore
stroke
grestore
} bind def
320 231.709 o
grestore
gsave
/o {
gsave
newpath
translate
0.5 setlinewidth
1 setlinejoin
0 setlinecap
0 0 m
0 -4 l

gsave
0.000 setgray
fill
grestore
stroke
grestore
} bind def
320 388.8 o
grestore
gsave
308.539062 218.584091 translate
0.000000 rotate
0.000000 0.000000 m /one glyphshow
7.634766 0.000000 m /zero glyphshow
15.269531 0.000000 m /zero glyphshow
grestore
gsave
/o {
gsave
newpath
translate
0.5 setlinewidth
1 setlinejoin
0 setlinecap
0 0 m
0 4 l

gsave
0.000 setgray
fill
grestore
stroke
grestore
} bind def
369.6 231.709 o
grestore
gsave
/o {
gsave
newpath
translate
0.5 setlinewidth
1 setlinejoin
0 setlinecap
0 0 m
0 -4 l

gsave
0.000 setgray
fill
grestore
stroke
grestore
} bind def
369.6 388.8 o
grestore
gsave
358.139063 218.584091 translate
0.000000 rotate
0.000000 0.000000 m /one glyphshow
7.634766 0.000000 m /two glyphshow
15.269531 0.000000 m /zero glyphshow
grestore
gsave
/o {
gsave
newpath
translate
0.5 setlinewidth
1 setlinejoin
0 setlinecap
0 0 m
0 4 l

gsave
0.000 setgray
fill
grestore
stroke
grestore
} bind def
419.2 231.709 o
grestore
gsave
/o {
gsave
newpath
translate
0.5 setlinewidth
1 setlinejoin
0 setlinecap
0 0 m
0 -4 l

gsave
0.000 setgray
fill
grestore
stroke
grestore
} bind def
419.2 388.8 o
grestore
gsave
407.739062 218.584091 translate
0.000000 rotate
0.000000 0.000000 m /one glyphshow
7.634766 0.000000 m /four glyphshow
15.269531 0.000000 m /zero glyphshow
grestore
gsave
/o {
gsave
newpath
translate
0.5 setlinewidth
1 setlinejoin
0 setlinecap
0 0 m
0 4 l

gsave
0.000 setgray
fill
grestore
stroke
grestore
} bind def
468.8 231.709 o
grestore
gsave
/o {
gsave
newpath
translate
0.5 setlinewidth
1 setlinejoin
0 setlinecap
0 0 m
0 -4 l

gsave
0.000 setgray
fill
grestore
stroke
grestore
} bind def
468.8 388.8 o
grestore
gsave
457.339063 218.584091 translate
0.000000 rotate
0.000000 0.000000 m /one glyphshow
7.634766 0.000000 m /six glyphshow
15.269531 0.000000 m /zero glyphshow
grestore
gsave
/o {
gsave
newpath
translate
0.5 setlinewidth
1 setlinejoin
0 setlinecap
0 0 m
0 4 l

gsave
0.000 setgray
fill
grestore
stroke
grestore
} bind def
518.4 231.709 o
grestore
gsave
/o {
gsave
newpath
translate
0.5 setlinewidth
1 setlinejoin
0 setlinecap
0 0 m
0 -4 l

gsave
0.000 setgray
fill
grestore
stroke
grestore
} bind def
518.4 388.8 o
grestore
gsave
506.939062 218.584091 translate
0.000000 rotate
0.000000 0.000000 m /one glyphshow
7.634766 0.000000 m /eight glyphshow
15.269531 0.000000 m /zero glyphshow
grestore
gsave
/o {
gsave
newpath
translate
0.5 setlinewidth
1 setlinejoin
0 setlinecap
0 0 m
4 0 l

gsave
0.000 setgray
fill
grestore
stroke
grestore
} bind def
72 231.709 o
grestore
gsave
/o {
gsave
newpath
translate
0.5 setlinewidth
1 setlinejoin
0 setlinecap
0 0 m
-4 0 l

gsave
0.000 setgray
fill
grestore
stroke
grestore
} bind def
518.4 231.709 o
grestore
gsave
60.359375 228.396591 translate
0.000000 rotate
0.000000 0.000000 m /nine glyphshow
grestore
gsave
/o {
gsave
newpath
translate
0.5 setlinewidth
1 setlinejoin
0 setlinecap
0 0 m
4 0 l

gsave
0.000 setgray
fill
grestore
stroke
grestore
} bind def
72 249.164 o
grestore
gsave
/o {
gsave
newpath
translate
0.5 setlinewidth
1 setlinejoin
0 setlinecap
0 0 m
-4 0 l

gsave
0.000 setgray
fill
grestore
stroke
grestore
} bind def
518.4 249.164 o
grestore
gsave
52.718750 245.851136 translate
0.000000 rotate
0.000000 0.000000 m /one glyphshow
7.634766 0.000000 m /zero glyphshow
grestore
gsave
/o {
gsave
newpath
translate
0.5 setlinewidth
1 setlinejoin
0 setlinecap
0 0 m
4 0 l

gsave
0.000 setgray
fill
grestore
stroke
grestore
} bind def
72 266.618 o
grestore
gsave
/o {
gsave
newpath
translate
0.5 setlinewidth
1 setlinejoin
0 setlinecap
0 0 m
-4 0 l

gsave
0.000 setgray
fill
grestore
stroke
grestore
} bind def
518.4 266.618 o
grestore
gsave
52.718750 263.305682 translate
0.000000 rotate
0.000000 0.000000 m /one glyphshow
7.634766 0.000000 m /one glyphshow
grestore
gsave
/o {
gsave
newpath
translate
0.5 setlinewidth
1 setlinejoin
0 setlinecap
0 0 m
4 0 l

gsave
0.000 setgray
fill
grestore
stroke
grestore
} bind def
72 284.073 o
grestore
gsave
/o {
gsave
newpath
translate
0.5 setlinewidth
1 setlinejoin
0 setlinecap
0 0 m
-4 0 l

gsave
0.000 setgray
fill
grestore
stroke
grestore
} bind def
518.4 284.073 o
grestore
gsave
52.718750 280.760227 translate
0.000000 rotate
0.000000 0.000000 m /one glyphshow
7.634766 0.000000 m /two glyphshow
grestore
gsave
/o {
gsave
newpath
translate
0.5 setlinewidth
1 setlinejoin
0 setlinecap
0 0 m
4 0 l

gsave
0.000 setgray
fill
grestore
stroke
grestore
} bind def
72 301.527 o
grestore
gsave
/o {
gsave
newpath
translate
0.5 setlinewidth
1 setlinejoin
0 setlinecap
0 0 m
-4 0 l

gsave
0.000 setgray
fill
grestore
stroke
grestore
} bind def
518.4 301.527 o
grestore
gsave
52.718750 298.214773 translate
0.000000 rotate
0.000000 0.000000 m /one glyphshow
7.634766 0.000000 m /three glyphshow
grestore
gsave
/o {
gsave
newpath
translate
0.5 setlinewidth
1 setlinejoin
0 setlinecap
0 0 m
4 0 l

gsave
0.000 setgray
fill
grestore
stroke
grestore
} bind def
72 318.982 o
grestore
gsave
/o {
gsave
newpath
translate
0.5 setlinewidth
1 setlinejoin
0 setlinecap
0 0 m
-4 0 l

gsave
0.000 setgray
fill
grestore
stroke
grestore
} bind def
518.4 318.982 o
grestore
gsave
52.718750 315.669318 translate
0.000000 rotate
0.000000 0.000000 m /one glyphshow
7.634766 0.000000 m /four glyphshow
grestore
gsave
/o {
gsave
newpath
translate
0.5 setlinewidth
1 setlinejoin
0 setlinecap
0 0 m
4 0 l

gsave
0.000 setgray
fill
grestore
stroke
grestore
} bind def
72 336.436 o
grestore
gsave
/o {
gsave
newpath
translate
0.5 setlinewidth
1 setlinejoin
0 setlinecap
0 0 m
-4 0 l

gsave
0.000 setgray
fill
grestore
stroke
grestore
} bind def
518.4 336.436 o
grestore
gsave
52.718750 333.123864 translate
0.000000 rotate
0.000000 0.000000 m /one glyphshow
7.634766 0.000000 m /five glyphshow
grestore
gsave
/o {
gsave
newpath
translate
0.5 setlinewidth
1 setlinejoin
0 setlinecap
0 0 m
4 0 l

gsave
0.000 setgray
fill
grestore
stroke
grestore
} bind def
72 353.891 o
grestore
gsave
/o {
gsave
newpath
translate
0.5 setlinewidth
1 setlinejoin
0 setlinecap
0 0 m
-4 0 l

gsave
0.000 setgray
fill
grestore
stroke
grestore
} bind def
518.4 353.891 o
grestore
gsave
52.718750 350.578409 translate
0.000000 rotate
0.000000 0.000000 m /one glyphshow
7.634766 0.000000 m /six glyphshow
grestore
gsave
/o {
gsave
newpath
translate
0.5 setlinewidth
1 setlinejoin
0 setlinecap
0 0 m
4 0 l

gsave
0.000 setgray
fill
grestore
stroke
grestore
} bind def
72 371.345 o
grestore
gsave
/o {
gsave
newpath
translate
0.5 setlinewidth
1 setlinejoin
0 setlinecap
0 0 m
-4 0 l

gsave
0.000 setgray
fill
grestore
stroke
grestore
} bind def
518.4 371.345 o
grestore
gsave
52.718750 368.032955 translate
0.000000 rotate
0.000000 0.000000 m /one glyphshow
7.634766 0.000000 m /seven glyphshow
grestore
gsave
/o {
gsave
newpath
translate
0.5 setlinewidth
1 setlinejoin
0 setlinecap
0 0 m
4 0 l

gsave
0.000 setgray
fill
grestore
stroke
grestore
} bind def
72 388.8 o
grestore
gsave
/o {
gsave
newpath
translate
0.5 setlinewidth
1 setlinejoin
0 setlinecap
0 0 m
-4 0 l

gsave
0.000 setgray
fill
grestore
stroke
grestore
} bind def
518.4 388.8 o
grestore
gsave
52.718750 385.487500 translate
0.000000 rotate
0.000000 0.000000 m /one glyphshow
7.634766 0.000000 m /eight glyphshow
grestore
gsave
72 43.2 m
518.4 43.2 l
518.4 200.290909 l
72 200.290909 l
cl
1.000 setgray
fill
grestore
1.000 setlinewidth
2 setlinecap
1.000 0.000 0.000 setrgbcolor
gsave
446.4 157.1 72 43.2 clipbox
72 78.264705 m
74.48 78.90829 l
76.96 73.521233 l
79.44 72.931477 l
81.92 72.692021 l
84.4 70.250141 l
86.88 70.250141 l
89.36 69.160352 l
91.84 68.629768 l
94.32 68.629768 l
96.8 65.520792 l
99.28 65.520792 l
101.76 65.173282 l
104.24 64.201104 l
106.72 64.509503 l
109.2 65.917432 l
111.68 65.284221 l
114.16 63.298918 l
116.64 63.298918 l
119.12 63.053477 l
121.6 64.866489 l
124.08 64.866489 l
126.56 63.053477 l
129.04 66.904593 l
131.52 69.160352 l
134 68.268404 l
136.48 70.013569 l
138.96 67.808261 l
141.44 72.048436 l
143.92 76.985884 l
146.4 76.785519 l
148.88 78.264705 l
151.36 78.721282 l
153.84 82.688322 l
156.32 78.721282 l
158.8 82.688322 l
161.28 81.796374 l
163.76 85.177575 l
166.24 84.582716 l
168.72 88.943597 l
171.2 87.024596 l
173.68 88.943597 l
176.16 86.090237 l
178.64 89.120496 l
181.12 87.369058 l
183.6 86.447222 l
186.08 85.039293 l
188.56 87.657807 l
191.04 85.672505 l
193.52 84.582716 l
196 83.148465 l
198.48 79.354494 l
200.96 80.068229 l
203.44 76.510903 l
205.92 74.324612 l
208.4 76.632113 l
210.88 124.531797 l
213.36 123.702584 l
215.84 119.788325 l
218.32 119.198568 l
220.8 120.112863 l
223.28 118.85737 l
225.76 120.177884 l
228.24 117.120208 l
230.72 116.7346 l
233.2 116.7346 l
235.68 115.696418 l
238.16 118.149824 l
240.64 118.747977 l
243.12 120.990582 l
245.6 123.44868 l
248.08 126.133722 l
250.56 126.555945 l
253.04 125.44144 l
255.52 123.804856 l
258 126.555945 l
260.48 130.472232 l
262.96 130.849808 l
265.44 133.572188 l
267.92 137.167818 l
270.4 134.381476 l
272.88 138.675339 l
275.36 140.410738 l
277.84 141.621323 l
280.32 142.149055 l
282.8 153.815861 l
285.28 151.283026 l
287.76 153.990402 l
290.24 150.809952 l
292.72 152.590182 l
295.2 155.193013 l
297.68 157.127963 l
300.16 160.260284 l
302.64 166.379955 l
305.12 166.379955 l
307.6 168.865764 l
310.08 168.865764 l
312.56 173.373445 l
315.04 171.010024 l
317.52 176.823841 l
320 178.206688 l
322.48 178.845044 l
324.96 181.731685 l
327.44 181.731685 l
329.92 180.359819 l
332.4 180.511253 l
334.88 177.711759 l
337.36 178.206688 l
339.84 175.222505 l
342.32 172.663395 l
344.8 175.222505 l
347.28 173.373445 l
349.76 64.444267 l
352.24 63.298918 l
354.72 181.731685 l
357.2 180.915109 l
359.68 175.405447 l
362.16 174.330557 l
364.64 175.105275 l
367.12 175.105275 l
369.6 174.827574 l
372.08 174.041808 l
377.04 171.499889 l
379.52 168.491387 l
382 169.319703 l
384.48 171.708532 l
386.96 172.466051 l
389.44 171.255466 l
391.92 170.312136 l
394.4 171.888677 l
396.88 171.255466 l
399.36 170.965294 l
404.32 175.809743 l
406.8 173.240768 l
409.28 176.586316 l
411.76 174.798001 l
414.24 178.114499 l
416.72 175.131597 l
419.2 177.970117 l
421.68 179.903242 l
424.16 182.581693 l
426.64 61.145788 l
429.12 62.013129 l
431.6 62.228904 l
434.08 64.645865 l
436.56 63.93213 l
439.04 66.987446 l
441.52 66.37401 l
444 69.861353 l
446.48 69.160352 l
448.96 66.003556 l
451.44 67.10095 l
453.92 71.602232 l
456.4 70.250141 l
458.88 67.808261 l
461.36 67.652831 l
463.84 69.160352 l
466.32 70.080133 l
468.8 69.472014 l
471.28 65.71236 l
473.76 66.37401 l
476.24 62.228904 l
478.72 62.497879 l
481.2 60.810871 l
483.68 182.649874 l
486.16 182.581693 l
486.16 182.581693 l
stroke
grestore
0.000 0.000 1.000 setrgbcolor
gsave
446.4 157.1 72 43.2 clipbox
72 180.294798 m
74.48 181.262005 l
76.96 178.981406 l
79.44 178.090955 l
81.92 176.342182 l
84.4 175.264916 l
86.88 174.861141 l
89.36 174.006019 l
91.84 174.514069 l
94.32 173.596829 l
96.8 173.560898 l
99.28 173.976787 l
101.76 173.764281 l
104.24 174.148744 l
106.72 175.311558 l
109.2 177.254214 l
111.68 177.54064 l
114.16 177.66989 l
116.64 179.383459 l
119.12 178.845044 l
121.6 180.71253 l
124.08 181.108198 l
126.56 60.523443 l
129.04 60.53484 l
131.52 63.053477 l
134 63.543342 l
136.48 66.37401 l
138.96 66.860762 l
141.44 69.160352 l
143.92 71.024858 l
146.4 72.899805 l
148.88 73.698132 l
151.36 75.1339 l
153.84 76.233235 l
156.32 77.258593 l
158.8 79.221818 l
161.28 80.531265 l
163.76 82.443492 l
166.24 82.886162 l
168.72 84.730355 l
171.2 85.309656 l
173.68 86.938848 l
176.16 86.413884 l
178.64 87.445912 l
181.12 87.935334 l
183.6 87.657807 l
186.08 88.508184 l
188.56 87.785314 l
191.04 87.785314 l
193.52 86.947591 l
196 87.261167 l
198.48 85.378349 l
200.96 85.889872 l
203.44 82.214106 l
205.92 81.559802 l
208.4 80.777219 l
210.88 88.297897 l
213.36 85.283717 l
215.84 83.61777 l
218.32 82.214106 l
220.8 80.943156 l
223.28 77.502511 l
225.76 77.258593 l
228.24 76.008946 l
230.72 75.478363 l
233.2 74.883503 l
235.68 74.947779 l
238.16 75.478363 l
240.64 76.008946 l
243.12 76.632113 l
245.6 77.258593 l
248.08 77.920243 l
250.56 79.117922 l
253.04 79.931867 l
255.52 78.47584 l
258 77.651268 l
260.48 78.264705 l
262.96 79.623468 l
265.44 82.214106 l
267.92 79.623468 l
270.4 84.582716 l
272.88 83.075195 l
275.36 83.61777 l
277.84 84.894378 l
280.32 88.943597 l
282.8 89.919725 l
285.28 90.900727 l
287.76 94.143646 l
290.24 93.200317 l
292.72 94.975198 l
295.2 94.776858 l
297.68 96.623878 l
300.16 96.907075 l
302.64 98.183683 l
305.12 96.623878 l
307.6 99.113132 l
310.08 96.623878 l
312.56 98.372488 l
315.04 98.851329 l
317.52 99.278139 l
320 100.00508 l
322.48 100.343604 l
324.96 100.70608 l
327.44 100.343604 l
329.92 98.954136 l
332.4 98.224849 l
334.88 96.70211 l
337.36 96.949763 l
339.84 92.603952 l
342.32 91.881728 l
344.8 90.900727 l
347.28 87.261167 l
stroke
grestore
0 setlinejoin
0.000 setgray
gsave
72 200.290909 m
518.4 200.290909 l
stroke
grestore
gsave
72 43.2 m
518.4 43.2 l
stroke
grestore
gsave
72 43.2 m
72 200.290909 l
stroke
grestore
gsave
518.4 43.2 m
518.4 200.290909 l
stroke
grestore
0.500 setlinewidth
1 setlinejoin
0 setlinecap
gsave
/o {
gsave
newpath
translate
0.5 setlinewidth
1 setlinejoin
0 setlinecap
0 0 m
0 4 l

gsave
0.000 setgray
fill
grestore
stroke
grestore
} bind def
72 43.2 o
grestore
gsave
/o {
gsave
newpath
translate
0.5 setlinewidth
1 setlinejoin
0 setlinecap
0 0 m
0 -4 l

gsave
0.000 setgray
fill
grestore
stroke
grestore
} bind def
72 200.291 o
grestore
gsave
68.179688 30.075000 translate
0.000000 rotate
0.000000 0.000000 m /zero glyphshow
grestore
gsave
/o {
gsave
newpath
translate
0.5 setlinewidth
1 setlinejoin
0 setlinecap
0 0 m
0 4 l

gsave
0.000 setgray
fill
grestore
stroke
grestore
} bind def
121.6 43.2 o
grestore
gsave
/o {
gsave
newpath
translate
0.5 setlinewidth
1 setlinejoin
0 setlinecap
0 0 m
0 -4 l

gsave
0.000 setgray
fill
grestore
stroke
grestore
} bind def
121.6 200.291 o
grestore
gsave
113.959375 30.075000 translate
0.000000 rotate
0.000000 0.000000 m /two glyphshow
7.634766 0.000000 m /zero glyphshow
grestore
gsave
/o {
gsave
newpath
translate
0.5 setlinewidth
1 setlinejoin
0 setlinecap
0 0 m
0 4 l

gsave
0.000 setgray
fill
grestore
stroke
grestore
} bind def
171.2 43.2 o
grestore
gsave
/o {
gsave
newpath
translate
0.5 setlinewidth
1 setlinejoin
0 setlinecap
0 0 m
0 -4 l

gsave
0.000 setgray
fill
grestore
stroke
grestore
} bind def
171.2 200.291 o
grestore
gsave
163.559375 30.075000 translate
0.000000 rotate
0.000000 0.000000 m /four glyphshow
7.634766 0.000000 m /zero glyphshow
grestore
gsave
/o {
gsave
newpath
translate
0.5 setlinewidth
1 setlinejoin
0 setlinecap
0 0 m
0 4 l

gsave
0.000 setgray
fill
grestore
stroke
grestore
} bind def
220.8 43.2 o
grestore
gsave
/o {
gsave
newpath
translate
0.5 setlinewidth
1 setlinejoin
0 setlinecap
0 0 m
0 -4 l

gsave
0.000 setgray
fill
grestore
stroke
grestore
} bind def
220.8 200.291 o
grestore
gsave
213.159375 30.075000 translate
0.000000 rotate
0.000000 0.000000 m /six glyphshow
7.634766 0.000000 m /zero glyphshow
grestore
gsave
/o {
gsave
newpath
translate
0.5 setlinewidth
1 setlinejoin
0 setlinecap
0 0 m
0 4 l

gsave
0.000 setgray
fill
grestore
stroke
grestore
} bind def
270.4 43.2 o
grestore
gsave
/o {
gsave
newpath
translate
0.5 setlinewidth
1 setlinejoin
0 setlinecap
0 0 m
0 -4 l

gsave
0.000 setgray
fill
grestore
stroke
grestore
} bind def
270.4 200.291 o
grestore
gsave
262.759375 30.075000 translate
0.000000 rotate
0.000000 0.000000 m /eight glyphshow
7.634766 0.000000 m /zero glyphshow
grestore
gsave
/o {
gsave
newpath
translate
0.5 setlinewidth
1 setlinejoin
0 setlinecap
0 0 m
0 4 l

gsave
0.000 setgray
fill
grestore
stroke
grestore
} bind def
320 43.2 o
grestore
gsave
/o {
gsave
newpath
translate
0.5 setlinewidth
1 setlinejoin
0 setlinecap
0 0 m
0 -4 l

gsave
0.000 setgray
fill
grestore
stroke
grestore
} bind def
320 200.291 o
grestore
gsave
308.539062 30.075000 translate
0.000000 rotate
0.000000 0.000000 m /one glyphshow
7.634766 0.000000 m /zero glyphshow
15.269531 0.000000 m /zero glyphshow
grestore
gsave
/o {
gsave
newpath
translate
0.5 setlinewidth
1 setlinejoin
0 setlinecap
0 0 m
0 4 l

gsave
0.000 setgray
fill
grestore
stroke
grestore
} bind def
369.6 43.2 o
grestore
gsave
/o {
gsave
newpath
translate
0.5 setlinewidth
1 setlinejoin
0 setlinecap
0 0 m
0 -4 l

gsave
0.000 setgray
fill
grestore
stroke
grestore
} bind def
369.6 200.291 o
grestore
gsave
358.139063 30.075000 translate
0.000000 rotate
0.000000 0.000000 m /one glyphshow
7.634766 0.000000 m /two glyphshow
15.269531 0.000000 m /zero glyphshow
grestore
gsave
/o {
gsave
newpath
translate
0.5 setlinewidth
1 setlinejoin
0 setlinecap
0 0 m
0 4 l

gsave
0.000 setgray
fill
grestore
stroke
grestore
} bind def
419.2 43.2 o
grestore
gsave
/o {
gsave
newpath
translate
0.5 setlinewidth
1 setlinejoin
0 setlinecap
0 0 m
0 -4 l

gsave
0.000 setgray
fill
grestore
stroke
grestore
} bind def
419.2 200.291 o
grestore
gsave
407.739062 30.075000 translate
0.000000 rotate
0.000000 0.000000 m /one glyphshow
7.634766 0.000000 m /four glyphshow
15.269531 0.000000 m /zero glyphshow
grestore
gsave
/o {
gsave
newpath
translate
0.5 setlinewidth
1 setlinejoin
0 setlinecap
0 0 m
0 4 l

gsave
0.000 setgray
fill
grestore
stroke
grestore
} bind def
468.8 43.2 o
grestore
gsave
/o {
gsave
newpath
translate
0.5 setlinewidth
1 setlinejoin
0 setlinecap
0 0 m
0 -4 l

gsave
0.000 setgray
fill
grestore
stroke
grestore
} bind def
468.8 200.291 o
grestore
gsave
457.339063 30.075000 translate
0.000000 rotate
0.000000 0.000000 m /one glyphshow
7.634766 0.000000 m /six glyphshow
15.269531 0.000000 m /zero glyphshow
grestore
gsave
/o {
gsave
newpath
translate
0.5 setlinewidth
1 setlinejoin
0 setlinecap
0 0 m
0 4 l

gsave
0.000 setgray
fill
grestore
stroke
grestore
} bind def
518.4 43.2 o
grestore
gsave
/o {
gsave
newpath
translate
0.5 setlinewidth
1 setlinejoin
0 setlinecap
0 0 m
0 -4 l

gsave
0.000 setgray
fill
grestore
stroke
grestore
} bind def
518.4 200.291 o
grestore
gsave
506.939062 30.075000 translate
0.000000 rotate
0.000000 0.000000 m /one glyphshow
7.634766 0.000000 m /eight glyphshow
15.269531 0.000000 m /zero glyphshow
grestore
gsave
/o {
gsave
newpath
translate
0.5 setlinewidth
1 setlinejoin
0 setlinecap
0 0 m
4 0 l

gsave
0.000 setgray
fill
grestore
stroke
grestore
} bind def
72 43.2 o
grestore
gsave
/o {
gsave
newpath
translate
0.5 setlinewidth
1 setlinejoin
0 setlinecap
0 0 m
-4 0 l

gsave
0.000 setgray
fill
grestore
stroke
grestore
} bind def
518.4 43.2 o
grestore
gsave
50.296875 39.887500 translate
0.000000 rotate
0.000000 0.000000 m /minus glyphshow
10.054688 0.000000 m /four glyphshow
grestore
gsave
/o {
gsave
newpath
translate
0.5 setlinewidth
1 setlinejoin
0 setlinecap
0 0 m
4 0 l

gsave
0.000 setgray
fill
grestore
stroke
grestore
} bind def
72 62.8364 o
grestore
gsave
/o {
gsave
newpath
translate
0.5 setlinewidth
1 setlinejoin
0 setlinecap
0 0 m
-4 0 l

gsave
0.000 setgray
fill
grestore
stroke
grestore
} bind def
518.4 62.8364 o
grestore
gsave
50.296875 59.523864 translate
0.000000 rotate
0.000000 0.000000 m /minus glyphshow
10.054688 0.000000 m /three glyphshow
grestore
gsave
/o {
gsave
newpath
translate
0.5 setlinewidth
1 setlinejoin
0 setlinecap
0 0 m
4 0 l

gsave
0.000 setgray
fill
grestore
stroke
grestore
} bind def
72 82.4727 o
grestore
gsave
/o {
gsave
newpath
translate
0.5 setlinewidth
1 setlinejoin
0 setlinecap
0 0 m
-4 0 l

gsave
0.000 setgray
fill
grestore
stroke
grestore
} bind def
518.4 82.4727 o
grestore
gsave
50.296875 79.160227 translate
0.000000 rotate
0.000000 0.000000 m /minus glyphshow
10.054688 0.000000 m /two glyphshow
grestore
gsave
/o {
gsave
newpath
translate
0.5 setlinewidth
1 setlinejoin
0 setlinecap
0 0 m
4 0 l

gsave
0.000 setgray
fill
grestore
stroke
grestore
} bind def
72 102.109 o
grestore
gsave
/o {
gsave
newpath
translate
0.5 setlinewidth
1 setlinejoin
0 setlinecap
0 0 m
-4 0 l

gsave
0.000 setgray
fill
grestore
stroke
grestore
} bind def
518.4 102.109 o
grestore
gsave
50.296875 98.796591 translate
0.000000 rotate
0.000000 0.000000 m /minus glyphshow
10.054688 0.000000 m /one glyphshow
grestore
gsave
/o {
gsave
newpath
translate
0.5 setlinewidth
1 setlinejoin
0 setlinecap
0 0 m
4 0 l

gsave
0.000 setgray
fill
grestore
stroke
grestore
} bind def
72 121.745 o
grestore
gsave
/o {
gsave
newpath
translate
0.5 setlinewidth
1 setlinejoin
0 setlinecap
0 0 m
-4 0 l

gsave
0.000 setgray
fill
grestore
stroke
grestore
} bind def
518.4 121.745 o
grestore
gsave
60.359375 118.432955 translate
0.000000 rotate
0.000000 0.000000 m /zero glyphshow
grestore
gsave
/o {
gsave
newpath
translate
0.5 setlinewidth
1 setlinejoin
0 setlinecap
0 0 m
4 0 l

gsave
0.000 setgray
fill
grestore
stroke
grestore
} bind def
72 141.382 o
grestore
gsave
/o {
gsave
newpath
translate
0.5 setlinewidth
1 setlinejoin
0 setlinecap
0 0 m
-4 0 l

gsave
0.000 setgray
fill
grestore
stroke
grestore
} bind def
518.4 141.382 o
grestore
gsave
60.359375 138.069318 translate
0.000000 rotate
0.000000 0.000000 m /one glyphshow
grestore
gsave
/o {
gsave
newpath
translate
0.5 setlinewidth
1 setlinejoin
0 setlinecap
0 0 m
4 0 l

gsave
0.000 setgray
fill
grestore
stroke
grestore
} bind def
72 161.018 o
grestore
gsave
/o {
gsave
newpath
translate
0.5 setlinewidth
1 setlinejoin
0 setlinecap
0 0 m
-4 0 l

gsave
0.000 setgray
fill
grestore
stroke
grestore
} bind def
518.4 161.018 o
grestore
gsave
60.359375 157.705682 translate
0.000000 rotate
0.000000 0.000000 m /two glyphshow
grestore
gsave
/o {
gsave
newpath
translate
0.5 setlinewidth
1 setlinejoin
0 setlinecap
0 0 m
4 0 l

gsave
0.000 setgray
fill
grestore
stroke
grestore
} bind def
72 180.655 o
grestore
gsave
/o {
gsave
newpath
translate
0.5 setlinewidth
1 setlinejoin
0 setlinecap
0 0 m
-4 0 l

gsave
0.000 setgray
fill
grestore
stroke
grestore
} bind def
518.4 180.655 o
grestore
gsave
60.359375 177.342045 translate
0.000000 rotate
0.000000 0.000000 m /three glyphshow
grestore
gsave
/o {
gsave
newpath
translate
0.5 setlinewidth
1 setlinejoin
0 setlinecap
0 0 m
4 0 l

gsave
0.000 setgray
fill
grestore
stroke
grestore
} bind def
72 200.291 o
grestore
gsave
/o {
gsave
newpath
translate
0.5 setlinewidth
1 setlinejoin
0 setlinecap
0 0 m
-4 0 l

gsave
0.000 setgray
fill
grestore
stroke
grestore
} bind def
518.4 200.291 o
grestore
gsave
60.359375 196.978409 translate
0.000000 rotate
0.000000 0.000000 m /four glyphshow
grestore

end
showpage
