%!PS-Adobe-3.0 EPSF-3.0
%%Title: e_rx1_tx1_m_rx1_tx1.eps
%%Creator: matplotlib version 1.5.1, http://matplotlib.org/
%%CreationDate: Wed Feb 15 15:39:11 2017
%%Orientation: portrait
%%BoundingBox: 18 180 594 612
%%EndComments
%%BeginProlog
/mpldict 8 dict def
mpldict begin
/m { moveto } bind def
/l { lineto } bind def
/r { rlineto } bind def
/c { curveto } bind def
/cl { closepath } bind def
/box {
m
1 index 0 r
0 exch r
neg 0 r
cl
} bind def
/clipbox {
box
clip
newpath
} bind def
%!PS-Adobe-3.0 Resource-Font
%%Title: Bitstream Vera Sans
%%Copyright: Copyright (c) 2003 by Bitstream, Inc. All Rights Reserved.
%%Creator: Converted from TrueType to type 3 by PPR
25 dict begin
/_d{bind def}bind def
/_m{moveto}_d
/_l{lineto}_d
/_cl{closepath eofill}_d
/_c{curveto}_d
/_sc{7 -1 roll{setcachedevice}{pop pop pop pop pop pop}ifelse}_d
/_e{exec}_d
/FontName /BitstreamVeraSans-Roman def
/PaintType 0 def
/FontMatrix[.001 0 0 .001 0 0]def
/FontBBox[-183 -236 1287 928]def
/FontType 3 def
/Encoding [ /space /comma /period /zero /one /two /four /five /six /seven /eight /nine /B /I /M /P /bracketleft /bracketright /a /c /d /e /g /h /i /m /n /r /s /t /u /x /minus ] def
/FontInfo 10 dict dup begin
/FamilyName (Bitstream Vera Sans) def
/FullName (Bitstream Vera Sans) def
/Notice (Copyright (c) 2003 by Bitstream, Inc. All Rights Reserved. Bitstream Vera is a trademark of Bitstream, Inc.) def
/Weight (Roman) def
/Version (Release 1.10) def
/ItalicAngle 0.0 def
/isFixedPitch false def
/UnderlinePosition -213 def
/UnderlineThickness 143 def
end readonly def
/CharStrings 33 dict dup begin
/space{318 0 0 0 0 0 _sc
}_d
/comma{318 0 77 -115 220 124 _sc
117 124 _m
220 124 _l
220 40 _l
140 -115 _l
77 -115 _l
117 40 _l
117 124 _l
_cl}_d
/period{318 0 107 0 210 124 _sc
107 124 _m
210 124 _l
210 0 _l
107 0 _l
107 124 _l
_cl}_d
/zero{636 0 66 -13 570 742 _sc
318 664 _m
267 664 229 639 203 589 _c
177 539 165 464 165 364 _c
165 264 177 189 203 139 _c
229 89 267 64 318 64 _c
369 64 407 89 433 139 _c
458 189 471 264 471 364 _c
471 464 458 539 433 589 _c
407 639 369 664 318 664 _c
318 742 _m
399 742 461 709 505 645 _c
548 580 570 486 570 364 _c
570 241 548 147 505 83 _c
461 19 399 -13 318 -13 _c
236 -13 173 19 130 83 _c
87 147 66 241 66 364 _c
66 486 87 580 130 645 _c
173 709 236 742 318 742 _c
_cl}_d
/one{636 0 110 0 544 729 _sc
124 83 _m
285 83 _l
285 639 _l
110 604 _l
110 694 _l
284 729 _l
383 729 _l
383 83 _l
544 83 _l
544 0 _l
124 0 _l
124 83 _l
_cl}_d
/two{{636 0 73 0 536 742 _sc
192 83 _m
536 83 _l
536 0 _l
73 0 _l
73 83 _l
110 121 161 173 226 239 _c
290 304 331 346 348 365 _c
380 400 402 430 414 455 _c
426 479 433 504 433 528 _c
433 566 419 598 392 622 _c
365 646 330 659 286 659 _c
255 659 222 653 188 643 _c
154 632 117 616 78 594 _c
78 694 _l
118 710 155 722 189 730 _c
223 738 255 742 284 742 _c
}_e{359 742 419 723 464 685 _c
509 647 532 597 532 534 _c
532 504 526 475 515 449 _c
504 422 484 390 454 354 _c
446 344 420 317 376 272 _c
332 227 271 164 192 83 _c
_cl}_e}_d
/four{636 0 49 0 580 729 _sc
378 643 _m
129 254 _l
378 254 _l
378 643 _l
352 729 _m
476 729 _l
476 254 _l
580 254 _l
580 172 _l
476 172 _l
476 0 _l
378 0 _l
378 172 _l
49 172 _l
49 267 _l
352 729 _l
_cl}_d
/five{{636 0 77 -13 549 729 _sc
108 729 _m
495 729 _l
495 646 _l
198 646 _l
198 467 _l
212 472 227 476 241 478 _c
255 480 270 482 284 482 _c
365 482 429 459 477 415 _c
525 370 549 310 549 234 _c
549 155 524 94 475 51 _c
426 8 357 -13 269 -13 _c
238 -13 207 -10 175 -6 _c
143 -1 111 6 77 17 _c
77 116 _l
106 100 136 88 168 80 _c
199 72 232 69 267 69 _c
}_e{323 69 368 83 401 113 _c
433 143 450 183 450 234 _c
450 284 433 324 401 354 _c
368 384 323 399 267 399 _c
241 399 214 396 188 390 _c
162 384 135 375 108 363 _c
108 729 _l
_cl}_e}_d
/six{{636 0 70 -13 573 742 _sc
330 404 _m
286 404 251 388 225 358 _c
199 328 186 286 186 234 _c
186 181 199 139 225 109 _c
251 79 286 64 330 64 _c
374 64 409 79 435 109 _c
461 139 474 181 474 234 _c
474 286 461 328 435 358 _c
409 388 374 404 330 404 _c
526 713 _m
526 623 _l
501 635 476 644 451 650 _c
425 656 400 659 376 659 _c
310 659 260 637 226 593 _c
}_e{192 549 172 482 168 394 _c
187 422 211 444 240 459 _c
269 474 301 482 336 482 _c
409 482 467 459 509 415 _c
551 371 573 310 573 234 _c
573 159 550 99 506 54 _c
462 9 403 -13 330 -13 _c
246 -13 181 19 137 83 _c
92 147 70 241 70 364 _c
70 479 97 571 152 639 _c
206 707 280 742 372 742 _c
396 742 421 739 447 735 _c
472 730 498 723 526 713 _c
_cl}_e}_d
/seven{636 0 82 0 551 729 _sc
82 729 _m
551 729 _l
551 687 _l
286 0 _l
183 0 _l
432 646 _l
82 646 _l
82 729 _l
_cl}_d
/eight{{636 0 68 -13 568 742 _sc
318 346 _m
271 346 234 333 207 308 _c
180 283 167 249 167 205 _c
167 161 180 126 207 101 _c
234 76 271 64 318 64 _c
364 64 401 76 428 102 _c
455 127 469 161 469 205 _c
469 249 455 283 429 308 _c
402 333 365 346 318 346 _c
219 388 _m
177 398 144 418 120 447 _c
96 476 85 511 85 553 _c
85 611 105 657 147 691 _c
188 725 245 742 318 742 _c
}_e{390 742 447 725 489 691 _c
530 657 551 611 551 553 _c
551 511 539 476 515 447 _c
491 418 459 398 417 388 _c
464 377 501 355 528 323 _c
554 291 568 251 568 205 _c
568 134 546 80 503 43 _c
459 5 398 -13 318 -13 _c
237 -13 175 5 132 43 _c
89 80 68 134 68 205 _c
68 251 81 291 108 323 _c
134 355 171 377 219 388 _c
183 544 _m
183 506 194 476 218 455 _c
}_e{242 434 275 424 318 424 _c
360 424 393 434 417 455 _c
441 476 453 506 453 544 _c
453 582 441 611 417 632 _c
393 653 360 664 318 664 _c
275 664 242 653 218 632 _c
194 611 183 582 183 544 _c
_cl}_e}_d
/nine{{636 0 63 -13 566 742 _sc
110 15 _m
110 105 _l
134 93 159 84 185 78 _c
210 72 235 69 260 69 _c
324 69 374 90 408 134 _c
442 178 462 244 468 334 _c
448 306 424 284 396 269 _c
367 254 335 247 300 247 _c
226 247 168 269 126 313 _c
84 357 63 417 63 494 _c
63 568 85 628 129 674 _c
173 719 232 742 306 742 _c
390 742 455 709 499 645 _c
543 580 566 486 566 364 _c
}_e{566 248 538 157 484 89 _c
429 21 356 -13 264 -13 _c
239 -13 214 -10 189 -6 _c
163 -2 137 5 110 15 _c
306 324 _m
350 324 385 339 411 369 _c
437 399 450 441 450 494 _c
450 546 437 588 411 618 _c
385 648 350 664 306 664 _c
262 664 227 648 201 618 _c
175 588 162 546 162 494 _c
162 441 175 399 201 369 _c
227 339 262 324 306 324 _c
_cl}_e}_d
/B{{686 0 98 0 615 729 _sc
197 348 _m
197 81 _l
355 81 _l
408 81 447 92 473 114 _c
498 136 511 169 511 215 _c
511 260 498 293 473 315 _c
447 337 408 348 355 348 _c
197 348 _l
197 648 _m
197 428 _l
343 428 _l
391 428 426 437 450 455 _c
474 473 486 500 486 538 _c
486 574 474 602 450 620 _c
426 638 391 648 343 648 _c
197 648 _l
98 729 _m
350 729 _l
}_e{425 729 483 713 524 682 _c
564 650 585 606 585 549 _c
585 504 574 468 553 442 _c
532 416 502 399 462 393 _c
510 382 548 360 575 327 _c
601 294 615 253 615 204 _c
615 138 592 88 548 53 _c
504 17 441 0 360 0 _c
98 0 _l
98 729 _l
_cl}_e}_d
/I{295 0 98 0 197 729 _sc
98 729 _m
197 729 _l
197 0 _l
98 0 _l
98 729 _l
_cl}_d
/M{863 0 98 0 765 729 _sc
98 729 _m
245 729 _l
431 233 _l
618 729 _l
765 729 _l
765 0 _l
669 0 _l
669 640 _l
481 140 _l
382 140 _l
194 640 _l
194 0 _l
98 0 _l
98 729 _l
_cl}_d
/P{603 0 98 0 569 729 _sc
197 648 _m
197 374 _l
321 374 _l
367 374 402 385 427 409 _c
452 433 465 467 465 511 _c
465 555 452 588 427 612 _c
402 636 367 648 321 648 _c
197 648 _l
98 729 _m
321 729 _l
402 729 464 710 506 673 _c
548 636 569 582 569 511 _c
569 439 548 384 506 348 _c
464 311 402 293 321 293 _c
197 293 _l
197 0 _l
98 0 _l
98 729 _l
_cl}_d
/bracketleft{390 0 86 -131 293 760 _sc
86 760 _m
293 760 _l
293 690 _l
176 690 _l
176 -61 _l
293 -61 _l
293 -131 _l
86 -131 _l
86 760 _l
_cl}_d
/bracketright{390 0 97 -131 304 760 _sc
304 760 _m
304 -131 _l
97 -131 _l
97 -61 _l
214 -61 _l
214 690 _l
97 690 _l
97 760 _l
304 760 _l
_cl}_d
/a{{613 0 60 -13 522 560 _sc
343 275 _m
270 275 220 266 192 250 _c
164 233 150 205 150 165 _c
150 133 160 107 181 89 _c
202 70 231 61 267 61 _c
317 61 357 78 387 114 _c
417 149 432 196 432 255 _c
432 275 _l
343 275 _l
522 312 _m
522 0 _l
432 0 _l
432 83 _l
411 49 385 25 355 10 _c
325 -5 287 -13 243 -13 _c
187 -13 142 2 109 33 _c
76 64 60 106 60 159 _c
}_e{60 220 80 266 122 298 _c
163 329 224 345 306 345 _c
432 345 _l
432 354 _l
432 395 418 427 391 450 _c
364 472 326 484 277 484 _c
245 484 215 480 185 472 _c
155 464 127 453 100 439 _c
100 522 _l
132 534 164 544 195 550 _c
226 556 256 560 286 560 _c
365 560 424 539 463 498 _c
502 457 522 395 522 312 _c
_cl}_e}_d
/c{{550 0 55 -13 488 560 _sc
488 526 _m
488 442 _l
462 456 437 466 411 473 _c
385 480 360 484 334 484 _c
276 484 230 465 198 428 _c
166 391 150 339 150 273 _c
150 206 166 154 198 117 _c
230 80 276 62 334 62 _c
360 62 385 65 411 72 _c
437 79 462 90 488 104 _c
488 21 _l
462 9 436 0 410 -5 _c
383 -10 354 -13 324 -13 _c
242 -13 176 12 128 64 _c
}_e{79 115 55 185 55 273 _c
55 362 79 432 128 483 _c
177 534 244 560 330 560 _c
358 560 385 557 411 551 _c
437 545 463 537 488 526 _c
_cl}_e}_d
/d{{635 0 55 -13 544 760 _sc
454 464 _m
454 760 _l
544 760 _l
544 0 _l
454 0 _l
454 82 _l
435 49 411 25 382 10 _c
353 -5 319 -13 279 -13 _c
213 -13 159 13 117 65 _c
75 117 55 187 55 273 _c
55 359 75 428 117 481 _c
159 533 213 560 279 560 _c
319 560 353 552 382 536 _c
411 520 435 496 454 464 _c
148 273 _m
148 207 161 155 188 117 _c
215 79 253 61 301 61 _c
}_e{348 61 385 79 413 117 _c
440 155 454 207 454 273 _c
454 339 440 390 413 428 _c
385 466 348 485 301 485 _c
253 485 215 466 188 428 _c
161 390 148 339 148 273 _c
_cl}_e}_d
/e{{615 0 55 -13 562 560 _sc
562 296 _m
562 252 _l
149 252 _l
153 190 171 142 205 110 _c
238 78 284 62 344 62 _c
378 62 412 66 444 74 _c
476 82 509 95 541 113 _c
541 28 _l
509 14 476 3 442 -3 _c
408 -9 373 -13 339 -13 _c
251 -13 182 12 131 62 _c
80 112 55 181 55 268 _c
55 357 79 428 127 481 _c
175 533 241 560 323 560 _c
397 560 455 536 498 489 _c
}_e{540 441 562 377 562 296 _c
472 322 _m
471 371 457 410 431 440 _c
404 469 368 484 324 484 _c
274 484 234 469 204 441 _c
174 413 156 373 152 322 _c
472 322 _l
_cl}_e}_d
/g{{635 0 55 -207 544 560 _sc
454 280 _m
454 344 440 395 414 431 _c
387 467 349 485 301 485 _c
253 485 215 467 188 431 _c
161 395 148 344 148 280 _c
148 215 161 165 188 129 _c
215 93 253 75 301 75 _c
349 75 387 93 414 129 _c
440 165 454 215 454 280 _c
544 68 _m
544 -24 523 -93 482 -139 _c
440 -184 377 -207 292 -207 _c
260 -207 231 -204 203 -200 _c
175 -195 147 -188 121 -178 _c
}_e{121 -91 _l
147 -105 173 -115 199 -122 _c
225 -129 251 -133 278 -133 _c
336 -133 380 -117 410 -87 _c
439 -56 454 -10 454 52 _c
454 96 _l
435 64 411 40 382 24 _c
353 8 319 0 279 0 _c
211 0 157 25 116 76 _c
75 127 55 195 55 280 _c
55 364 75 432 116 483 _c
157 534 211 560 279 560 _c
319 560 353 552 382 536 _c
411 520 435 496 454 464 _c
454 547 _l
544 547 _l
}_e{544 68 _l
_cl}_e}_d
/h{634 0 91 0 549 760 _sc
549 330 _m
549 0 _l
459 0 _l
459 327 _l
459 379 448 417 428 443 _c
408 469 378 482 338 482 _c
289 482 251 466 223 435 _c
195 404 181 362 181 309 _c
181 0 _l
91 0 _l
91 760 _l
181 760 _l
181 462 _l
202 494 227 519 257 535 _c
286 551 320 560 358 560 _c
420 560 468 540 500 501 _c
532 462 549 405 549 330 _c
_cl}_d
/i{278 0 94 0 184 760 _sc
94 547 _m
184 547 _l
184 0 _l
94 0 _l
94 547 _l
94 760 _m
184 760 _l
184 646 _l
94 646 _l
94 760 _l
_cl}_d
/m{{974 0 91 0 889 560 _sc
520 442 _m
542 482 569 511 600 531 _c
631 550 668 560 711 560 _c
767 560 811 540 842 500 _c
873 460 889 403 889 330 _c
889 0 _l
799 0 _l
799 327 _l
799 379 789 418 771 444 _c
752 469 724 482 686 482 _c
639 482 602 466 575 435 _c
548 404 535 362 535 309 _c
535 0 _l
445 0 _l
445 327 _l
445 379 435 418 417 444 _c
398 469 369 482 331 482 _c
}_e{285 482 248 466 221 435 _c
194 404 181 362 181 309 _c
181 0 _l
91 0 _l
91 547 _l
181 547 _l
181 462 _l
201 495 226 520 255 536 _c
283 552 317 560 357 560 _c
397 560 430 550 458 530 _c
486 510 506 480 520 442 _c
_cl}_e}_d
/n{634 0 91 0 549 560 _sc
549 330 _m
549 0 _l
459 0 _l
459 327 _l
459 379 448 417 428 443 _c
408 469 378 482 338 482 _c
289 482 251 466 223 435 _c
195 404 181 362 181 309 _c
181 0 _l
91 0 _l
91 547 _l
181 547 _l
181 462 _l
202 494 227 519 257 535 _c
286 551 320 560 358 560 _c
420 560 468 540 500 501 _c
532 462 549 405 549 330 _c
_cl}_d
/r{411 0 91 0 411 560 _sc
411 463 _m
401 469 390 473 378 476 _c
366 478 353 480 339 480 _c
288 480 249 463 222 430 _c
194 397 181 350 181 288 _c
181 0 _l
91 0 _l
91 547 _l
181 547 _l
181 462 _l
199 495 224 520 254 536 _c
284 552 321 560 365 560 _c
371 560 378 559 386 559 _c
393 558 401 557 411 555 _c
411 463 _l
_cl}_d
/s{{521 0 54 -13 472 560 _sc
443 531 _m
443 446 _l
417 458 391 468 364 475 _c
336 481 308 485 279 485 _c
234 485 200 478 178 464 _c
156 450 145 430 145 403 _c
145 382 153 366 169 354 _c
185 342 217 330 265 320 _c
296 313 _l
360 299 405 279 432 255 _c
458 230 472 195 472 151 _c
472 100 452 60 412 31 _c
372 1 316 -13 246 -13 _c
216 -13 186 -10 154 -5 _c
}_e{122 0 89 8 54 20 _c
54 113 _l
87 95 120 82 152 74 _c
184 65 216 61 248 61 _c
290 61 323 68 346 82 _c
368 96 380 117 380 144 _c
380 168 371 187 355 200 _c
339 213 303 226 247 238 _c
216 245 _l
160 257 119 275 95 299 _c
70 323 58 356 58 399 _c
58 450 76 490 112 518 _c
148 546 200 560 268 560 _c
301 560 332 557 362 552 _c
391 547 418 540 443 531 _c
}_e{_cl}_e}_d
/t{392 0 27 0 368 702 _sc
183 702 _m
183 547 _l
368 547 _l
368 477 _l
183 477 _l
183 180 _l
183 135 189 106 201 94 _c
213 81 238 75 276 75 _c
368 75 _l
368 0 _l
276 0 _l
206 0 158 13 132 39 _c
106 65 93 112 93 180 _c
93 477 _l
27 477 _l
27 547 _l
93 547 _l
93 702 _l
183 702 _l
_cl}_d
/u{634 0 85 -13 543 547 _sc
85 216 _m
85 547 _l
175 547 _l
175 219 _l
175 167 185 129 205 103 _c
225 77 255 64 296 64 _c
344 64 383 79 411 110 _c
439 141 453 183 453 237 _c
453 547 _l
543 547 _l
543 0 _l
453 0 _l
453 84 _l
431 50 405 26 377 10 _c
348 -5 315 -13 277 -13 _c
214 -13 166 6 134 45 _c
101 83 85 140 85 216 _c
_cl}_d
/x{592 0 29 0 559 547 _sc
549 547 _m
351 281 _l
559 0 _l
453 0 _l
294 215 _l
135 0 _l
29 0 _l
241 286 _l
47 547 _l
153 547 _l
298 352 _l
443 547 _l
549 547 _l
_cl}_d
/minus{838 0 106 272 732 355 _sc
106 355 _m
732 355 _l
732 272 _l
106 272 _l
106 355 _l
_cl}_d
end readonly def

/BuildGlyph
 {exch begin
 CharStrings exch
 2 copy known not{pop /.notdef}if
 true 3 1 roll get exec
 end}_d

/BuildChar {
 1 index /Encoding get exch get
 1 index /BuildGlyph get exec
}_d

FontName currentdict end definefont pop
end
%%EndProlog
mpldict begin
18 180 translate
576 432 0 0 clipbox
100000 setmiterlimit
gsave
0 0 m
576 0 l
576 432 l
0 432 l
cl
1.000 setgray
fill
grestore
gsave
72 231.709091 m
518.4 231.709091 l
518.4 388.8 l
72 388.8 l
cl
1.000 setgray
fill
grestore
1.000 setlinewidth
1 setlinejoin
2 setlinecap
[] 0 setdash
1.000 0.000 0.000 setrgbcolor
gsave
446.4 157.1 72 231.7 clipbox
72 269.170574 m
74.48 277.659867 l
76.96 292.395615 l
79.44 304.758434 l
81.92 305.866979 l
84.4 308.156178 l
86.88 313.267996 l
89.36 313.972695 l
91.84 317.656424 l
94.32 313.686293 l
96.8 312.802223 l
99.28 316.422996 l
101.76 309.925545 l
104.24 306.5202 l
106.72 307.033252 l
109.2 308.236553 l
111.68 306.453604 l
114.16 304.133444 l
116.64 303.553408 l
119.12 300.657632 l
121.6 299.364648 l
124.08 296.36455 l
126.56 297.318305 l
129.04 295.370846 l
131.52 298.450485 l
134 294.929646 l
136.48 294.526994 l
138.96 292.128105 l
141.44 291.043135 l
143.92 288.630089 l
146.4 286.36883 l
148.88 284.208359 l
151.36 284.208359 l
153.84 281.920087 l
156.32 286.744748 l
158.8 286.968914 l
161.28 287.561699 l
163.76 287.241503 l
166.24 290.050235 l
168.72 292.128105 l
171.2 294.929646 l
173.68 290.050235 l
176.16 294.929646 l
178.64 294.526994 l
181.12 298.450485 l
183.6 294.526994 l
186.08 293.55986 l
188.56 295.349927 l
191.04 296.914731 l
193.52 292.794146 l
196 284.522924 l
198.48 286.669796 l
200.96 282.848329 l
203.44 275.128607 l
205.92 266.180443 l
208.4 254.587269 l
stroke
grestore
0.502 0.000 0.000 setrgbcolor
gsave
446.4 157.1 72 231.7 clipbox
72 330.285699 m
74.48 345.163019 l
76.96 357.611889 l
79.44 362.130673 l
81.92 369.473016 l
84.4 372.559451 l
86.88 375.554887 l
89.36 375.153772 l
91.84 378.94093 l
94.32 375.153772 l
96.8 378.407267 l
99.28 374.970349 l
101.76 373.207335 l
104.24 369.312754 l
106.72 370.829942 l
109.2 370.557986 l
111.68 373.092877 l
114.16 365.691149 l
116.64 367.442741 l
119.12 365.735591 l
121.6 364.657622 l
124.08 364.39451 l
126.56 365.398795 l
129.04 361.89626 l
131.52 360.399556 l
134 363.981812 l
136.48 362.811502 l
138.96 361.574777 l
141.44 361.639244 l
143.92 358.151194 l
146.4 357.588559 l
148.88 357.681813 l
151.36 358.838368 l
153.84 355.612135 l
156.32 360.597405 l
158.8 357.172576 l
161.28 359.291158 l
163.76 357.378082 l
166.24 357.641036 l
168.72 359.683928 l
171.2 360.062468 l
173.68 365.334142 l
176.16 360.289292 l
178.64 365.05465 l
181.12 364.470554 l
183.6 364.622286 l
186.08 363.560428 l
188.56 365.908039 l
191.04 365.174629 l
193.52 363.699579 l
196 359.951437 l
198.48 356.077714 l
200.96 352.656684 l
203.44 344.891241 l
205.92 335.097168 l
208.4 322.969165 l
stroke
grestore
1.000 0.000 0.000 setrgbcolor
gsave
446.4 157.1 72 231.7 clipbox
72 269.170574 m
74.48 277.659867 l
76.96 292.395615 l
79.44 304.758434 l
81.92 305.866979 l
84.4 308.156178 l
86.88 313.267996 l
89.36 313.972695 l
91.84 317.656424 l
94.32 313.686293 l
96.8 312.802223 l
99.28 316.422996 l
101.76 309.925545 l
104.24 306.5202 l
106.72 307.033252 l
109.2 308.236553 l
111.68 306.453604 l
114.16 304.133444 l
116.64 303.553408 l
119.12 300.657632 l
121.6 299.364648 l
124.08 296.36455 l
126.56 297.318305 l
129.04 295.370846 l
131.52 298.450485 l
134 294.929646 l
136.48 294.526994 l
138.96 292.128105 l
141.44 291.043135 l
143.92 288.630089 l
146.4 286.36883 l
148.88 284.208359 l
151.36 284.208359 l
153.84 281.920087 l
156.32 286.744748 l
158.8 286.968914 l
161.28 287.561699 l
163.76 287.241503 l
166.24 290.050235 l
168.72 292.128105 l
171.2 294.929646 l
173.68 290.050235 l
176.16 294.929646 l
178.64 294.526994 l
181.12 298.450485 l
183.6 294.526994 l
186.08 293.55986 l
188.56 295.349927 l
191.04 296.914731 l
193.52 292.794146 l
196 284.522924 l
198.48 286.669796 l
200.96 282.848329 l
203.44 275.128607 l
205.92 266.180443 l
208.4 254.587269 l
210.88 261.257146 l
213.36 278.138801 l
215.84 288.797922 l
218.32 298.115561 l
220.8 297.318305 l
223.28 304.185833 l
225.76 306.453604 l
228.24 299.229578 l
230.72 304.115968 l
233.2 304.758434 l
235.68 307.312326 l
238.16 308.364878 l
240.64 303.23409 l
243.12 301.990282 l
245.6 305.833243 l
248.08 299.210252 l
250.56 304.550993 l
253.04 296.670973 l
255.52 302.354085 l
258 289.839834 l
260.48 295.370846 l
262.96 290.259732 l
265.44 287.241503 l
267.92 287.266208 l
270.4 284.705487 l
272.88 288.050237 l
275.36 286.993758 l
277.84 286.36883 l
280.32 286.36883 l
282.8 289.69906 l
285.28 288.36518 l
287.76 283.997515 l
290.24 290.445199 l
292.72 287.241503 l
295.2 282.249725 l
297.68 279.721313 l
300.16 277.054502 l
302.64 275.096912 l
305.12 277.084949 l
307.6 281.809711 l
310.08 284.522924 l
312.56 282.249725 l
315.04 290.768076 l
317.52 284.522924 l
320 286.968914 l
322.48 287.241503 l
324.96 292.97023 l
327.44 290.768076 l
329.92 294.845154 l
332.4 286.444246 l
334.88 277.176178 l
337.36 273.681516 l
339.84 274.714954 l
342.32 265.258058 l
344.8 246.230903 l
347.28 239.870954 l
stroke
grestore
0.502 0.000 0.000 setrgbcolor
gsave
446.4 157.1 72 231.7 clipbox
72 330.285699 m
74.48 345.163019 l
76.96 357.611889 l
79.44 362.130673 l
81.92 369.473016 l
84.4 372.559451 l
86.88 375.554887 l
89.36 375.153772 l
91.84 378.94093 l
94.32 375.153772 l
96.8 378.407267 l
99.28 374.970349 l
101.76 373.207335 l
104.24 369.312754 l
106.72 370.829942 l
109.2 370.557986 l
111.68 373.092877 l
114.16 365.691149 l
116.64 367.442741 l
119.12 365.735591 l
121.6 364.657622 l
124.08 364.39451 l
126.56 365.398795 l
129.04 361.89626 l
131.52 360.399556 l
134 363.981812 l
136.48 362.811502 l
138.96 361.574777 l
141.44 361.639244 l
143.92 358.151194 l
146.4 357.588559 l
148.88 357.681813 l
151.36 358.838368 l
153.84 355.612135 l
156.32 360.597405 l
158.8 357.172576 l
161.28 359.291158 l
163.76 357.378082 l
166.24 357.641036 l
168.72 359.683928 l
171.2 360.062468 l
173.68 365.334142 l
176.16 360.289292 l
178.64 365.05465 l
181.12 364.470554 l
183.6 364.622286 l
186.08 363.560428 l
188.56 365.908039 l
191.04 365.174629 l
193.52 363.699579 l
196 359.951437 l
198.48 356.077714 l
200.96 352.656684 l
203.44 344.891241 l
205.92 335.097168 l
208.4 322.969165 l
210.88 273.288256 l
213.36 284.835472 l
215.84 295.849525 l
218.32 301.917194 l
220.8 306.453604 l
223.28 311.587951 l
225.76 315.435445 l
228.24 313.050219 l
230.72 314.044034 l
233.2 312.802223 l
235.68 312.538255 l
238.16 313.050219 l
240.64 310.969277 l
243.12 308.731939 l
245.6 309.348099 l
248.08 308.364878 l
250.56 307.066167 l
253.04 305.050805 l
255.52 305.37551 l
258 302.372204 l
260.48 303.553408 l
262.96 303.002164 l
265.44 301.990282 l
267.92 299.229578 l
270.4 302.57107 l
272.88 298.115561 l
275.36 301.642134 l
277.84 295.579546 l
280.32 297.157276 l
282.8 298.880527 l
285.28 296.914731 l
287.76 294.845154 l
290.24 298.822108 l
292.72 297.015938 l
295.2 295.161249 l
297.68 299.499344 l
300.16 295.579546 l
302.64 298.450485 l
305.12 298.450485 l
307.6 299.229578 l
310.08 297.77832 l
312.56 297.318305 l
315.04 299.67198 l
317.52 296.507787 l
320 302.57107 l
322.48 304.063503 l
324.96 303.76513 l
327.44 303.269674 l
329.92 302.6972 l
332.4 304.498995 l
334.88 301.031483 l
337.36 295.849525 l
339.84 293.385897 l
342.32 281.947643 l
344.8 275.570187 l
347.28 261.215009 l
stroke
grestore
1.000 0.000 0.000 setrgbcolor
gsave
446.4 157.1 72 231.7 clipbox
72 269.170574 m
74.48 277.659867 l
76.96 292.395615 l
79.44 304.758434 l
81.92 305.866979 l
84.4 308.156178 l
86.88 313.267996 l
89.36 313.972695 l
91.84 317.656424 l
94.32 313.686293 l
96.8 312.802223 l
99.28 316.422996 l
101.76 309.925545 l
104.24 306.5202 l
106.72 307.033252 l
109.2 308.236553 l
111.68 306.453604 l
114.16 304.133444 l
116.64 303.553408 l
119.12 300.657632 l
121.6 299.364648 l
124.08 296.36455 l
126.56 297.318305 l
129.04 295.370846 l
131.52 298.450485 l
134 294.929646 l
136.48 294.526994 l
138.96 292.128105 l
141.44 291.043135 l
146.4 286.36883 l
148.88 284.208359 l
151.36 284.208359 l
153.84 281.920087 l
156.32 286.744748 l
158.8 286.968914 l
161.28 287.561699 l
163.76 287.241503 l
166.24 290.050235 l
168.72 292.128105 l
171.2 294.929646 l
173.68 290.050235 l
176.16 294.929646 l
178.64 294.526994 l
181.12 298.450485 l
183.6 294.526994 l
186.08 293.55986 l
188.56 295.349927 l
191.04 296.914731 l
193.52 292.794146 l
196 284.522924 l
198.48 286.669796 l
200.96 282.848329 l
203.44 275.128607 l
205.92 266.180443 l
208.4 254.587269 l
210.88 261.257146 l
213.36 278.138801 l
215.84 288.797922 l
218.32 298.115561 l
220.8 297.318305 l
223.28 304.185833 l
225.76 306.453604 l
228.24 299.229578 l
230.72 304.115968 l
233.2 304.758434 l
235.68 307.312326 l
238.16 308.364878 l
240.64 303.23409 l
243.12 301.990282 l
245.6 305.833243 l
248.08 299.210252 l
250.56 304.550993 l
253.04 296.670973 l
255.52 302.354085 l
258 289.839834 l
260.48 295.370846 l
262.96 290.259732 l
265.44 287.241503 l
267.92 287.266208 l
270.4 284.705487 l
272.88 288.050237 l
275.36 286.993758 l
277.84 286.36883 l
280.32 286.36883 l
282.8 289.69906 l
285.28 288.36518 l
287.76 283.997515 l
290.24 290.445199 l
292.72 287.241503 l
295.2 282.249725 l
300.16 277.054502 l
302.64 275.096912 l
305.12 277.084949 l
307.6 281.809711 l
310.08 284.522924 l
312.56 282.249725 l
315.04 290.768076 l
317.52 284.522924 l
320 286.968914 l
322.48 287.241503 l
324.96 292.97023 l
327.44 290.768076 l
329.92 294.845154 l
332.4 286.444246 l
334.88 277.176178 l
337.36 273.681516 l
339.84 274.714954 l
342.32 265.258058 l
344.8 246.230903 l
347.28 239.870954 l
349.76 295.013993 l
352.24 304.063503 l
354.72 315.656637 l
357.2 326.572057 l
359.68 326.140168 l
362.16 334.61348 l
364.64 335.245035 l
367.12 334.809394 l
369.6 335.685961 l
372.08 337.446116 l
374.56 335.502727 l
377.04 340.983721 l
379.52 333.593289 l
384.48 335.502727 l
386.96 333.593289 l
389.44 332.58053 l
391.92 325.513247 l
394.4 328.623065 l
396.88 319.168399 l
399.36 323.394665 l
401.84 319.168399 l
404.32 319.168399 l
406.8 319.526437 l
409.28 317.324331 l
411.76 316.422996 l
414.24 313.239016 l
416.72 313.499225 l
419.2 314.271617 l
421.68 316.585659 l
424.16 314.72362 l
426.64 311.437778 l
429.12 314.143732 l
431.6 310.404138 l
434.08 308.236553 l
436.56 309.048892 l
439.04 312.035714 l
441.52 308.874823 l
444 306.901367 l
446.48 310.234853 l
448.96 306.570087 l
451.44 310.095907 l
453.92 318.392202 l
456.4 316.693801 l
458.88 315.157536 l
461.36 318.652311 l
463.84 318.509423 l
466.32 317.057017 l
468.8 314.695492 l
471.28 309.473533 l
473.76 310.740956 l
476.24 308.236553 l
478.72 296.528216 l
481.2 289.131862 l
483.68 285.964629 l
486.16 273.123456 l
486.16 273.123456 l
stroke
grestore
0.502 0.000 0.000 setrgbcolor
gsave
446.4 157.1 72 231.7 clipbox
72 330.285699 m
74.48 345.163019 l
76.96 357.611889 l
79.44 362.130673 l
81.92 369.473016 l
86.88 375.554887 l
89.36 375.153772 l
91.84 378.94093 l
94.32 375.153772 l
96.8 378.407267 l
99.28 374.970349 l
101.76 373.207335 l
104.24 369.312754 l
106.72 370.829942 l
109.2 370.557986 l
111.68 373.092877 l
114.16 365.691149 l
116.64 367.442741 l
119.12 365.735591 l
121.6 364.657622 l
124.08 364.39451 l
126.56 365.398795 l
129.04 361.89626 l
131.52 360.399556 l
134 363.981812 l
138.96 361.574777 l
141.44 361.639244 l
143.92 358.151194 l
146.4 357.588559 l
148.88 357.681813 l
151.36 358.838368 l
153.84 355.612135 l
156.32 360.597405 l
158.8 357.172576 l
161.28 359.291158 l
163.76 357.378082 l
166.24 357.641036 l
168.72 359.683928 l
171.2 360.062468 l
173.68 365.334142 l
176.16 360.289292 l
178.64 365.05465 l
181.12 364.470554 l
183.6 364.622286 l
186.08 363.560428 l
188.56 365.908039 l
191.04 365.174629 l
193.52 363.699579 l
198.48 356.077714 l
200.96 352.656684 l
203.44 344.891241 l
205.92 335.097168 l
208.4 322.969165 l
210.88 273.288256 l
213.36 284.835472 l
215.84 295.849525 l
218.32 301.917194 l
220.8 306.453604 l
223.28 311.587951 l
225.76 315.435445 l
228.24 313.050219 l
230.72 314.044034 l
233.2 312.802223 l
235.68 312.538255 l
238.16 313.050219 l
240.64 310.969277 l
243.12 308.731939 l
245.6 309.348099 l
248.08 308.364878 l
250.56 307.066167 l
253.04 305.050805 l
255.52 305.37551 l
258 302.372204 l
260.48 303.553408 l
262.96 303.002164 l
265.44 301.990282 l
267.92 299.229578 l
270.4 302.57107 l
272.88 298.115561 l
275.36 301.642134 l
277.84 295.579546 l
280.32 297.157276 l
282.8 298.880527 l
287.76 294.845154 l
290.24 298.822108 l
295.2 295.161249 l
297.68 299.499344 l
300.16 295.579546 l
302.64 298.450485 l
305.12 298.450485 l
307.6 299.229578 l
310.08 297.77832 l
312.56 297.318305 l
315.04 299.67198 l
317.52 296.507787 l
320 302.57107 l
322.48 304.063503 l
324.96 303.76513 l
329.92 302.6972 l
332.4 304.498995 l
334.88 301.031483 l
337.36 295.849525 l
339.84 293.385897 l
342.32 281.947643 l
344.8 275.570187 l
347.28 261.215009 l
349.76 343.454589 l
352.24 354.951528 l
354.72 365.775062 l
357.2 370.598206 l
359.68 380.299509 l
362.16 378.967272 l
364.64 386.366767 l
367.12 386.724222 l
369.6 386.62144 l
372.08 385.463133 l
374.56 386.589277 l
377.04 384.910134 l
379.52 381.403424 l
382 380.21524 l
384.48 382.772547 l
386.96 381.688882 l
389.44 382.545849 l
391.92 375.478161 l
394.4 375.01525 l
396.88 376.513801 l
399.36 375.445819 l
401.84 373.666689 l
404.32 373.443874 l
406.8 369.036786 l
409.28 371.10923 l
411.76 372.331503 l
414.24 367.727859 l
416.72 369.782885 l
419.2 368.293138 l
421.68 369.257685 l
424.16 371.329754 l
426.64 369.696502 l
429.12 368.851935 l
431.6 369.791969 l
434.08 368.213454 l
436.56 369.036786 l
439.04 365.174629 l
441.52 367.556988 l
444 368.255656 l
446.48 370.477446 l
448.96 366.34382 l
451.44 371.479142 l
453.92 371.518609 l
456.4 375.522596 l
458.88 372.593766 l
461.36 374.937668 l
463.84 375.647605 l
466.32 375.117142 l
468.8 375.251316 l
471.28 374.539659 l
473.76 372.340125 l
476.24 366.591792 l
478.72 362.130673 l
481.2 353.304348 l
483.68 345.004666 l
486.16 332.071072 l
486.16 332.071072 l
stroke
grestore
0 setlinejoin
0.000 setgray
gsave
72 231.709091 m
518.4 231.709091 l
stroke
grestore
gsave
72 231.709091 m
72 388.8 l
stroke
grestore
gsave
518.4 231.709091 m
518.4 388.8 l
stroke
grestore
gsave
72 388.8 m
518.4 388.8 l
stroke
grestore
0.500 setlinewidth
1 setlinejoin
0 setlinecap
gsave
/o {
gsave
newpath
translate
0.5 setlinewidth
1 setlinejoin
0 setlinecap
0 0 m
0 4 l

gsave
0.000 setgray
fill
grestore
stroke
grestore
} bind def
72 231.709 o
grestore
gsave
/o {
gsave
newpath
translate
0.5 setlinewidth
1 setlinejoin
0 setlinecap
0 0 m
0 -4 l

gsave
0.000 setgray
fill
grestore
stroke
grestore
} bind def
72 388.8 o
grestore
/BitstreamVeraSans-Roman findfont
12.000 scalefont
setfont
gsave
68.179688 218.584091 translate
0.000000 rotate
0.000000 0.000000 m /zero glyphshow
grestore
gsave
/o {
gsave
newpath
translate
0.5 setlinewidth
1 setlinejoin
0 setlinecap
0 0 m
0 4 l

gsave
0.000 setgray
fill
grestore
stroke
grestore
} bind def
121.6 231.709 o
grestore
gsave
/o {
gsave
newpath
translate
0.5 setlinewidth
1 setlinejoin
0 setlinecap
0 0 m
0 -4 l

gsave
0.000 setgray
fill
grestore
stroke
grestore
} bind def
121.6 388.8 o
grestore
gsave
113.959375 218.584091 translate
0.000000 rotate
0.000000 0.000000 m /two glyphshow
7.634766 0.000000 m /zero glyphshow
grestore
gsave
/o {
gsave
newpath
translate
0.5 setlinewidth
1 setlinejoin
0 setlinecap
0 0 m
0 4 l

gsave
0.000 setgray
fill
grestore
stroke
grestore
} bind def
171.2 231.709 o
grestore
gsave
/o {
gsave
newpath
translate
0.5 setlinewidth
1 setlinejoin
0 setlinecap
0 0 m
0 -4 l

gsave
0.000 setgray
fill
grestore
stroke
grestore
} bind def
171.2 388.8 o
grestore
gsave
163.559375 218.584091 translate
0.000000 rotate
0.000000 0.000000 m /four glyphshow
7.634766 0.000000 m /zero glyphshow
grestore
gsave
/o {
gsave
newpath
translate
0.5 setlinewidth
1 setlinejoin
0 setlinecap
0 0 m
0 4 l

gsave
0.000 setgray
fill
grestore
stroke
grestore
} bind def
220.8 231.709 o
grestore
gsave
/o {
gsave
newpath
translate
0.5 setlinewidth
1 setlinejoin
0 setlinecap
0 0 m
0 -4 l

gsave
0.000 setgray
fill
grestore
stroke
grestore
} bind def
220.8 388.8 o
grestore
gsave
213.159375 218.584091 translate
0.000000 rotate
0.000000 0.000000 m /six glyphshow
7.634766 0.000000 m /zero glyphshow
grestore
gsave
/o {
gsave
newpath
translate
0.5 setlinewidth
1 setlinejoin
0 setlinecap
0 0 m
0 4 l

gsave
0.000 setgray
fill
grestore
stroke
grestore
} bind def
270.4 231.709 o
grestore
gsave
/o {
gsave
newpath
translate
0.5 setlinewidth
1 setlinejoin
0 setlinecap
0 0 m
0 -4 l

gsave
0.000 setgray
fill
grestore
stroke
grestore
} bind def
270.4 388.8 o
grestore
gsave
262.759375 218.584091 translate
0.000000 rotate
0.000000 0.000000 m /eight glyphshow
7.634766 0.000000 m /zero glyphshow
grestore
gsave
/o {
gsave
newpath
translate
0.5 setlinewidth
1 setlinejoin
0 setlinecap
0 0 m
0 4 l

gsave
0.000 setgray
fill
grestore
stroke
grestore
} bind def
320 231.709 o
grestore
gsave
/o {
gsave
newpath
translate
0.5 setlinewidth
1 setlinejoin
0 setlinecap
0 0 m
0 -4 l

gsave
0.000 setgray
fill
grestore
stroke
grestore
} bind def
320 388.8 o
grestore
gsave
308.539062 218.584091 translate
0.000000 rotate
0.000000 0.000000 m /one glyphshow
7.634766 0.000000 m /zero glyphshow
15.269531 0.000000 m /zero glyphshow
grestore
gsave
/o {
gsave
newpath
translate
0.5 setlinewidth
1 setlinejoin
0 setlinecap
0 0 m
0 4 l

gsave
0.000 setgray
fill
grestore
stroke
grestore
} bind def
369.6 231.709 o
grestore
gsave
/o {
gsave
newpath
translate
0.5 setlinewidth
1 setlinejoin
0 setlinecap
0 0 m
0 -4 l

gsave
0.000 setgray
fill
grestore
stroke
grestore
} bind def
369.6 388.8 o
grestore
gsave
358.139063 218.584091 translate
0.000000 rotate
0.000000 0.000000 m /one glyphshow
7.634766 0.000000 m /two glyphshow
15.269531 0.000000 m /zero glyphshow
grestore
gsave
/o {
gsave
newpath
translate
0.5 setlinewidth
1 setlinejoin
0 setlinecap
0 0 m
0 4 l

gsave
0.000 setgray
fill
grestore
stroke
grestore
} bind def
419.2 231.709 o
grestore
gsave
/o {
gsave
newpath
translate
0.5 setlinewidth
1 setlinejoin
0 setlinecap
0 0 m
0 -4 l

gsave
0.000 setgray
fill
grestore
stroke
grestore
} bind def
419.2 388.8 o
grestore
gsave
407.739062 218.584091 translate
0.000000 rotate
0.000000 0.000000 m /one glyphshow
7.634766 0.000000 m /four glyphshow
15.269531 0.000000 m /zero glyphshow
grestore
gsave
/o {
gsave
newpath
translate
0.5 setlinewidth
1 setlinejoin
0 setlinecap
0 0 m
0 4 l

gsave
0.000 setgray
fill
grestore
stroke
grestore
} bind def
468.8 231.709 o
grestore
gsave
/o {
gsave
newpath
translate
0.5 setlinewidth
1 setlinejoin
0 setlinecap
0 0 m
0 -4 l

gsave
0.000 setgray
fill
grestore
stroke
grestore
} bind def
468.8 388.8 o
grestore
gsave
457.339063 218.584091 translate
0.000000 rotate
0.000000 0.000000 m /one glyphshow
7.634766 0.000000 m /six glyphshow
15.269531 0.000000 m /zero glyphshow
grestore
gsave
/o {
gsave
newpath
translate
0.5 setlinewidth
1 setlinejoin
0 setlinecap
0 0 m
0 4 l

gsave
0.000 setgray
fill
grestore
stroke
grestore
} bind def
518.4 231.709 o
grestore
gsave
/o {
gsave
newpath
translate
0.5 setlinewidth
1 setlinejoin
0 setlinecap
0 0 m
0 -4 l

gsave
0.000 setgray
fill
grestore
stroke
grestore
} bind def
518.4 388.8 o
grestore
gsave
506.939062 218.584091 translate
0.000000 rotate
0.000000 0.000000 m /one glyphshow
7.634766 0.000000 m /eight glyphshow
15.269531 0.000000 m /zero glyphshow
grestore
gsave
278.559375 201.959091 translate
0.000000 rotate
0.000000 0.000000 m /I glyphshow
3.539062 0.000000 m /n glyphshow
11.144531 0.000000 m /d glyphshow
18.761719 0.000000 m /e glyphshow
26.144531 0.000000 m /x glyphshow
grestore
gsave
/o {
gsave
newpath
translate
0.5 setlinewidth
1 setlinejoin
0 setlinecap
0 0 m
4 0 l

gsave
0.000 setgray
fill
grestore
stroke
grestore
} bind def
72 231.709 o
grestore
gsave
/o {
gsave
newpath
translate
0.5 setlinewidth
1 setlinejoin
0 setlinecap
0 0 m
-4 0 l

gsave
0.000 setgray
fill
grestore
stroke
grestore
} bind def
518.4 231.709 o
grestore
gsave
52.718750 228.396591 translate
0.000000 rotate
0.000000 0.000000 m /one glyphshow
7.634766 0.000000 m /four glyphshow
grestore
gsave
/o {
gsave
newpath
translate
0.5 setlinewidth
1 setlinejoin
0 setlinecap
0 0 m
4 0 l

gsave
0.000 setgray
fill
grestore
stroke
grestore
} bind def
72 254.151 o
grestore
gsave
/o {
gsave
newpath
translate
0.5 setlinewidth
1 setlinejoin
0 setlinecap
0 0 m
-4 0 l

gsave
0.000 setgray
fill
grestore
stroke
grestore
} bind def
518.4 254.151 o
grestore
gsave
52.718750 250.838149 translate
0.000000 rotate
0.000000 0.000000 m /one glyphshow
7.634766 0.000000 m /five glyphshow
grestore
gsave
/o {
gsave
newpath
translate
0.5 setlinewidth
1 setlinejoin
0 setlinecap
0 0 m
4 0 l

gsave
0.000 setgray
fill
grestore
stroke
grestore
} bind def
72 276.592 o
grestore
gsave
/o {
gsave
newpath
translate
0.5 setlinewidth
1 setlinejoin
0 setlinecap
0 0 m
-4 0 l

gsave
0.000 setgray
fill
grestore
stroke
grestore
} bind def
518.4 276.592 o
grestore
gsave
52.718750 273.279708 translate
0.000000 rotate
0.000000 0.000000 m /one glyphshow
7.634766 0.000000 m /six glyphshow
grestore
gsave
/o {
gsave
newpath
translate
0.5 setlinewidth
1 setlinejoin
0 setlinecap
0 0 m
4 0 l

gsave
0.000 setgray
fill
grestore
stroke
grestore
} bind def
72 299.034 o
grestore
gsave
/o {
gsave
newpath
translate
0.5 setlinewidth
1 setlinejoin
0 setlinecap
0 0 m
-4 0 l

gsave
0.000 setgray
fill
grestore
stroke
grestore
} bind def
518.4 299.034 o
grestore
gsave
52.718750 295.721266 translate
0.000000 rotate
0.000000 0.000000 m /one glyphshow
7.634766 0.000000 m /seven glyphshow
grestore
gsave
/o {
gsave
newpath
translate
0.5 setlinewidth
1 setlinejoin
0 setlinecap
0 0 m
4 0 l

gsave
0.000 setgray
fill
grestore
stroke
grestore
} bind def
72 321.475 o
grestore
gsave
/o {
gsave
newpath
translate
0.5 setlinewidth
1 setlinejoin
0 setlinecap
0 0 m
-4 0 l

gsave
0.000 setgray
fill
grestore
stroke
grestore
} bind def
518.4 321.475 o
grestore
gsave
52.718750 318.162825 translate
0.000000 rotate
0.000000 0.000000 m /one glyphshow
7.634766 0.000000 m /eight glyphshow
grestore
gsave
/o {
gsave
newpath
translate
0.5 setlinewidth
1 setlinejoin
0 setlinecap
0 0 m
4 0 l

gsave
0.000 setgray
fill
grestore
stroke
grestore
} bind def
72 343.917 o
grestore
gsave
/o {
gsave
newpath
translate
0.5 setlinewidth
1 setlinejoin
0 setlinecap
0 0 m
-4 0 l

gsave
0.000 setgray
fill
grestore
stroke
grestore
} bind def
518.4 343.917 o
grestore
gsave
52.718750 340.604383 translate
0.000000 rotate
0.000000 0.000000 m /one glyphshow
7.634766 0.000000 m /nine glyphshow
grestore
gsave
/o {
gsave
newpath
translate
0.5 setlinewidth
1 setlinejoin
0 setlinecap
0 0 m
4 0 l

gsave
0.000 setgray
fill
grestore
stroke
grestore
} bind def
72 366.358 o
grestore
gsave
/o {
gsave
newpath
translate
0.5 setlinewidth
1 setlinejoin
0 setlinecap
0 0 m
-4 0 l

gsave
0.000 setgray
fill
grestore
stroke
grestore
} bind def
518.4 366.358 o
grestore
gsave
52.718750 363.045942 translate
0.000000 rotate
0.000000 0.000000 m /two glyphshow
7.634766 0.000000 m /zero glyphshow
grestore
gsave
/o {
gsave
newpath
translate
0.5 setlinewidth
1 setlinejoin
0 setlinecap
0 0 m
4 0 l

gsave
0.000 setgray
fill
grestore
stroke
grestore
} bind def
72 388.8 o
grestore
gsave
/o {
gsave
newpath
translate
0.5 setlinewidth
1 setlinejoin
0 setlinecap
0 0 m
-4 0 l

gsave
0.000 setgray
fill
grestore
stroke
grestore
} bind def
518.4 388.8 o
grestore
gsave
52.718750 385.487500 translate
0.000000 rotate
0.000000 0.000000 m /two glyphshow
7.634766 0.000000 m /one glyphshow
grestore
gsave
45.218750 263.926420 translate
90.000000 rotate
0.000000 0.000000 m /M glyphshow
10.353516 0.000000 m /a glyphshow
17.707031 0.000000 m /g glyphshow
25.324219 0.000000 m /n glyphshow
32.929688 0.000000 m /i glyphshow
36.263672 0.000000 m /t glyphshow
40.968750 0.000000 m /u glyphshow
48.574219 0.000000 m /d glyphshow
56.191406 0.000000 m /e glyphshow
63.574219 0.000000 m /space glyphshow
67.388672 0.000000 m /bracketleft glyphshow
72.070312 0.000000 m /d glyphshow
79.687500 0.000000 m /B glyphshow
87.919922 0.000000 m /bracketright glyphshow
grestore
1.000 setlinewidth
0 setlinejoin
gsave
339.000625 335.78625 m
511.2 335.78625 l
511.2 381.6 l
339.000625 381.6 l
cl
gsave
1.000 setgray
fill
grestore
stroke
grestore
1 setlinejoin
2 setlinecap
1.000 0.000 0.000 setrgbcolor
gsave
349.080625 370.239375 m
369.240625 370.239375 l
stroke
grestore
0.000 setgray
/BitstreamVeraSans-Roman findfont
14.400 scalefont
setfont
gsave
385.080625 365.199375 translate
0.000000 rotate
0.000000 0.000000 m /e glyphshow
8.843994 0.000000 m /r glyphshow
14.754028 0.000000 m /i glyphshow
18.747864 0.000000 m /c glyphshow
26.651306 0.000000 m /h glyphshow
35.762024 0.000000 m /space glyphshow
40.331421 0.000000 m /t glyphshow
45.967712 0.000000 m /x glyphshow
54.474792 0.000000 m /two glyphshow
63.620605 0.000000 m /comma glyphshow
68.190002 0.000000 m /space glyphshow
72.759399 0.000000 m /r glyphshow
78.669434 0.000000 m /x glyphshow
87.176514 0.000000 m /two glyphshow
grestore
0.502 0.000 0.000 setrgbcolor
gsave
349.080625 349.4925 m
369.240625 349.4925 l
stroke
grestore
0.000 setgray
gsave
385.080625 344.452500 translate
0.000000 rotate
0.000000 0.000000 m /m glyphshow
14.002991 0.000000 m /i glyphshow
17.996826 0.000000 m /r glyphshow
23.906860 0.000000 m /a glyphshow
32.715759 0.000000 m /n glyphshow
41.826477 0.000000 m /d glyphshow
50.951233 0.000000 m /a glyphshow
59.760132 0.000000 m /space glyphshow
64.329529 0.000000 m /t glyphshow
69.965820 0.000000 m /x glyphshow
78.472900 0.000000 m /two glyphshow
87.618713 0.000000 m /comma glyphshow
92.188110 0.000000 m /space glyphshow
96.757507 0.000000 m /r glyphshow
102.667542 0.000000 m /x glyphshow
111.174622 0.000000 m /two glyphshow
grestore
gsave
72 43.2 m
518.4 43.2 l
518.4 200.290909 l
72 200.290909 l
cl
1.000 setgray
fill
grestore
1.000 0.000 0.000 setrgbcolor
gsave
446.4 157.1 72 43.2 clipbox
72 150.474454 m
74.48 146.658244 l
76.96 142.648006 l
79.44 137.750059 l
81.92 136.344673 l
84.4 131.74159 l
86.88 130.472727 l
89.36 126.279841 l
91.84 125.275115 l
94.32 123.229223 l
96.8 121.920745 l
99.28 121.638086 l
101.76 121.014219 l
104.24 120.668938 l
106.72 120.052401 l
109.2 120.844594 l
111.68 118.628331 l
114.16 119.031674 l
116.64 119.661279 l
119.12 120.757539 l
121.6 119.899292 l
124.08 121.052539 l
126.56 122.60852 l
129.04 122.446973 l
131.52 124.131532 l
134 123.154391 l
136.48 123.867961 l
138.96 124.461702 l
141.44 127.444771 l
143.92 128.922232 l
146.4 129.679475 l
148.88 132.095237 l
151.36 132.095237 l
153.84 132.13381 l
156.32 133.637582 l
158.8 134.422725 l
161.28 135.98029 l
163.76 135.203877 l
166.24 136.61462 l
168.72 136.483752 l
171.2 137.791064 l
173.68 136.61462 l
176.16 137.791064 l
178.64 137.077493 l
181.12 136.813923 l
183.6 137.077493 l
186.08 134.905232 l
188.56 134.096024 l
191.04 131.896798 l
193.52 131.215362 l
196 127.234688 l
198.48 122.496117 l
200.96 121.322362 l
203.44 118.677707 l
205.92 114.287211 l
208.4 113.304116 l
stroke
grestore
0.502 0.000 0.000 setrgbcolor
gsave
446.4 157.1 72 43.2 clipbox
72 96.584863 m
74.48 95.321822 l
76.96 94.044767 l
79.44 90.681693 l
81.92 88.795215 l
84.4 86.973262 l
86.88 84.960133 l
89.36 83.02901 l
91.84 83.371025 l
94.32 83.02901 l
96.8 82.468054 l
99.28 82.716573 l
101.76 82.847642 l
104.24 84.189638 l
106.72 86.131526 l
109.2 87.927202 l
111.68 89.344274 l
114.16 90.879913 l
116.64 92.904081 l
119.12 93.237631 l
121.6 94.685977 l
124.08 97.745491 l
126.56 98.806832 l
129.04 101.762853 l
131.52 102.267902 l
134 103.561085 l
136.48 105.617425 l
138.96 108.522021 l
141.44 114.942703 l
143.92 116.83699 l
146.4 119.603073 l
148.88 120.809955 l
151.36 124.025563 l
153.84 126.56674 l
156.32 127.877904 l
158.8 130.089126 l
161.28 130.848079 l
163.76 132.771099 l
166.24 133.914083 l
168.72 136.483752 l
171.2 137.217565 l
173.68 139.02471 l
176.16 140.647219 l
178.64 141.257219 l
181.12 142.830456 l
183.6 143.953829 l
186.08 144.890172 l
188.56 144.146616 l
191.04 143.49339 l
193.52 144.088951 l
196 142.648006 l
198.48 139.495154 l
200.96 137.757618 l
203.44 136.59558 l
205.92 134.813847 l
208.4 132.107894 l
stroke
grestore
1.000 0.000 0.000 setrgbcolor
gsave
446.4 157.1 72 43.2 clipbox
72 150.474454 m
74.48 146.658244 l
76.96 142.648006 l
79.44 137.750059 l
81.92 136.344673 l
84.4 131.74159 l
86.88 130.472727 l
89.36 126.279841 l
91.84 125.275115 l
94.32 123.229223 l
96.8 121.920745 l
99.28 121.638086 l
101.76 121.014219 l
104.24 120.668938 l
106.72 120.052401 l
109.2 120.844594 l
111.68 118.628331 l
114.16 119.031674 l
116.64 119.661279 l
119.12 120.757539 l
121.6 119.899292 l
124.08 121.052539 l
126.56 122.60852 l
129.04 122.446973 l
131.52 124.131532 l
134 123.154391 l
136.48 123.867961 l
138.96 124.461702 l
141.44 127.444771 l
143.92 128.922232 l
146.4 129.679475 l
148.88 132.095237 l
151.36 132.095237 l
153.84 132.13381 l
156.32 133.637582 l
158.8 134.422725 l
161.28 135.98029 l
163.76 135.203877 l
166.24 136.61462 l
168.72 136.483752 l
171.2 137.791064 l
173.68 136.61462 l
176.16 137.791064 l
178.64 137.077493 l
181.12 136.813923 l
183.6 137.077493 l
186.08 134.905232 l
188.56 134.096024 l
191.04 131.896798 l
193.52 131.215362 l
196 127.234688 l
198.48 122.496117 l
200.96 121.322362 l
203.44 118.677707 l
205.92 114.287211 l
208.4 113.304116 l
210.88 74.611213 l
213.36 70.440043 l
215.84 67.836291 l
218.32 64.183288 l
220.8 61.037824 l
223.28 57.678628 l
225.76 55.111019 l
228.24 54.146925 l
230.72 52.909159 l
233.2 50.543954 l
235.68 50.483766 l
238.16 48.22012 l
240.64 48.22012 l
243.12 49.653933 l
245.6 48.22012 l
248.08 47.728475 l
250.56 48.685547 l
253.04 50.74535 l
255.52 51.557363 l
258 52.561239 l
260.48 51.292377 l
262.96 53.630915 l
265.44 53.802541 l
267.92 56.637319 l
270.4 55.111019 l
272.88 57.708137 l
275.36 58.394611 l
277.84 62.649108 l
280.32 62.649108 l
282.8 63.920819 l
285.28 65.388731 l
287.76 68.268579 l
290.24 68.746756 l
292.72 70.906506 l
295.2 72.322978 l
297.68 73.087876 l
300.16 75.637656 l
302.64 72.069712 l
305.12 76.510201 l
307.6 75.637656 l
310.08 78.875694 l
312.56 78.952333 l
315.04 77.154487 l
317.52 78.875694 l
320 79.587653 l
322.48 80.368805 l
324.96 77.862877 l
327.44 77.154487 l
329.92 76.364823 l
332.4 77.223341 l
334.88 73.893653 l
337.36 69.278325 l
339.84 67.519304 l
342.32 65.65186 l
344.8 62.132176 l
347.28 61.167597 l
stroke
grestore
0.502 0.000 0.000 setrgbcolor
gsave
446.4 157.1 72 43.2 clipbox
72 96.584863 m
74.48 95.321822 l
76.96 94.044767 l
79.44 90.681693 l
81.92 88.795215 l
84.4 86.973262 l
86.88 84.960133 l
89.36 83.02901 l
91.84 83.371025 l
94.32 83.02901 l
96.8 82.468054 l
99.28 82.716573 l
101.76 82.847642 l
104.24 84.189638 l
106.72 86.131526 l
109.2 87.927202 l
111.68 89.344274 l
114.16 90.879913 l
116.64 92.904081 l
119.12 93.237631 l
121.6 94.685977 l
124.08 97.745491 l
126.56 98.806832 l
129.04 101.762853 l
131.52 102.267902 l
134 103.561085 l
136.48 105.617425 l
138.96 108.522021 l
141.44 114.942703 l
143.92 116.83699 l
146.4 119.603073 l
148.88 120.809955 l
151.36 124.025563 l
153.84 126.56674 l
156.32 127.877904 l
158.8 130.089126 l
161.28 130.848079 l
163.76 132.771099 l
166.24 133.914083 l
168.72 136.483752 l
171.2 137.217565 l
173.68 139.02471 l
176.16 140.647219 l
178.64 141.257219 l
181.12 142.830456 l
183.6 143.953829 l
186.08 144.890172 l
188.56 144.146616 l
191.04 143.49339 l
193.52 144.088951 l
196 142.648006 l
198.48 139.495154 l
200.96 137.757618 l
203.44 136.59558 l
205.92 134.813847 l
208.4 132.107894 l
210.88 200.27605 l
213.36 196.794625 l
215.84 194.034325 l
218.32 190.739473 l
220.8 187.245201 l
223.28 184.695422 l
225.76 181.769885 l
228.24 179.245095 l
230.72 177.479968 l
233.2 176.755817 l
235.68 174.842889 l
238.16 174.266538 l
240.64 172.711315 l
243.12 173.078648 l
245.6 172.490094 l
248.08 171.672062 l
250.56 172.858514 l
253.04 171.173395 l
255.52 172.630667 l
258 173.65008 l
260.48 174.496351 l
262.96 175.133307 l
265.44 176.428041 l
267.92 177.598867 l
270.4 178.548631 l
272.88 179.658201 l
275.36 180.546108 l
277.84 180.966679 l
280.32 182.464382 l
282.8 183.912179 l
285.28 183.883729 l
287.76 184.580632 l
290.24 186.005888 l
292.72 187.442426 l
295.2 188.210184 l
297.68 189.476954 l
300.16 189.648919 l
302.64 191.648995 l
305.12 191.648995 l
307.6 193.016731 l
310.08 193.859781 l
312.56 193.172007 l
315.04 193.691951 l
317.52 191.778127 l
320 192.066967 l
322.48 191.290489 l
324.96 190.636648 l
327.44 189.318037 l
329.92 186.649795 l
332.4 185.966383 l
334.88 182.575425 l
337.36 180.252526 l
339.84 177.113846 l
342.32 174.338249 l
344.8 170.707968 l
347.28 168.203834 l
stroke
grestore
1.000 0.000 0.000 setrgbcolor
gsave
446.4 157.1 72 43.2 clipbox
72 150.474454 m
76.96 142.648006 l
79.44 137.750059 l
81.92 136.344673 l
84.4 131.74159 l
86.88 130.472727 l
89.36 126.279841 l
91.84 125.275115 l
94.32 123.229223 l
96.8 121.920745 l
99.28 121.638086 l
101.76 121.014219 l
104.24 120.668938 l
106.72 120.052401 l
109.2 120.844594 l
111.68 118.628331 l
114.16 119.031674 l
116.64 119.661279 l
119.12 120.757539 l
121.6 119.899292 l
124.08 121.052539 l
126.56 122.60852 l
129.04 122.446973 l
131.52 124.131532 l
134 123.154391 l
136.48 123.867961 l
138.96 124.461702 l
141.44 127.444771 l
143.92 128.922232 l
146.4 129.679475 l
148.88 132.095237 l
153.84 132.13381 l
156.32 133.637582 l
158.8 134.422725 l
161.28 135.98029 l
163.76 135.203877 l
166.24 136.61462 l
168.72 136.483752 l
171.2 137.791064 l
173.68 136.61462 l
176.16 137.791064 l
178.64 137.077493 l
181.12 136.813923 l
183.6 137.077493 l
186.08 134.905232 l
188.56 134.096024 l
191.04 131.896798 l
193.52 131.215362 l
196 127.234688 l
198.48 122.496117 l
200.96 121.322362 l
203.44 118.677707 l
205.92 114.287211 l
208.4 113.304116 l
210.88 74.611213 l
213.36 70.440043 l
215.84 67.836291 l
218.32 64.183288 l
220.8 61.037824 l
223.28 57.678628 l
225.76 55.111019 l
228.24 54.146925 l
230.72 52.909159 l
233.2 50.543954 l
235.68 50.483766 l
238.16 48.22012 l
240.64 48.22012 l
243.12 49.653933 l
245.6 48.22012 l
248.08 47.728475 l
250.56 48.685547 l
253.04 50.74535 l
255.52 51.557363 l
258 52.561239 l
260.48 51.292377 l
262.96 53.630915 l
265.44 53.802541 l
267.92 56.637319 l
270.4 55.111019 l
272.88 57.708137 l
275.36 58.394611 l
277.84 62.649108 l
280.32 62.649108 l
282.8 63.920819 l
285.28 65.388731 l
287.76 68.268579 l
290.24 68.746756 l
292.72 70.906506 l
295.2 72.322978 l
297.68 73.087876 l
300.16 75.637656 l
302.64 72.069712 l
305.12 76.510201 l
307.6 75.637656 l
310.08 78.875694 l
312.56 78.952333 l
315.04 77.154487 l
317.52 78.875694 l
322.48 80.368805 l
324.96 77.862877 l
329.92 76.364823 l
332.4 77.223341 l
334.88 73.893653 l
337.36 69.278325 l
342.32 65.65186 l
344.8 62.132176 l
347.28 61.167597 l
349.76 128.293743 l
352.24 124.490038 l
354.72 122.775491 l
357.2 117.579625 l
359.68 114.051342 l
362.16 111.690093 l
364.64 109.546386 l
367.12 105.787566 l
369.6 105.424011 l
374.56 104.071674 l
377.04 102.734933 l
379.52 102.018592 l
382 101.686909 l
384.48 102.038709 l
386.96 102.018592 l
389.44 103.055191 l
394.4 103.782359 l
396.88 105.059256 l
399.36 103.438792 l
401.84 105.059256 l
404.32 105.059256 l
406.8 106.653677 l
409.28 109.625833 l
411.76 110.107706 l
414.24 110.781077 l
416.72 114.287211 l
419.2 115.086516 l
421.68 116.109164 l
426.64 119.240708 l
429.12 120.183967 l
431.6 120.416973 l
434.08 120.844594 l
436.56 122.22562 l
439.04 123.103651 l
441.52 126.053511 l
444 126.609784 l
446.48 127.364087 l
448.96 127.891583 l
451.44 127.983449 l
453.92 128.186879 l
456.4 128.728725 l
458.88 128.109625 l
461.36 127.050056 l
463.84 127.617709 l
466.32 126.993385 l
468.8 124.512516 l
471.28 121.617195 l
473.76 122.370193 l
476.24 120.844594 l
478.72 116.526005 l
481.2 111.871632 l
483.68 109.28334 l
486.16 106.918134 l
486.16 106.918134 l
stroke
grestore
0.502 0.000 0.000 setrgbcolor
gsave
446.4 157.1 72 43.2 clipbox
72 96.584863 m
76.96 94.044767 l
79.44 90.681693 l
89.36 83.02901 l
91.84 83.371025 l
94.32 83.02901 l
96.8 82.468054 l
99.28 82.716573 l
101.76 82.847642 l
104.24 84.189638 l
106.72 86.131526 l
109.2 87.927202 l
114.16 90.879913 l
116.64 92.904081 l
119.12 93.237631 l
121.6 94.685977 l
124.08 97.745491 l
126.56 98.806832 l
129.04 101.762853 l
131.52 102.267902 l
134 103.561085 l
136.48 105.617425 l
138.96 108.522021 l
141.44 114.942703 l
143.92 116.83699 l
146.4 119.603073 l
148.88 120.809955 l
151.36 124.025563 l
153.84 126.56674 l
156.32 127.877904 l
158.8 130.089126 l
161.28 130.848079 l
163.76 132.771099 l
166.24 133.914083 l
168.72 136.483752 l
171.2 137.217565 l
173.68 139.02471 l
176.16 140.647219 l
178.64 141.257219 l
181.12 142.830456 l
183.6 143.953829 l
186.08 144.890172 l
191.04 143.49339 l
193.52 144.088951 l
196 142.648006 l
198.48 139.495154 l
200.96 137.757618 l
203.44 136.59558 l
205.92 134.813847 l
208.4 132.107894 l
210.88 200.27605 l
213.36 196.794625 l
215.84 194.034325 l
218.32 190.739473 l
220.8 187.245201 l
223.28 184.695422 l
225.76 181.769885 l
228.24 179.245095 l
230.72 177.479968 l
233.2 176.755817 l
235.68 174.842889 l
238.16 174.266538 l
240.64 172.711315 l
243.12 173.078648 l
245.6 172.490094 l
248.08 171.672062 l
250.56 172.858514 l
253.04 171.173395 l
255.52 172.630667 l
258 173.65008 l
260.48 174.496351 l
262.96 175.133307 l
267.92 177.598867 l
270.4 178.548631 l
272.88 179.658201 l
275.36 180.546108 l
277.84 180.966679 l
282.8 183.912179 l
285.28 183.883729 l
287.76 184.580632 l
292.72 187.442426 l
295.2 188.210184 l
297.68 189.476954 l
300.16 189.648919 l
302.64 191.648995 l
305.12 191.648995 l
307.6 193.016731 l
310.08 193.859781 l
312.56 193.172007 l
315.04 193.691951 l
317.52 191.778127 l
320 192.066967 l
322.48 191.290489 l
324.96 190.636648 l
327.44 189.318037 l
329.92 186.649795 l
332.4 185.966383 l
334.88 182.575425 l
337.36 180.252526 l
339.84 177.113846 l
342.32 174.338249 l
344.8 170.707968 l
347.28 168.203834 l
349.76 119.240708 l
354.72 116.015527 l
357.2 111.893777 l
359.68 109.946091 l
362.16 108.499469 l
364.64 106.07444 l
367.12 105.059256 l
369.6 104.258476 l
372.08 103.866884 l
374.56 103.857558 l
377.04 104.075634 l
379.52 103.689832 l
382 103.697617 l
384.48 105.351276 l
386.96 105.799935 l
389.44 106.825783 l
391.92 107.563606 l
394.4 109.414521 l
396.88 110.905849 l
399.36 112.152584 l
401.84 114.721741 l
404.32 116.466195 l
406.8 118.703687 l
409.28 119.661279 l
411.76 120.486931 l
414.24 122.839193 l
416.72 124.37508 l
419.2 130.130492 l
421.68 129.794966 l
424.16 132.796561 l
426.64 133.85137 l
429.12 136.629509 l
431.6 138.28903 l
434.08 140.187915 l
436.56 142.241767 l
441.52 144.652409 l
444 146.811353 l
446.48 148.30509 l
448.96 149.158647 l
451.44 150.815633 l
453.92 152.009608 l
456.4 151.792615 l
458.88 152.54381 l
461.36 153.128572 l
466.32 152.681494 l
468.8 151.087741 l
471.28 150.109019 l
473.76 149.45089 l
476.24 147.904467 l
478.72 145.516765 l
481.2 143.978207 l
483.68 141.979616 l
486.16 139.506184 l
486.16 139.506184 l
stroke
grestore
0 setlinejoin
0.000 setgray
gsave
72 43.2 m
518.4 43.2 l
stroke
grestore
gsave
72 43.2 m
72 200.290909 l
stroke
grestore
gsave
518.4 43.2 m
518.4 200.290909 l
stroke
grestore
gsave
72 200.290909 m
518.4 200.290909 l
stroke
grestore
0.500 setlinewidth
1 setlinejoin
0 setlinecap
gsave
/o {
gsave
newpath
translate
0.5 setlinewidth
1 setlinejoin
0 setlinecap
0 0 m
0 4 l

gsave
0.000 setgray
fill
grestore
stroke
grestore
} bind def
72 43.2 o
grestore
gsave
/o {
gsave
newpath
translate
0.5 setlinewidth
1 setlinejoin
0 setlinecap
0 0 m
0 -4 l

gsave
0.000 setgray
fill
grestore
stroke
grestore
} bind def
72 200.291 o
grestore
/BitstreamVeraSans-Roman findfont
12.000 scalefont
setfont
gsave
68.179688 30.075000 translate
0.000000 rotate
0.000000 0.000000 m /zero glyphshow
grestore
gsave
/o {
gsave
newpath
translate
0.5 setlinewidth
1 setlinejoin
0 setlinecap
0 0 m
0 4 l

gsave
0.000 setgray
fill
grestore
stroke
grestore
} bind def
121.6 43.2 o
grestore
gsave
/o {
gsave
newpath
translate
0.5 setlinewidth
1 setlinejoin
0 setlinecap
0 0 m
0 -4 l

gsave
0.000 setgray
fill
grestore
stroke
grestore
} bind def
121.6 200.291 o
grestore
gsave
113.959375 30.075000 translate
0.000000 rotate
0.000000 0.000000 m /two glyphshow
7.634766 0.000000 m /zero glyphshow
grestore
gsave
/o {
gsave
newpath
translate
0.5 setlinewidth
1 setlinejoin
0 setlinecap
0 0 m
0 4 l

gsave
0.000 setgray
fill
grestore
stroke
grestore
} bind def
171.2 43.2 o
grestore
gsave
/o {
gsave
newpath
translate
0.5 setlinewidth
1 setlinejoin
0 setlinecap
0 0 m
0 -4 l

gsave
0.000 setgray
fill
grestore
stroke
grestore
} bind def
171.2 200.291 o
grestore
gsave
163.559375 30.075000 translate
0.000000 rotate
0.000000 0.000000 m /four glyphshow
7.634766 0.000000 m /zero glyphshow
grestore
gsave
/o {
gsave
newpath
translate
0.5 setlinewidth
1 setlinejoin
0 setlinecap
0 0 m
0 4 l

gsave
0.000 setgray
fill
grestore
stroke
grestore
} bind def
220.8 43.2 o
grestore
gsave
/o {
gsave
newpath
translate
0.5 setlinewidth
1 setlinejoin
0 setlinecap
0 0 m
0 -4 l

gsave
0.000 setgray
fill
grestore
stroke
grestore
} bind def
220.8 200.291 o
grestore
gsave
213.159375 30.075000 translate
0.000000 rotate
0.000000 0.000000 m /six glyphshow
7.634766 0.000000 m /zero glyphshow
grestore
gsave
/o {
gsave
newpath
translate
0.5 setlinewidth
1 setlinejoin
0 setlinecap
0 0 m
0 4 l

gsave
0.000 setgray
fill
grestore
stroke
grestore
} bind def
270.4 43.2 o
grestore
gsave
/o {
gsave
newpath
translate
0.5 setlinewidth
1 setlinejoin
0 setlinecap
0 0 m
0 -4 l

gsave
0.000 setgray
fill
grestore
stroke
grestore
} bind def
270.4 200.291 o
grestore
gsave
262.759375 30.075000 translate
0.000000 rotate
0.000000 0.000000 m /eight glyphshow
7.634766 0.000000 m /zero glyphshow
grestore
gsave
/o {
gsave
newpath
translate
0.5 setlinewidth
1 setlinejoin
0 setlinecap
0 0 m
0 4 l

gsave
0.000 setgray
fill
grestore
stroke
grestore
} bind def
320 43.2 o
grestore
gsave
/o {
gsave
newpath
translate
0.5 setlinewidth
1 setlinejoin
0 setlinecap
0 0 m
0 -4 l

gsave
0.000 setgray
fill
grestore
stroke
grestore
} bind def
320 200.291 o
grestore
gsave
308.539062 30.075000 translate
0.000000 rotate
0.000000 0.000000 m /one glyphshow
7.634766 0.000000 m /zero glyphshow
15.269531 0.000000 m /zero glyphshow
grestore
gsave
/o {
gsave
newpath
translate
0.5 setlinewidth
1 setlinejoin
0 setlinecap
0 0 m
0 4 l

gsave
0.000 setgray
fill
grestore
stroke
grestore
} bind def
369.6 43.2 o
grestore
gsave
/o {
gsave
newpath
translate
0.5 setlinewidth
1 setlinejoin
0 setlinecap
0 0 m
0 -4 l

gsave
0.000 setgray
fill
grestore
stroke
grestore
} bind def
369.6 200.291 o
grestore
gsave
358.139063 30.075000 translate
0.000000 rotate
0.000000 0.000000 m /one glyphshow
7.634766 0.000000 m /two glyphshow
15.269531 0.000000 m /zero glyphshow
grestore
gsave
/o {
gsave
newpath
translate
0.5 setlinewidth
1 setlinejoin
0 setlinecap
0 0 m
0 4 l

gsave
0.000 setgray
fill
grestore
stroke
grestore
} bind def
419.2 43.2 o
grestore
gsave
/o {
gsave
newpath
translate
0.5 setlinewidth
1 setlinejoin
0 setlinecap
0 0 m
0 -4 l

gsave
0.000 setgray
fill
grestore
stroke
grestore
} bind def
419.2 200.291 o
grestore
gsave
407.739062 30.075000 translate
0.000000 rotate
0.000000 0.000000 m /one glyphshow
7.634766 0.000000 m /four glyphshow
15.269531 0.000000 m /zero glyphshow
grestore
gsave
/o {
gsave
newpath
translate
0.5 setlinewidth
1 setlinejoin
0 setlinecap
0 0 m
0 4 l

gsave
0.000 setgray
fill
grestore
stroke
grestore
} bind def
468.8 43.2 o
grestore
gsave
/o {
gsave
newpath
translate
0.5 setlinewidth
1 setlinejoin
0 setlinecap
0 0 m
0 -4 l

gsave
0.000 setgray
fill
grestore
stroke
grestore
} bind def
468.8 200.291 o
grestore
gsave
457.339063 30.075000 translate
0.000000 rotate
0.000000 0.000000 m /one glyphshow
7.634766 0.000000 m /six glyphshow
15.269531 0.000000 m /zero glyphshow
grestore
gsave
/o {
gsave
newpath
translate
0.5 setlinewidth
1 setlinejoin
0 setlinecap
0 0 m
0 4 l

gsave
0.000 setgray
fill
grestore
stroke
grestore
} bind def
518.4 43.2 o
grestore
gsave
/o {
gsave
newpath
translate
0.5 setlinewidth
1 setlinejoin
0 setlinecap
0 0 m
0 -4 l

gsave
0.000 setgray
fill
grestore
stroke
grestore
} bind def
518.4 200.291 o
grestore
gsave
506.939062 30.075000 translate
0.000000 rotate
0.000000 0.000000 m /one glyphshow
7.634766 0.000000 m /eight glyphshow
15.269531 0.000000 m /zero glyphshow
grestore
gsave
278.559375 13.450000 translate
0.000000 rotate
0.000000 0.000000 m /I glyphshow
3.539062 0.000000 m /n glyphshow
11.144531 0.000000 m /d glyphshow
18.761719 0.000000 m /e glyphshow
26.144531 0.000000 m /x glyphshow
grestore
gsave
/o {
gsave
newpath
translate
0.5 setlinewidth
1 setlinejoin
0 setlinecap
0 0 m
4 0 l

gsave
0.000 setgray
fill
grestore
stroke
grestore
} bind def
72 43.2 o
grestore
gsave
/o {
gsave
newpath
translate
0.5 setlinewidth
1 setlinejoin
0 setlinecap
0 0 m
-4 0 l

gsave
0.000 setgray
fill
grestore
stroke
grestore
} bind def
518.4 43.2 o
grestore
gsave
38.843750 39.887500 translate
0.000000 rotate
0.000000 0.000000 m /minus glyphshow
10.054688 0.000000 m /two glyphshow
17.689453 0.000000 m /period glyphshow
21.503906 0.000000 m /five glyphshow
grestore
gsave
/o {
gsave
newpath
translate
0.5 setlinewidth
1 setlinejoin
0 setlinecap
0 0 m
4 0 l

gsave
0.000 setgray
fill
grestore
stroke
grestore
} bind def
72 60.6545 o
grestore
gsave
/o {
gsave
newpath
translate
0.5 setlinewidth
1 setlinejoin
0 setlinecap
0 0 m
-4 0 l

gsave
0.000 setgray
fill
grestore
stroke
grestore
} bind def
518.4 60.6545 o
grestore
gsave
38.843750 57.342045 translate
0.000000 rotate
0.000000 0.000000 m /minus glyphshow
10.054688 0.000000 m /two glyphshow
17.689453 0.000000 m /period glyphshow
21.503906 0.000000 m /zero glyphshow
grestore
gsave
/o {
gsave
newpath
translate
0.5 setlinewidth
1 setlinejoin
0 setlinecap
0 0 m
4 0 l

gsave
0.000 setgray
fill
grestore
stroke
grestore
} bind def
72 78.1091 o
grestore
gsave
/o {
gsave
newpath
translate
0.5 setlinewidth
1 setlinejoin
0 setlinecap
0 0 m
-4 0 l

gsave
0.000 setgray
fill
grestore
stroke
grestore
} bind def
518.4 78.1091 o
grestore
gsave
38.843750 74.796591 translate
0.000000 rotate
0.000000 0.000000 m /minus glyphshow
10.054688 0.000000 m /one glyphshow
17.689453 0.000000 m /period glyphshow
21.503906 0.000000 m /five glyphshow
grestore
gsave
/o {
gsave
newpath
translate
0.5 setlinewidth
1 setlinejoin
0 setlinecap
0 0 m
4 0 l

gsave
0.000 setgray
fill
grestore
stroke
grestore
} bind def
72 95.5636 o
grestore
gsave
/o {
gsave
newpath
translate
0.5 setlinewidth
1 setlinejoin
0 setlinecap
0 0 m
-4 0 l

gsave
0.000 setgray
fill
grestore
stroke
grestore
} bind def
518.4 95.5636 o
grestore
gsave
38.843750 92.251136 translate
0.000000 rotate
0.000000 0.000000 m /minus glyphshow
10.054688 0.000000 m /one glyphshow
17.689453 0.000000 m /period glyphshow
21.503906 0.000000 m /zero glyphshow
grestore
gsave
/o {
gsave
newpath
translate
0.5 setlinewidth
1 setlinejoin
0 setlinecap
0 0 m
4 0 l

gsave
0.000 setgray
fill
grestore
stroke
grestore
} bind def
72 113.018 o
grestore
gsave
/o {
gsave
newpath
translate
0.5 setlinewidth
1 setlinejoin
0 setlinecap
0 0 m
-4 0 l

gsave
0.000 setgray
fill
grestore
stroke
grestore
} bind def
518.4 113.018 o
grestore
gsave
38.843750 109.705682 translate
0.000000 rotate
0.000000 0.000000 m /minus glyphshow
10.054688 0.000000 m /zero glyphshow
17.689453 0.000000 m /period glyphshow
21.503906 0.000000 m /five glyphshow
grestore
gsave
/o {
gsave
newpath
translate
0.5 setlinewidth
1 setlinejoin
0 setlinecap
0 0 m
4 0 l

gsave
0.000 setgray
fill
grestore
stroke
grestore
} bind def
72 130.473 o
grestore
gsave
/o {
gsave
newpath
translate
0.5 setlinewidth
1 setlinejoin
0 setlinecap
0 0 m
-4 0 l

gsave
0.000 setgray
fill
grestore
stroke
grestore
} bind def
518.4 130.473 o
grestore
gsave
48.906250 127.160227 translate
0.000000 rotate
0.000000 0.000000 m /zero glyphshow
7.634766 0.000000 m /period glyphshow
11.449219 0.000000 m /zero glyphshow
grestore
gsave
/o {
gsave
newpath
translate
0.5 setlinewidth
1 setlinejoin
0 setlinecap
0 0 m
4 0 l

gsave
0.000 setgray
fill
grestore
stroke
grestore
} bind def
72 147.927 o
grestore
gsave
/o {
gsave
newpath
translate
0.5 setlinewidth
1 setlinejoin
0 setlinecap
0 0 m
-4 0 l

gsave
0.000 setgray
fill
grestore
stroke
grestore
} bind def
518.4 147.927 o
grestore
gsave
48.906250 144.614773 translate
0.000000 rotate
0.000000 0.000000 m /zero glyphshow
7.634766 0.000000 m /period glyphshow
11.449219 0.000000 m /five glyphshow
grestore
gsave
/o {
gsave
newpath
translate
0.5 setlinewidth
1 setlinejoin
0 setlinecap
0 0 m
4 0 l

gsave
0.000 setgray
fill
grestore
stroke
grestore
} bind def
72 165.382 o
grestore
gsave
/o {
gsave
newpath
translate
0.5 setlinewidth
1 setlinejoin
0 setlinecap
0 0 m
-4 0 l

gsave
0.000 setgray
fill
grestore
stroke
grestore
} bind def
518.4 165.382 o
grestore
gsave
48.906250 162.069318 translate
0.000000 rotate
0.000000 0.000000 m /one glyphshow
7.634766 0.000000 m /period glyphshow
11.449219 0.000000 m /zero glyphshow
grestore
gsave
/o {
gsave
newpath
translate
0.5 setlinewidth
1 setlinejoin
0 setlinecap
0 0 m
4 0 l

gsave
0.000 setgray
fill
grestore
stroke
grestore
} bind def
72 182.836 o
grestore
gsave
/o {
gsave
newpath
translate
0.5 setlinewidth
1 setlinejoin
0 setlinecap
0 0 m
-4 0 l

gsave
0.000 setgray
fill
grestore
stroke
grestore
} bind def
518.4 182.836 o
grestore
gsave
48.906250 179.523864 translate
0.000000 rotate
0.000000 0.000000 m /one glyphshow
7.634766 0.000000 m /period glyphshow
11.449219 0.000000 m /five glyphshow
grestore
gsave
/o {
gsave
newpath
translate
0.5 setlinewidth
1 setlinejoin
0 setlinecap
0 0 m
4 0 l

gsave
0.000 setgray
fill
grestore
stroke
grestore
} bind def
72 200.291 o
grestore
gsave
/o {
gsave
newpath
translate
0.5 setlinewidth
1 setlinejoin
0 setlinecap
0 0 m
-4 0 l

gsave
0.000 setgray
fill
grestore
stroke
grestore
} bind def
518.4 200.291 o
grestore
gsave
48.906250 196.978409 translate
0.000000 rotate
0.000000 0.000000 m /two glyphshow
7.634766 0.000000 m /period glyphshow
11.449219 0.000000 m /zero glyphshow
grestore
gsave
31.343750 87.268892 translate
90.000000 rotate
0.000000 0.000000 m /P glyphshow
7.236328 0.000000 m /h glyphshow
14.841797 0.000000 m /a glyphshow
22.195312 0.000000 m /s glyphshow
28.447266 0.000000 m /e glyphshow
35.830078 0.000000 m /space glyphshow
39.644531 0.000000 m /bracketleft glyphshow
44.326172 0.000000 m /r glyphshow
49.259766 0.000000 m /a glyphshow
56.613281 0.000000 m /d glyphshow
64.230469 0.000000 m /bracketright glyphshow
grestore
1.000 setlinewidth
0 setlinejoin
gsave
339.000625 147.277159 m
511.2 147.277159 l
511.2 193.090909 l
339.000625 193.090909 l
cl
gsave
1.000 setgray
fill
grestore
stroke
grestore
1 setlinejoin
2 setlinecap
1.000 0.000 0.000 setrgbcolor
gsave
349.080625 181.730284 m
369.240625 181.730284 l
stroke
grestore
0.000 setgray
/BitstreamVeraSans-Roman findfont
14.400 scalefont
setfont
gsave
385.080625 176.690284 translate
0.000000 rotate
0.000000 0.000000 m /e glyphshow
8.843994 0.000000 m /r glyphshow
14.754028 0.000000 m /i glyphshow
18.747864 0.000000 m /c glyphshow
26.651306 0.000000 m /h glyphshow
35.762024 0.000000 m /space glyphshow
40.331421 0.000000 m /t glyphshow
45.967712 0.000000 m /x glyphshow
54.474792 0.000000 m /two glyphshow
63.620605 0.000000 m /comma glyphshow
68.190002 0.000000 m /space glyphshow
72.759399 0.000000 m /r glyphshow
78.669434 0.000000 m /x glyphshow
87.176514 0.000000 m /two glyphshow
grestore
0.502 0.000 0.000 setrgbcolor
gsave
349.080625 160.983409 m
369.240625 160.983409 l
stroke
grestore
0.000 setgray
gsave
385.080625 155.943409 translate
0.000000 rotate
0.000000 0.000000 m /m glyphshow
14.002991 0.000000 m /i glyphshow
17.996826 0.000000 m /r glyphshow
23.906860 0.000000 m /a glyphshow
32.715759 0.000000 m /n glyphshow
41.826477 0.000000 m /d glyphshow
50.951233 0.000000 m /a glyphshow
59.760132 0.000000 m /space glyphshow
64.329529 0.000000 m /t glyphshow
69.965820 0.000000 m /x glyphshow
78.472900 0.000000 m /two glyphshow
87.618713 0.000000 m /comma glyphshow
92.188110 0.000000 m /space glyphshow
96.757507 0.000000 m /r glyphshow
102.667542 0.000000 m /x glyphshow
111.174622 0.000000 m /two glyphshow
grestore

end
showpage
