%!PS-Adobe-3.0 EPSF-3.0
%%Title: e_rx1_tx1_m_rx0_tx0.eps
%%Creator: matplotlib version 1.5.1, http://matplotlib.org/
%%CreationDate: Wed Feb 15 15:44:58 2017
%%Orientation: portrait
%%BoundingBox: 18 180 594 612
%%EndComments
%%BeginProlog
/mpldict 8 dict def
mpldict begin
/m { moveto } bind def
/l { lineto } bind def
/r { rlineto } bind def
/c { curveto } bind def
/cl { closepath } bind def
/box {
m
1 index 0 r
0 exch r
neg 0 r
cl
} bind def
/clipbox {
box
clip
newpath
} bind def
%!PS-Adobe-3.0 Resource-Font
%%Title: Bitstream Vera Sans
%%Copyright: Copyright (c) 2003 by Bitstream, Inc. All Rights Reserved.
%%Creator: Converted from TrueType to type 3 by PPR
25 dict begin
/_d{bind def}bind def
/_m{moveto}_d
/_l{lineto}_d
/_cl{closepath eofill}_d
/_c{curveto}_d
/_sc{7 -1 roll{setcachedevice}{pop pop pop pop pop pop}ifelse}_d
/_e{exec}_d
/FontName /BitstreamVeraSans-Roman def
/PaintType 0 def
/FontMatrix[.001 0 0 .001 0 0]def
/FontBBox[-183 -236 1287 928]def
/FontType 3 def
/Encoding [ /space /comma /zero /one /two /three /four /six /eight /B /I /M /P /bracketleft /bracketright /a /c /d /e /g /h /i /m /n /r /s /t /u /x /minus ] def
/FontInfo 10 dict dup begin
/FamilyName (Bitstream Vera Sans) def
/FullName (Bitstream Vera Sans) def
/Notice (Copyright (c) 2003 by Bitstream, Inc. All Rights Reserved. Bitstream Vera is a trademark of Bitstream, Inc.) def
/Weight (Roman) def
/Version (Release 1.10) def
/ItalicAngle 0.0 def
/isFixedPitch false def
/UnderlinePosition -213 def
/UnderlineThickness 143 def
end readonly def
/CharStrings 30 dict dup begin
/space{318 0 0 0 0 0 _sc
}_d
/comma{318 0 77 -115 220 124 _sc
117 124 _m
220 124 _l
220 40 _l
140 -115 _l
77 -115 _l
117 40 _l
117 124 _l
_cl}_d
/zero{636 0 66 -13 570 742 _sc
318 664 _m
267 664 229 639 203 589 _c
177 539 165 464 165 364 _c
165 264 177 189 203 139 _c
229 89 267 64 318 64 _c
369 64 407 89 433 139 _c
458 189 471 264 471 364 _c
471 464 458 539 433 589 _c
407 639 369 664 318 664 _c
318 742 _m
399 742 461 709 505 645 _c
548 580 570 486 570 364 _c
570 241 548 147 505 83 _c
461 19 399 -13 318 -13 _c
236 -13 173 19 130 83 _c
87 147 66 241 66 364 _c
66 486 87 580 130 645 _c
173 709 236 742 318 742 _c
_cl}_d
/one{636 0 110 0 544 729 _sc
124 83 _m
285 83 _l
285 639 _l
110 604 _l
110 694 _l
284 729 _l
383 729 _l
383 83 _l
544 83 _l
544 0 _l
124 0 _l
124 83 _l
_cl}_d
/two{{636 0 73 0 536 742 _sc
192 83 _m
536 83 _l
536 0 _l
73 0 _l
73 83 _l
110 121 161 173 226 239 _c
290 304 331 346 348 365 _c
380 400 402 430 414 455 _c
426 479 433 504 433 528 _c
433 566 419 598 392 622 _c
365 646 330 659 286 659 _c
255 659 222 653 188 643 _c
154 632 117 616 78 594 _c
78 694 _l
118 710 155 722 189 730 _c
223 738 255 742 284 742 _c
}_e{359 742 419 723 464 685 _c
509 647 532 597 532 534 _c
532 504 526 475 515 449 _c
504 422 484 390 454 354 _c
446 344 420 317 376 272 _c
332 227 271 164 192 83 _c
_cl}_e}_d
/three{{636 0 76 -13 556 742 _sc
406 393 _m
453 383 490 362 516 330 _c
542 298 556 258 556 212 _c
556 140 531 84 482 45 _c
432 6 362 -13 271 -13 _c
240 -13 208 -10 176 -4 _c
144 1 110 10 76 22 _c
76 117 _l
103 101 133 89 166 81 _c
198 73 232 69 268 69 _c
330 69 377 81 409 105 _c
441 129 458 165 458 212 _c
458 254 443 288 413 312 _c
383 336 341 349 287 349 _c
}_e{202 349 _l
202 430 _l
291 430 _l
339 430 376 439 402 459 _c
428 478 441 506 441 543 _c
441 580 427 609 401 629 _c
374 649 336 659 287 659 _c
260 659 231 656 200 650 _c
169 644 135 635 98 623 _c
98 711 _l
135 721 170 729 203 734 _c
235 739 266 742 296 742 _c
370 742 429 725 473 691 _c
517 657 539 611 539 553 _c
539 513 527 479 504 451 _c
481 423 448 403 406 393 _c
_cl}_e}_d
/four{636 0 49 0 580 729 _sc
378 643 _m
129 254 _l
378 254 _l
378 643 _l
352 729 _m
476 729 _l
476 254 _l
580 254 _l
580 172 _l
476 172 _l
476 0 _l
378 0 _l
378 172 _l
49 172 _l
49 267 _l
352 729 _l
_cl}_d
/six{{636 0 70 -13 573 742 _sc
330 404 _m
286 404 251 388 225 358 _c
199 328 186 286 186 234 _c
186 181 199 139 225 109 _c
251 79 286 64 330 64 _c
374 64 409 79 435 109 _c
461 139 474 181 474 234 _c
474 286 461 328 435 358 _c
409 388 374 404 330 404 _c
526 713 _m
526 623 _l
501 635 476 644 451 650 _c
425 656 400 659 376 659 _c
310 659 260 637 226 593 _c
}_e{192 549 172 482 168 394 _c
187 422 211 444 240 459 _c
269 474 301 482 336 482 _c
409 482 467 459 509 415 _c
551 371 573 310 573 234 _c
573 159 550 99 506 54 _c
462 9 403 -13 330 -13 _c
246 -13 181 19 137 83 _c
92 147 70 241 70 364 _c
70 479 97 571 152 639 _c
206 707 280 742 372 742 _c
396 742 421 739 447 735 _c
472 730 498 723 526 713 _c
_cl}_e}_d
/eight{{636 0 68 -13 568 742 _sc
318 346 _m
271 346 234 333 207 308 _c
180 283 167 249 167 205 _c
167 161 180 126 207 101 _c
234 76 271 64 318 64 _c
364 64 401 76 428 102 _c
455 127 469 161 469 205 _c
469 249 455 283 429 308 _c
402 333 365 346 318 346 _c
219 388 _m
177 398 144 418 120 447 _c
96 476 85 511 85 553 _c
85 611 105 657 147 691 _c
188 725 245 742 318 742 _c
}_e{390 742 447 725 489 691 _c
530 657 551 611 551 553 _c
551 511 539 476 515 447 _c
491 418 459 398 417 388 _c
464 377 501 355 528 323 _c
554 291 568 251 568 205 _c
568 134 546 80 503 43 _c
459 5 398 -13 318 -13 _c
237 -13 175 5 132 43 _c
89 80 68 134 68 205 _c
68 251 81 291 108 323 _c
134 355 171 377 219 388 _c
183 544 _m
183 506 194 476 218 455 _c
}_e{242 434 275 424 318 424 _c
360 424 393 434 417 455 _c
441 476 453 506 453 544 _c
453 582 441 611 417 632 _c
393 653 360 664 318 664 _c
275 664 242 653 218 632 _c
194 611 183 582 183 544 _c
_cl}_e}_d
/B{{686 0 98 0 615 729 _sc
197 348 _m
197 81 _l
355 81 _l
408 81 447 92 473 114 _c
498 136 511 169 511 215 _c
511 260 498 293 473 315 _c
447 337 408 348 355 348 _c
197 348 _l
197 648 _m
197 428 _l
343 428 _l
391 428 426 437 450 455 _c
474 473 486 500 486 538 _c
486 574 474 602 450 620 _c
426 638 391 648 343 648 _c
197 648 _l
98 729 _m
350 729 _l
}_e{425 729 483 713 524 682 _c
564 650 585 606 585 549 _c
585 504 574 468 553 442 _c
532 416 502 399 462 393 _c
510 382 548 360 575 327 _c
601 294 615 253 615 204 _c
615 138 592 88 548 53 _c
504 17 441 0 360 0 _c
98 0 _l
98 729 _l
_cl}_e}_d
/I{295 0 98 0 197 729 _sc
98 729 _m
197 729 _l
197 0 _l
98 0 _l
98 729 _l
_cl}_d
/M{863 0 98 0 765 729 _sc
98 729 _m
245 729 _l
431 233 _l
618 729 _l
765 729 _l
765 0 _l
669 0 _l
669 640 _l
481 140 _l
382 140 _l
194 640 _l
194 0 _l
98 0 _l
98 729 _l
_cl}_d
/P{603 0 98 0 569 729 _sc
197 648 _m
197 374 _l
321 374 _l
367 374 402 385 427 409 _c
452 433 465 467 465 511 _c
465 555 452 588 427 612 _c
402 636 367 648 321 648 _c
197 648 _l
98 729 _m
321 729 _l
402 729 464 710 506 673 _c
548 636 569 582 569 511 _c
569 439 548 384 506 348 _c
464 311 402 293 321 293 _c
197 293 _l
197 0 _l
98 0 _l
98 729 _l
_cl}_d
/bracketleft{390 0 86 -131 293 760 _sc
86 760 _m
293 760 _l
293 690 _l
176 690 _l
176 -61 _l
293 -61 _l
293 -131 _l
86 -131 _l
86 760 _l
_cl}_d
/bracketright{390 0 97 -131 304 760 _sc
304 760 _m
304 -131 _l
97 -131 _l
97 -61 _l
214 -61 _l
214 690 _l
97 690 _l
97 760 _l
304 760 _l
_cl}_d
/a{{613 0 60 -13 522 560 _sc
343 275 _m
270 275 220 266 192 250 _c
164 233 150 205 150 165 _c
150 133 160 107 181 89 _c
202 70 231 61 267 61 _c
317 61 357 78 387 114 _c
417 149 432 196 432 255 _c
432 275 _l
343 275 _l
522 312 _m
522 0 _l
432 0 _l
432 83 _l
411 49 385 25 355 10 _c
325 -5 287 -13 243 -13 _c
187 -13 142 2 109 33 _c
76 64 60 106 60 159 _c
}_e{60 220 80 266 122 298 _c
163 329 224 345 306 345 _c
432 345 _l
432 354 _l
432 395 418 427 391 450 _c
364 472 326 484 277 484 _c
245 484 215 480 185 472 _c
155 464 127 453 100 439 _c
100 522 _l
132 534 164 544 195 550 _c
226 556 256 560 286 560 _c
365 560 424 539 463 498 _c
502 457 522 395 522 312 _c
_cl}_e}_d
/c{{550 0 55 -13 488 560 _sc
488 526 _m
488 442 _l
462 456 437 466 411 473 _c
385 480 360 484 334 484 _c
276 484 230 465 198 428 _c
166 391 150 339 150 273 _c
150 206 166 154 198 117 _c
230 80 276 62 334 62 _c
360 62 385 65 411 72 _c
437 79 462 90 488 104 _c
488 21 _l
462 9 436 0 410 -5 _c
383 -10 354 -13 324 -13 _c
242 -13 176 12 128 64 _c
}_e{79 115 55 185 55 273 _c
55 362 79 432 128 483 _c
177 534 244 560 330 560 _c
358 560 385 557 411 551 _c
437 545 463 537 488 526 _c
_cl}_e}_d
/d{{635 0 55 -13 544 760 _sc
454 464 _m
454 760 _l
544 760 _l
544 0 _l
454 0 _l
454 82 _l
435 49 411 25 382 10 _c
353 -5 319 -13 279 -13 _c
213 -13 159 13 117 65 _c
75 117 55 187 55 273 _c
55 359 75 428 117 481 _c
159 533 213 560 279 560 _c
319 560 353 552 382 536 _c
411 520 435 496 454 464 _c
148 273 _m
148 207 161 155 188 117 _c
215 79 253 61 301 61 _c
}_e{348 61 385 79 413 117 _c
440 155 454 207 454 273 _c
454 339 440 390 413 428 _c
385 466 348 485 301 485 _c
253 485 215 466 188 428 _c
161 390 148 339 148 273 _c
_cl}_e}_d
/e{{615 0 55 -13 562 560 _sc
562 296 _m
562 252 _l
149 252 _l
153 190 171 142 205 110 _c
238 78 284 62 344 62 _c
378 62 412 66 444 74 _c
476 82 509 95 541 113 _c
541 28 _l
509 14 476 3 442 -3 _c
408 -9 373 -13 339 -13 _c
251 -13 182 12 131 62 _c
80 112 55 181 55 268 _c
55 357 79 428 127 481 _c
175 533 241 560 323 560 _c
397 560 455 536 498 489 _c
}_e{540 441 562 377 562 296 _c
472 322 _m
471 371 457 410 431 440 _c
404 469 368 484 324 484 _c
274 484 234 469 204 441 _c
174 413 156 373 152 322 _c
472 322 _l
_cl}_e}_d
/g{{635 0 55 -207 544 560 _sc
454 280 _m
454 344 440 395 414 431 _c
387 467 349 485 301 485 _c
253 485 215 467 188 431 _c
161 395 148 344 148 280 _c
148 215 161 165 188 129 _c
215 93 253 75 301 75 _c
349 75 387 93 414 129 _c
440 165 454 215 454 280 _c
544 68 _m
544 -24 523 -93 482 -139 _c
440 -184 377 -207 292 -207 _c
260 -207 231 -204 203 -200 _c
175 -195 147 -188 121 -178 _c
}_e{121 -91 _l
147 -105 173 -115 199 -122 _c
225 -129 251 -133 278 -133 _c
336 -133 380 -117 410 -87 _c
439 -56 454 -10 454 52 _c
454 96 _l
435 64 411 40 382 24 _c
353 8 319 0 279 0 _c
211 0 157 25 116 76 _c
75 127 55 195 55 280 _c
55 364 75 432 116 483 _c
157 534 211 560 279 560 _c
319 560 353 552 382 536 _c
411 520 435 496 454 464 _c
454 547 _l
544 547 _l
}_e{544 68 _l
_cl}_e}_d
/h{634 0 91 0 549 760 _sc
549 330 _m
549 0 _l
459 0 _l
459 327 _l
459 379 448 417 428 443 _c
408 469 378 482 338 482 _c
289 482 251 466 223 435 _c
195 404 181 362 181 309 _c
181 0 _l
91 0 _l
91 760 _l
181 760 _l
181 462 _l
202 494 227 519 257 535 _c
286 551 320 560 358 560 _c
420 560 468 540 500 501 _c
532 462 549 405 549 330 _c
_cl}_d
/i{278 0 94 0 184 760 _sc
94 547 _m
184 547 _l
184 0 _l
94 0 _l
94 547 _l
94 760 _m
184 760 _l
184 646 _l
94 646 _l
94 760 _l
_cl}_d
/m{{974 0 91 0 889 560 _sc
520 442 _m
542 482 569 511 600 531 _c
631 550 668 560 711 560 _c
767 560 811 540 842 500 _c
873 460 889 403 889 330 _c
889 0 _l
799 0 _l
799 327 _l
799 379 789 418 771 444 _c
752 469 724 482 686 482 _c
639 482 602 466 575 435 _c
548 404 535 362 535 309 _c
535 0 _l
445 0 _l
445 327 _l
445 379 435 418 417 444 _c
398 469 369 482 331 482 _c
}_e{285 482 248 466 221 435 _c
194 404 181 362 181 309 _c
181 0 _l
91 0 _l
91 547 _l
181 547 _l
181 462 _l
201 495 226 520 255 536 _c
283 552 317 560 357 560 _c
397 560 430 550 458 530 _c
486 510 506 480 520 442 _c
_cl}_e}_d
/n{634 0 91 0 549 560 _sc
549 330 _m
549 0 _l
459 0 _l
459 327 _l
459 379 448 417 428 443 _c
408 469 378 482 338 482 _c
289 482 251 466 223 435 _c
195 404 181 362 181 309 _c
181 0 _l
91 0 _l
91 547 _l
181 547 _l
181 462 _l
202 494 227 519 257 535 _c
286 551 320 560 358 560 _c
420 560 468 540 500 501 _c
532 462 549 405 549 330 _c
_cl}_d
/r{411 0 91 0 411 560 _sc
411 463 _m
401 469 390 473 378 476 _c
366 478 353 480 339 480 _c
288 480 249 463 222 430 _c
194 397 181 350 181 288 _c
181 0 _l
91 0 _l
91 547 _l
181 547 _l
181 462 _l
199 495 224 520 254 536 _c
284 552 321 560 365 560 _c
371 560 378 559 386 559 _c
393 558 401 557 411 555 _c
411 463 _l
_cl}_d
/s{{521 0 54 -13 472 560 _sc
443 531 _m
443 446 _l
417 458 391 468 364 475 _c
336 481 308 485 279 485 _c
234 485 200 478 178 464 _c
156 450 145 430 145 403 _c
145 382 153 366 169 354 _c
185 342 217 330 265 320 _c
296 313 _l
360 299 405 279 432 255 _c
458 230 472 195 472 151 _c
472 100 452 60 412 31 _c
372 1 316 -13 246 -13 _c
216 -13 186 -10 154 -5 _c
}_e{122 0 89 8 54 20 _c
54 113 _l
87 95 120 82 152 74 _c
184 65 216 61 248 61 _c
290 61 323 68 346 82 _c
368 96 380 117 380 144 _c
380 168 371 187 355 200 _c
339 213 303 226 247 238 _c
216 245 _l
160 257 119 275 95 299 _c
70 323 58 356 58 399 _c
58 450 76 490 112 518 _c
148 546 200 560 268 560 _c
301 560 332 557 362 552 _c
391 547 418 540 443 531 _c
}_e{_cl}_e}_d
/t{392 0 27 0 368 702 _sc
183 702 _m
183 547 _l
368 547 _l
368 477 _l
183 477 _l
183 180 _l
183 135 189 106 201 94 _c
213 81 238 75 276 75 _c
368 75 _l
368 0 _l
276 0 _l
206 0 158 13 132 39 _c
106 65 93 112 93 180 _c
93 477 _l
27 477 _l
27 547 _l
93 547 _l
93 702 _l
183 702 _l
_cl}_d
/u{634 0 85 -13 543 547 _sc
85 216 _m
85 547 _l
175 547 _l
175 219 _l
175 167 185 129 205 103 _c
225 77 255 64 296 64 _c
344 64 383 79 411 110 _c
439 141 453 183 453 237 _c
453 547 _l
543 547 _l
543 0 _l
453 0 _l
453 84 _l
431 50 405 26 377 10 _c
348 -5 315 -13 277 -13 _c
214 -13 166 6 134 45 _c
101 83 85 140 85 216 _c
_cl}_d
/x{592 0 29 0 559 547 _sc
549 547 _m
351 281 _l
559 0 _l
453 0 _l
294 215 _l
135 0 _l
29 0 _l
241 286 _l
47 547 _l
153 547 _l
298 352 _l
443 547 _l
549 547 _l
_cl}_d
/minus{838 0 106 272 732 355 _sc
106 355 _m
732 355 _l
732 272 _l
106 272 _l
106 355 _l
_cl}_d
end readonly def

/BuildGlyph
 {exch begin
 CharStrings exch
 2 copy known not{pop /.notdef}if
 true 3 1 roll get exec
 end}_d

/BuildChar {
 1 index /Encoding get exch get
 1 index /BuildGlyph get exec
}_d

FontName currentdict end definefont pop
end
%%EndProlog
mpldict begin
18 180 translate
576 432 0 0 clipbox
100000 setmiterlimit
gsave
0 0 m
576 0 l
576 432 l
0 432 l
cl
1.000 setgray
fill
grestore
gsave
72 231.709091 m
518.4 231.709091 l
518.4 388.8 l
72 388.8 l
cl
1.000 setgray
fill
grestore
1.000 setlinewidth
1 setlinejoin
2 setlinecap
[] 0 setdash
1.000 0.000 0.000 setrgbcolor
gsave
446.4 157.1 72 231.7 clipbox
72 313.951235 m
74.48 319.705676 l
76.96 320.988294 l
79.44 320.215583 l
81.92 326.855394 l
84.4 327.722244 l
86.88 328.629298 l
89.36 324.325528 l
91.84 323.538469 l
94.32 319.225728 l
96.8 318.036941 l
99.28 322.109351 l
101.76 315.736585 l
104.24 316.99505 l
106.72 318.523802 l
109.2 319.264946 l
111.68 319.64129 l
114.16 314.558896 l
116.64 317.610913 l
119.12 313.378549 l
121.6 318.321956 l
124.08 320.341643 l
126.56 323.221987 l
129.04 323.221987 l
131.52 321.871967 l
134 323.762389 l
136.48 323.762389 l
138.96 324.727208 l
141.44 325.8164 l
143.92 330.877877 l
146.4 332.824052 l
148.88 333.702224 l
151.36 335.558442 l
153.84 337.418353 l
156.32 337.49413 l
158.8 339.875111 l
161.28 339.856124 l
163.76 343.169095 l
166.24 343.23663 l
168.72 346.50912 l
171.2 346.50912 l
173.68 348.440942 l
176.16 349.393722 l
178.64 348.567044 l
181.12 351.937982 l
183.6 352.172931 l
186.08 352.770038 l
188.56 354.104863 l
191.04 354.219687 l
193.52 353.350923 l
196 354.410036 l
198.48 350.982555 l
200.96 345.855374 l
203.44 338.765516 l
205.92 337.307771 l
208.4 328.9656 l
stroke
grestore
0.502 0.000 0.000 setrgbcolor
gsave
446.4 157.1 72 231.7 clipbox
72 259.412457 m
74.48 264.235395 l
76.96 269.433252 l
79.44 277.742708 l
81.92 280.065637 l
84.4 282.878534 l
86.88 283.939177 l
89.36 279.857383 l
91.84 284.343672 l
94.32 278.574764 l
96.8 276.594005 l
99.28 276.358587 l
101.76 274.464819 l
104.24 276.358587 l
106.72 276.358587 l
109.2 278.134034 l
111.68 278.134034 l
114.16 281.678923 l
116.64 281.678923 l
119.12 278.574764 l
121.6 277.059071 l
124.08 276.417624 l
126.56 276.417624 l
129.04 276.358587 l
131.52 271.469783 l
134 267.563435 l
136.48 269.130033 l
138.96 271.81858 l
141.44 267.239482 l
143.92 270.103896 l
146.4 267.239482 l
148.88 275.457987 l
151.36 272.231563 l
153.84 272.231563 l
156.32 276.769297 l
158.8 276.594005 l
161.28 279.062553 l
163.76 279.116239 l
166.24 277.059071 l
168.72 277.059071 l
171.2 277.966982 l
173.68 280.93408 l
176.16 277.059071 l
178.64 279.909589 l
181.12 279.27669 l
183.6 282.261057 l
186.08 279.27669 l
188.56 281.678923 l
191.04 284.209479 l
193.52 283.984406 l
196 286.408837 l
198.48 284.917965 l
200.96 280.065637 l
203.44 276.358587 l
205.92 269.130033 l
208.4 261.87695 l
stroke
grestore
1.000 0.000 0.000 setrgbcolor
gsave
446.4 157.1 72 231.7 clipbox
72 313.951235 m
74.48 319.705676 l
76.96 320.988294 l
79.44 320.215583 l
81.92 326.855394 l
84.4 327.722244 l
86.88 328.629298 l
89.36 324.325528 l
91.84 323.538469 l
94.32 319.225728 l
96.8 318.036941 l
99.28 322.109351 l
101.76 315.736585 l
104.24 316.99505 l
106.72 318.523802 l
109.2 319.264946 l
111.68 319.64129 l
114.16 314.558896 l
116.64 317.610913 l
119.12 313.378549 l
121.6 318.321956 l
124.08 320.341643 l
126.56 323.221987 l
129.04 323.221987 l
131.52 321.871967 l
134 323.762389 l
136.48 323.762389 l
138.96 324.727208 l
141.44 325.8164 l
143.92 330.877877 l
146.4 332.824052 l
148.88 333.702224 l
151.36 335.558442 l
153.84 337.418353 l
156.32 337.49413 l
158.8 339.875111 l
161.28 339.856124 l
163.76 343.169095 l
166.24 343.23663 l
168.72 346.50912 l
171.2 346.50912 l
173.68 348.440942 l
176.16 349.393722 l
178.64 348.567044 l
181.12 351.937982 l
183.6 352.172931 l
186.08 352.770038 l
188.56 354.104863 l
191.04 354.219687 l
193.52 353.350923 l
196 354.410036 l
198.48 350.982555 l
200.96 345.855374 l
203.44 338.765516 l
205.92 337.307771 l
208.4 328.9656 l
210.88 326.401689 l
213.36 330.413938 l
215.84 336.184827 l
218.32 338.57409 l
220.8 340.790268 l
223.28 341.575748 l
225.76 339.228807 l
228.24 334.789605 l
230.72 335.705349 l
233.2 335.975143 l
235.68 335.425573 l
238.16 333.607731 l
240.64 334.584578 l
243.12 331.648756 l
245.6 331.825659 l
248.08 328.788603 l
250.56 330.174649 l
253.04 327.741641 l
255.52 328.666862 l
258 332.159601 l
260.48 333.772888 l
262.96 333.017981 l
265.44 333.23458 l
267.92 333.960471 l
270.4 336.033141 l
272.88 337.252318 l
275.36 337.057376 l
277.84 340.771883 l
280.32 344.257987 l
282.8 344.02931 l
285.28 343.421528 l
287.76 345.916826 l
290.24 347.945159 l
292.72 349.655055 l
295.2 352.397809 l
297.68 353.535422 l
300.16 355.088631 l
302.64 356.349503 l
305.12 357.215105 l
307.6 358.30766 l
310.08 360.451132 l
312.56 361.225844 l
315.04 362.07288 l
317.52 363.999703 l
320 364.874271 l
322.48 366.554029 l
324.96 365.702337 l
327.44 365.533512 l
329.92 365.451294 l
332.4 366.024404 l
334.88 365.620608 l
337.36 364.829597 l
339.84 358.281183 l
342.32 355.22169 l
344.8 348.271932 l
347.28 338.388035 l
stroke
grestore
0.502 0.000 0.000 setrgbcolor
gsave
446.4 157.1 72 231.7 clipbox
72 259.412457 m
74.48 264.235395 l
76.96 269.433252 l
79.44 277.742708 l
81.92 280.065637 l
84.4 282.878534 l
86.88 283.939177 l
89.36 279.857383 l
91.84 284.343672 l
94.32 278.574764 l
96.8 276.594005 l
99.28 276.358587 l
101.76 274.464819 l
104.24 276.358587 l
106.72 276.358587 l
109.2 278.134034 l
111.68 278.134034 l
114.16 281.678923 l
116.64 281.678923 l
119.12 278.574764 l
121.6 277.059071 l
124.08 276.417624 l
126.56 276.417624 l
129.04 276.358587 l
131.52 271.469783 l
134 267.563435 l
136.48 269.130033 l
138.96 271.81858 l
141.44 267.239482 l
143.92 270.103896 l
146.4 267.239482 l
148.88 275.457987 l
151.36 272.231563 l
153.84 272.231563 l
156.32 276.769297 l
158.8 276.594005 l
161.28 279.062553 l
163.76 279.116239 l
166.24 277.059071 l
168.72 277.059071 l
171.2 277.966982 l
173.68 280.93408 l
176.16 277.059071 l
178.64 279.909589 l
181.12 279.27669 l
183.6 282.261057 l
186.08 279.27669 l
188.56 281.678923 l
191.04 284.209479 l
193.52 283.984406 l
196 286.408837 l
198.48 284.917965 l
200.96 280.065637 l
203.44 276.358587 l
205.92 269.130033 l
208.4 261.87695 l
210.88 284.343672 l
213.36 286.943264 l
215.84 295.824985 l
218.32 300.486522 l
220.8 304.047453 l
223.28 306.606291 l
225.76 309.159481 l
228.24 309.159481 l
230.72 313.298089 l
233.2 313.362475 l
235.68 311.928069 l
238.16 311.99563 l
240.64 311.944974 l
243.12 313.314199 l
245.6 309.103505 l
248.08 309.159481 l
250.56 306.112619 l
253.04 304.73087 l
255.52 304.882942 l
258 301.675262 l
260.48 303.506837 l
262.96 305.313004 l
265.44 305.589095 l
267.92 304.752644 l
270.4 303.209653 l
272.88 300.001895 l
275.36 303.688187 l
277.84 303.484087 l
280.32 302.909329 l
282.8 302.909329 l
285.28 303.301426 l
287.76 301.382705 l
290.24 304.73087 l
292.72 301.235289 l
295.2 302.370088 l
297.68 303.552283 l
300.16 303.688187 l
302.64 303.688187 l
305.12 302.932544 l
307.6 304.621747 l
310.08 308.840815 l
312.56 310.470867 l
315.04 306.422167 l
317.52 312.130274 l
320 313.951235 l
322.48 313.951235 l
324.96 313.554764 l
327.44 316.938396 l
329.92 316.074738 l
332.4 314.65124 l
334.88 311.381716 l
337.36 306.910538 l
339.84 307.921278 l
342.32 303.91326 l
344.8 294.200168 l
347.28 287.8254 l
stroke
grestore
1.000 0.000 0.000 setrgbcolor
gsave
446.4 157.1 72 231.7 clipbox
72 313.951235 m
74.48 319.705676 l
76.96 320.988294 l
79.44 320.215583 l
81.92 326.855394 l
86.88 328.629298 l
89.36 324.325528 l
91.84 323.538469 l
94.32 319.225728 l
96.8 318.036941 l
99.28 322.109351 l
101.76 315.736585 l
104.24 316.99505 l
106.72 318.523802 l
109.2 319.264946 l
111.68 319.64129 l
114.16 314.558896 l
116.64 317.610913 l
119.12 313.378549 l
121.6 318.321956 l
124.08 320.341643 l
126.56 323.221987 l
129.04 323.221987 l
131.52 321.871967 l
134 323.762389 l
136.48 323.762389 l
138.96 324.727208 l
141.44 325.8164 l
143.92 330.877877 l
146.4 332.824052 l
148.88 333.702224 l
153.84 337.418353 l
156.32 337.49413 l
158.8 339.875111 l
161.28 339.856124 l
163.76 343.169095 l
166.24 343.23663 l
168.72 346.50912 l
171.2 346.50912 l
173.68 348.440942 l
176.16 349.393722 l
178.64 348.567044 l
181.12 351.937982 l
183.6 352.172931 l
186.08 352.770038 l
188.56 354.104863 l
191.04 354.219687 l
193.52 353.350923 l
196 354.410036 l
198.48 350.982555 l
200.96 345.855374 l
203.44 338.765516 l
205.92 337.307771 l
208.4 328.9656 l
210.88 326.401689 l
213.36 330.413938 l
215.84 336.184827 l
218.32 338.57409 l
220.8 340.790268 l
223.28 341.575748 l
225.76 339.228807 l
228.24 334.789605 l
230.72 335.705349 l
233.2 335.975143 l
235.68 335.425573 l
238.16 333.607731 l
240.64 334.584578 l
243.12 331.648756 l
245.6 331.825659 l
248.08 328.788603 l
250.56 330.174649 l
253.04 327.741641 l
255.52 328.666862 l
258 332.159601 l
260.48 333.772888 l
262.96 333.017981 l
265.44 333.23458 l
267.92 333.960471 l
270.4 336.033141 l
272.88 337.252318 l
275.36 337.057376 l
277.84 340.771883 l
280.32 344.257987 l
282.8 344.02931 l
285.28 343.421528 l
287.76 345.916826 l
290.24 347.945159 l
292.72 349.655055 l
295.2 352.397809 l
297.68 353.535422 l
300.16 355.088631 l
302.64 356.349503 l
305.12 357.215105 l
307.6 358.30766 l
310.08 360.451132 l
315.04 362.07288 l
317.52 363.999703 l
320 364.874271 l
322.48 366.554029 l
324.96 365.702337 l
329.92 365.451294 l
332.4 366.024404 l
334.88 365.620608 l
337.36 364.829597 l
339.84 358.281183 l
342.32 355.22169 l
344.8 348.271932 l
347.28 338.388035 l
349.76 338.791818 l
352.24 341.688753 l
354.72 345.186239 l
357.2 347.63867 l
359.68 353.672042 l
362.16 353.966459 l
364.64 350.481634 l
367.12 343.83733 l
369.6 339.415888 l
372.08 341.7362 l
374.56 342.340107 l
377.04 347.059857 l
379.52 342.363303 l
382 342.622961 l
384.48 343.963634 l
386.96 341.545936 l
389.44 342.363303 l
391.92 337.307771 l
394.4 341.300284 l
396.88 341.617434 l
399.36 343.947192 l
401.84 345.504616 l
404.32 345.15473 l
406.8 345.15473 l
409.28 342.668875 l
411.76 342.369099 l
414.24 347.686777 l
416.72 349.936221 l
419.2 351.016778 l
421.68 356.561352 l
426.64 355.500564 l
429.12 356.391999 l
431.6 358.34733 l
434.08 360.850204 l
436.56 362.518514 l
439.04 365.389475 l
441.52 365.067916 l
444 365.45644 l
446.48 370.095965 l
448.96 370.185415 l
451.44 372.845205 l
453.92 371.660383 l
456.4 374.822035 l
458.88 376.214081 l
461.36 377.011554 l
463.84 376.445721 l
466.32 376.010724 l
468.8 375.879095 l
471.28 375.608594 l
473.76 374.77759 l
476.24 374.191493 l
478.72 369.653323 l
481.2 364.882147 l
483.68 359.623146 l
486.16 350.11772 l
486.16 350.11772 l
stroke
grestore
0.502 0.000 0.000 setrgbcolor
gsave
446.4 157.1 72 231.7 clipbox
72 259.412457 m
74.48 264.235395 l
76.96 269.433252 l
79.44 277.742708 l
81.92 280.065637 l
84.4 282.878534 l
86.88 283.939177 l
89.36 279.857383 l
91.84 284.343672 l
94.32 278.574764 l
96.8 276.594005 l
99.28 276.358587 l
101.76 274.464819 l
104.24 276.358587 l
106.72 276.358587 l
109.2 278.134034 l
111.68 278.134034 l
114.16 281.678923 l
116.64 281.678923 l
119.12 278.574764 l
121.6 277.059071 l
124.08 276.417624 l
129.04 276.358587 l
131.52 271.469783 l
134 267.563435 l
136.48 269.130033 l
138.96 271.81858 l
141.44 267.239482 l
143.92 270.103896 l
146.4 267.239482 l
148.88 275.457987 l
151.36 272.231563 l
153.84 272.231563 l
156.32 276.769297 l
158.8 276.594005 l
161.28 279.062553 l
163.76 279.116239 l
166.24 277.059071 l
168.72 277.059071 l
171.2 277.966982 l
173.68 280.93408 l
176.16 277.059071 l
178.64 279.909589 l
181.12 279.27669 l
183.6 282.261057 l
186.08 279.27669 l
191.04 284.209479 l
193.52 283.984406 l
196 286.408837 l
198.48 284.917965 l
200.96 280.065637 l
203.44 276.358587 l
208.4 261.87695 l
210.88 284.343672 l
213.36 286.943264 l
215.84 295.824985 l
218.32 300.486522 l
220.8 304.047453 l
225.76 309.159481 l
228.24 309.159481 l
230.72 313.298089 l
233.2 313.362475 l
235.68 311.928069 l
238.16 311.99563 l
240.64 311.944974 l
243.12 313.314199 l
245.6 309.103505 l
248.08 309.159481 l
250.56 306.112619 l
253.04 304.73087 l
255.52 304.882942 l
258 301.675262 l
262.96 305.313004 l
265.44 305.589095 l
267.92 304.752644 l
270.4 303.209653 l
272.88 300.001895 l
275.36 303.688187 l
277.84 303.484087 l
280.32 302.909329 l
282.8 302.909329 l
285.28 303.301426 l
287.76 301.382705 l
290.24 304.73087 l
292.72 301.235289 l
297.68 303.552283 l
300.16 303.688187 l
302.64 303.688187 l
305.12 302.932544 l
307.6 304.621747 l
310.08 308.840815 l
312.56 310.470867 l
315.04 306.422167 l
317.52 312.130274 l
320 313.951235 l
322.48 313.951235 l
324.96 313.554764 l
327.44 316.938396 l
329.92 316.074738 l
332.4 314.65124 l
334.88 311.381716 l
337.36 306.910538 l
339.84 307.921278 l
342.32 303.91326 l
344.8 294.200168 l
347.28 287.8254 l
349.76 256.831551 l
352.24 259.838331 l
354.72 264.505697 l
357.2 275.579729 l
359.68 277.459855 l
362.16 280.93408 l
364.64 282.309034 l
367.12 281.580731 l
369.6 280.065637 l
372.08 279.27669 l
374.56 280.93408 l
377.04 278.574764 l
379.52 282.309034 l
382 279.27669 l
384.48 280.065637 l
386.96 279.27669 l
389.44 275.335722 l
391.92 272.840003 l
394.4 271.81858 l
396.88 271.469783 l
399.36 275.151333 l
401.84 279.857383 l
404.32 277.059071 l
406.8 274.590879 l
409.28 272.840003 l
411.76 272.840003 l
414.24 274.464819 l
416.72 278.244859 l
419.2 274.147201 l
421.68 269.130033 l
424.16 272.840003 l
426.64 268.121618 l
429.12 269.130033 l
431.6 272.840003 l
434.08 274.903606 l
436.56 274.464819 l
439.04 274.464819 l
441.52 277.059071 l
444 274.464819 l
446.48 276.535333 l
448.96 276.594005 l
451.44 281.922929 l
453.92 281.531508 l
456.4 279.27669 l
458.88 282.689965 l
461.36 284.521616 l
463.84 284.209479 l
466.32 284.521616 l
468.8 283.848502 l
473.76 283.803056 l
476.24 279.116239 l
478.72 277.459855 l
481.2 267.239482 l
483.68 266.329093 l
486.16 263.408717 l
486.16 263.408717 l
stroke
grestore
0 setlinejoin
0.000 setgray
gsave
72 388.8 m
518.4 388.8 l
stroke
grestore
gsave
72 231.709091 m
518.4 231.709091 l
stroke
grestore
gsave
518.4 231.709091 m
518.4 388.8 l
stroke
grestore
gsave
72 231.709091 m
72 388.8 l
stroke
grestore
0.500 setlinewidth
1 setlinejoin
0 setlinecap
gsave
/o {
gsave
newpath
translate
0.5 setlinewidth
1 setlinejoin
0 setlinecap
0 0 m
0 4 l

gsave
0.000 setgray
fill
grestore
stroke
grestore
} bind def
72 231.709 o
grestore
gsave
/o {
gsave
newpath
translate
0.5 setlinewidth
1 setlinejoin
0 setlinecap
0 0 m
0 -4 l

gsave
0.000 setgray
fill
grestore
stroke
grestore
} bind def
72 388.8 o
grestore
/BitstreamVeraSans-Roman findfont
12.000 scalefont
setfont
gsave
68.179688 218.584091 translate
0.000000 rotate
0.000000 0.000000 m /zero glyphshow
grestore
gsave
/o {
gsave
newpath
translate
0.5 setlinewidth
1 setlinejoin
0 setlinecap
0 0 m
0 4 l

gsave
0.000 setgray
fill
grestore
stroke
grestore
} bind def
121.6 231.709 o
grestore
gsave
/o {
gsave
newpath
translate
0.5 setlinewidth
1 setlinejoin
0 setlinecap
0 0 m
0 -4 l

gsave
0.000 setgray
fill
grestore
stroke
grestore
} bind def
121.6 388.8 o
grestore
gsave
113.959375 218.584091 translate
0.000000 rotate
0.000000 0.000000 m /two glyphshow
7.634766 0.000000 m /zero glyphshow
grestore
gsave
/o {
gsave
newpath
translate
0.5 setlinewidth
1 setlinejoin
0 setlinecap
0 0 m
0 4 l

gsave
0.000 setgray
fill
grestore
stroke
grestore
} bind def
171.2 231.709 o
grestore
gsave
/o {
gsave
newpath
translate
0.5 setlinewidth
1 setlinejoin
0 setlinecap
0 0 m
0 -4 l

gsave
0.000 setgray
fill
grestore
stroke
grestore
} bind def
171.2 388.8 o
grestore
gsave
163.559375 218.584091 translate
0.000000 rotate
0.000000 0.000000 m /four glyphshow
7.634766 0.000000 m /zero glyphshow
grestore
gsave
/o {
gsave
newpath
translate
0.5 setlinewidth
1 setlinejoin
0 setlinecap
0 0 m
0 4 l

gsave
0.000 setgray
fill
grestore
stroke
grestore
} bind def
220.8 231.709 o
grestore
gsave
/o {
gsave
newpath
translate
0.5 setlinewidth
1 setlinejoin
0 setlinecap
0 0 m
0 -4 l

gsave
0.000 setgray
fill
grestore
stroke
grestore
} bind def
220.8 388.8 o
grestore
gsave
213.159375 218.584091 translate
0.000000 rotate
0.000000 0.000000 m /six glyphshow
7.634766 0.000000 m /zero glyphshow
grestore
gsave
/o {
gsave
newpath
translate
0.5 setlinewidth
1 setlinejoin
0 setlinecap
0 0 m
0 4 l

gsave
0.000 setgray
fill
grestore
stroke
grestore
} bind def
270.4 231.709 o
grestore
gsave
/o {
gsave
newpath
translate
0.5 setlinewidth
1 setlinejoin
0 setlinecap
0 0 m
0 -4 l

gsave
0.000 setgray
fill
grestore
stroke
grestore
} bind def
270.4 388.8 o
grestore
gsave
262.759375 218.584091 translate
0.000000 rotate
0.000000 0.000000 m /eight glyphshow
7.634766 0.000000 m /zero glyphshow
grestore
gsave
/o {
gsave
newpath
translate
0.5 setlinewidth
1 setlinejoin
0 setlinecap
0 0 m
0 4 l

gsave
0.000 setgray
fill
grestore
stroke
grestore
} bind def
320 231.709 o
grestore
gsave
/o {
gsave
newpath
translate
0.5 setlinewidth
1 setlinejoin
0 setlinecap
0 0 m
0 -4 l

gsave
0.000 setgray
fill
grestore
stroke
grestore
} bind def
320 388.8 o
grestore
gsave
308.539062 218.584091 translate
0.000000 rotate
0.000000 0.000000 m /one glyphshow
7.634766 0.000000 m /zero glyphshow
15.269531 0.000000 m /zero glyphshow
grestore
gsave
/o {
gsave
newpath
translate
0.5 setlinewidth
1 setlinejoin
0 setlinecap
0 0 m
0 4 l

gsave
0.000 setgray
fill
grestore
stroke
grestore
} bind def
369.6 231.709 o
grestore
gsave
/o {
gsave
newpath
translate
0.5 setlinewidth
1 setlinejoin
0 setlinecap
0 0 m
0 -4 l

gsave
0.000 setgray
fill
grestore
stroke
grestore
} bind def
369.6 388.8 o
grestore
gsave
358.139063 218.584091 translate
0.000000 rotate
0.000000 0.000000 m /one glyphshow
7.634766 0.000000 m /two glyphshow
15.269531 0.000000 m /zero glyphshow
grestore
gsave
/o {
gsave
newpath
translate
0.5 setlinewidth
1 setlinejoin
0 setlinecap
0 0 m
0 4 l

gsave
0.000 setgray
fill
grestore
stroke
grestore
} bind def
419.2 231.709 o
grestore
gsave
/o {
gsave
newpath
translate
0.5 setlinewidth
1 setlinejoin
0 setlinecap
0 0 m
0 -4 l

gsave
0.000 setgray
fill
grestore
stroke
grestore
} bind def
419.2 388.8 o
grestore
gsave
407.739062 218.584091 translate
0.000000 rotate
0.000000 0.000000 m /one glyphshow
7.634766 0.000000 m /four glyphshow
15.269531 0.000000 m /zero glyphshow
grestore
gsave
/o {
gsave
newpath
translate
0.5 setlinewidth
1 setlinejoin
0 setlinecap
0 0 m
0 4 l

gsave
0.000 setgray
fill
grestore
stroke
grestore
} bind def
468.8 231.709 o
grestore
gsave
/o {
gsave
newpath
translate
0.5 setlinewidth
1 setlinejoin
0 setlinecap
0 0 m
0 -4 l

gsave
0.000 setgray
fill
grestore
stroke
grestore
} bind def
468.8 388.8 o
grestore
gsave
457.339063 218.584091 translate
0.000000 rotate
0.000000 0.000000 m /one glyphshow
7.634766 0.000000 m /six glyphshow
15.269531 0.000000 m /zero glyphshow
grestore
gsave
/o {
gsave
newpath
translate
0.5 setlinewidth
1 setlinejoin
0 setlinecap
0 0 m
0 4 l

gsave
0.000 setgray
fill
grestore
stroke
grestore
} bind def
518.4 231.709 o
grestore
gsave
/o {
gsave
newpath
translate
0.5 setlinewidth
1 setlinejoin
0 setlinecap
0 0 m
0 -4 l

gsave
0.000 setgray
fill
grestore
stroke
grestore
} bind def
518.4 388.8 o
grestore
gsave
506.939062 218.584091 translate
0.000000 rotate
0.000000 0.000000 m /one glyphshow
7.634766 0.000000 m /eight glyphshow
15.269531 0.000000 m /zero glyphshow
grestore
gsave
278.559375 201.959091 translate
0.000000 rotate
0.000000 0.000000 m /I glyphshow
3.539062 0.000000 m /n glyphshow
11.144531 0.000000 m /d glyphshow
18.761719 0.000000 m /e glyphshow
26.144531 0.000000 m /x glyphshow
grestore
gsave
/o {
gsave
newpath
translate
0.5 setlinewidth
1 setlinejoin
0 setlinecap
0 0 m
4 0 l

gsave
0.000 setgray
fill
grestore
stroke
grestore
} bind def
72 231.709 o
grestore
gsave
/o {
gsave
newpath
translate
0.5 setlinewidth
1 setlinejoin
0 setlinecap
0 0 m
-4 0 l

gsave
0.000 setgray
fill
grestore
stroke
grestore
} bind def
518.4 231.709 o
grestore
gsave
52.718750 228.396591 translate
0.000000 rotate
0.000000 0.000000 m /one glyphshow
7.634766 0.000000 m /zero glyphshow
grestore
gsave
/o {
gsave
newpath
translate
0.5 setlinewidth
1 setlinejoin
0 setlinecap
0 0 m
4 0 l

gsave
0.000 setgray
fill
grestore
stroke
grestore
} bind def
72 257.891 o
grestore
gsave
/o {
gsave
newpath
translate
0.5 setlinewidth
1 setlinejoin
0 setlinecap
0 0 m
-4 0 l

gsave
0.000 setgray
fill
grestore
stroke
grestore
} bind def
518.4 257.891 o
grestore
gsave
52.718750 254.578409 translate
0.000000 rotate
0.000000 0.000000 m /one glyphshow
7.634766 0.000000 m /two glyphshow
grestore
gsave
/o {
gsave
newpath
translate
0.5 setlinewidth
1 setlinejoin
0 setlinecap
0 0 m
4 0 l

gsave
0.000 setgray
fill
grestore
stroke
grestore
} bind def
72 284.073 o
grestore
gsave
/o {
gsave
newpath
translate
0.5 setlinewidth
1 setlinejoin
0 setlinecap
0 0 m
-4 0 l

gsave
0.000 setgray
fill
grestore
stroke
grestore
} bind def
518.4 284.073 o
grestore
gsave
52.718750 280.760227 translate
0.000000 rotate
0.000000 0.000000 m /one glyphshow
7.634766 0.000000 m /four glyphshow
grestore
gsave
/o {
gsave
newpath
translate
0.5 setlinewidth
1 setlinejoin
0 setlinecap
0 0 m
4 0 l

gsave
0.000 setgray
fill
grestore
stroke
grestore
} bind def
72 310.255 o
grestore
gsave
/o {
gsave
newpath
translate
0.5 setlinewidth
1 setlinejoin
0 setlinecap
0 0 m
-4 0 l

gsave
0.000 setgray
fill
grestore
stroke
grestore
} bind def
518.4 310.255 o
grestore
gsave
52.718750 306.942045 translate
0.000000 rotate
0.000000 0.000000 m /one glyphshow
7.634766 0.000000 m /six glyphshow
grestore
gsave
/o {
gsave
newpath
translate
0.5 setlinewidth
1 setlinejoin
0 setlinecap
0 0 m
4 0 l

gsave
0.000 setgray
fill
grestore
stroke
grestore
} bind def
72 336.436 o
grestore
gsave
/o {
gsave
newpath
translate
0.5 setlinewidth
1 setlinejoin
0 setlinecap
0 0 m
-4 0 l

gsave
0.000 setgray
fill
grestore
stroke
grestore
} bind def
518.4 336.436 o
grestore
gsave
52.718750 333.123864 translate
0.000000 rotate
0.000000 0.000000 m /one glyphshow
7.634766 0.000000 m /eight glyphshow
grestore
gsave
/o {
gsave
newpath
translate
0.5 setlinewidth
1 setlinejoin
0 setlinecap
0 0 m
4 0 l

gsave
0.000 setgray
fill
grestore
stroke
grestore
} bind def
72 362.618 o
grestore
gsave
/o {
gsave
newpath
translate
0.5 setlinewidth
1 setlinejoin
0 setlinecap
0 0 m
-4 0 l

gsave
0.000 setgray
fill
grestore
stroke
grestore
} bind def
518.4 362.618 o
grestore
gsave
52.718750 359.305682 translate
0.000000 rotate
0.000000 0.000000 m /two glyphshow
7.634766 0.000000 m /zero glyphshow
grestore
gsave
/o {
gsave
newpath
translate
0.5 setlinewidth
1 setlinejoin
0 setlinecap
0 0 m
4 0 l

gsave
0.000 setgray
fill
grestore
stroke
grestore
} bind def
72 388.8 o
grestore
gsave
/o {
gsave
newpath
translate
0.5 setlinewidth
1 setlinejoin
0 setlinecap
0 0 m
-4 0 l

gsave
0.000 setgray
fill
grestore
stroke
grestore
} bind def
518.4 388.8 o
grestore
gsave
52.718750 385.487500 translate
0.000000 rotate
0.000000 0.000000 m /two glyphshow
7.634766 0.000000 m /two glyphshow
grestore
gsave
45.218750 263.926420 translate
90.000000 rotate
0.000000 0.000000 m /M glyphshow
10.353516 0.000000 m /a glyphshow
17.707031 0.000000 m /g glyphshow
25.324219 0.000000 m /n glyphshow
32.929688 0.000000 m /i glyphshow
36.263672 0.000000 m /t glyphshow
40.968750 0.000000 m /u glyphshow
48.574219 0.000000 m /d glyphshow
56.191406 0.000000 m /e glyphshow
63.574219 0.000000 m /space glyphshow
67.388672 0.000000 m /bracketleft glyphshow
72.070312 0.000000 m /d glyphshow
79.687500 0.000000 m /B glyphshow
87.919922 0.000000 m /bracketright glyphshow
grestore
1.000 setlinewidth
0 setlinejoin
gsave
339.000625 335.78625 m
511.2 335.78625 l
511.2 381.6 l
339.000625 381.6 l
cl
gsave
1.000 setgray
fill
grestore
stroke
grestore
1 setlinejoin
2 setlinecap
1.000 0.000 0.000 setrgbcolor
gsave
349.080625 370.239375 m
369.240625 370.239375 l
stroke
grestore
0.000 setgray
/BitstreamVeraSans-Roman findfont
14.400 scalefont
setfont
gsave
385.080625 365.199375 translate
0.000000 rotate
0.000000 0.000000 m /e glyphshow
8.843994 0.000000 m /r glyphshow
14.754028 0.000000 m /i glyphshow
18.747864 0.000000 m /c glyphshow
26.651306 0.000000 m /h glyphshow
35.762024 0.000000 m /space glyphshow
40.331421 0.000000 m /t glyphshow
45.967712 0.000000 m /x glyphshow
54.474792 0.000000 m /zero glyphshow
63.620605 0.000000 m /comma glyphshow
68.190002 0.000000 m /space glyphshow
72.759399 0.000000 m /r glyphshow
78.669434 0.000000 m /x glyphshow
87.176514 0.000000 m /zero glyphshow
grestore
0.502 0.000 0.000 setrgbcolor
gsave
349.080625 349.4925 m
369.240625 349.4925 l
stroke
grestore
0.000 setgray
gsave
385.080625 344.452500 translate
0.000000 rotate
0.000000 0.000000 m /m glyphshow
14.002991 0.000000 m /i glyphshow
17.996826 0.000000 m /r glyphshow
23.906860 0.000000 m /a glyphshow
32.715759 0.000000 m /n glyphshow
41.826477 0.000000 m /d glyphshow
50.951233 0.000000 m /a glyphshow
59.760132 0.000000 m /space glyphshow
64.329529 0.000000 m /t glyphshow
69.965820 0.000000 m /x glyphshow
78.472900 0.000000 m /zero glyphshow
87.618713 0.000000 m /comma glyphshow
92.188110 0.000000 m /space glyphshow
96.757507 0.000000 m /r glyphshow
102.667542 0.000000 m /x glyphshow
111.174622 0.000000 m /zero glyphshow
grestore
gsave
72 43.2 m
518.4 43.2 l
518.4 200.290909 l
72 200.290909 l
cl
1.000 setgray
fill
grestore
1.000 0.000 0.000 setrgbcolor
gsave
446.4 157.1 72 43.2 clipbox
72 81.796374 m
74.48 77.846973 l
76.96 75.478363 l
79.44 71.946694 l
81.92 68.006601 l
84.4 64.07442 l
86.88 183.43491 l
89.36 179.558779 l
91.84 177.487353 l
94.32 175.650245 l
96.8 173.560898 l
99.28 169.997849 l
101.76 168.012546 l
104.24 165.839641 l
106.72 164.372987 l
109.2 163.202056 l
111.68 161.694535 l
114.16 162.103567 l
116.64 160.14242 l
119.12 158.760554 l
121.6 158.231346 l
124.08 157.601037 l
126.56 156.543318 l
129.04 156.543318 l
131.52 156.229742 l
134 155.321521 l
136.48 155.321521 l
138.96 154.889772 l
141.44 154.845941 l
143.92 154.308273 l
146.4 154.250314 l
148.88 153.897339 l
151.36 153.855291 l
153.84 154.121164 l
156.32 154.425726 l
158.8 153.176169 l
161.28 152.883241 l
163.76 152.037192 l
166.24 151.485077 l
168.72 150.762749 l
171.2 150.762749 l
173.68 149.55439 l
176.16 149.102839 l
178.64 148.02361 l
181.12 145.822562 l
183.6 145.600467 l
186.08 143.903561 l
188.56 142.056541 l
191.04 140.72828 l
193.52 138.14882 l
196 135.561871 l
198.48 131.820046 l
200.96 129.315152 l
203.44 126.26613 l
205.92 122.665236 l
208.4 119.611743 l
stroke
grestore
0.502 0.000 0.000 setrgbcolor
gsave
446.4 157.1 72 43.2 clipbox
72 148.950623 m
74.48 146.973172 l
76.96 148.515711 l
79.44 145.442959 l
81.92 145.741588 l
84.4 143.485829 l
86.88 142.784829 l
89.36 141.978309 l
91.84 141.043949 l
94.32 139.609698 l
96.8 139.062213 l
99.28 137.80103 l
101.76 137.167818 l
104.24 136.534607 l
106.72 136.534607 l
109.2 137.167818 l
111.68 137.167818 l
114.16 138.321569 l
116.64 138.321569 l
119.12 139.609698 l
121.6 140.307931 l
124.08 142.285102 l
126.56 142.285102 l
129.04 144.286869 l
131.52 143.485829 l
134 143.953274 l
136.48 145.307226 l
138.96 145.658735 l
141.44 147.269772 l
143.92 147.53728 l
146.4 147.269772 l
148.88 148.000316 l
151.36 148.714051 l
153.84 148.714051 l
156.32 150.809952 l
158.8 151.698234 l
161.28 152.590182 l
163.76 153.4434 l
166.24 155.251454 l
168.72 155.251454 l
171.2 156.97845 l
173.68 157.601037 l
176.16 155.251454 l
178.64 155.971384 l
181.12 154.293408 l
183.6 155.833102 l
186.08 154.293408 l
188.56 154.222774 l
191.04 150.245033 l
193.52 151.022612 l
196 150.334424 l
198.48 148.714051 l
200.96 145.741588 l
203.44 144.286869 l
205.92 145.307226 l
208.4 142.969202 l
stroke
grestore
1.000 0.000 0.000 setrgbcolor
gsave
446.4 157.1 72 43.2 clipbox
72 81.796374 m
74.48 77.846973 l
76.96 75.478363 l
79.44 71.946694 l
81.92 68.006601 l
84.4 64.07442 l
86.88 183.43491 l
89.36 179.558779 l
91.84 177.487353 l
94.32 175.650245 l
96.8 173.560898 l
99.28 169.997849 l
101.76 168.012546 l
104.24 165.839641 l
106.72 164.372987 l
109.2 163.202056 l
111.68 161.694535 l
114.16 162.103567 l
116.64 160.14242 l
119.12 158.760554 l
121.6 158.231346 l
124.08 157.601037 l
126.56 156.543318 l
129.04 156.543318 l
131.52 156.229742 l
134 155.321521 l
136.48 155.321521 l
138.96 154.889772 l
141.44 154.845941 l
143.92 154.308273 l
146.4 154.250314 l
148.88 153.897339 l
151.36 153.855291 l
153.84 154.121164 l
156.32 154.425726 l
158.8 153.176169 l
161.28 152.883241 l
163.76 152.037192 l
166.24 151.485077 l
168.72 150.762749 l
171.2 150.762749 l
173.68 149.55439 l
176.16 149.102839 l
178.64 148.02361 l
181.12 145.822562 l
183.6 145.600467 l
186.08 143.903561 l
188.56 142.056541 l
191.04 140.72828 l
193.52 138.14882 l
196 135.561871 l
198.48 131.820046 l
200.96 129.315152 l
203.44 126.26613 l
205.92 122.665236 l
208.4 119.611743 l
210.88 116.484668 l
213.36 116.851049 l
215.84 117.01078 l
218.32 117.516612 l
220.8 120.591704 l
223.28 122.598672 l
225.76 123.525685 l
228.24 123.670707 l
230.72 123.639849 l
233.2 126.175443 l
235.68 127.863101 l
238.16 132.020738 l
240.64 135.346422 l
243.12 137.646659 l
245.6 142.730957 l
248.08 144.92008 l
250.56 148.032507 l
253.04 151.138289 l
255.52 153.303918 l
258 158.37761 l
260.48 163.593613 l
262.96 168.479991 l
265.44 171.523392 l
267.92 176.8085 l
270.4 180.604242 l
272.88 60.362792 l
275.36 64.717166 l
277.84 70.321675 l
280.32 79.730623 l
282.8 84.238254 l
285.28 88.970984 l
287.76 93.277261 l
290.24 98.183683 l
292.72 102.104897 l
295.2 107.320691 l
297.68 111.094071 l
300.16 115.356555 l
302.64 119.548337 l
305.12 124.562335 l
307.6 128.666441 l
310.08 133.687756 l
312.56 137.167818 l
315.04 140.54902 l
317.52 144.085881 l
320 147.825465 l
322.48 151.49023 l
324.96 154.639849 l
327.44 157.491162 l
329.92 159.853792 l
332.4 162.853143 l
334.88 165.636012 l
337.36 167.61186 l
339.84 168.462155 l
342.32 170.70943 l
344.8 172.519629 l
347.28 174.061583 l
stroke
grestore
0.502 0.000 0.000 setrgbcolor
gsave
446.4 157.1 72 43.2 clipbox
72 148.950623 m
74.48 146.973172 l
76.96 148.515711 l
79.44 145.442959 l
81.92 145.741588 l
84.4 143.485829 l
86.88 142.784829 l
89.36 141.978309 l
91.84 141.043949 l
94.32 139.609698 l
96.8 139.062213 l
99.28 137.80103 l
101.76 137.167818 l
104.24 136.534607 l
106.72 136.534607 l
109.2 137.167818 l
111.68 137.167818 l
114.16 138.321569 l
116.64 138.321569 l
119.12 139.609698 l
121.6 140.307931 l
124.08 142.285102 l
126.56 142.285102 l
129.04 144.286869 l
131.52 143.485829 l
134 143.953274 l
136.48 145.307226 l
138.96 145.658735 l
141.44 147.269772 l
143.92 147.53728 l
146.4 147.269772 l
148.88 148.000316 l
151.36 148.714051 l
153.84 148.714051 l
156.32 150.809952 l
158.8 151.698234 l
161.28 152.590182 l
163.76 153.4434 l
166.24 155.251454 l
168.72 155.251454 l
171.2 156.97845 l
173.68 157.601037 l
176.16 155.251454 l
178.64 155.971384 l
181.12 154.293408 l
183.6 155.833102 l
186.08 154.293408 l
188.56 154.222774 l
191.04 150.245033 l
193.52 151.022612 l
196 150.334424 l
198.48 148.714051 l
200.96 145.741588 l
203.44 144.286869 l
205.92 145.307226 l
208.4 142.969202 l
210.88 133.291687 l
213.36 131.847408 l
215.84 131.703025 l
218.32 127.693012 l
220.8 125.621586 l
223.28 124.383039 l
225.76 122.751566 l
228.24 122.751566 l
230.72 121.745455 l
233.2 120.811095 l
235.68 121.745455 l
238.16 120.788342 l
240.64 121.266614 l
243.12 121.27801 l
245.6 122.248841 l
248.08 122.751566 l
250.56 121.214871 l
253.04 123.378046 l
255.52 123.91836 l
258 124.045044 l
260.48 124.531797 l
262.96 124.988374 l
265.44 125.516579 l
267.92 126.68773 l
270.4 126.826774 l
272.88 127.129106 l
275.36 129.114409 l
277.84 130.352791 l
280.32 132.357328 l
282.8 132.357328 l
285.28 133.600896 l
287.76 135.535227 l
290.24 136.014068 l
292.72 136.35011 l
295.2 137.568505 l
297.68 137.952855 l
300.16 138.735389 l
302.64 138.735389 l
305.12 139.954161 l
307.6 141.043949 l
310.08 140.763449 l
312.56 141.725494 l
315.04 142.068798 l
317.52 143.69926 l
320 143.485829 l
322.48 143.485829 l
324.96 141.818667 l
327.44 142.504828 l
329.92 141.290935 l
332.4 140.410738 l
334.88 139.567287 l
337.36 136.057511 l
339.84 136.440878 l
342.32 134.822669 l
344.8 132.020738 l
347.28 130.849808 l
stroke
grestore
1.000 0.000 0.000 setrgbcolor
gsave
446.4 157.1 72 43.2 clipbox
72 81.796374 m
74.48 77.846973 l
76.96 75.478363 l
79.44 71.946694 l
84.4 64.07442 l
86.88 183.43491 l
89.36 179.558779 l
91.84 177.487353 l
94.32 175.650245 l
96.8 173.560898 l
99.28 169.997849 l
101.76 168.012546 l
104.24 165.839641 l
106.72 164.372987 l
109.2 163.202056 l
111.68 161.694535 l
114.16 162.103567 l
116.64 160.14242 l
119.12 158.760554 l
124.08 157.601037 l
126.56 156.543318 l
129.04 156.543318 l
131.52 156.229742 l
134 155.321521 l
136.48 155.321521 l
138.96 154.889772 l
141.44 154.845941 l
143.92 154.308273 l
146.4 154.250314 l
148.88 153.897339 l
151.36 153.855291 l
156.32 154.425726 l
158.8 153.176169 l
161.28 152.883241 l
163.76 152.037192 l
166.24 151.485077 l
168.72 150.762749 l
171.2 150.762749 l
173.68 149.55439 l
176.16 149.102839 l
178.64 148.02361 l
181.12 145.822562 l
183.6 145.600467 l
186.08 143.903561 l
188.56 142.056541 l
191.04 140.72828 l
196 135.561871 l
198.48 131.820046 l
200.96 129.315152 l
203.44 126.26613 l
205.92 122.665236 l
210.88 116.484668 l
213.36 116.851049 l
215.84 117.01078 l
218.32 117.516612 l
220.8 120.591704 l
223.28 122.598672 l
225.76 123.525685 l
228.24 123.670707 l
230.72 123.639849 l
233.2 126.175443 l
235.68 127.863101 l
238.16 132.020738 l
240.64 135.346422 l
243.12 137.646659 l
245.6 142.730957 l
248.08 144.92008 l
253.04 151.138289 l
255.52 153.303918 l
262.96 168.479991 l
265.44 171.523392 l
267.92 176.8085 l
270.4 180.604242 l
272.88 60.362792 l
275.36 64.717166 l
277.84 70.321675 l
280.32 79.730623 l
287.76 93.277261 l
290.24 98.183683 l
292.72 102.104897 l
295.2 107.320691 l
297.68 111.094071 l
302.64 119.548337 l
305.12 124.562335 l
307.6 128.666441 l
310.08 133.687756 l
317.52 144.085881 l
322.48 151.49023 l
324.96 154.639849 l
327.44 157.491162 l
329.92 159.853792 l
332.4 162.853143 l
334.88 165.636012 l
337.36 167.61186 l
339.84 168.462155 l
342.32 170.70943 l
344.8 172.519629 l
347.28 174.061583 l
349.76 173.796366 l
352.24 170.628635 l
354.72 168.767419 l
357.2 165.839641 l
359.68 163.753937 l
362.16 162.103567 l
364.64 160.061944 l
367.12 159.858991 l
369.6 156.755914 l
372.08 154.293408 l
374.56 152.590182 l
377.04 151.815465 l
379.52 152.029296 l
382 150.633053 l
384.48 152.044868 l
389.44 152.029296 l
391.92 151.670401 l
394.4 149.723033 l
396.88 151.453115 l
399.36 152.317473 l
401.84 152.855523 l
404.32 154.998949 l
406.8 154.998949 l
409.28 156.521011 l
411.76 155.971384 l
414.24 156.967132 l
416.72 158.83058 l
419.2 160.509164 l
421.68 161.889916 l
424.16 163.769423 l
426.64 164.692013 l
429.12 164.744158 l
431.6 166.964272 l
434.08 167.296209 l
436.56 168.986602 l
439.04 169.601209 l
441.52 170.949356 l
446.48 172.557297 l
448.96 173.176807 l
451.44 172.935565 l
453.92 173.656291 l
456.4 173.692777 l
463.84 175.01927 l
466.32 174.261171 l
468.8 173.356502 l
471.28 171.455274 l
473.76 170.259738 l
476.24 169.259423 l
478.72 167.521739 l
481.2 167.078187 l
483.68 164.480878 l
486.16 163.118141 l
486.16 163.118141 l
stroke
grestore
0.502 0.000 0.000 setrgbcolor
gsave
446.4 157.1 72 43.2 clipbox
72 148.950623 m
74.48 146.973172 l
76.96 148.515711 l
79.44 145.442959 l
81.92 145.741588 l
84.4 143.485829 l
89.36 141.978309 l
91.84 141.043949 l
94.32 139.609698 l
96.8 139.062213 l
99.28 137.80103 l
104.24 136.534607 l
106.72 136.534607 l
109.2 137.167818 l
111.68 137.167818 l
114.16 138.321569 l
116.64 138.321569 l
119.12 139.609698 l
121.6 140.307931 l
124.08 142.285102 l
126.56 142.285102 l
129.04 144.286869 l
131.52 143.485829 l
134 143.953274 l
136.48 145.307226 l
138.96 145.658735 l
141.44 147.269772 l
143.92 147.53728 l
146.4 147.269772 l
151.36 148.714051 l
153.84 148.714051 l
156.32 150.809952 l
163.76 153.4434 l
166.24 155.251454 l
168.72 155.251454 l
171.2 156.97845 l
173.68 157.601037 l
176.16 155.251454 l
178.64 155.971384 l
181.12 154.293408 l
183.6 155.833102 l
186.08 154.293408 l
188.56 154.222774 l
191.04 150.245033 l
193.52 151.022612 l
196 150.334424 l
198.48 148.714051 l
200.96 145.741588 l
203.44 144.286869 l
205.92 145.307226 l
208.4 142.969202 l
210.88 133.291687 l
213.36 131.847408 l
215.84 131.703025 l
218.32 127.693012 l
220.8 125.621586 l
223.28 124.383039 l
225.76 122.751566 l
228.24 122.751566 l
233.2 120.811095 l
235.68 121.745455 l
238.16 120.788342 l
240.64 121.266614 l
243.12 121.27801 l
245.6 122.248841 l
248.08 122.751566 l
250.56 121.214871 l
253.04 123.378046 l
255.52 123.91836 l
258 124.045044 l
265.44 125.516579 l
267.92 126.68773 l
270.4 126.826774 l
272.88 127.129106 l
275.36 129.114409 l
277.84 130.352791 l
280.32 132.357328 l
282.8 132.357328 l
285.28 133.600896 l
287.76 135.535227 l
290.24 136.014068 l
292.72 136.35011 l
295.2 137.568505 l
297.68 137.952855 l
300.16 138.735389 l
302.64 138.735389 l
305.12 139.954161 l
307.6 141.043949 l
310.08 140.763449 l
312.56 141.725494 l
315.04 142.068798 l
317.52 143.69926 l
320 143.485829 l
322.48 143.485829 l
324.96 141.818667 l
327.44 142.504828 l
329.92 141.290935 l
334.88 139.567287 l
337.36 136.057511 l
339.84 136.440878 l
342.32 134.822669 l
344.8 132.020738 l
347.28 130.849808 l
349.76 168.012546 l
352.24 165.46566 l
354.72 165.667397 l
357.2 164.136415 l
359.68 161.694535 l
362.16 160.21535 l
364.64 159.163197 l
367.12 158.391566 l
369.6 159.438777 l
372.08 158.639219 l
374.56 157.601037 l
377.04 157.818404 l
379.52 159.163197 l
382 158.639219 l
384.48 159.438777 l
386.96 158.639219 l
389.44 160.061944 l
391.92 160.415714 l
394.4 159.52163 l
396.88 161.694535 l
399.36 162.103567 l
401.84 163.202056 l
404.32 164.872434 l
406.8 166.70539 l
409.28 165.988398 l
411.76 165.988398 l
414.24 168.012546 l
416.72 169.238225 l
421.68 176.151954 l
424.16 175.609379 l
426.64 177.116899 l
429.12 176.151954 l
431.6 178.62442 l
434.08 179.738924 l
436.56 180.648568 l
439.04 180.648568 l
441.52 180.773639 l
444 180.648568 l
446.48 183.43491 l
448.96 182.542962 l
451.44 62.497879 l
453.92 60.873708 l
456.4 61.759224 l
458.88 64.089217 l
461.36 63.171411 l
463.84 62.401149 l
466.32 63.171411 l
468.8 60.841035 l
471.28 60.841035 l
473.76 183.43491 l
476.24 182.581693 l
478.72 179.903242 l
481.2 178.114499 l
483.68 175.764808 l
486.16 175.336669 l
486.16 175.336669 l
stroke
grestore
0 setlinejoin
0.000 setgray
gsave
72 200.290909 m
518.4 200.290909 l
stroke
grestore
gsave
72 43.2 m
518.4 43.2 l
stroke
grestore
gsave
518.4 43.2 m
518.4 200.290909 l
stroke
grestore
gsave
72 43.2 m
72 200.290909 l
stroke
grestore
0.500 setlinewidth
1 setlinejoin
0 setlinecap
gsave
/o {
gsave
newpath
translate
0.5 setlinewidth
1 setlinejoin
0 setlinecap
0 0 m
0 4 l

gsave
0.000 setgray
fill
grestore
stroke
grestore
} bind def
72 43.2 o
grestore
gsave
/o {
gsave
newpath
translate
0.5 setlinewidth
1 setlinejoin
0 setlinecap
0 0 m
0 -4 l

gsave
0.000 setgray
fill
grestore
stroke
grestore
} bind def
72 200.291 o
grestore
/BitstreamVeraSans-Roman findfont
12.000 scalefont
setfont
gsave
68.179688 30.075000 translate
0.000000 rotate
0.000000 0.000000 m /zero glyphshow
grestore
gsave
/o {
gsave
newpath
translate
0.5 setlinewidth
1 setlinejoin
0 setlinecap
0 0 m
0 4 l

gsave
0.000 setgray
fill
grestore
stroke
grestore
} bind def
121.6 43.2 o
grestore
gsave
/o {
gsave
newpath
translate
0.5 setlinewidth
1 setlinejoin
0 setlinecap
0 0 m
0 -4 l

gsave
0.000 setgray
fill
grestore
stroke
grestore
} bind def
121.6 200.291 o
grestore
gsave
113.959375 30.075000 translate
0.000000 rotate
0.000000 0.000000 m /two glyphshow
7.634766 0.000000 m /zero glyphshow
grestore
gsave
/o {
gsave
newpath
translate
0.5 setlinewidth
1 setlinejoin
0 setlinecap
0 0 m
0 4 l

gsave
0.000 setgray
fill
grestore
stroke
grestore
} bind def
171.2 43.2 o
grestore
gsave
/o {
gsave
newpath
translate
0.5 setlinewidth
1 setlinejoin
0 setlinecap
0 0 m
0 -4 l

gsave
0.000 setgray
fill
grestore
stroke
grestore
} bind def
171.2 200.291 o
grestore
gsave
163.559375 30.075000 translate
0.000000 rotate
0.000000 0.000000 m /four glyphshow
7.634766 0.000000 m /zero glyphshow
grestore
gsave
/o {
gsave
newpath
translate
0.5 setlinewidth
1 setlinejoin
0 setlinecap
0 0 m
0 4 l

gsave
0.000 setgray
fill
grestore
stroke
grestore
} bind def
220.8 43.2 o
grestore
gsave
/o {
gsave
newpath
translate
0.5 setlinewidth
1 setlinejoin
0 setlinecap
0 0 m
0 -4 l

gsave
0.000 setgray
fill
grestore
stroke
grestore
} bind def
220.8 200.291 o
grestore
gsave
213.159375 30.075000 translate
0.000000 rotate
0.000000 0.000000 m /six glyphshow
7.634766 0.000000 m /zero glyphshow
grestore
gsave
/o {
gsave
newpath
translate
0.5 setlinewidth
1 setlinejoin
0 setlinecap
0 0 m
0 4 l

gsave
0.000 setgray
fill
grestore
stroke
grestore
} bind def
270.4 43.2 o
grestore
gsave
/o {
gsave
newpath
translate
0.5 setlinewidth
1 setlinejoin
0 setlinecap
0 0 m
0 -4 l

gsave
0.000 setgray
fill
grestore
stroke
grestore
} bind def
270.4 200.291 o
grestore
gsave
262.759375 30.075000 translate
0.000000 rotate
0.000000 0.000000 m /eight glyphshow
7.634766 0.000000 m /zero glyphshow
grestore
gsave
/o {
gsave
newpath
translate
0.5 setlinewidth
1 setlinejoin
0 setlinecap
0 0 m
0 4 l

gsave
0.000 setgray
fill
grestore
stroke
grestore
} bind def
320 43.2 o
grestore
gsave
/o {
gsave
newpath
translate
0.5 setlinewidth
1 setlinejoin
0 setlinecap
0 0 m
0 -4 l

gsave
0.000 setgray
fill
grestore
stroke
grestore
} bind def
320 200.291 o
grestore
gsave
308.539062 30.075000 translate
0.000000 rotate
0.000000 0.000000 m /one glyphshow
7.634766 0.000000 m /zero glyphshow
15.269531 0.000000 m /zero glyphshow
grestore
gsave
/o {
gsave
newpath
translate
0.5 setlinewidth
1 setlinejoin
0 setlinecap
0 0 m
0 4 l

gsave
0.000 setgray
fill
grestore
stroke
grestore
} bind def
369.6 43.2 o
grestore
gsave
/o {
gsave
newpath
translate
0.5 setlinewidth
1 setlinejoin
0 setlinecap
0 0 m
0 -4 l

gsave
0.000 setgray
fill
grestore
stroke
grestore
} bind def
369.6 200.291 o
grestore
gsave
358.139063 30.075000 translate
0.000000 rotate
0.000000 0.000000 m /one glyphshow
7.634766 0.000000 m /two glyphshow
15.269531 0.000000 m /zero glyphshow
grestore
gsave
/o {
gsave
newpath
translate
0.5 setlinewidth
1 setlinejoin
0 setlinecap
0 0 m
0 4 l

gsave
0.000 setgray
fill
grestore
stroke
grestore
} bind def
419.2 43.2 o
grestore
gsave
/o {
gsave
newpath
translate
0.5 setlinewidth
1 setlinejoin
0 setlinecap
0 0 m
0 -4 l

gsave
0.000 setgray
fill
grestore
stroke
grestore
} bind def
419.2 200.291 o
grestore
gsave
407.739062 30.075000 translate
0.000000 rotate
0.000000 0.000000 m /one glyphshow
7.634766 0.000000 m /four glyphshow
15.269531 0.000000 m /zero glyphshow
grestore
gsave
/o {
gsave
newpath
translate
0.5 setlinewidth
1 setlinejoin
0 setlinecap
0 0 m
0 4 l

gsave
0.000 setgray
fill
grestore
stroke
grestore
} bind def
468.8 43.2 o
grestore
gsave
/o {
gsave
newpath
translate
0.5 setlinewidth
1 setlinejoin
0 setlinecap
0 0 m
0 -4 l

gsave
0.000 setgray
fill
grestore
stroke
grestore
} bind def
468.8 200.291 o
grestore
gsave
457.339063 30.075000 translate
0.000000 rotate
0.000000 0.000000 m /one glyphshow
7.634766 0.000000 m /six glyphshow
15.269531 0.000000 m /zero glyphshow
grestore
gsave
/o {
gsave
newpath
translate
0.5 setlinewidth
1 setlinejoin
0 setlinecap
0 0 m
0 4 l

gsave
0.000 setgray
fill
grestore
stroke
grestore
} bind def
518.4 43.2 o
grestore
gsave
/o {
gsave
newpath
translate
0.5 setlinewidth
1 setlinejoin
0 setlinecap
0 0 m
0 -4 l

gsave
0.000 setgray
fill
grestore
stroke
grestore
} bind def
518.4 200.291 o
grestore
gsave
506.939062 30.075000 translate
0.000000 rotate
0.000000 0.000000 m /one glyphshow
7.634766 0.000000 m /eight glyphshow
15.269531 0.000000 m /zero glyphshow
grestore
gsave
278.559375 13.450000 translate
0.000000 rotate
0.000000 0.000000 m /I glyphshow
3.539062 0.000000 m /n glyphshow
11.144531 0.000000 m /d glyphshow
18.761719 0.000000 m /e glyphshow
26.144531 0.000000 m /x glyphshow
grestore
gsave
/o {
gsave
newpath
translate
0.5 setlinewidth
1 setlinejoin
0 setlinecap
0 0 m
4 0 l

gsave
0.000 setgray
fill
grestore
stroke
grestore
} bind def
72 43.2 o
grestore
gsave
/o {
gsave
newpath
translate
0.5 setlinewidth
1 setlinejoin
0 setlinecap
0 0 m
-4 0 l

gsave
0.000 setgray
fill
grestore
stroke
grestore
} bind def
518.4 43.2 o
grestore
gsave
50.296875 39.887500 translate
0.000000 rotate
0.000000 0.000000 m /minus glyphshow
10.054688 0.000000 m /four glyphshow
grestore
gsave
/o {
gsave
newpath
translate
0.5 setlinewidth
1 setlinejoin
0 setlinecap
0 0 m
4 0 l

gsave
0.000 setgray
fill
grestore
stroke
grestore
} bind def
72 62.8364 o
grestore
gsave
/o {
gsave
newpath
translate
0.5 setlinewidth
1 setlinejoin
0 setlinecap
0 0 m
-4 0 l

gsave
0.000 setgray
fill
grestore
stroke
grestore
} bind def
518.4 62.8364 o
grestore
gsave
50.296875 59.523864 translate
0.000000 rotate
0.000000 0.000000 m /minus glyphshow
10.054688 0.000000 m /three glyphshow
grestore
gsave
/o {
gsave
newpath
translate
0.5 setlinewidth
1 setlinejoin
0 setlinecap
0 0 m
4 0 l

gsave
0.000 setgray
fill
grestore
stroke
grestore
} bind def
72 82.4727 o
grestore
gsave
/o {
gsave
newpath
translate
0.5 setlinewidth
1 setlinejoin
0 setlinecap
0 0 m
-4 0 l

gsave
0.000 setgray
fill
grestore
stroke
grestore
} bind def
518.4 82.4727 o
grestore
gsave
50.296875 79.160227 translate
0.000000 rotate
0.000000 0.000000 m /minus glyphshow
10.054688 0.000000 m /two glyphshow
grestore
gsave
/o {
gsave
newpath
translate
0.5 setlinewidth
1 setlinejoin
0 setlinecap
0 0 m
4 0 l

gsave
0.000 setgray
fill
grestore
stroke
grestore
} bind def
72 102.109 o
grestore
gsave
/o {
gsave
newpath
translate
0.5 setlinewidth
1 setlinejoin
0 setlinecap
0 0 m
-4 0 l

gsave
0.000 setgray
fill
grestore
stroke
grestore
} bind def
518.4 102.109 o
grestore
gsave
50.296875 98.796591 translate
0.000000 rotate
0.000000 0.000000 m /minus glyphshow
10.054688 0.000000 m /one glyphshow
grestore
gsave
/o {
gsave
newpath
translate
0.5 setlinewidth
1 setlinejoin
0 setlinecap
0 0 m
4 0 l

gsave
0.000 setgray
fill
grestore
stroke
grestore
} bind def
72 121.745 o
grestore
gsave
/o {
gsave
newpath
translate
0.5 setlinewidth
1 setlinejoin
0 setlinecap
0 0 m
-4 0 l

gsave
0.000 setgray
fill
grestore
stroke
grestore
} bind def
518.4 121.745 o
grestore
gsave
60.359375 118.432955 translate
0.000000 rotate
0.000000 0.000000 m /zero glyphshow
grestore
gsave
/o {
gsave
newpath
translate
0.5 setlinewidth
1 setlinejoin
0 setlinecap
0 0 m
4 0 l

gsave
0.000 setgray
fill
grestore
stroke
grestore
} bind def
72 141.382 o
grestore
gsave
/o {
gsave
newpath
translate
0.5 setlinewidth
1 setlinejoin
0 setlinecap
0 0 m
-4 0 l

gsave
0.000 setgray
fill
grestore
stroke
grestore
} bind def
518.4 141.382 o
grestore
gsave
60.359375 138.069318 translate
0.000000 rotate
0.000000 0.000000 m /one glyphshow
grestore
gsave
/o {
gsave
newpath
translate
0.5 setlinewidth
1 setlinejoin
0 setlinecap
0 0 m
4 0 l

gsave
0.000 setgray
fill
grestore
stroke
grestore
} bind def
72 161.018 o
grestore
gsave
/o {
gsave
newpath
translate
0.5 setlinewidth
1 setlinejoin
0 setlinecap
0 0 m
-4 0 l

gsave
0.000 setgray
fill
grestore
stroke
grestore
} bind def
518.4 161.018 o
grestore
gsave
60.359375 157.705682 translate
0.000000 rotate
0.000000 0.000000 m /two glyphshow
grestore
gsave
/o {
gsave
newpath
translate
0.5 setlinewidth
1 setlinejoin
0 setlinecap
0 0 m
4 0 l

gsave
0.000 setgray
fill
grestore
stroke
grestore
} bind def
72 180.655 o
grestore
gsave
/o {
gsave
newpath
translate
0.5 setlinewidth
1 setlinejoin
0 setlinecap
0 0 m
-4 0 l

gsave
0.000 setgray
fill
grestore
stroke
grestore
} bind def
518.4 180.655 o
grestore
gsave
60.359375 177.342045 translate
0.000000 rotate
0.000000 0.000000 m /three glyphshow
grestore
gsave
/o {
gsave
newpath
translate
0.5 setlinewidth
1 setlinejoin
0 setlinecap
0 0 m
4 0 l

gsave
0.000 setgray
fill
grestore
stroke
grestore
} bind def
72 200.291 o
grestore
gsave
/o {
gsave
newpath
translate
0.5 setlinewidth
1 setlinejoin
0 setlinecap
0 0 m
-4 0 l

gsave
0.000 setgray
fill
grestore
stroke
grestore
} bind def
518.4 200.291 o
grestore
gsave
60.359375 196.978409 translate
0.000000 rotate
0.000000 0.000000 m /four glyphshow
grestore
gsave
42.796875 87.268892 translate
90.000000 rotate
0.000000 0.000000 m /P glyphshow
7.236328 0.000000 m /h glyphshow
14.841797 0.000000 m /a glyphshow
22.195312 0.000000 m /s glyphshow
28.447266 0.000000 m /e glyphshow
35.830078 0.000000 m /space glyphshow
39.644531 0.000000 m /bracketleft glyphshow
44.326172 0.000000 m /r glyphshow
49.259766 0.000000 m /a glyphshow
56.613281 0.000000 m /d glyphshow
64.230469 0.000000 m /bracketright glyphshow
grestore
1.000 setlinewidth
0 setlinejoin
gsave
339.000625 147.277159 m
511.2 147.277159 l
511.2 193.090909 l
339.000625 193.090909 l
cl
gsave
1.000 setgray
fill
grestore
stroke
grestore
1 setlinejoin
2 setlinecap
1.000 0.000 0.000 setrgbcolor
gsave
349.080625 181.730284 m
369.240625 181.730284 l
stroke
grestore
0.000 setgray
/BitstreamVeraSans-Roman findfont
14.400 scalefont
setfont
gsave
385.080625 176.690284 translate
0.000000 rotate
0.000000 0.000000 m /e glyphshow
8.843994 0.000000 m /r glyphshow
14.754028 0.000000 m /i glyphshow
18.747864 0.000000 m /c glyphshow
26.651306 0.000000 m /h glyphshow
35.762024 0.000000 m /space glyphshow
40.331421 0.000000 m /t glyphshow
45.967712 0.000000 m /x glyphshow
54.474792 0.000000 m /zero glyphshow
63.620605 0.000000 m /comma glyphshow
68.190002 0.000000 m /space glyphshow
72.759399 0.000000 m /r glyphshow
78.669434 0.000000 m /x glyphshow
87.176514 0.000000 m /zero glyphshow
grestore
0.502 0.000 0.000 setrgbcolor
gsave
349.080625 160.983409 m
369.240625 160.983409 l
stroke
grestore
0.000 setgray
gsave
385.080625 155.943409 translate
0.000000 rotate
0.000000 0.000000 m /m glyphshow
14.002991 0.000000 m /i glyphshow
17.996826 0.000000 m /r glyphshow
23.906860 0.000000 m /a glyphshow
32.715759 0.000000 m /n glyphshow
41.826477 0.000000 m /d glyphshow
50.951233 0.000000 m /a glyphshow
59.760132 0.000000 m /space glyphshow
64.329529 0.000000 m /t glyphshow
69.965820 0.000000 m /x glyphshow
78.472900 0.000000 m /zero glyphshow
87.618713 0.000000 m /comma glyphshow
92.188110 0.000000 m /space glyphshow
96.757507 0.000000 m /r glyphshow
102.667542 0.000000 m /x glyphshow
111.174622 0.000000 m /zero glyphshow
grestore

end
showpage
