%!PS-Adobe-3.0 EPSF-3.0
%%Title: plot3D_e_rx_idx0_tx_idx0_m_rx_idx0_tx_idx0.eps
%%Creator: matplotlib version 1.5.1, http://matplotlib.org/
%%CreationDate: Wed Feb 15 19:35:30 2017
%%Orientation: portrait
%%BoundingBox: 18 180 594 612
%%EndComments
%%BeginProlog
/mpldict 8 dict def
mpldict begin
/m { moveto } bind def
/l { lineto } bind def
/r { rlineto } bind def
/c { curveto } bind def
/cl { closepath } bind def
/box {
m
1 index 0 r
0 exch r
neg 0 r
cl
} bind def
/clipbox {
box
clip
newpath
} bind def
%!PS-Adobe-3.0 Resource-Font
%%Title: Bitstream Vera Sans
%%Copyright: Copyright (c) 2003 by Bitstream, Inc. All Rights Reserved.
%%Creator: Converted from TrueType to type 3 by PPR
25 dict begin
/_d{bind def}bind def
/_m{moveto}_d
/_l{lineto}_d
/_cl{closepath eofill}_d
/_c{curveto}_d
/_sc{7 -1 roll{setcachedevice}{pop pop pop pop pop pop}ifelse}_d
/_e{exec}_d
/FontName /BitstreamVeraSans-Roman def
/PaintType 0 def
/FontMatrix[.001 0 0 .001 0 0]def
/FontBBox[-183 -236 1287 928]def
/FontType 3 def
/Encoding [ /space /comma /zero /one /two /three /four /five /six /seven /eight /nine /B /E /F /M /S /bracketleft /bracketright /a /b /c /d /e /g /h /i /m /n /r /t /u /x ] def
/FontInfo 10 dict dup begin
/FamilyName (Bitstream Vera Sans) def
/FullName (Bitstream Vera Sans) def
/Notice (Copyright (c) 2003 by Bitstream, Inc. All Rights Reserved. Bitstream Vera is a trademark of Bitstream, Inc.) def
/Weight (Roman) def
/Version (Release 1.10) def
/ItalicAngle 0.0 def
/isFixedPitch false def
/UnderlinePosition -213 def
/UnderlineThickness 143 def
end readonly def
/CharStrings 33 dict dup begin
/space{318 0 0 0 0 0 _sc
}_d
/comma{318 0 77 -115 220 124 _sc
117 124 _m
220 124 _l
220 40 _l
140 -115 _l
77 -115 _l
117 40 _l
117 124 _l
_cl}_d
/zero{636 0 66 -13 570 742 _sc
318 664 _m
267 664 229 639 203 589 _c
177 539 165 464 165 364 _c
165 264 177 189 203 139 _c
229 89 267 64 318 64 _c
369 64 407 89 433 139 _c
458 189 471 264 471 364 _c
471 464 458 539 433 589 _c
407 639 369 664 318 664 _c
318 742 _m
399 742 461 709 505 645 _c
548 580 570 486 570 364 _c
570 241 548 147 505 83 _c
461 19 399 -13 318 -13 _c
236 -13 173 19 130 83 _c
87 147 66 241 66 364 _c
66 486 87 580 130 645 _c
173 709 236 742 318 742 _c
_cl}_d
/one{636 0 110 0 544 729 _sc
124 83 _m
285 83 _l
285 639 _l
110 604 _l
110 694 _l
284 729 _l
383 729 _l
383 83 _l
544 83 _l
544 0 _l
124 0 _l
124 83 _l
_cl}_d
/two{{636 0 73 0 536 742 _sc
192 83 _m
536 83 _l
536 0 _l
73 0 _l
73 83 _l
110 121 161 173 226 239 _c
290 304 331 346 348 365 _c
380 400 402 430 414 455 _c
426 479 433 504 433 528 _c
433 566 419 598 392 622 _c
365 646 330 659 286 659 _c
255 659 222 653 188 643 _c
154 632 117 616 78 594 _c
78 694 _l
118 710 155 722 189 730 _c
223 738 255 742 284 742 _c
}_e{359 742 419 723 464 685 _c
509 647 532 597 532 534 _c
532 504 526 475 515 449 _c
504 422 484 390 454 354 _c
446 344 420 317 376 272 _c
332 227 271 164 192 83 _c
_cl}_e}_d
/three{{636 0 76 -13 556 742 _sc
406 393 _m
453 383 490 362 516 330 _c
542 298 556 258 556 212 _c
556 140 531 84 482 45 _c
432 6 362 -13 271 -13 _c
240 -13 208 -10 176 -4 _c
144 1 110 10 76 22 _c
76 117 _l
103 101 133 89 166 81 _c
198 73 232 69 268 69 _c
330 69 377 81 409 105 _c
441 129 458 165 458 212 _c
458 254 443 288 413 312 _c
383 336 341 349 287 349 _c
}_e{202 349 _l
202 430 _l
291 430 _l
339 430 376 439 402 459 _c
428 478 441 506 441 543 _c
441 580 427 609 401 629 _c
374 649 336 659 287 659 _c
260 659 231 656 200 650 _c
169 644 135 635 98 623 _c
98 711 _l
135 721 170 729 203 734 _c
235 739 266 742 296 742 _c
370 742 429 725 473 691 _c
517 657 539 611 539 553 _c
539 513 527 479 504 451 _c
481 423 448 403 406 393 _c
_cl}_e}_d
/four{636 0 49 0 580 729 _sc
378 643 _m
129 254 _l
378 254 _l
378 643 _l
352 729 _m
476 729 _l
476 254 _l
580 254 _l
580 172 _l
476 172 _l
476 0 _l
378 0 _l
378 172 _l
49 172 _l
49 267 _l
352 729 _l
_cl}_d
/five{{636 0 77 -13 549 729 _sc
108 729 _m
495 729 _l
495 646 _l
198 646 _l
198 467 _l
212 472 227 476 241 478 _c
255 480 270 482 284 482 _c
365 482 429 459 477 415 _c
525 370 549 310 549 234 _c
549 155 524 94 475 51 _c
426 8 357 -13 269 -13 _c
238 -13 207 -10 175 -6 _c
143 -1 111 6 77 17 _c
77 116 _l
106 100 136 88 168 80 _c
199 72 232 69 267 69 _c
}_e{323 69 368 83 401 113 _c
433 143 450 183 450 234 _c
450 284 433 324 401 354 _c
368 384 323 399 267 399 _c
241 399 214 396 188 390 _c
162 384 135 375 108 363 _c
108 729 _l
_cl}_e}_d
/six{{636 0 70 -13 573 742 _sc
330 404 _m
286 404 251 388 225 358 _c
199 328 186 286 186 234 _c
186 181 199 139 225 109 _c
251 79 286 64 330 64 _c
374 64 409 79 435 109 _c
461 139 474 181 474 234 _c
474 286 461 328 435 358 _c
409 388 374 404 330 404 _c
526 713 _m
526 623 _l
501 635 476 644 451 650 _c
425 656 400 659 376 659 _c
310 659 260 637 226 593 _c
}_e{192 549 172 482 168 394 _c
187 422 211 444 240 459 _c
269 474 301 482 336 482 _c
409 482 467 459 509 415 _c
551 371 573 310 573 234 _c
573 159 550 99 506 54 _c
462 9 403 -13 330 -13 _c
246 -13 181 19 137 83 _c
92 147 70 241 70 364 _c
70 479 97 571 152 639 _c
206 707 280 742 372 742 _c
396 742 421 739 447 735 _c
472 730 498 723 526 713 _c
_cl}_e}_d
/seven{636 0 82 0 551 729 _sc
82 729 _m
551 729 _l
551 687 _l
286 0 _l
183 0 _l
432 646 _l
82 646 _l
82 729 _l
_cl}_d
/eight{{636 0 68 -13 568 742 _sc
318 346 _m
271 346 234 333 207 308 _c
180 283 167 249 167 205 _c
167 161 180 126 207 101 _c
234 76 271 64 318 64 _c
364 64 401 76 428 102 _c
455 127 469 161 469 205 _c
469 249 455 283 429 308 _c
402 333 365 346 318 346 _c
219 388 _m
177 398 144 418 120 447 _c
96 476 85 511 85 553 _c
85 611 105 657 147 691 _c
188 725 245 742 318 742 _c
}_e{390 742 447 725 489 691 _c
530 657 551 611 551 553 _c
551 511 539 476 515 447 _c
491 418 459 398 417 388 _c
464 377 501 355 528 323 _c
554 291 568 251 568 205 _c
568 134 546 80 503 43 _c
459 5 398 -13 318 -13 _c
237 -13 175 5 132 43 _c
89 80 68 134 68 205 _c
68 251 81 291 108 323 _c
134 355 171 377 219 388 _c
183 544 _m
183 506 194 476 218 455 _c
}_e{242 434 275 424 318 424 _c
360 424 393 434 417 455 _c
441 476 453 506 453 544 _c
453 582 441 611 417 632 _c
393 653 360 664 318 664 _c
275 664 242 653 218 632 _c
194 611 183 582 183 544 _c
_cl}_e}_d
/nine{{636 0 63 -13 566 742 _sc
110 15 _m
110 105 _l
134 93 159 84 185 78 _c
210 72 235 69 260 69 _c
324 69 374 90 408 134 _c
442 178 462 244 468 334 _c
448 306 424 284 396 269 _c
367 254 335 247 300 247 _c
226 247 168 269 126 313 _c
84 357 63 417 63 494 _c
63 568 85 628 129 674 _c
173 719 232 742 306 742 _c
390 742 455 709 499 645 _c
543 580 566 486 566 364 _c
}_e{566 248 538 157 484 89 _c
429 21 356 -13 264 -13 _c
239 -13 214 -10 189 -6 _c
163 -2 137 5 110 15 _c
306 324 _m
350 324 385 339 411 369 _c
437 399 450 441 450 494 _c
450 546 437 588 411 618 _c
385 648 350 664 306 664 _c
262 664 227 648 201 618 _c
175 588 162 546 162 494 _c
162 441 175 399 201 369 _c
227 339 262 324 306 324 _c
_cl}_e}_d
/B{{686 0 98 0 615 729 _sc
197 348 _m
197 81 _l
355 81 _l
408 81 447 92 473 114 _c
498 136 511 169 511 215 _c
511 260 498 293 473 315 _c
447 337 408 348 355 348 _c
197 348 _l
197 648 _m
197 428 _l
343 428 _l
391 428 426 437 450 455 _c
474 473 486 500 486 538 _c
486 574 474 602 450 620 _c
426 638 391 648 343 648 _c
197 648 _l
98 729 _m
350 729 _l
}_e{425 729 483 713 524 682 _c
564 650 585 606 585 549 _c
585 504 574 468 553 442 _c
532 416 502 399 462 393 _c
510 382 548 360 575 327 _c
601 294 615 253 615 204 _c
615 138 592 88 548 53 _c
504 17 441 0 360 0 _c
98 0 _l
98 729 _l
_cl}_e}_d
/E{632 0 98 0 568 729 _sc
98 729 _m
559 729 _l
559 646 _l
197 646 _l
197 430 _l
544 430 _l
544 347 _l
197 347 _l
197 83 _l
568 83 _l
568 0 _l
98 0 _l
98 729 _l
_cl}_d
/F{575 0 98 0 517 729 _sc
98 729 _m
517 729 _l
517 646 _l
197 646 _l
197 431 _l
486 431 _l
486 348 _l
197 348 _l
197 0 _l
98 0 _l
98 729 _l
_cl}_d
/M{863 0 98 0 765 729 _sc
98 729 _m
245 729 _l
431 233 _l
618 729 _l
765 729 _l
765 0 _l
669 0 _l
669 640 _l
481 140 _l
382 140 _l
194 640 _l
194 0 _l
98 0 _l
98 729 _l
_cl}_d
/S{{635 0 66 -13 579 742 _sc
535 705 _m
535 609 _l
497 627 462 640 429 649 _c
395 657 363 662 333 662 _c
279 662 237 651 208 631 _c
179 610 165 580 165 542 _c
165 510 174 485 194 469 _c
213 452 250 439 304 429 _c
364 417 _l
437 403 491 378 526 343 _c
561 307 579 260 579 201 _c
579 130 555 77 508 41 _c
460 5 391 -13 300 -13 _c
265 -13 228 -9 189 -2 _c
}_e{150 5 110 16 69 32 _c
69 134 _l
109 111 148 94 186 83 _c
224 71 262 66 300 66 _c
356 66 399 77 430 99 _c
460 121 476 152 476 194 _c
476 230 465 258 443 278 _c
421 298 385 313 335 323 _c
275 335 _l
201 349 148 372 115 404 _c
82 435 66 478 66 534 _c
66 598 88 649 134 686 _c
179 723 242 742 322 742 _c
356 742 390 739 426 733 _c
461 727 497 717 535 705 _c
}_e{_cl}_e}_d
/bracketleft{390 0 86 -131 293 760 _sc
86 760 _m
293 760 _l
293 690 _l
176 690 _l
176 -61 _l
293 -61 _l
293 -131 _l
86 -131 _l
86 760 _l
_cl}_d
/bracketright{390 0 97 -131 304 760 _sc
304 760 _m
304 -131 _l
97 -131 _l
97 -61 _l
214 -61 _l
214 690 _l
97 690 _l
97 760 _l
304 760 _l
_cl}_d
/a{{613 0 60 -13 522 560 _sc
343 275 _m
270 275 220 266 192 250 _c
164 233 150 205 150 165 _c
150 133 160 107 181 89 _c
202 70 231 61 267 61 _c
317 61 357 78 387 114 _c
417 149 432 196 432 255 _c
432 275 _l
343 275 _l
522 312 _m
522 0 _l
432 0 _l
432 83 _l
411 49 385 25 355 10 _c
325 -5 287 -13 243 -13 _c
187 -13 142 2 109 33 _c
76 64 60 106 60 159 _c
}_e{60 220 80 266 122 298 _c
163 329 224 345 306 345 _c
432 345 _l
432 354 _l
432 395 418 427 391 450 _c
364 472 326 484 277 484 _c
245 484 215 480 185 472 _c
155 464 127 453 100 439 _c
100 522 _l
132 534 164 544 195 550 _c
226 556 256 560 286 560 _c
365 560 424 539 463 498 _c
502 457 522 395 522 312 _c
_cl}_e}_d
/b{{635 0 91 -13 580 760 _sc
487 273 _m
487 339 473 390 446 428 _c
418 466 381 485 334 485 _c
286 485 249 466 222 428 _c
194 390 181 339 181 273 _c
181 207 194 155 222 117 _c
249 79 286 61 334 61 _c
381 61 418 79 446 117 _c
473 155 487 207 487 273 _c
181 464 _m
199 496 223 520 252 536 _c
281 552 316 560 356 560 _c
422 560 476 533 518 481 _c
559 428 580 359 580 273 _c
}_e{580 187 559 117 518 65 _c
476 13 422 -13 356 -13 _c
316 -13 281 -5 252 10 _c
223 25 199 49 181 82 _c
181 0 _l
91 0 _l
91 760 _l
181 760 _l
181 464 _l
_cl}_e}_d
/c{{550 0 55 -13 488 560 _sc
488 526 _m
488 442 _l
462 456 437 466 411 473 _c
385 480 360 484 334 484 _c
276 484 230 465 198 428 _c
166 391 150 339 150 273 _c
150 206 166 154 198 117 _c
230 80 276 62 334 62 _c
360 62 385 65 411 72 _c
437 79 462 90 488 104 _c
488 21 _l
462 9 436 0 410 -5 _c
383 -10 354 -13 324 -13 _c
242 -13 176 12 128 64 _c
}_e{79 115 55 185 55 273 _c
55 362 79 432 128 483 _c
177 534 244 560 330 560 _c
358 560 385 557 411 551 _c
437 545 463 537 488 526 _c
_cl}_e}_d
/d{{635 0 55 -13 544 760 _sc
454 464 _m
454 760 _l
544 760 _l
544 0 _l
454 0 _l
454 82 _l
435 49 411 25 382 10 _c
353 -5 319 -13 279 -13 _c
213 -13 159 13 117 65 _c
75 117 55 187 55 273 _c
55 359 75 428 117 481 _c
159 533 213 560 279 560 _c
319 560 353 552 382 536 _c
411 520 435 496 454 464 _c
148 273 _m
148 207 161 155 188 117 _c
215 79 253 61 301 61 _c
}_e{348 61 385 79 413 117 _c
440 155 454 207 454 273 _c
454 339 440 390 413 428 _c
385 466 348 485 301 485 _c
253 485 215 466 188 428 _c
161 390 148 339 148 273 _c
_cl}_e}_d
/e{{615 0 55 -13 562 560 _sc
562 296 _m
562 252 _l
149 252 _l
153 190 171 142 205 110 _c
238 78 284 62 344 62 _c
378 62 412 66 444 74 _c
476 82 509 95 541 113 _c
541 28 _l
509 14 476 3 442 -3 _c
408 -9 373 -13 339 -13 _c
251 -13 182 12 131 62 _c
80 112 55 181 55 268 _c
55 357 79 428 127 481 _c
175 533 241 560 323 560 _c
397 560 455 536 498 489 _c
}_e{540 441 562 377 562 296 _c
472 322 _m
471 371 457 410 431 440 _c
404 469 368 484 324 484 _c
274 484 234 469 204 441 _c
174 413 156 373 152 322 _c
472 322 _l
_cl}_e}_d
/g{{635 0 55 -207 544 560 _sc
454 280 _m
454 344 440 395 414 431 _c
387 467 349 485 301 485 _c
253 485 215 467 188 431 _c
161 395 148 344 148 280 _c
148 215 161 165 188 129 _c
215 93 253 75 301 75 _c
349 75 387 93 414 129 _c
440 165 454 215 454 280 _c
544 68 _m
544 -24 523 -93 482 -139 _c
440 -184 377 -207 292 -207 _c
260 -207 231 -204 203 -200 _c
175 -195 147 -188 121 -178 _c
}_e{121 -91 _l
147 -105 173 -115 199 -122 _c
225 -129 251 -133 278 -133 _c
336 -133 380 -117 410 -87 _c
439 -56 454 -10 454 52 _c
454 96 _l
435 64 411 40 382 24 _c
353 8 319 0 279 0 _c
211 0 157 25 116 76 _c
75 127 55 195 55 280 _c
55 364 75 432 116 483 _c
157 534 211 560 279 560 _c
319 560 353 552 382 536 _c
411 520 435 496 454 464 _c
454 547 _l
544 547 _l
}_e{544 68 _l
_cl}_e}_d
/h{634 0 91 0 549 760 _sc
549 330 _m
549 0 _l
459 0 _l
459 327 _l
459 379 448 417 428 443 _c
408 469 378 482 338 482 _c
289 482 251 466 223 435 _c
195 404 181 362 181 309 _c
181 0 _l
91 0 _l
91 760 _l
181 760 _l
181 462 _l
202 494 227 519 257 535 _c
286 551 320 560 358 560 _c
420 560 468 540 500 501 _c
532 462 549 405 549 330 _c
_cl}_d
/i{278 0 94 0 184 760 _sc
94 547 _m
184 547 _l
184 0 _l
94 0 _l
94 547 _l
94 760 _m
184 760 _l
184 646 _l
94 646 _l
94 760 _l
_cl}_d
/m{{974 0 91 0 889 560 _sc
520 442 _m
542 482 569 511 600 531 _c
631 550 668 560 711 560 _c
767 560 811 540 842 500 _c
873 460 889 403 889 330 _c
889 0 _l
799 0 _l
799 327 _l
799 379 789 418 771 444 _c
752 469 724 482 686 482 _c
639 482 602 466 575 435 _c
548 404 535 362 535 309 _c
535 0 _l
445 0 _l
445 327 _l
445 379 435 418 417 444 _c
398 469 369 482 331 482 _c
}_e{285 482 248 466 221 435 _c
194 404 181 362 181 309 _c
181 0 _l
91 0 _l
91 547 _l
181 547 _l
181 462 _l
201 495 226 520 255 536 _c
283 552 317 560 357 560 _c
397 560 430 550 458 530 _c
486 510 506 480 520 442 _c
_cl}_e}_d
/n{634 0 91 0 549 560 _sc
549 330 _m
549 0 _l
459 0 _l
459 327 _l
459 379 448 417 428 443 _c
408 469 378 482 338 482 _c
289 482 251 466 223 435 _c
195 404 181 362 181 309 _c
181 0 _l
91 0 _l
91 547 _l
181 547 _l
181 462 _l
202 494 227 519 257 535 _c
286 551 320 560 358 560 _c
420 560 468 540 500 501 _c
532 462 549 405 549 330 _c
_cl}_d
/r{411 0 91 0 411 560 _sc
411 463 _m
401 469 390 473 378 476 _c
366 478 353 480 339 480 _c
288 480 249 463 222 430 _c
194 397 181 350 181 288 _c
181 0 _l
91 0 _l
91 547 _l
181 547 _l
181 462 _l
199 495 224 520 254 536 _c
284 552 321 560 365 560 _c
371 560 378 559 386 559 _c
393 558 401 557 411 555 _c
411 463 _l
_cl}_d
/t{392 0 27 0 368 702 _sc
183 702 _m
183 547 _l
368 547 _l
368 477 _l
183 477 _l
183 180 _l
183 135 189 106 201 94 _c
213 81 238 75 276 75 _c
368 75 _l
368 0 _l
276 0 _l
206 0 158 13 132 39 _c
106 65 93 112 93 180 _c
93 477 _l
27 477 _l
27 547 _l
93 547 _l
93 702 _l
183 702 _l
_cl}_d
/u{634 0 85 -13 543 547 _sc
85 216 _m
85 547 _l
175 547 _l
175 219 _l
175 167 185 129 205 103 _c
225 77 255 64 296 64 _c
344 64 383 79 411 110 _c
439 141 453 183 453 237 _c
453 547 _l
543 547 _l
543 0 _l
453 0 _l
453 84 _l
431 50 405 26 377 10 _c
348 -5 315 -13 277 -13 _c
214 -13 166 6 134 45 _c
101 83 85 140 85 216 _c
_cl}_d
/x{592 0 29 0 559 547 _sc
549 547 _m
351 281 _l
559 0 _l
453 0 _l
294 215 _l
135 0 _l
29 0 _l
241 286 _l
47 547 _l
153 547 _l
298 352 _l
443 547 _l
549 547 _l
_cl}_d
end readonly def

/BuildGlyph
 {exch begin
 CharStrings exch
 2 copy known not{pop /.notdef}if
 true 3 1 roll get exec
 end}_d

/BuildChar {
 1 index /Encoding get exch get
 1 index /BuildGlyph get exec
}_d

FontName currentdict end definefont pop
end
%%EndProlog
mpldict begin
18 180 translate
576 432 0 0 clipbox
100000 setmiterlimit
gsave
0 0 m
576 0 l
576 432 l
0 432 l
cl
1.000 setgray
fill
grestore
gsave
72 231.709091 m
518.4 231.709091 l
518.4 388.8 l
72 388.8 l
cl
1.000 setgray
fill
grestore
1.000 setlinewidth
0 setlinejoin
0 setlinecap
[] 0 setdash
0.950 setgray
gsave
131.177218 266.420646 m
258.939234 304.935777 l
256.812132 378.531872 l
121.926546 343.926818 l
gsave
fill
grestore
stroke
grestore
0.900 setgray
gsave
258.939234 304.935777 m
465.901687 283.403333 l
474.560748 359.218688 l
256.812132 378.531872 l
gsave
fill
grestore
stroke
grestore
0.925 setgray
gsave
131.177218 266.420646 m
348.929684 241.342606 l
465.901687 283.403333 l
258.939234 304.935777 l
gsave
fill
grestore
stroke
grestore
0.750 setlinewidth
1 setlinejoin
2 setlinecap
0.000 setgray
gsave
131.177218 266.420646 m
348.929684 241.342606 l
stroke
grestore
/BitstreamVeraSans-Roman findfont
12.000 scalefont
setfont
gsave
178.417999 235.577139 translate
353.430324 rotate
0.000000 0.000000 m /F glyphshow
6.902344 0.000000 m /r glyphshow
11.835938 0.000000 m /a glyphshow
19.189453 0.000000 m /m glyphshow
30.878906 0.000000 m /e glyphshow
38.261719 0.000000 m /space glyphshow
42.076172 0.000000 m /i glyphshow
45.410156 0.000000 m /n glyphshow
53.015625 0.000000 m /d glyphshow
60.632812 0.000000 m /e glyphshow
68.015625 0.000000 m /x glyphshow
grestore
1.000 setlinewidth
0 setlinecap
0.900 setgray
gsave
135.341407 265.941066 m
262.91012 304.522645 l
260.98105 378.16211 l
stroke
grestore
gsave
160.483807 263.045475 m
286.874573 302.029375 l
286.148026 375.929929 l
stroke
grestore
gsave
185.898981 260.118469 m
311.080141 299.511019 l
311.581097 373.674146 l
stroke
grestore
gsave
211.591391 257.159534 m
335.530482 296.967198 l
337.284506 371.394386 l
stroke
grestore
gsave
237.565599 254.168146 m
360.229327 294.397521 l
363.262586 369.090263 l
stroke
grestore
gsave
263.826267 251.143767 m
385.180483 291.801595 l
389.519764 366.761387 l
stroke
grestore
gsave
290.378159 248.085848 m
410.387838 289.179013 l
416.060561 364.407354 l
stroke
grestore
gsave
317.226148 244.993828 m
435.855357 286.529364 l
442.889598 362.027757 l
stroke
grestore
gsave
344.375213 241.867134 m
461.587089 283.852225 l
470.011596 359.622175 l
stroke
grestore
2 setlinecap
0.000 setgray
gsave
136.440324 266.27342 m
133.139482 265.275121 l
stroke
grestore
gsave
121.660658 248.008746 translate
0.000000 rotate
0.000000 0.000000 m /zero glyphshow
grestore
gsave
161.572996 263.381423 m
158.301354 262.37232 l
stroke
grestore
gsave
146.799685 245.059792 translate
0.000000 rotate
0.000000 0.000000 m /five glyphshow
grestore
gsave
186.978165 260.458071 m
183.736553 259.437987 l
stroke
grestore
gsave
168.391681 242.078780 translate
0.000000 rotate
0.000000 0.000000 m /one glyphshow
7.634766 0.000000 m /zero glyphshow
grestore
gsave
212.660287 257.50285 m
209.449556 256.471604 l
stroke
grestore
gsave
194.081752 239.065186 translate
0.000000 rotate
0.000000 0.000000 m /one glyphshow
7.634766 0.000000 m /five glyphshow
grestore
gsave
238.623915 254.515236 m
235.444941 253.472645 l
stroke
grestore
gsave
220.054163 236.018471 translate
0.000000 rotate
0.000000 0.000000 m /two glyphshow
7.634766 0.000000 m /zero glyphshow
grestore
gsave
264.873705 251.494694 m
261.727385 250.440569 l
stroke
grestore
gsave
246.313596 232.938086 translate
0.000000 rotate
0.000000 0.000000 m /two glyphshow
7.634766 0.000000 m /five glyphshow
grestore
gsave
291.414412 248.440676 m
288.301669 247.374825 l
stroke
grestore
gsave
272.864834 229.823471 translate
0.000000 rotate
0.000000 0.000000 m /three glyphshow
7.634766 0.000000 m /zero glyphshow
grestore
gsave
318.2509 245.352623 m
315.17268 244.274849 l
stroke
grestore
gsave
299.712768 226.674052 translate
0.000000 rotate
0.000000 0.000000 m /three glyphshow
7.634766 0.000000 m /five glyphshow
grestore
gsave
345.388141 242.229963 m
342.345417 241.140065 l
stroke
grestore
gsave
326.862401 223.489243 translate
0.000000 rotate
0.000000 0.000000 m /four glyphshow
7.634766 0.000000 m /zero glyphshow
grestore
0.750 setlinewidth
gsave
465.901687 283.403333 m
348.929684 241.342606 l
stroke
grestore
gsave
399.850912 227.089102 translate
19.777542 rotate
0.000000 0.000000 m /S glyphshow
7.617188 0.000000 m /u glyphshow
15.222656 0.000000 m /b glyphshow
22.839844 0.000000 m /c glyphshow
29.437500 0.000000 m /a glyphshow
36.791016 0.000000 m /r glyphshow
41.724609 0.000000 m /r glyphshow
46.658203 0.000000 m /i glyphshow
49.992188 0.000000 m /e glyphshow
57.375000 0.000000 m /r glyphshow
62.308594 0.000000 m /space glyphshow
66.123047 0.000000 m /i glyphshow
69.457031 0.000000 m /n glyphshow
77.062500 0.000000 m /d glyphshow
84.679688 0.000000 m /e glyphshow
92.062500 0.000000 m /x glyphshow
grestore
1.000 setlinewidth
0 setlinecap
0.900 setgray
gsave
124.83963 344.674173 m
133.925947 267.249277 l
351.454544 242.250494 l
stroke
grestore
gsave
147.806962 350.566469 m
155.613677 273.787259 l
371.363131 249.409212 l
stroke
grestore
gsave
170.190782 356.309064 m
176.778102 280.167486 l
390.769477 256.387335 l
stroke
grestore
gsave
192.013047 361.907591 m
197.437937 286.395599 l
409.692352 263.191612 l
stroke
grestore
gsave
213.294627 367.367406 m
217.611014 292.476974 l
428.1496 269.828459 l
stroke
grestore
gsave
234.055372 372.693599 m
237.314336 298.416736 l
446.158198 276.30398 l
stroke
grestore
gsave
254.31417 377.891017 m
256.564121 304.219776 l
463.734308 282.623988 l
stroke
grestore
2 setlinecap
0.000 setgray
gsave
349.633738 242.459744 m
355.10024 241.831524 l
stroke
grestore
gsave
364.803122 225.365630 translate
0.000000 rotate
0.000000 0.000000 m /zero glyphshow
grestore
gsave
369.558238 249.613152 m
374.976914 249.000882 l
stroke
grestore
gsave
380.661352 232.619529 translate
0.000000 rotate
0.000000 0.000000 m /one glyphshow
7.634766 0.000000 m /zero glyphshow
grestore
gsave
388.980278 256.586163 m
394.351787 255.989245 l
stroke
grestore
gsave
399.843725 239.690530 translate
0.000000 rotate
0.000000 0.000000 m /two glyphshow
7.634766 0.000000 m /zero glyphshow
grestore
gsave
407.91863 263.385518 m
413.243626 262.803381 l
stroke
grestore
gsave
418.548458 246.585465 translate
0.000000 rotate
0.000000 0.000000 m /three glyphshow
7.634766 0.000000 m /zero glyphshow
grestore
gsave
426.39114 270.017624 m
431.67027 269.449726 l
stroke
grestore
gsave
436.793174 253.310827 translate
0.000000 rotate
0.000000 0.000000 m /four glyphshow
7.634766 0.000000 m /zero glyphshow
grestore
gsave
444.414786 276.488576 m
449.648694 275.9344 l
stroke
grestore
gsave
454.594636 259.872797 translate
0.000000 rotate
0.000000 0.000000 m /five glyphshow
7.634766 0.000000 m /zero glyphshow
grestore
gsave
462.005733 282.804178 m
467.195055 282.263234 l
stroke
grestore
gsave
471.968804 266.277259 translate
0.000000 rotate
0.000000 0.000000 m /six glyphshow
7.634766 0.000000 m /zero glyphshow
grestore
0.750 setlinewidth
gsave
465.901687 283.403333 m
474.560748 359.218688 l
stroke
grestore
gsave
522.833652 276.513032 translate
83.484339 rotate
0.000000 0.000000 m /M glyphshow
10.353516 0.000000 m /a glyphshow
17.707031 0.000000 m /g glyphshow
25.324219 0.000000 m /n glyphshow
32.929688 0.000000 m /i glyphshow
36.263672 0.000000 m /t glyphshow
40.968750 0.000000 m /u glyphshow
48.574219 0.000000 m /d glyphshow
56.191406 0.000000 m /e glyphshow
63.574219 0.000000 m /space glyphshow
67.388672 0.000000 m /bracketleft glyphshow
72.070312 0.000000 m /d glyphshow
79.687500 0.000000 m /B glyphshow
87.919922 0.000000 m /bracketright glyphshow
grestore
1.000 setlinewidth
0 setlinecap
0.900 setgray
gsave
466.066381 284.84533 m
258.89869 306.338558 l
131.001569 267.892314 l
stroke
grestore
gsave
466.950343 292.584956 m
258.681137 313.865714 l
130.058609 275.792843 l
stroke
grestore
gsave
467.843837 300.408041 m
258.461337 321.470634 l
129.105144 283.781387 l
stroke
grestore
gsave
468.747018 308.315942 m
258.239254 329.154528 l
128.140998 291.859423 l
stroke
grestore
gsave
469.660045 316.310045 m
258.014853 336.918634 l
127.16599 300.028466 l
stroke
grestore
gsave
470.583079 324.391769 m
257.788097 344.764214 l
126.179936 308.29006 l
stroke
grestore
gsave
471.516285 332.562562 m
257.558949 352.692558 l
125.182646 316.645789 l
stroke
grestore
gsave
472.459834 340.823904 m
257.327371 360.704981 l
124.173928 325.097269 l
stroke
grestore
gsave
473.413897 349.177309 m
257.093324 368.802829 l
123.153584 333.646158 l
stroke
grestore
gsave
474.378652 357.624324 m
256.856768 376.987474 l
122.121412 342.294147 l
stroke
grestore
2 setlinecap
0.000 setgray
gsave
464.337863 285.02466 m
469.527014 284.486296 l
stroke
grestore
gsave
486.959262 276.970724 translate
0.000000 rotate
0.000000 0.000000 m /eight glyphshow
grestore
gsave
465.212251 292.762553 m
470.430163 292.229391 l
stroke
grestore
gsave
484.152975 284.698249 translate
0.000000 rotate
0.000000 0.000000 m /one glyphshow
7.634766 0.000000 m /zero glyphshow
grestore
gsave
466.096064 300.583856 m
471.343059 300.056041 l
stroke
grestore
gsave
485.177907 292.508899 translate
0.000000 rotate
0.000000 0.000000 m /one glyphshow
7.634766 0.000000 m /two glyphshow
grestore
gsave
466.989456 308.489926 m
472.265859 307.967605 l
stroke
grestore
gsave
486.213924 300.404022 translate
0.000000 rotate
0.000000 0.000000 m /one glyphshow
7.634766 0.000000 m /four glyphshow
grestore
gsave
467.892583 316.482149 m
473.198725 315.965472 l
stroke
grestore
gsave
487.261207 308.384997 translate
0.000000 rotate
0.000000 0.000000 m /one glyphshow
7.634766 0.000000 m /six glyphshow
grestore
gsave
468.805606 324.56194 m
474.141823 324.051064 l
stroke
grestore
gsave
488.319941 316.453230 translate
0.000000 rotate
0.000000 0.000000 m /one glyphshow
7.634766 0.000000 m /eight glyphshow
grestore
gsave
469.728688 332.730747 m
475.095323 332.225831 l
stroke
grestore
gsave
489.390313 324.610162 translate
0.000000 rotate
0.000000 0.000000 m /two glyphshow
7.634766 0.000000 m /zero glyphshow
grestore
gsave
470.661995 340.990048 m
476.059397 340.491257 l
stroke
grestore
gsave
490.472518 332.857263 translate
0.000000 rotate
0.000000 0.000000 m /two glyphshow
7.634766 0.000000 m /two glyphshow
grestore
gsave
471.605699 349.341356 m
477.034222 348.848857 l
stroke
grestore
gsave
491.566752 341.196036 translate
0.000000 rotate
0.000000 0.000000 m /two glyphshow
7.634766 0.000000 m /four glyphshow
grestore
gsave
472.559975 357.786217 m
478.01998 357.300183 l
stroke
grestore
gsave
492.673217 349.628019 translate
0.000000 rotate
0.000000 0.000000 m /two glyphshow
7.634766 0.000000 m /six glyphshow
grestore
0 setlinecap
gsave
446.4 157.1 72 231.7 clipbox
239.127847 351.257346 m
243.872686 357.225136 l
248.844862 358.144833 l
254.007189 353.608706 l
259.091797 351.269374 l
264.387973 340.249758 l
269.30603 344.211833 l
274.16536 353.703036 l
279.153489 359.669021 l
284.533016 335.463952 l
289.544638 339.270945 l
291.512754 339.513466 l
293.481611 338.529419 l
295.440866 337.755156 l
297.393525 336.355911 l
299.337205 334.320463 l
294.344292 330.391754 l
289.176573 353.394753 l
284.183259 348.604184 l
279.307232 338.919718 l
274.672024 320.168307 l
269.232077 345.712542 l
264.213175 347.8004 l
259.103972 353.116541 l
254.185197 351.629748 l
249.457062 345.278182 l
247.368422 347.642728 l
245.323641 348.486064 l
243.243021 350.038968 l
241.188795 350.664364 l
239.127847 351.257346 l
cl
gsave
0.881 0.402 0.317 setrgbcolor
fill
grestore
stroke
grestore
gsave
446.4 157.1 72 231.7 clipbox
289.544638 339.270945 m
294.649764 330.89934 l
299.684726 349.168863 l
304.777128 333.402259 l
309.847039 329.883406 l
315.167336 354.632135 l
320.255976 346.501166 l
325.318205 339.309128 l
330.341609 331.931799 l
335.549846 334.186674 l
341.025127 345.397558 l
342.952143 345.565673 l
344.858548 345.221676 l
346.733708 344.077979 l
348.592875 342.713191 l
350.413081 340.45153 l
344.915744 329.370763 l
339.723566 326.569195 l
334.791422 333.847012 l
329.828114 341.366282 l
324.825905 348.781254 l
319.398478 324.45869 l
314.39814 328.126476 l
309.451743 343.668358 l
304.342434 324.98261 l
299.337205 334.320463 l
297.393525 336.355911 l
295.440866 337.755156 l
293.481611 338.529419 l
291.512754 339.513466 l
289.544638 339.270945 l
cl
gsave
0.970 0.696 0.581 setrgbcolor
fill
grestore
stroke
grestore
gsave
446.4 157.1 72 231.7 clipbox
218.80513 343.820395 m
223.493834 349.794675 l
228.478128 350.751246 l
233.753818 345.666313 l
238.867564 343.998509 l
245.159593 311.516787 l
249.231026 336.995348 l
254.003628 346.068675 l
258.92991 352.35585 l
264.65777 328.377271 l
269.658262 331.685078 l
271.662214 332.672116 l
273.675023 332.971567 l
275.660977 334.506938 l
277.646806 335.902405 l
279.644646 336.279465 l
281.633429 336.93511 l
283.614753 337.830287 l
285.598294 338.132315 l
287.566103 339.552429 l
289.544638 339.270945 l
284.533016 335.463952 l
279.153489 359.669021 l
274.16536 353.703036 l
269.30603 344.211833 l
264.387973 340.249758 l
259.091797 351.269374 l
254.007189 353.608706 l
248.844862 358.144833 l
243.872686 357.225136 l
239.127847 351.257346 l
237.112689 350.584297 l
235.09011 349.975447 l
233.05059 349.635072 l
231.028918 348.792174 l
228.984396 348.338071 l
226.946196 347.648413 l
224.950105 346.03616 l
222.907026 345.284872 l
220.850974 344.691243 l
218.80513 343.820395 l
cl
gsave
0.706 0.016 0.150 setrgbcolor
fill
grestore
stroke
grestore
gsave
446.4 157.1 72 231.7 clipbox
341.025127 345.397558 m
346.223959 344.285969 l
351.560979 347.101576 l
356.491635 337.981503 l
361.19044 324.344614 l
366.394749 324.054984 l
371.899855 329.83347 l
376.69502 320.607214 l
383.051596 340.920274 l
387.004112 317.134479 l
392.542362 321.556386 l
394.408056 322.068392 l
396.119669 320.252807 l
397.893341 319.545428 l
399.648055 318.668346 l
401.337513 316.947867 l
395.793862 312.145681 l
391.995282 335.260553 l
385.606315 315.714372 l
380.895789 324.57814 l
375.414234 319.036564 l
370.301813 320.256774 l
365.648908 331.9726 l
360.841814 341.499465 l
355.557476 339.295253 l
350.413081 340.45153 l
348.592875 342.713191 l
346.733708 344.077979 l
344.858548 345.221676 l
342.952143 345.565673 l
341.025127 345.397558 l
cl
gsave
0.903 0.845 0.812 setrgbcolor
fill
grestore
stroke
grestore
gsave
446.4 157.1 72 231.7 clipbox
198.233498 333.315292 m
202.838674 339.515913 l
207.789904 341.060431 l
213.178209 335.607646 l
218.34506 333.7335 l
225.470241 294.339061 l
228.892456 325.697809 l
233.481707 336.347628 l
238.369912 341.948166 l
244.440284 318.192366 l
249.414277 321.490041 l
251.459203 322.420628 l
253.473145 324.182731 l
255.522549 324.733928 l
257.534953 326.365164 l
259.574422 326.95301 l
261.6014 327.819238 l
263.622501 328.748772 l
265.64781 329.331762 l
267.641842 331.079425 l
269.658262 331.685078 l
264.65777 328.377271 l
258.92991 352.35585 l
254.003628 346.068675 l
249.231026 336.995348 l
245.159593 311.516787 l
238.867564 343.998509 l
233.753818 345.666313 l
228.478128 350.751246 l
223.493834 349.794675 l
218.80513 343.820395 l
216.751142 343.018748 l
214.731177 341.549674 l
212.697774 340.263903 l
210.6774 338.7108 l
208.562729 338.642265 l
206.494227 337.739994 l
204.455559 336.310789 l
202.386803 335.293986 l
200.359647 333.602806 l
198.233498 333.315292 l
cl
gsave
0.962 0.622 0.502 setrgbcolor
fill
grestore
stroke
grestore
gsave
446.4 157.1 72 231.7 clipbox
269.658262 331.685078 m
274.891704 323.956875 l
279.723825 341.515619 l
285.05718 325.484141 l
290.203085 321.716605 l
295.220889 347.116767 l
300.446763 339.317384 l
305.631465 330.949703 l
310.785624 324.612897 l
315.993351 326.643446 l
321.360123 338.346149 l
323.350986 339.316489 l
325.335671 340.145469 l
327.324276 341.444507 l
329.292945 341.838406 l
331.277684 343.302969 l
333.24286 343.968735 l
335.191617 344.111617 l
337.146967 344.778473 l
339.086083 344.981324 l
341.025127 345.397558 l
335.549846 334.186674 l
330.341609 331.931799 l
325.318205 339.309128 l
320.255976 346.501166 l
315.167336 354.632135 l
309.847039 329.883406 l
304.777128 333.402259 l
299.684726 349.168863 l
294.649764 330.89934 l
289.544638 339.270945 l
287.566103 339.552429 l
285.598294 338.132315 l
283.614753 337.830287 l
281.633429 336.93511 l
279.644646 336.279465 l
277.646806 335.902405 l
275.660977 334.506938 l
273.675023 332.971567 l
271.662214 332.672116 l
269.658262 331.685078 l
cl
gsave
0.830 0.305 0.255 setrgbcolor
fill
grestore
stroke
grestore
gsave
446.4 157.1 72 231.7 clipbox
392.542362 321.556386 m
398.0396 324.636328 l
404.389036 339.551436 l
408.654033 324.01136 l
414.74754 333.779704 l
419.493331 325.558052 l
425.53658 333.438731 l
430.513687 328.222875 l
436.064604 329.587934 l
437.838126 329.370957 l
439.512803 328.160568 l
441.191281 327.083747 l
442.857592 325.967663 l
444.379254 323.441932 l
438.909267 322.452901 l
434.053216 328.084035 l
428.009513 320.161281 l
423.347161 328.17558 l
417.264186 318.647122 l
413.084984 333.399275 l
406.763688 319.420809 l
401.337513 316.947867 l
399.648055 318.668346 l
397.893341 319.545428 l
396.119669 320.252807 l
394.408056 322.068392 l
392.542362 321.556386 l
cl
gsave
0.847 0.862 0.886 setrgbcolor
fill
grestore
stroke
grestore
gsave
446.4 157.1 72 231.7 clipbox
321.360123 338.346149 m
326.588327 336.154985 l
331.919299 339.001278 l
337.014555 330.575303 l
341.926816 317.133683 l
347.156368 316.468725 l
352.61699 322.165074 l
357.563897 312.984202 l
363.701492 333.448491 l
367.962061 309.061927 l
373.487558 313.718232 l
375.437933 315.018897 l
377.327621 315.201072 l
379.268046 316.450998 l
381.206906 317.727847 l
383.094048 318.124893 l
384.999701 318.93911 l
386.910839 319.918151 l
388.766178 320.01621 l
390.682682 321.222213 l
392.542362 321.556386 l
387.004112 317.134479 l
383.051596 340.920274 l
376.69502 320.607214 l
371.899855 329.83347 l
366.394749 324.054984 l
361.19044 324.344614 l
356.491635 337.981503 l
351.560979 347.101576 l
346.223959 344.285969 l
341.025127 345.397558 l
339.086083 344.981324 l
337.146967 344.778473 l
335.191617 344.111617 l
333.24286 343.968735 l
331.277684 343.302969 l
329.292945 341.838406 l
327.324276 341.444507 l
325.335671 340.145469 l
323.350986 339.316489 l
321.360123 338.346149 l
cl
gsave
0.962 0.622 0.502 setrgbcolor
fill
grestore
stroke
grestore
gsave
446.4 157.1 72 231.7 clipbox
177.204101 323.576057 m
181.73599 329.790307 l
186.73011 330.730633 l
192.250141 324.798532 l
197.446907 323.10917 l
202.413605 324.917989 l
208.127074 315.335427 l
212.549771 326.503332 l
217.423796 331.28514 l
223.836336 307.831816 l
228.750543 311.758163 l
230.843982 312.563459 l
232.952087 312.94992 l
235.004733 314.437312 l
237.126055 314.283609 l
239.139837 316.507424 l
241.227985 316.887473 l
243.313725 317.179438 l
245.332514 319.080074 l
247.384044 320.040249 l
249.414277 321.490041 l
244.440284 318.192366 l
238.369912 341.948166 l
233.481707 336.347628 l
228.892456 325.697809 l
225.470241 294.339061 l
218.34506 333.7335 l
213.178209 335.607646 l
207.789904 341.060431 l
202.838674 339.515913 l
198.233498 333.315292 l
196.124702 332.694576 l
194.06397 331.333477 l
192.072421 328.987838 l
189.93256 328.620737 l
187.857869 327.320944 l
185.734156 326.609004 l
183.551526 326.57685 l
181.427128 325.735664 l
179.283121 325.075636 l
177.204101 323.576057 l
cl
gsave
0.867 0.864 0.863 setrgbcolor
fill
grestore
stroke
grestore
gsave
446.4 157.1 72 231.7 clipbox
249.414277 321.490041 m
254.799183 312.949123 l
259.397706 330.812849 l
264.958343 315.229307 l
270.186569 310.936464 l
274.873777 336.458136 l
280.211405 329.651288 l
285.545123 320.121018 l
290.800045 314.351426 l
296.005729 315.194893 l
301.232432 327.833083 l
303.262867 329.205587 l
305.28576 328.913868 l
307.308675 330.465824 l
309.327031 331.635699 l
311.343416 333.030986 l
313.3613 334.96518 l
315.365281 335.5798 l
317.370147 336.733546 l
319.360353 336.964783 l
321.360123 338.346149 l
315.993351 326.643446 l
310.785624 324.612897 l
305.631465 330.949703 l
300.446763 339.317384 l
295.220889 347.116767 l
290.203085 321.716605 l
285.05718 325.484141 l
279.723825 341.515619 l
274.891704 323.956875 l
269.658262 331.685078 l
267.641842 331.079425 l
265.64781 329.331762 l
263.622501 328.748772 l
261.6014 327.819238 l
259.574422 326.95301 l
257.534953 326.365164 l
255.522549 324.733928 l
253.473145 324.182731 l
251.459203 322.420628 l
249.414277 321.490041 l
cl
gsave
0.969 0.685 0.569 setrgbcolor
fill
grestore
stroke
grestore
gsave
446.4 157.1 72 231.7 clipbox
373.487558 313.718232 m
379.018339 317.545218 l
385.177441 331.759203 l
389.685314 316.456859 l
395.705073 326.425834 l
400.544949 317.542828 l
406.541414 325.655552 l
411.609888 320.324229 l
417.152413 321.343667 l
419.039737 321.888397 l
420.952609 322.808978 l
422.853852 323.635081 l
424.851588 325.668675 l
426.688307 325.810389 l
428.529871 326.075424 l
430.470492 327.54148 l
432.25296 327.242044 l
434.208258 328.950883 l
436.064604 329.587934 l
430.513687 328.222875 l
425.53658 333.438731 l
419.493331 325.558052 l
414.74754 333.779704 l
408.654033 324.01136 l
404.389036 339.551436 l
398.0396 324.636328 l
392.542362 321.556386 l
390.682682 321.222213 l
388.766178 320.01621 l
386.910839 319.918151 l
384.999701 318.93911 l
383.094048 318.124893 l
381.206906 317.727847 l
379.268046 316.450998 l
377.327621 315.201072 l
375.437933 315.018897 l
373.487558 313.718232 l
cl
gsave
0.961 0.763 0.668 setrgbcolor
fill
grestore
stroke
grestore
gsave
446.4 157.1 72 231.7 clipbox
301.232432 327.833083 m
306.514315 326.459102 l
311.828035 328.781309 l
317.047577 319.316441 l
322.168194 306.601171 l
327.415706 305.233058 l
332.825973 311.180653 l
337.921213 302.259075 l
343.803294 322.420017 l
348.396094 297.76405 l
353.900498 302.959557 l
355.854454 303.470696 l
357.819741 304.408458 l
359.820328 306.329363 l
361.775089 307.175486 l
363.736594 308.279072 l
365.690284 309.285257 l
367.628039 310.022403 l
369.580137 311.163617 l
371.53204 312.371533 l
373.487558 313.718232 l
367.962061 309.061927 l
363.701492 333.448491 l
357.563897 312.984202 l
352.61699 322.165074 l
347.156368 316.468725 l
341.926816 317.133683 l
337.014555 330.575303 l
331.919299 339.001278 l
326.588327 336.154985 l
321.360123 338.346149 l
319.360353 336.964783 l
317.370147 336.733546 l
315.365281 335.5798 l
313.3613 334.96518 l
311.343416 333.030986 l
309.327031 331.635699 l
307.308675 330.465824 l
305.28576 328.913868 l
303.262867 329.205587 l
301.232432 327.833083 l
cl
gsave
0.880 0.858 0.846 setrgbcolor
fill
grestore
stroke
grestore
gsave
446.4 157.1 72 231.7 clipbox
228.750543 311.758163 m
234.283541 303.098455 l
238.675542 320.327151 l
244.474175 304.799249 l
249.778627 300.60927 l
254.114958 326.468523 l
259.589606 318.981972 l
265.044053 310.778953 l
270.433936 303.593692 l
275.637804 304.983426 l
280.720509 316.908541 l
282.795211 317.527095 l
284.858095 318.734017 l
286.91871 319.801679 l
288.97401 321.029298 l
291.031811 321.382939 l
293.084515 321.585072 l
295.120826 324.230226 l
297.159505 326.175601 l
299.198995 326.448145 l
301.232432 327.833083 l
296.005729 315.194893 l
290.800045 314.351426 l
285.545123 320.121018 l
280.211405 329.651288 l
274.873777 336.458136 l
270.186569 310.936464 l
264.958343 315.229307 l
259.397706 330.812849 l
254.799183 312.949123 l
249.414277 321.490041 l
247.384044 320.040249 l
245.332514 319.080074 l
243.313725 317.179438 l
241.227985 316.887473 l
239.139837 316.507424 l
237.126055 314.283609 l
235.004733 314.437312 l
232.952087 312.94992 l
230.843982 312.563459 l
228.750543 311.758163 l
cl
gsave
0.749 0.828 0.963 setrgbcolor
fill
grestore
stroke
grestore
gsave
446.4 157.1 72 231.7 clipbox
155.464328 316.60687 m
159.86861 323.467401 l
164.719278 326.146903 l
170.434775 319.431781 l
175.71381 317.47788 l
182.434289 297.871365 l
186.425483 311.656162 l
190.774624 322.131961 l
195.641047 326.576215 l
202.52246 301.898408 l
207.497444 304.500536 l
209.535878 306.987808 l
211.731518 306.901458 l
213.917832 306.84303 l
216.034558 307.852453 l
218.202613 307.87875 l
220.347559 308.193169 l
222.492061 308.397839 l
224.572855 309.695655 l
226.707672 309.862153 l
228.750543 311.758163 l
223.836336 307.831816 l
217.423796 331.28514 l
212.549771 326.503332 l
208.127074 315.335427 l
202.413605 324.917989 l
197.446907 323.10917 l
192.250141 324.798532 l
186.73011 330.730633 l
181.73599 329.790307 l
177.204101 323.576057 l
175.139402 321.875481 l
173.02503 320.722459 l
170.861476 320.083311 l
168.657883 319.830013 l
166.33597 320.801459 l
164.166146 320.020585 l
162.04418 318.677777 l
159.833611 318.224682 l
157.507593 318.895041 l
155.464328 316.60687 l
cl
gsave
0.768 0.837 0.952 setrgbcolor
fill
grestore
stroke
grestore
gsave
446.4 157.1 72 231.7 clipbox
353.900498 302.959557 m
359.358804 305.642673 l
365.39717 320.881682 l
370.106443 305.156291 l
376.012135 314.976543 l
381.016576 306.618719 l
386.928894 314.656886 l
392.086362 309.272933 l
397.64083 310.30222 l
399.577677 310.952423 l
401.576629 312.583201 l
403.550843 313.890422 l
405.539049 315.438648 l
407.514385 316.842058 l
409.337716 316.21016 l
411.352088 318.246176 l
413.267411 318.991376 l
415.234269 320.462109 l
417.152413 321.343667 l
411.609888 320.324229 l
406.541414 325.655552 l
400.544949 317.542828 l
395.705073 326.425834 l
389.685314 316.456859 l
385.177441 331.759203 l
379.018339 317.545218 l
373.487558 313.718232 l
371.53204 312.371533 l
369.580137 311.163617 l
367.628039 310.022403 l
365.690284 309.285257 l
363.736594 308.279072 l
361.775089 307.175486 l
359.820328 306.329363 l
357.819741 304.408458 l
355.854454 303.470696 l
353.900498 302.959557 l
cl
gsave
0.763 0.835 0.956 setrgbcolor
fill
grestore
stroke
grestore
gsave
446.4 157.1 72 231.7 clipbox
280.720509 316.908541 m
286.035951 316.073481 l
291.339105 318.505901 l
296.712359 308.98765 l
302.030694 296.525044 l
307.319625 294.94238 l
312.670794 300.772563 l
317.901064 291.00949 l
323.536965 311.660563 l
328.493931 287.397777 l
333.95007 292.505233 l
335.936998 292.476519 l
337.968388 294.478809 l
339.955655 294.875115 l
341.954501 295.8878 l
343.965146 297.438159 l
345.940115 297.908418 l
347.906381 298.275638 l
349.908441 299.884487 l
351.932518 302.194172 l
353.900498 302.959557 l
348.396094 297.76405 l
343.803294 322.420017 l
337.921213 302.259075 l
332.825973 311.180653 l
327.415706 305.233058 l
322.168194 306.601171 l
317.047577 319.316441 l
311.828035 328.781309 l
306.514315 326.459102 l
301.232432 327.833083 l
299.198995 326.448145 l
297.159505 326.175601 l
295.120826 324.230226 l
293.084515 321.585072 l
291.031811 321.382939 l
288.97401 321.029298 l
286.91871 319.801679 l
284.858095 318.734017 l
282.795211 317.527095 l
280.720509 316.908541 l
cl
gsave
0.505 0.644 0.983 setrgbcolor
fill
grestore
stroke
grestore
gsave
446.4 157.1 72 231.7 clipbox
207.497444 304.500536 m
213.159789 296.303467 l
217.222537 315.417072 l
223.347745 298.769556 l
228.758884 294.368451 l
232.75718 320.126247 l
238.307156 314.251945 l
243.979827 304.56589 l
249.514287 297.247653 l
254.715332 299.211187 l
259.625713 312.509523 l
261.798563 311.596885 l
263.894059 313.33749 l
266.018054 313.790951 l
268.172697 312.613716 l
270.275274 313.404692 l
272.37505 314.085369 l
274.456896 315.463963 l
276.551896 315.863603 l
278.637496 316.485154 l
280.720509 316.908541 l
275.637804 304.983426 l
270.433936 303.593692 l
265.044053 310.778953 l
259.589606 318.981972 l
254.114958 326.468523 l
249.778627 300.60927 l
244.474175 304.799249 l
238.675542 320.327151 l
234.283541 303.098455 l
228.750543 311.758163 l
226.707672 309.862153 l
224.572855 309.695655 l
222.492061 308.397839 l
220.347559 308.193169 l
218.202613 307.87875 l
216.034558 307.852453 l
213.917832 306.84303 l
211.731518 306.901458 l
209.535878 306.987808 l
207.497444 304.500536 l
cl
gsave
0.598 0.727 1.000 setrgbcolor
fill
grestore
stroke
grestore
gsave
446.4 157.1 72 231.7 clipbox
133.151917 309.873659 m
137.605146 315.588111 l
142.680538 316.026248 l
148.315279 311.263832 l
153.638211 309.42278 l
162.428293 271.879996 l
164.621784 302.205635 l
168.957554 311.272768 l
173.493399 318.945782 l
180.885785 293.012815 l
185.698141 297.462323 l
187.81359 299.314679 l
189.909695 301.393759 l
192.071536 302.5751 l
194.259414 303.344711 l
196.377614 305.012333 l
198.5758 305.502753 l
200.859435 304.658286 l
203.058977 304.916005 l
205.27532 304.814356 l
207.497444 304.500536 l
202.52246 301.898408 l
195.641047 326.576215 l
190.774624 322.131961 l
186.425483 311.656162 l
182.434289 297.871365 l
175.71381 317.47788 l
170.434775 319.431781 l
164.719278 326.146903 l
159.86861 323.467401 l
155.464328 316.60687 l
153.230894 316.207857 l
150.938682 316.322743 l
148.643434 316.389365 l
146.260034 317.219907 l
143.92012 317.545376 l
141.776293 315.976268 l
139.586658 314.798194 l
137.486764 312.776554 l
135.241489 312.029445 l
133.151917 309.873659 l
cl
gsave
0.719 0.812 0.978 setrgbcolor
fill
grestore
stroke
grestore
gsave
446.4 157.1 72 231.7 clipbox
333.95007 292.505233 m
339.399026 295.290577 l
345.26087 310.625149 l
350.222744 295.381603 l
355.999011 304.497471 l
361.121786 295.691088 l
366.970131 304.133811 l
372.19376 298.108827 l
377.829394 300.482385 l
379.797714 300.884656 l
381.778998 301.624951 l
383.794399 303.053407 l
385.692506 302.503497 l
387.772552 305.167653 l
389.702402 305.340828 l
391.663997 306.127695 l
393.655813 307.465543 l
395.703838 309.724529 l
397.64083 310.30222 l
392.086362 309.272933 l
386.928894 314.656886 l
381.016576 306.618719 l
376.012135 314.976543 l
370.106443 305.156291 l
365.39717 320.881682 l
359.358804 305.642673 l
353.900498 302.959557 l
351.932518 302.194172 l
349.908441 299.884487 l
347.906381 298.275638 l
345.940115 297.908418 l
343.965146 297.438159 l
341.954501 295.8878 l
339.955655 294.875115 l
337.968388 294.478809 l
335.936998 292.476519 l
333.95007 292.505233 l
cl
gsave
0.374 0.497 0.909 setrgbcolor
fill
grestore
stroke
grestore
gsave
446.4 157.1 72 231.7 clipbox
259.625713 312.509523 m
265.020506 310.722146 l
270.326447 313.307802 l
275.898826 302.547295 l
281.411592 291.552572 l
286.774615 289.059509 l
292.093139 293.264822 l
297.493255 284.233279 l
302.87593 304.952123 l
308.220169 282.559378 l
313.645199 287.143288 l
315.694269 287.036813 l
317.733249 286.699414 l
319.771409 286.926773 l
321.810005 287.637025 l
323.850957 288.821344 l
325.873442 289.138447 l
327.871909 288.482083 l
329.922436 290.897901 l
331.916698 290.667871 l
333.95007 292.505233 l
328.493931 287.397777 l
323.536965 311.660563 l
317.901064 291.00949 l
312.670794 300.772563 l
307.319625 294.94238 l
302.030694 296.525044 l
296.712359 308.98765 l
291.339105 318.505901 l
286.035951 316.073481 l
280.720509 316.908541 l
278.637496 316.485154 l
276.551896 315.863603 l
274.456896 315.463963 l
272.37505 314.085369 l
270.275274 313.404692 l
268.172697 312.613716 l
266.018054 313.790951 l
263.894059 313.33749 l
261.798563 311.596885 l
259.625713 312.509523 l
cl
gsave
0.358 0.478 0.897 setrgbcolor
fill
grestore
stroke
grestore
gsave
446.4 157.1 72 231.7 clipbox
185.698141 297.462323 m
191.566594 288.600697 l
195.449963 306.567073 l
201.810001 290.547493 l
207.309543 286.231671 l
210.967368 311.658063 l
216.731481 304.092758 l
222.53181 295.140479 l
228.121628 289.383106 l
233.317028 291.490152 l
238.130546 303.172878 l
240.283655 304.54377 l
242.379285 307.256514 l
244.494768 309.467361 l
246.692065 309.448057 l
248.835456 310.724342 l
251.012577 310.902414 l
253.165881 311.593548 l
255.350463 311.107136 l
257.502758 311.40594 l
259.625713 312.509523 l
254.715332 299.211187 l
249.514287 297.247653 l
243.979827 304.56589 l
238.307156 314.251945 l
232.75718 320.126247 l
228.758884 294.368451 l
223.347745 298.769556 l
217.222537 315.417072 l
213.159789 296.303467 l
207.497444 304.500536 l
205.27532 304.814356 l
203.058977 304.916005 l
200.859435 304.658286 l
198.5758 305.502753 l
196.377614 305.012333 l
194.259414 303.344711 l
192.071536 302.5751 l
189.909695 301.393759 l
187.81359 299.314679 l
185.698141 297.462323 l
cl
gsave
0.630 0.753 0.999 setrgbcolor
fill
grestore
stroke
grestore
gsave
446.4 157.1 72 231.7 clipbox
313.645199 287.143288 m
319.099976 290.02698 l
324.80636 306.170834 l
329.960387 287.549224 l
335.683731 298.243762 l
341.010959 290.939751 l
346.767563 298.612586 l
352.118908 292.577395 l
357.67293 292.501809 l
359.788689 295.24732 l
361.772868 294.82283 l
363.732081 294.009248 l
365.798667 295.822123 l
367.764965 295.487965 l
369.741494 295.537677 l
371.730019 295.974624 l
373.695596 296.065281 l
375.781272 298.632111 l
377.829394 300.482385 l
372.19376 298.108827 l
366.970131 304.133811 l
361.121786 295.691088 l
355.999011 304.497471 l
350.222744 295.381603 l
345.26087 310.625149 l
339.399026 295.290577 l
333.95007 292.505233 l
331.916698 290.667871 l
329.922436 290.897901 l
327.871909 288.482083 l
325.873442 289.138447 l
323.850957 288.821344 l
321.810005 287.637025 l
319.771409 286.926773 l
317.733249 286.699414 l
315.694269 287.036813 l
313.645199 287.143288 l
cl
gsave
0.230 0.299 0.754 setrgbcolor
fill
grestore
stroke
grestore
gsave
446.4 157.1 72 231.7 clipbox
238.130546 303.172878 m
243.539316 302.370495 l
248.898952 303.232727 l
254.567528 295.183166 l
260.382914 280.439872 l
265.757792 279.772944 l
270.986853 286.619465 l
276.563291 277.197067 l
281.697492 296.679363 l
287.416876 272.491199 l
292.799944 277.296031 l
294.900202 279.348052 l
297.000793 280.783745 l
299.097906 282.35883 l
301.192148 284.751688 l
303.283678 285.561353 l
305.369779 286.232744 l
307.442823 285.124704 l
309.516297 285.918231 l
311.580369 286.095483 l
313.645199 287.143288 l
308.220169 282.559378 l
302.87593 304.952123 l
297.493255 284.233279 l
292.093139 293.264822 l
286.774615 289.059509 l
281.411592 291.552572 l
275.898826 302.547295 l
270.326447 313.307802 l
265.020506 310.722146 l
259.625713 312.509523 l
257.502758 311.40594 l
255.350463 311.107136 l
253.165881 311.593548 l
251.012577 310.902414 l
248.835456 310.724342 l
246.692065 309.448057 l
244.494768 309.467361 l
242.379285 307.256514 l
240.283655 304.54377 l
238.130546 303.172878 l
cl
gsave
0.394 0.522 0.925 setrgbcolor
fill
grestore
stroke
grestore
gsave
446.4 157.1 72 231.7 clipbox
292.799944 277.296031 m
298.239484 280.516891 l
303.739816 294.996428 l
309.20613 280.330824 l
314.810252 290.517171 l
320.245728 280.719789 l
325.933308 289.104183 l
331.42125 284.027201 l
337.043633 285.252162 l
339.14695 286.609627 l
341.257848 288.369707 l
343.347002 289.464538 l
345.499996 292.791984 l
347.586664 293.976763 l
349.606898 293.287308 l
351.60617 292.259496 l
353.644456 292.591553 l
355.677979 292.963745 l
357.67293 292.501809 l
352.118908 292.577395 l
346.767563 298.612586 l
341.010959 290.939751 l
335.683731 298.243762 l
329.960387 287.549224 l
324.80636 306.170834 l
319.099976 290.02698 l
313.645199 287.143288 l
311.580369 286.095483 l
309.516297 285.918231 l
307.442823 285.124704 l
305.369779 286.232744 l
303.283678 285.561353 l
301.192148 284.751688 l
299.097906 282.35883 l
297.000793 280.783745 l
294.900202 279.348052 l
292.799944 277.296031 l
cl
gsave
0.271 0.360 0.807 setrgbcolor
fill
grestore
stroke
grestore
/BitstreamVeraSans-Roman findfont
14.400 scalefont
setfont
gsave
246.903125 381.232727 translate
0.000000 rotate
0.000000 0.000000 m /E glyphshow
9.082642 0.000000 m /r glyphshow
14.992676 0.000000 m /i glyphshow
18.986511 0.000000 m /c glyphshow
26.889954 0.000000 m /h glyphshow
36.000671 0.000000 m /space glyphshow
40.570068 0.000000 m /r glyphshow
46.480103 0.000000 m /x glyphshow
54.987183 0.000000 m /zero glyphshow
64.132996 0.000000 m /comma glyphshow
68.702393 0.000000 m /space glyphshow
73.271790 0.000000 m /t glyphshow
78.908081 0.000000 m /x glyphshow
87.415161 0.000000 m /zero glyphshow
grestore
gsave
72 43.2 m
518.4 43.2 l
518.4 200.290909 l
72 200.290909 l
cl
1.000 setgray
fill
grestore
0 setlinejoin
0.950 setgray
gsave
131.177218 77.911555 m
258.939234 116.426686 l
256.812132 190.022781 l
121.926546 155.417727 l
gsave
fill
grestore
stroke
grestore
0.900 setgray
gsave
258.939234 116.426686 m
465.901687 94.894242 l
474.560748 170.709597 l
256.812132 190.022781 l
gsave
fill
grestore
stroke
grestore
0.925 setgray
gsave
131.177218 77.911555 m
348.929684 52.833515 l
465.901687 94.894242 l
258.939234 116.426686 l
gsave
fill
grestore
stroke
grestore
0.750 setlinewidth
1 setlinejoin
2 setlinecap
0.000 setgray
gsave
131.177218 77.911555 m
348.929684 52.833515 l
stroke
grestore
/BitstreamVeraSans-Roman findfont
12.000 scalefont
setfont
gsave
178.417999 47.068048 translate
353.430324 rotate
0.000000 0.000000 m /F glyphshow
6.902344 0.000000 m /r glyphshow
11.835938 0.000000 m /a glyphshow
19.189453 0.000000 m /m glyphshow
30.878906 0.000000 m /e glyphshow
38.261719 0.000000 m /space glyphshow
42.076172 0.000000 m /i glyphshow
45.410156 0.000000 m /n glyphshow
53.015625 0.000000 m /d glyphshow
60.632812 0.000000 m /e glyphshow
68.015625 0.000000 m /x glyphshow
grestore
1.000 setlinewidth
0 setlinecap
0.900 setgray
gsave
135.341407 77.431975 m
262.91012 116.013554 l
260.98105 189.653019 l
stroke
grestore
gsave
168.925005 73.564231 m
294.916126 112.683638 l
294.595943 186.671551 l
stroke
grestore
gsave
202.996171 69.640335 m
327.352943 109.308901 l
328.6864 183.647903 l
stroke
grestore
gsave
237.565599 65.659055 m
360.229327 105.88843 l
363.262586 180.581173 l
stroke
grestore
gsave
272.644301 61.619123 m
393.554274 102.421292 l
398.334956 177.470434 l
stroke
grestore
gsave
308.243613 57.519234 m
427.337028 98.906522 l
433.914269 174.314731 l
stroke
grestore
gsave
344.375213 53.358043 m
461.587089 95.343135 l
470.011596 171.113084 l
stroke
grestore
2 setlinecap
0.000 setgray
gsave
136.440324 77.764329 m
133.139482 76.76603 l
stroke
grestore
gsave
121.660658 59.499656 translate
0.000000 rotate
0.000000 0.000000 m /zero glyphshow
grestore
gsave
170.01089 73.901391 m
166.749164 72.888647 l
stroke
grestore
gsave
155.239871 55.560618 translate
0.000000 rotate
0.000000 0.000000 m /five glyphshow
grestore
gsave
204.068528 69.982406 m
200.847407 68.954901 l
stroke
grestore
gsave
185.487252 51.564280 translate
0.000000 rotate
0.000000 0.000000 m /one glyphshow
7.634766 0.000000 m /zero glyphshow
grestore
gsave
238.623915 66.006145 m
235.444941 64.963554 l
stroke
grestore
gsave
220.054163 47.509380 translate
0.000000 rotate
0.000000 0.000000 m /one glyphshow
7.634766 0.000000 m /five glyphshow
grestore
gsave
273.688045 61.971344 m
270.552814 60.913332 l
stroke
grestore
gsave
255.131347 43.394622 translate
0.000000 rotate
0.000000 0.000000 m /two glyphshow
7.634766 0.000000 m /zero glyphshow
grestore
gsave
309.272234 57.8767 m
306.1824 56.802923 l
stroke
grestore
gsave
290.730184 39.218671 translate
0.000000 rotate
0.000000 0.000000 m /two glyphshow
7.634766 0.000000 m /five glyphshow
grestore
gsave
345.388141 53.720872 m
342.345417 52.630974 l
stroke
grestore
gsave
326.862401 34.980152 translate
0.000000 rotate
0.000000 0.000000 m /three glyphshow
7.634766 0.000000 m /zero glyphshow
grestore
0.750 setlinewidth
gsave
465.901687 94.894242 m
348.929684 52.833515 l
stroke
grestore
gsave
399.850912 38.580011 translate
19.777542 rotate
0.000000 0.000000 m /S glyphshow
7.617188 0.000000 m /u glyphshow
15.222656 0.000000 m /b glyphshow
22.839844 0.000000 m /c glyphshow
29.437500 0.000000 m /a glyphshow
36.791016 0.000000 m /r glyphshow
41.724609 0.000000 m /r glyphshow
46.658203 0.000000 m /i glyphshow
49.992188 0.000000 m /e glyphshow
57.375000 0.000000 m /r glyphshow
62.308594 0.000000 m /space glyphshow
66.123047 0.000000 m /i glyphshow
69.457031 0.000000 m /n glyphshow
77.062500 0.000000 m /d glyphshow
84.679688 0.000000 m /e glyphshow
92.062500 0.000000 m /x glyphshow
grestore
1.000 setlinewidth
0 setlinecap
0.900 setgray
gsave
124.83963 156.165082 m
133.925947 78.740186 l
351.454544 53.741403 l
stroke
grestore
gsave
147.806962 162.057378 m
155.613677 85.278169 l
371.363131 60.900121 l
stroke
grestore
gsave
170.190782 167.799973 m
176.778102 91.658395 l
390.769477 67.878245 l
stroke
grestore
gsave
192.013047 173.398501 m
197.437937 97.886508 l
409.692352 74.682521 l
stroke
grestore
gsave
213.294627 178.858315 m
217.611014 103.967883 l
428.1496 81.319368 l
stroke
grestore
gsave
234.055372 184.184508 m
237.314336 109.907645 l
446.158198 87.794889 l
stroke
grestore
gsave
254.31417 189.381926 m
256.564121 115.710685 l
463.734308 94.114897 l
stroke
grestore
2 setlinecap
0.000 setgray
gsave
349.633738 53.950653 m
355.10024 53.322433 l
stroke
grestore
gsave
364.803122 36.856539 translate
0.000000 rotate
0.000000 0.000000 m /zero glyphshow
grestore
gsave
369.558238 61.104061 m
374.976914 60.491791 l
stroke
grestore
gsave
380.661352 44.110438 translate
0.000000 rotate
0.000000 0.000000 m /one glyphshow
7.634766 0.000000 m /zero glyphshow
grestore
gsave
388.980278 68.077072 m
394.351787 67.480154 l
stroke
grestore
gsave
399.843725 51.181439 translate
0.000000 rotate
0.000000 0.000000 m /two glyphshow
7.634766 0.000000 m /zero glyphshow
grestore
gsave
407.91863 74.876427 m
413.243626 74.29429 l
stroke
grestore
gsave
418.548458 58.076374 translate
0.000000 rotate
0.000000 0.000000 m /three glyphshow
7.634766 0.000000 m /zero glyphshow
grestore
gsave
426.39114 81.508533 m
431.67027 80.940635 l
stroke
grestore
gsave
436.793174 64.801736 translate
0.000000 rotate
0.000000 0.000000 m /four glyphshow
7.634766 0.000000 m /zero glyphshow
grestore
gsave
444.414786 87.979485 m
449.648694 87.42531 l
stroke
grestore
gsave
454.594636 71.363707 translate
0.000000 rotate
0.000000 0.000000 m /five glyphshow
7.634766 0.000000 m /zero glyphshow
grestore
gsave
462.005733 94.295087 m
467.195055 93.754143 l
stroke
grestore
gsave
471.968804 77.768168 translate
0.000000 rotate
0.000000 0.000000 m /six glyphshow
7.634766 0.000000 m /zero glyphshow
grestore
0.750 setlinewidth
gsave
465.901687 94.894242 m
474.560748 170.709597 l
stroke
grestore
gsave
522.833652 88.003941 translate
83.484339 rotate
0.000000 0.000000 m /M glyphshow
10.353516 0.000000 m /a glyphshow
17.707031 0.000000 m /g glyphshow
25.324219 0.000000 m /n glyphshow
32.929688 0.000000 m /i glyphshow
36.263672 0.000000 m /t glyphshow
40.968750 0.000000 m /u glyphshow
48.574219 0.000000 m /d glyphshow
56.191406 0.000000 m /e glyphshow
63.574219 0.000000 m /space glyphshow
67.388672 0.000000 m /bracketleft glyphshow
72.070312 0.000000 m /d glyphshow
79.687500 0.000000 m /B glyphshow
87.919922 0.000000 m /bracketright glyphshow
grestore
1.000 setlinewidth
0 setlinecap
0.900 setgray
gsave
466.066381 96.336239 m
258.89869 117.829467 l
131.001569 79.383223 l
stroke
grestore
gsave
466.950343 104.075865 m
258.681137 125.356623 l
130.058609 87.283752 l
stroke
grestore
gsave
467.843837 111.89895 m
258.461337 132.961543 l
129.105144 95.272296 l
stroke
grestore
gsave
468.747018 119.806851 m
258.239254 140.645437 l
128.140998 103.350332 l
stroke
grestore
gsave
469.660045 127.800954 m
258.014853 148.409543 l
127.16599 111.519375 l
stroke
grestore
gsave
470.583079 135.882678 m
257.788097 156.255123 l
126.179936 119.780969 l
stroke
grestore
gsave
471.516285 144.053471 m
257.558949 164.183467 l
125.182646 128.136698 l
stroke
grestore
gsave
472.459834 152.314813 m
257.327371 172.19589 l
124.173928 136.588179 l
stroke
grestore
gsave
473.413897 160.668218 m
257.093324 180.293738 l
123.153584 145.137067 l
stroke
grestore
gsave
474.378652 169.115233 m
256.856768 188.478383 l
122.121412 153.785057 l
stroke
grestore
2 setlinecap
0.000 setgray
gsave
464.337863 96.515569 m
469.527014 95.977205 l
stroke
grestore
gsave
486.959262 88.461634 translate
0.000000 rotate
0.000000 0.000000 m /nine glyphshow
grestore
gsave
465.212251 104.253462 m
470.430163 103.7203 l
stroke
grestore
gsave
484.152975 96.189158 translate
0.000000 rotate
0.000000 0.000000 m /one glyphshow
7.634766 0.000000 m /zero glyphshow
grestore
gsave
466.096064 112.074765 m
471.343059 111.54695 l
stroke
grestore
gsave
485.177907 103.999808 translate
0.000000 rotate
0.000000 0.000000 m /one glyphshow
7.634766 0.000000 m /one glyphshow
grestore
gsave
466.989456 119.980835 m
472.265859 119.458514 l
stroke
grestore
gsave
486.213924 111.894931 translate
0.000000 rotate
0.000000 0.000000 m /one glyphshow
7.634766 0.000000 m /two glyphshow
grestore
gsave
467.892583 127.973058 m
473.198725 127.456382 l
stroke
grestore
gsave
487.261207 119.875906 translate
0.000000 rotate
0.000000 0.000000 m /one glyphshow
7.634766 0.000000 m /three glyphshow
grestore
gsave
468.805606 136.052849 m
474.141823 135.541973 l
stroke
grestore
gsave
488.319941 127.944139 translate
0.000000 rotate
0.000000 0.000000 m /one glyphshow
7.634766 0.000000 m /four glyphshow
grestore
gsave
469.728688 144.221656 m
475.095323 143.71674 l
stroke
grestore
gsave
489.390313 136.101071 translate
0.000000 rotate
0.000000 0.000000 m /one glyphshow
7.634766 0.000000 m /five glyphshow
grestore
gsave
470.661995 152.480957 m
476.059397 151.982166 l
stroke
grestore
gsave
490.472518 144.348172 translate
0.000000 rotate
0.000000 0.000000 m /one glyphshow
7.634766 0.000000 m /six glyphshow
grestore
gsave
471.605699 160.832265 m
477.034222 160.339766 l
stroke
grestore
gsave
491.566752 152.686945 translate
0.000000 rotate
0.000000 0.000000 m /one glyphshow
7.634766 0.000000 m /seven glyphshow
grestore
gsave
472.559975 169.277126 m
478.01998 168.791093 l
stroke
grestore
gsave
492.673217 161.118928 translate
0.000000 rotate
0.000000 0.000000 m /one glyphshow
7.634766 0.000000 m /eight glyphshow
grestore
0 setlinecap
gsave
446.4 157.1 72 43.2 clipbox
238.905921 168.142813 m
245.65983 165.432057 l
252.709488 153.585197 l
259.025136 165.148346 l
266.63067 127.168504 l
272.360206 171.325925 l
279.686509 134.512 l
286.030327 165.01473 l
292.987469 138.933857 l
299.702136 143.701378 l
306.466888 143.346042 l
308.406108 142.756951 l
310.335189 141.771797 l
312.259062 141.258824 l
314.166157 139.673233 l
316.038701 135.646587 l
309.329126 132.751402 l
302.666582 126.32781 l
295.969189 153.155565 l
289.498878 124.469451 l
282.549242 156.866494 l
276.501206 120.147326 l
269.31507 153.302622 l
262.957355 143.738674 l
256.055432 155.858609 l
249.260318 162.482905 l
247.231841 162.952378 l
245.209284 163.059159 l
242.971805 168.584731 l
240.93102 168.633796 l
238.905921 168.142813 l
cl
gsave
0.489 0.628 0.977 setrgbcolor
fill
grestore
stroke
grestore
gsave
446.4 157.1 72 43.2 clipbox
218.365667 163.320302 m
225.278838 159.109556 l
232.789351 141.630481 l
238.854486 155.804468 l
247.05306 116.457505 l
252.187049 161.217544 l
259.988873 126.028435 l
265.99946 154.65341 l
273.315121 129.372476 l
279.982433 134.972673 l
286.770736 136.030415 l
288.745729 138.499456 l
290.738485 138.477411 l
292.724203 138.549339 l
294.701464 139.130808 l
296.667344 141.847608 l
298.63925 141.590005 l
300.603873 141.978482 l
302.563929 143.162256 l
304.515683 142.016953 l
306.466888 143.346042 l
299.702136 143.701378 l
292.987469 138.933857 l
286.030327 165.01473 l
279.686509 134.512 l
272.360206 171.325925 l
266.63067 127.168504 l
259.025136 165.148346 l
252.709488 153.585197 l
245.65983 165.432057 l
238.905921 168.142813 l
236.842054 168.444176 l
234.759297 169.010422 l
232.688094 169.143479 l
230.648657 168.446728 l
228.642907 166.950643 l
226.553681 167.096873 l
224.477695 166.843772 l
222.447182 165.60368 l
220.515919 162.447406 l
218.365667 163.320302 l
cl
gsave
0.706 0.016 0.150 setrgbcolor
fill
grestore
stroke
grestore
gsave
446.4 157.1 72 43.2 clipbox
306.466888 143.346042 m
313.251835 142.794414 l
320.252298 157.70117 l
326.77127 135.256201 l
334.135995 159.834045 l
341.114783 160.276589 l
347.778309 149.615102 l
354.985618 156.205738 l
361.023957 131.718498 l
369.187792 158.835811 l
375.808227 149.337787 l
377.744695 150.564512 l
379.478873 147.984268 l
381.261628 146.543341 l
382.850942 141.749203 l
384.408683 136.710037 l
377.989206 147.044406 l
369.813835 121.301089 l
364.138273 148.683033 l
356.838229 138.766211 l
350.346165 149.903093 l
343.388946 147.287404 l
336.00326 124.454376 l
329.728133 147.613519 l
322.702591 131.90007 l
316.038701 135.646587 l
314.166157 139.673233 l
312.259062 141.258824 l
310.335189 141.771797 l
308.406108 142.756951 l
306.466888 143.346042 l
cl
gsave
0.714 0.809 0.979 setrgbcolor
fill
grestore
stroke
grestore
gsave
446.4 157.1 72 43.2 clipbox
197.671232 152.949266 m
204.458768 151.948855 l
212.303937 133.611205 l
218.380248 144.590959 l
226.951855 109.10511 l
231.6707 150.132862 l
239.836688 118.431892 l
245.531982 145.848123 l
253.268088 119.37172 l
259.784839 128.523002 l
266.722846 124.433752 l
268.725547 126.396238 l
270.755065 126.999376 l
272.856341 123.622541 l
274.825561 126.72336 l
276.796969 129.805639 l
278.807933 130.402018 l
280.822593 130.371295 l
282.799392 132.846418 l
284.774687 135.472669 l
286.770736 136.030415 l
279.982433 134.972673 l
273.315121 129.372476 l
265.99946 154.65341 l
259.988873 126.028435 l
252.187049 161.217544 l
247.05306 116.457505 l
238.854486 155.804468 l
232.789351 141.630481 l
225.278838 159.109556 l
218.365667 163.320302 l
216.407154 160.622972 l
214.43828 158.119396 l
212.433953 156.220552 l
210.418938 154.474707 l
208.328968 153.909444 l
206.230372 153.397729 l
204.190169 151.900562 l
202.048331 151.899595 l
199.795854 153.432616 l
197.671232 152.949266 l
cl
gsave
0.714 0.809 0.979 setrgbcolor
fill
grestore
stroke
grestore
gsave
446.4 157.1 72 43.2 clipbox
286.770736 136.030415 m
293.620049 132.090889 l
300.445434 153.341265 l
307.30357 128.365984 l
314.366292 150.231546 l
321.348561 148.977253 l
328.212924 140.408953 l
335.424265 149.389958 l
341.725666 121.331235 l
349.642099 150.637542 l
356.267459 136.888296 l
358.210531 137.485159 l
360.212125 139.677929 l
362.171708 140.86138 l
364.217576 144.16441 l
366.228406 146.612273 l
368.055967 144.968799 l
369.992665 145.920311 l
372.174076 152.122473 l
373.954898 149.884648 l
375.808227 149.337787 l
369.187792 158.835811 l
361.023957 131.718498 l
354.985618 156.205738 l
347.778309 149.615102 l
341.114783 160.276589 l
334.135995 159.834045 l
326.77127 135.256201 l
320.252298 157.70117 l
313.251835 142.794414 l
306.466888 143.346042 l
304.515683 142.016953 l
302.563929 143.162256 l
300.603873 141.978482 l
298.63925 141.590005 l
296.667344 141.847608 l
294.701464 139.130808 l
292.724203 138.549339 l
290.738485 138.477411 l
288.745729 138.499456 l
286.770736 136.030415 l
cl
gsave
0.801 0.251 0.226 setrgbcolor
fill
grestore
stroke
grestore
gsave
446.4 157.1 72 43.2 clipbox
375.808227 149.337787 m
383.565862 161.834867 l
390.830832 163.576239 l
397.65614 157.775319 l
403.091457 132.20032 l
411.180874 145.616292 l
417.266494 131.510188 l
425.511096 144.623802 l
431.071687 125.545665 l
438.162666 124.61475 l
439.967377 124.989805 l
441.66986 124.345695 l
443.005634 119.98347 l
444.581823 118.243722 l
445.8649 113.643686 l
439.061682 116.558522 l
433.601797 134.522898 l
425.214128 119.585771 l
419.375738 134.482277 l
411.213909 119.935688 l
406.205887 147.951975 l
399.390252 152.020348 l
392.251044 150.960396 l
384.408683 136.710037 l
382.850942 141.749203 l
381.261628 146.543341 l
379.478873 147.984268 l
377.744695 150.564512 l
375.808227 149.337787 l
cl
gsave
0.651 0.768 0.996 setrgbcolor
fill
grestore
stroke
grestore
gsave
446.4 157.1 72 43.2 clipbox
176.330145 145.509428 m
183.083548 145.571563 l
191.057707 129.626982 l
196.826743 143.452598 l
206.213513 104.352848 l
210.252698 147.620566 l
219.019797 114.407844 l
224.434342 140.686757 l
232.376757 118.913487 l
239.049709 122.973599 l
246.026264 120.680156 l
248.052909 122.978734 l
250.141035 123.494356 l
252.323666 121.006693 l
254.34111 123.256428 l
256.385107 124.616185 l
258.481209 124.076929 l
260.533021 124.834667 l
262.546036 126.889906 l
264.648536 125.300611 l
266.722846 124.433752 l
259.784839 128.523002 l
253.268088 119.37172 l
245.531982 145.848123 l
239.836688 118.431892 l
231.6707 150.132862 l
226.951855 109.10511 l
218.380248 144.590959 l
212.303937 133.611205 l
204.458768 151.948855 l
197.671232 152.949266 l
195.56406 152.138824 l
193.26158 153.978116 l
191.207728 152.260652 l
189.027057 152.209418 l
186.91952 151.108282 l
184.799971 150.110935 l
182.718975 148.573286 l
180.52554 148.395163 l
178.532821 145.693571 l
176.330145 145.509428 l
cl
gsave
0.729 0.817 0.973 setrgbcolor
fill
grestore
stroke
grestore
gsave
446.4 157.1 72 43.2 clipbox
266.722846 124.433752 m
273.596331 123.141576 l
280.182051 143.220097 l
287.378808 121.29669 l
294.192536 142.404874 l
301.232432 142.245117 l
308.244752 130.872267 l
315.356653 138.495381 l
322.070561 111.260249 l
329.665196 142.410746 l
336.519719 128.913351 l
338.504168 129.303218 l
340.521912 131.155645 l
342.59352 134.997704 l
344.574115 135.603175 l
346.568252 136.813922 l
348.498021 136.109696 l
350.41158 135.168345 l
352.34713 135.12322 l
354.355584 137.297634 l
356.267459 136.888296 l
349.642099 150.637542 l
341.725666 121.331235 l
335.424265 149.389958 l
328.212924 140.408953 l
321.348561 148.977253 l
314.366292 150.231546 l
307.30357 128.365984 l
300.445434 153.341265 l
293.620049 132.090889 l
286.770736 136.030415 l
284.774687 135.472669 l
282.799392 132.846418 l
280.822593 130.371295 l
278.807933 130.402018 l
276.796969 129.805639 l
274.825561 126.72336 l
272.856341 123.622541 l
270.755065 126.999376 l
268.725547 126.396238 l
266.722846 124.433752 l
cl
gsave
0.749 0.828 0.963 setrgbcolor
fill
grestore
stroke
grestore
gsave
446.4 157.1 72 43.2 clipbox
356.267459 136.888296 m
364.017215 152.479191 l
371.1776 151.652205 l
378.271539 149.152312 l
384.245637 126.709357 l
391.911548 135.020872 l
398.127076 119.733412 l
406.467785 136.108864 l
412.193651 115.53368 l
419.337559 114.668063 l
421.404012 117.70786 l
423.394255 119.815449 l
425.441738 122.610581 l
427.41888 124.575901 l
429.238166 124.740443 l
431.071188 125.124364 l
432.919477 125.735534 l
434.636491 124.947738 l
436.240496 123.014926 l
438.162666 124.61475 l
431.071687 125.545665 l
425.511096 144.623802 l
417.266494 131.510188 l
411.180874 145.616292 l
403.091457 132.20032 l
397.65614 157.775319 l
390.830832 163.576239 l
383.565862 161.834867 l
375.808227 149.337787 l
373.954898 149.884648 l
372.174076 152.122473 l
369.992665 145.920311 l
368.055967 144.968799 l
366.228406 146.612273 l
364.217576 144.16441 l
362.171708 140.86138 l
360.212125 139.677929 l
358.210531 137.485159 l
356.267459 136.888296 l
cl
gsave
0.921 0.491 0.383 setrgbcolor
fill
grestore
stroke
grestore
gsave
446.4 157.1 72 43.2 clipbox
246.026264 120.680156 m
252.985829 119.060165 l
259.466359 134.845295 l
267.057261 110.807223 l
273.497733 137.561669 l
280.595099 137.419347 l
287.84803 123.097929 l
294.878468 135.013347 l
302.029927 106.618076 l
309.237795 134.453601 l
316.384242 127.197845 l
318.420921 126.88327 l
320.457144 127.133897 l
322.482524 127.064948 l
324.456093 124.162522 l
326.509199 126.758876 l
328.507819 126.398086 l
330.523902 127.306794 l
332.479257 125.556073 l
334.507108 127.524305 l
336.519719 128.913351 l
329.665196 142.410746 l
322.070561 111.260249 l
315.356653 138.495381 l
308.244752 130.872267 l
301.232432 142.245117 l
294.192536 142.404874 l
287.378808 121.29669 l
280.182051 143.220097 l
273.596331 123.141576 l
266.722846 124.433752 l
264.648536 125.300611 l
262.546036 126.889906 l
260.533021 124.834667 l
258.481209 124.076929 l
256.385107 124.616185 l
254.34111 123.256428 l
252.323666 121.006693 l
250.141035 123.494356 l
248.052909 122.978734 l
246.026264 120.680156 l
cl
gsave
0.592 0.723 0.999 setrgbcolor
fill
grestore
stroke
grestore
gsave
446.4 157.1 72 43.2 clipbox
153.540964 147.559712 m
160.773313 143.368487 l
169.198497 125.739703 l
174.978072 137.619627 l
184.770285 101.299702 l
188.181658 145.089522 l
197.395724 113.390743 l
202.572522 138.412746 l
211.260551 110.794676 l
217.557526 121.031241 l
224.481238 121.6513 l
226.679938 121.358638 l
228.795704 122.580049 l
231.066656 120.476952 l
233.197549 121.103524 l
235.285685 122.560824 l
237.364374 124.166241 l
239.5313 123.607492 l
241.71002 122.539311 l
243.871825 121.641155 l
246.026264 120.680156 l
239.049709 122.973599 l
232.376757 118.913487 l
224.434342 140.686757 l
219.019797 114.407844 l
210.252698 147.620566 l
206.213513 104.352848 l
196.826743 143.452598 l
191.057707 129.626982 l
183.083548 145.571563 l
176.330145 145.509428 l
174.421103 141.798772 l
171.851791 145.748751 l
169.550544 146.44072 l
167.177441 147.827851 l
165.118983 145.636973 l
162.772907 146.538967 l
160.398721 147.630159 l
158.177744 147.007495 l
155.866256 147.25638 l
153.540964 147.559712 l
cl
gsave
0.939 0.540 0.424 setrgbcolor
fill
grestore
stroke
grestore
gsave
446.4 157.1 72 43.2 clipbox
336.519719 128.913351 m
344.073145 143.297484 l
351.277884 142.319051 l
358.567168 143.05034 l
364.650995 115.170216 l
372.291581 124.609092 l
378.619623 107.106551 l
386.764721 123.325829 l
392.849647 103.916839 l
400.189212 105.3396 l
402.101721 105.984133 l
404.105916 107.992141 l
406.017973 108.737121 l
407.9178 109.375569 l
410.028133 112.90124 l
411.921862 113.534083 l
413.704101 112.780403 l
415.406854 111.115282 l
417.410111 113.357318 l
419.337559 114.668063 l
412.193651 115.53368 l
406.467785 136.108864 l
398.127076 119.733412 l
391.911548 135.020872 l
384.245637 126.709357 l
378.271539 149.152312 l
371.1776 151.652205 l
364.017215 152.479191 l
356.267459 136.888296 l
354.355584 137.297634 l
352.34713 135.12322 l
350.41158 135.168345 l
348.498021 136.109696 l
346.568252 136.813922 l
344.574115 135.603175 l
342.59352 134.997704 l
340.521912 131.155645 l
338.504168 129.303218 l
336.519719 128.913351 l
cl
gsave
0.484 0.622 0.975 setrgbcolor
fill
grestore
stroke
grestore
gsave
446.4 157.1 72 43.2 clipbox
133.045288 122.296013 m
139.955588 121.211056 l
148.220399 107.411303 l
153.821403 119.091875 l
164.698045 77.167354 l
167.173522 123.359976 l
177.304531 86.360343 l
181.51302 117.874935 l
190.482546 91.785568 l
196.946893 97.327534 l
203.994055 95.420799 l
205.665935 103.739551 l
207.733032 106.193392 l
209.825543 108.239694 l
211.803784 112.12698 l
213.880657 114.433983 l
216.044959 115.229521 l
218.200783 116.083034 l
220.309434 117.700048 l
222.544095 116.923175 l
224.481238 121.6513 l
217.557526 121.031241 l
211.260551 110.794676 l
202.572522 138.412746 l
197.395724 113.390743 l
188.181658 145.089522 l
184.770285 101.299702 l
174.978072 137.619627 l
169.198497 125.739703 l
160.773313 143.368487 l
153.540964 147.559712 l
151.21027 147.830852 l
149.190693 144.96512 l
146.948984 144.257053 l
144.952961 141.156334 l
142.635005 141.093373 l
140.669485 137.700873 l
138.711679 134.263309 l
136.710254 131.243917 l
134.882664 126.698951 l
133.045288 122.296013 l
cl
gsave
0.369 0.491 0.905 setrgbcolor
fill
grestore
stroke
grestore
gsave
446.4 157.1 72 43.2 clipbox
316.384242 127.197845 m
323.777206 138.98511 l
331.11323 140.745537 l
338.343738 136.433972 l
344.808739 107.030753 l
352.527425 121.033032 l
359.367377 108.807004 l
367.237647 121.57632 l
373.677501 102.568695 l
381.001184 102.570645 l
382.967957 103.228708 l
384.857371 102.631772 l
386.779615 102.730924 l
388.741311 103.589614 l
390.594845 102.764154 l
392.625649 104.893289 l
394.718487 108.003068 l
396.567274 107.366022 l
398.637042 110.156292 l
400.189212 105.3396 l
392.849647 103.916839 l
386.764721 123.325829 l
378.619623 107.106551 l
372.291581 124.609092 l
364.650995 115.170216 l
358.567168 143.05034 l
351.277884 142.319051 l
344.073145 143.297484 l
336.519719 128.913351 l
334.507108 127.524305 l
332.479257 125.556073 l
330.523902 127.306794 l
328.507819 126.398086 l
326.509199 126.758876 l
324.456093 124.162522 l
322.482524 127.064948 l
320.457144 127.133897 l
318.420921 126.88327 l
316.384242 127.197845 l
cl
gsave
0.425 0.559 0.946 setrgbcolor
fill
grestore
stroke
grestore
gsave
446.4 157.1 72 43.2 clipbox
224.481238 121.6513 m
231.805818 114.535767 l
237.782483 138.021663 l
245.798143 114.424748 l
252.07268 137.391747 l
259.306724 135.277356 l
266.72283 125.739554 l
273.721007 135.259264 l
281.407543 103.339668 l
288.270495 132.97447 l
295.610479 121.822883 l
297.713332 122.413376 l
299.813912 119.547178 l
301.901744 122.558176 l
303.982318 120.98961 l
306.063417 123.118548 l
308.130852 122.582566 l
310.214942 126.192646 l
312.239248 121.425538 l
314.327025 126.08738 l
316.384242 127.197845 l
309.237795 134.453601 l
302.029927 106.618076 l
294.878468 135.013347 l
287.84803 123.097929 l
280.595099 137.419347 l
273.497733 137.561669 l
267.057261 110.807223 l
259.466359 134.845295 l
252.985829 119.060165 l
246.026264 120.680156 l
243.871825 121.641155 l
241.71002 122.539311 l
239.5313 123.607492 l
237.364374 124.166241 l
235.285685 122.560824 l
233.197549 121.103524 l
231.066656 120.476952 l
228.795704 122.580049 l
226.679938 121.358638 l
224.481238 121.6513 l
cl
gsave
0.962 0.622 0.502 setrgbcolor
fill
grestore
stroke
grestore
gsave
446.4 157.1 72 43.2 clipbox
203.994055 95.420799 m
210.965486 94.874796 l
216.863922 113.29149 l
225.396471 85.848003 l
231.027864 113.802548 l
238.352905 109.513549 l
245.948957 97.799736 l
252.59488 111.994327 l
260.716479 80.181843 l
267.100113 110.332291 l
274.5437 100.876245 l
276.559552 108.694018 l
278.658923 112.117562 l
280.784241 113.866081 l
282.876928 118.024741 l
285.002478 119.632608 l
287.123475 121.419927 l
289.243316 123.06789 l
291.381442 121.589939 l
293.502254 121.179948 l
295.610479 121.822883 l
288.270495 132.97447 l
281.407543 103.339668 l
273.721007 135.259264 l
266.72283 125.739554 l
259.306724 135.277356 l
252.07268 137.391747 l
245.798143 114.424748 l
237.782483 138.021663 l
231.805818 114.535767 l
224.481238 121.6513 l
222.544095 116.923175 l
220.309434 117.700048 l
218.200783 116.083034 l
216.044959 115.229521 l
213.880657 114.433983 l
211.803784 112.12698 l
209.825543 108.239694 l
207.733032 106.193392 l
205.665935 103.739551 l
203.994055 95.420799 l
cl
gsave
0.436 0.571 0.952 setrgbcolor
fill
grestore
stroke
grestore
gsave
446.4 157.1 72 43.2 clipbox
295.610479 121.822883 m
302.898524 136.560604 l
310.254529 133.588776 l
317.626963 132.08346 l
324.705328 111.385032 l
332.112242 114.670531 l
339.2194 104.0973 l
346.960777 116.285787 l
353.74045 97.770959 l
361.153377 98.361221 l
363.247625 100.727659 l
365.113289 97.936337 l
367.284897 102.17851 l
369.376766 104.624018 l
371.25584 102.670704 l
373.124105 100.745797 l
375.159144 102.326983 l
377.030111 100.82374 l
379.006498 101.48556 l
381.001184 102.570645 l
373.677501 102.568695 l
367.237647 121.57632 l
359.367377 108.807004 l
352.527425 121.033032 l
344.808739 107.030753 l
338.343738 136.433972 l
331.11323 140.745537 l
323.777206 138.98511 l
316.384242 127.197845 l
314.327025 126.08738 l
312.239248 121.425538 l
310.214942 126.192646 l
308.130852 122.582566 l
306.063417 123.118548 l
303.982318 120.98961 l
301.901744 122.558176 l
299.813912 119.547178 l
297.713332 122.413376 l
295.610479 121.822883 l
cl
gsave
0.903 0.845 0.812 setrgbcolor
fill
grestore
stroke
grestore
gsave
446.4 157.1 72 43.2 clipbox
274.5437 100.876245 m
281.597505 115.617787 l
288.990641 111.154957 l
296.349375 112.555368 l
303.699721 83.246985 l
311.064569 95.359316 l
318.243518 78.977913 l
325.85009 95.718493 l
332.845475 75.814 l
340.197044 75.300557 l
342.380977 80.555002 l
344.462211 82.161578 l
346.721814 89.486893 l
348.865713 92.908556 l
350.974934 95.256023 l
353.081178 97.538842 l
355.092467 97.297896 l
357.098832 97.132927 l
359.131318 97.809627 l
361.153377 98.361221 l
353.74045 97.770959 l
346.960777 116.285787 l
339.2194 104.0973 l
332.112242 114.670531 l
324.705328 111.385032 l
317.626963 132.08346 l
310.254529 133.588776 l
302.898524 136.560604 l
295.610479 121.822883 l
293.502254 121.179948 l
291.381442 121.589939 l
289.243316 123.06789 l
287.123475 121.419927 l
285.002478 119.632608 l
282.876928 118.024741 l
280.784241 113.866081 l
278.658923 112.117562 l
276.559552 108.694018 l
274.5437 100.876245 l
cl
gsave
0.230 0.299 0.754 setrgbcolor
fill
grestore
stroke
grestore
/BitstreamVeraSans-Roman findfont
14.400 scalefont
setfont
gsave
235.817187 192.723636 translate
0.000000 rotate
0.000000 0.000000 m /M glyphshow
12.402649 0.000000 m /i glyphshow
16.396484 0.000000 m /r glyphshow
22.306519 0.000000 m /a glyphshow
31.115417 0.000000 m /n glyphshow
40.226135 0.000000 m /d glyphshow
49.350891 0.000000 m /a glyphshow
58.159790 0.000000 m /space glyphshow
62.729187 0.000000 m /r glyphshow
68.639221 0.000000 m /x glyphshow
77.146301 0.000000 m /zero glyphshow
86.292114 0.000000 m /comma glyphshow
90.861511 0.000000 m /space glyphshow
95.430908 0.000000 m /t glyphshow
101.067200 0.000000 m /x glyphshow
109.574280 0.000000 m /zero glyphshow
grestore

end
showpage
